-6.53523 1.15519 -7.32486 4.37161 6.43641 -3.02102 7.67289 5.79558 1.55305 6.77925 -0.393289 1.98967 11.2711 0.131554 0.130441 -0.253337 -0.24565 1.12552 0.975347 -0.892086 0.31624 0.0281624 0.846913 1.09274 -0.693199 -0.019159 
-6.36206 0.545559 -7.70936 1.00017 8.9198 3.74273 9.13651 8.27541 0.659214 10.3391 -0.839773 -1.79288 11.3411 -0.186352 -0.0172237 -0.331374 -0.158513 1.31685 0.958502 -1.55011 0.184098 -0.176249 1.17371 1.34004 0.407105 -0.0102314 
-5.96404 2.11221 -8.39929 4.82908 10.8223 -1.52616 2.48065 6.13686 2.14078 9.2339 5.29367 0.41495 11.1403 -0.0302639 -0.382625 -0.256806 -0.182401 1.11543 0.255754 -0.63668 -0.207833 -0.340359 0.694932 1.28416 0.467584 -0.0134341 
-7.75258 0.590561 -8.44451 3.35031 10.8277 1.02406 2.51844 6.54543 0.37794 11.4205 3.46343 4.81256 11.2854 -0.0342777 -0.570546 -0.204751 -0.077625 0.651904 -0.972705 -0.290259 0.258388 0.810738 -0.11862 0.933755 0.162184 0.00693941 
-5.99129 -0.780437 -8.24131 2.28454 11.0596 -0.382915 7.79853 5.6214 -0.00810534 9.71321 3.87592 1.02488 11.2318 0.0754732 -0.613008 0.24766 -0.282827 -0.272469 -0.613768 0.856605 -0.388717 -0.0753891 -0.969634 -0.805443 -0.920787 0.0215626 
-6.51982 -0.860849 -8.8121 1.88432 12.0607 -1.69242 5.02628 9.82508 5.78735 9.50633 4.53788 -1.28692 11.3301 0.105158 -0.0064384 0.0313851 -0.378667 -1.21883 -0.948214 0.76416 -0.279687 0.0471144 -2.29555 -0.597365 -1.6699 0.00164232 
-6.20305 -0.227128 -6.97719 4.14795 8.84349 -3.23676 5.50976 2.55345 -0.940867 5.34281 0.729225 -1.13925 11.2258 -0.391144 0.637188 0.448805 0.27372 -0.436345 -0.334336 -0.135053 -0.75833 -0.936712 -2.5838 -1.71257 -0.581843 0.0474117 
-7.1209 0.281714 -8.91964 0.525271 5.8416 -2.29008 7.48362 6.68097 1.07989 2.12794 2.04995 -2.4549 11.2966 0.240492 1.28573 0.642057 -0.908693 -1.67132 0.199741 -0.661005 -0.242529 -1.01379 -0.991909 -1.02619 1.09056 0.13379 
-7.64646 1.83422 -5.94352 4.33266 11.9874 -1.75576 5.89459 3.40181 -2.33794 0.483394 -3.44299 -1.30035 11.4856 2.08992 2.19494 1.30781 -2.16182 -2.63958 1.36305 -1.63444 1.06535 0.867119 -0.610311 -0.82823 1.51949 0.39482 
-4.59566 4.53712 -6.11865 -2.7515 2.13211 -1.43421 1.52884 8.18826 1.41695 6.97649 1.49303 4.24642 11.8691 4.48269 2.89403 2.63856 -3.20978 -5.36964 1.96519 -1.38646 0.0568652 1.202 -0.59259 -1.40029 0.786285 0.924073 
2.9839 8.61985 -1.83864 -5.02279 -2.49966 3.15054 0.314942 7.12656 3.2262 -0.133022 -3.13347 3.10755 12.9136 5.39947 1.55846 2.6019 -4.09561 -8.00179 2.28752 -0.22308 -0.460284 1.90413 -0.143009 -1.20243 -0.0255881 1.46212 
9.97737 11.359 2.22074 -10.8459 -13.7631 5.08271 3.34113 5.10292 4.30782 -0.526801 -5.10626 -0.727423 15.2029 3.84913 -1.06672 3.0872 -2.93873 -5.88086 2.35367 0.421483 -1.3848 1.25648 -0.747907 -1.68326 -0.587303 1.70454 
12.0644 6.21556 2.8963 -12.0982 -20.074 6.42336 3.87304 2.64306 5.73727 3.52 -6.15549 1.05863 17.1293 1.35052 -2.69484 1.86026 -2.07773 -3.19921 1.34664 0.30947 -0.615615 0.690136 0.242574 -0.561851 -0.105249 1.41515 
10.1098 0.405684 6.94988 -13.9074 -18.485 8.69772 1.8572 3.50602 6.44381 1.41045 -5.41226 2.33437 18.284 -0.170436 -2.46097 0.5035 -0.305135 -0.48855 1.15598 -0.509577 -0.213496 0.435949 -0.33049 0.288352 0.199481 0.773805 
9.67029 0.622305 5.09811 -13.8806 -16.1347 8.07623 2.60425 4.84693 5.60888 0.111223 -5.78972 1.05041 18.4489 -0.315041 -0.649163 -0.417907 0.541378 0.391825 0.924753 -0.790774 -0.365278 0.747592 -1.42218 0.807983 -0.363336 0.267029 
10.3222 1.85081 3.63734 -11.4803 -18.1755 10.0362 1.42764 2.9335 6.55176 -0.474863 -3.84738 0.27409 18.4122 0.106602 0.513664 -1.345 1.33536 0.0632 0.144108 -0.508858 -1.43885 1.19219 -1.08257 1.1568 -0.525742 0.0229277 
10.3829 2.24718 2.46303 -10.6048 -18.2696 10.3779 0.133953 1.10292 9.42126 -2.64826 -2.89801 0.27209 18.4004 -0.0378265 0.506827 -0.777046 1.40034 -0.0484478 -0.747185 -0.184014 -2.12857 1.10372 -0.641794 1.29443 0.125432 -0.0266756 
10.2865 2.16157 1.54242 -8.86854 -17.1016 8.26743 0.548064 -1.81624 10.4986 -2.62268 -1.07412 0.0948195 18.4229 -0.278731 0.551815 -0.0675576 1.30561 0.47303 -1.9032 -0.042524 -1.16328 -0.00512505 -0.249265 0.851012 0.229889 -0.12192 
9.49904 3.00106 2.26034 -8.18484 -16.9139 5.22469 2.12397 -3.42104 9.15409 -2.02384 -0.704211 1.76721 18.3102 -0.267598 0.296079 0.685619 1.66074 2.0604 -2.59165 -0.395545 0.437306 -1.7162 0.397861 0.86634 -0.359076 -0.344281 
9.37051 4.23295 3.40089 -6.16226 -16.4882 3.0968 0.220008 -0.620912 6.65972 -2.0334 -0.689226 0.675978 17.8477 -0.0776766 -0.716071 0.817911 1.68379 3.47909 -0.86674 -0.249601 1.40196 -2.84365 -0.407308 0.608975 -1.21642 -0.555332 
9.50291 2.69189 4.96189 -3.65431 -8.27434 0.00495434 -1.67974 2.69179 2.75971 -0.953597 1.24124 -1.81387 16.9666 -0.136015 -1.88247 0.687227 2.70465 4.7548 0.59193 -0.434471 1.20665 -2.59512 -0.883299 -0.245546 -2.44527 -0.592562 
9.89615 -1.2642 4.2812 -2.71483 -4.02591 6.54359 1.20191 2.13713 -0.522454 -5.19434 0.998028 -4.19674 16.318 -0.287947 -2.43438 0.901205 2.99618 4.32251 0.888187 -0.62516 0.483923 -1.52432 -1.29981 -0.906759 -2.64405 -0.4299 
8.55614 -3.66272 5.25633 3.61471 0.629006 6.46094 -0.539338 1.23321 -0.230409 -4.85986 -2.77557 -8.02276 16.1122 -0.428082 -1.80687 -0.0226604 1.53358 3.28443 -0.0011289 -0.473315 -0.192158 -0.196723 -0.575126 -1.5421 -1.72321 -0.150221 
8.40416 -4.76165 7.7597 5.18413 0.672672 4.30974 -3.47599 2.52799 0.53319 -6.5793 -3.21462 -9.43984 16.1254 0.0966883 -0.825319 -1.58988 -0.226991 1.06454 -1.6971 -0.678841 -0.324289 0.642251 0.25146 -0.932443 -0.030393 0.146519 
8.1085 -4.59374 3.10934 0.0640945 5.79851 1.11623 -1.70737 1.53557 1.24827 -3.13675 -4.36292 -7.80836 16.3118 0.95794 0.442324 -2.26041 -3.26082 -2.73323 -1.27924 0.246872 -0.103577 1.38861 -1.14301 -0.51719 1.47292 0.435432 
10.6034 -4.92529 -2.59468 -2.07448 -1.28795 0.730441 -1.60828 0.364506 1.94946 -4.7986 -2.87051 -4.45591 16.9508 1.25961 1.01691 -2.43531 -4.16168 -5.15393 0.893775 0.641341 -0.205182 2.75132 -2.17328 -0.961307 1.7203 0.694356 
12.2462 -1.36928 -0.868538 -9.0601 -12.0568 1.85438 -0.238836 1.79707 6.00452 -11.4652 -5.53357 -3.15012 17.8766 1.01833 0.928272 -1.4981 -3.62232 -5.77634 3.08647 0.485993 -0.140316 3.06478 -2.92543 -0.809988 1.01327 0.786346 
12.6334 -1.28935 -2.42793 -11.0622 -16.1693 8.40955 -1.00355 1.37133 11.9117 -13.2814 -7.43583 -3.16747 18.8147 0.197186 0.315616 -0.769526 -3.27576 -3.16924 3.78482 0.242787 -0.757369 2.02041 -2.13523 -0.641102 0.438114 0.636678 
12.1852 -1.77035 -4.46451 -13.5536 -15.6425 12.709 0.420238 0.330573 11.5911 -13.5225 -6.1302 -3.38623 19.3116 -0.436367 -0.400061 -0.887897 -1.29196 -0.336844 4.18114 -0.552435 -1.00705 0.485904 -0.111255 1.12715 1.18918 0.370739 
11.6199 -3.14668 -4.64432 -16.2065 -15.3413 14.2272 -0.723877 -2.68909 9.25821 -14.4461 -5.7777 -2.14728 19.4167 -0.8965 -0.680252 -0.42159 -0.910947 1.67917 2.58803 -0.724527 -1.64961 -1.89102 1.16937 2.12863 1.89914 0.171607 
10.5711 -2.44092 -4.19983 -12.9477 -14.155 19.8513 -3.14085 -1.20795 9.76077 -11.4392 -0.726875 2.28569 19.4293 -1.50388 -1.2231 -0.501493 -0.150175 3.38015 0.544214 -2.23787 -2.49803 -2.8884 2.36572 2.17298 1.10859 0.180126 
8.95789 -4.35533 -4.66823 -15.9199 -8.51717 17.7786 -2.84565 -6.10745 3.37172 -8.47624 0.505671 3.4923 19.6139 -2.05969 -0.789879 -0.415465 0.918905 4.6057 -1.65801 -2.71668 -2.17727 -2.59352 3.04423 1.80001 -0.954957 0.177687 
5.99677 -7.28154 -6.96003 -14.4478 -2.15388 13.6544 -9.70822 -10.4504 0.0923341 -4.67882 1.59301 -0.663053 20.1136 -1.94776 0.43474 0.0336998 2.01678 4.92589 -3.89997 -2.44693 -1.87113 -0.999198 3.00844 -0.413652 -3.21468 -0.173683 
3.60859 -4.67576 -5.34154 -10.8619 1.68657 9.03559 -11.0236 -8.9542 1.12485 -2.60517 2.06239 -5.4477 19.963 -3.17822 5.05906 0.255999 5.07993 4.13503 -4.67954 -1.03474 2.55612 -0.555323 2.69268 -2.30568 -2.59739 -0.321068 
3.50697 -0.107007 -3.69467 -5.39281 5.37252 4.72291 -11.2865 -9.14023 5.88821 0.667481 -3.5735 -9.3177 18.3863 -5.83085 7.58175 1.055 6.51038 5.54931 -4.05667 1.54003 5.18566 -1.4735 1.88112 -2.95497 -1.46723 -0.0546152 
-5.68832 17.3527 -5.02091 4.95227 8.39479 -1.15334 -7.23021 6.01808 -2.30283 2.31399 -8.43945 -5.16732 18.8722 -7.48584 6.68845 -0.509004 3.73861 5.4967 -2.06784 2.91722 5.78224 -2.47292 2.2254 -0.628362 0.301547 0.48434 
-18.509 19.613 -1.84536 10.1969 22.2386 -1.53448 -3.90478 7.99179 -5.56135 2.26721 -7.93091 -8.13937 20.3859 -6.82409 3.92648 -1.14054 1.23788 4.08952 -0.649384 3.2289 4.56434 -2.00709 2.06009 2.10333 2.07736 0.868023 
-22.8126 18.9065 -8.81122 0.0362673 20.7371 1.82507 -0.128361 11.391 -5.51496 7.72195 1.09929 -4.52912 21.3849 -4.33933 -0.115485 -0.566156 -1.62276 1.21217 0.508009 2.87814 0.549483 1.2092 1.73473 2.46606 1.24545 0.653842 
-22.0513 18.7485 -7.5022 3.25458 19.649 -0.0132109 1.30703 10.995 -2.54118 8.26395 2.17377 0.749995 21.4701 -1.90166 -1.39858 -0.0309739 -1.94894 -2.46497 -0.00316866 2.29705 -0.587419 1.99038 1.75993 0.927902 1.41608 0.123576 
-25.6138 17.2075 -5.02326 0.309639 15.7504 0.626073 4.55459 7.2639 2.23308 7.98927 -1.16147 -3.38475 21.5993 -0.703075 -2.36384 0.592761 0.851366 -1.7934 -1.27495 0.682325 -1.78639 0.832607 0.384904 -0.912118 0.401319 -0.0874447 
-26.6167 13.4696 -3.8942 0.315552 12.407 -0.950829 5.23899 7.11825 0.516534 10.9332 -2.16102 -1.63115 20.8966 -0.275061 -1.90384 0.142021 0.202021 -0.874495 -0.23803 -0.0273095 -2.66069 -0.759078 -0.459863 -0.542236 0.328202 -0.194523 
-24.0453 9.72679 -7.65142 5.76261 15.391 -4.08085 1.31729 4.39743 -2.88078 8.31184 -1.29391 -1.33196 21.2344 0.668642 -0.512042 0.597987 0.46468 -0.197588 -0.510382 -0.239934 -1.87015 -1.40454 -0.572168 0.559888 1.10387 -0.246838 
-24.2109 12.9696 -5.47802 1.5382 15.4562 1.1501 2.78914 -0.875232 -3.77965 5.80334 -0.471194 1.36461 20.6799 1.61009 0.925695 1.32132 0.757563 0.31445 -1.42699 0.274062 -0.587882 -0.899117 -1.95655 -1.1305 -0.276078 -0.26127 
-23.4735 14.8973 -1.24142 2.02171 13.2379 -2.9763 4.57985 1.90991 -2.64155 7.69336 0.793056 0.636709 20.4735 3.26629 0.533949 2.42629 0.768011 -2.11906 -3.55277 0.365567 -0.955224 -0.809534 -2.51261 -2.53617 -0.147806 -0.439347 
-18.8521 15.5128 -0.492578 5.97381 15.0558 -8.63804 4.97802 5.4226 -4.09866 1.45971 -8.85699 -3.99588 19.9707 4.90259 -2.42774 2.68272 1.47257 -4.24176 -4.34278 -0.540094 -1.70448 -0.629718 -2.57189 -3.3753 0.828861 -0.384691 
-10.3932 11.125 1.98733 7.38486 4.99596 -16.9506 2.05068 -3.5276 -6.76894 -2.07938 -9.78187 0.609256 19.3923 5.66403 -4.78209 3.321 0.984996 -5.61115 -2.63478 -1.48146 -3.47718 1.12588 -3.34902 -1.18161 1.93274 -0.183869 
-6.23812 2.7171 6.32121 6.21948 -1.63163 -13.5766 1.35325 -6.67885 -4.86454 -2.16973 -12.0602 5.52264 19.2971 4.95438 -5.65915 3.43285 -0.115828 -6.00337 -1.1422 -2.00687 -4.27436 2.44917 -2.89445 2.4427 2.8682 0.0740215 
-1.46039 -2.61533 11.9567 6.82386 -6.47412 -13.6809 -1.01508 -9.42524 3.3708 -7.23705 -3.51338 5.54116 19.891 3.26466 -4.42189 2.63344 -0.392988 -3.49098 -0.220589 -1.60915 -2.28708 2.78517 -1.41783 3.28538 1.76997 0.15183 
1.45336 -5.91281 11.687 5.67517 -9.22596 -15.9839 -3.52343 -13.0004 3.07733 -10.4337 0.222274 7.87916 20.0915 1.88439 -2.3954 0.686049 0.407382 -1.51243 -0.248865 -0.810859 -0.70564 1.69785 -0.23124 1.96017 0.165518 -0.0458145 
2.08436 -6.66954 12.4716 5.69207 -8.66179 -16.8499 -3.55675 -11.8022 3.18596 -5.03657 0.503792 8.28084 19.7542 0.601146 -1.06269 -1.97117 1.12302 1.27574 2.40173 0.172376 0.38523 -1.02419 1.77304 -1.38845 -0.694903 -0.46694 
1.41144 -7.23281 9.49398 8.82229 -8.09994 -13.2365 -1.43021 -9.01856 3.71713 -4.42617 -4.26799 4.98039 19.1364 1.33162 -1.63475 -3.10717 1.02426 0.997702 3.98849 -0.394586 -0.308492 -0.135664 2.85517 -1.55047 -1.7332 -0.333802 
1.5663 -7.26879 3.19736 10.8654 -0.658449 -3.04598 -1.19981 -9.49 -2.07006 -1.37559 -8.21047 3.51603 18.0338 2.38264 -2.38611 -3.60722 0.211629 -1.10442 5.47084 -2.26541 -0.871449 0.867008 2.03362 0.297058 -1.70999 0.0382624 
8.37051 -13.7869 0.788293 8.20981 -8.23912 -2.94345 -6.67483 -15.699 5.02703 2.01167 -3.17294 1.59557 19.2827 2.65447 -2.01997 -3.48241 -1.63845 -2.45191 4.62033 -2.74 -1.90475 1.51951 0.230743 2.67775 -0.781183 0.297148 
10.518 -15.323 -1.2116 7.05645 -14.1143 5.35777 -12.2615 -12.8193 6.86605 1.9126 1.44156 1.42328 19.8724 2.10886 -1.02954 -2.48425 -3.1985 -2.20299 2.3671 -0.331935 -1.6105 1.54634 -2.05902 4.42901 0.446818 0.329262 
10.2079 -13.3055 -5.7136 2.5345 -13.6316 5.66332 -9.59939 -16.8777 6.84663 -4.91655 4.29473 2.12085 19.7028 0.875693 1.00073 -1.68799 -3.17916 0.710769 1.51809 3.40265 0.300717 -1.1019 -2.40153 3.8892 1.24368 -0.0889748 
11.1919 -12.6572 -5.97294 -2.28943 -8.97717 4.48615 -1.39721 -16.9531 4.75183 -8.20656 10.2008 5.48748 19.4701 0.476578 1.63989 -0.963876 -2.76227 1.5295 -0.681425 5.70023 0.436895 -2.15585 -1.76354 2.14507 0.934498 -0.219405 
12.412 -10.1162 -5.27097 -3.01306 -7.25385 5.0828 4.90626 -12.1284 0.574643 -4.93642 11.8934 5.78185 19.039 0.183775 1.37268 -0.233621 -2.03381 0.666161 -1.36117 5.02165 0.765769 -2.73501 -0.34706 -0.327466 0.51514 -0.142577 
11.7988 -8.71822 -6.2523 -3.98114 -9.65567 2.24091 8.98684 -13.0094 -0.777217 -6.89517 8.36754 4.26527 19.1073 -0.235201 1.09688 -0.276064 -1.53534 -0.000895691 -1.20271 2.16272 0.405701 -2.12607 -0.0586144 -1.97988 0.109057 -0.0809155 
10.8233 -8.41165 -6.74203 -6.78871 -9.96152 -0.0199144 10.3169 -15.0207 -4.06392 -7.30754 3.57402 5.30766 19.1713 -0.530404 0.694776 -0.0676333 -1.52375 0.605581 -0.804574 -0.281685 0.0298304 -0.492389 -0.751395 -1.30874 0.765368 -0.0464521 
10.8102 -8.02508 -6.61774 -8.0783 -7.62781 1.02397 6.7111 -13.4785 -3.55922 -7.31407 4.46108 6.26986 18.9993 -0.407239 0.209028 0.318384 -1.11775 1.41951 0.138454 -2.03665 0.0644463 0.595212 -0.0980635 0.13675 1.42025 -0.0425985 
10.2543 -6.9889 -5.42642 -8.58325 -5.23987 1.66839 4.63571 -11.7447 -0.496298 -8.48394 7.30297 8.60639 18.8607 -0.196836 -0.335291 0.797138 -0.0702118 2.14871 0.183838 -2.49525 -0.468409 2.03351 1.607 1.69358 0.201392 0.00877743 
10.0471 -8.38445 -5.31818 -8.67264 -4.91893 2.08902 1.64418 -14.3252 0.415034 -6.79729 7.18681 9.71715 19.0496 -0.29606 -0.656655 1.40289 1.20893 1.41817 -1.03524 -1.99673 -0.282884 1.74494 3.68927 1.22062 -1.73474 0.0724215 
10.2207 -9.90842 -3.40612 -6.8426 -0.572424 0.366753 0.374079 -16.9394 4.1165 0.469084 10.6791 4.59097 19.1901 -0.56553 -0.85864 2.08213 2.83628 -0.418319 -2.39134 -1.72938 0.952588 -0.00742319 4.44646 0.29703 -3.22302 0.157337 
9.34674 -9.84859 -0.613427 -2.90395 -2.87068 -3.50143 -1.14174 -12.2956 2.85905 6.65578 8.87615 -0.396137 19.1967 -1.23704 -0.190092 3.33323 3.72383 -2.23628 -2.94287 -0.725134 2.6831 -1.63497 2.80242 -0.229552 -3.08796 0.24129 
7.77689 -10.55 2.63183 2.71382 -8.3556 -7.49306 -2.61822 -7.99658 -1.75542 7.0218 7.94345 -2.45204 19.5738 -1.67973 0.706613 4.32613 3.46571 -3.57246 -1.83946 0.107279 2.70786 -1.71302 -1.0531 -2.10335 -0.0938278 0.260754 
5.08385 -9.01411 8.32901 5.16832 -12.2087 -8.69544 -0.485339 -5.3811 -4.82386 3.93843 7.40686 -2.20112 20.0642 -1.57954 1.34538 4.41774 2.07792 -2.09177 0.00318508 -0.465215 1.631 0.0763163 -4.19065 -2.64065 2.48235 0.208253 
3.95346 -6.7926 13.7533 6.44983 -13.7657 -6.23352 0.582277 -6.85734 -0.607146 -3.43772 0.896965 5.02433 20.0601 -1.14047 1.80512 3.9179 0.576702 0.006073 1.68014 -1.1966 1.08756 1.22423 -4.86955 -2.4159 2.81072 0.0526932 
3.36073 -5.00041 15.9145 5.61765 -10.6244 -4.11527 -5.06806 -4.7102 2.6665 -9.06772 -0.803849 8.27744 19.9949 -0.473511 1.56282 2.43732 0.0328547 1.11673 2.30516 -2.16308 1.53256 0.703294 -3.77853 -0.658407 0.94228 -0.166038 
2.93608 -3.5313 18.4286 5.37267 -9.11738 -1.38243 -6.30988 -2.89425 0.620545 -10.8229 -0.0306939 6.3623 19.872 -0.200093 1.29243 1.41029 -0.0799937 1.10662 1.65989 -2.52001 2.47874 -1.20552 -1.00611 0.817425 -1.55879 -0.345929 
3.22499 -2.83068 18.178 5.87117 -8.94927 0.404797 -7.85468 0.300169 -1.92124 -11.2616 4.57865 1.84129 19.3281 -0.00615611 1.04455 1.13485 -0.0537629 0.732553 0.69842 -1.63907 1.82957 -2.03102 0.745803 0.980497 -1.85005 -0.469609 
3.02086 -1.4153 19.673 5.9231 -9.07019 -0.194126 -10.6244 3.03118 -4.34086 -7.37131 2.29284 0.448431 18.6639 0.028696 0.928686 0.987219 -0.517773 1.09334 -0.556734 -0.807814 1.36918 -2.46626 1.48473 0.458094 -0.92385 -0.547911 
3.28756 -0.835669 20.9665 5.07362 -6.98527 -1.21732 -11.1061 1.47496 -5.00792 -7.06448 2.93687 1.9841 18.2509 -0.0585708 0.934367 0.909922 -0.204018 1.05454 -0.619518 -0.135087 0.383701 -1.90908 1.23597 0.107037 -0.272193 -0.490133 
3.04827 0.114626 21.9704 3.18258 -4.63266 -3.35504 -8.72323 3.36425 -10.1674 -5.49778 3.08067 1.67165 17.671 -0.0457416 0.721512 0.819535 0.239537 0.966373 -0.960784 0.775679 -0.353539 -1.55648 0.270777 0.771271 -0.147579 -0.453213 
2.91843 1.0762 21.5789 6.22134 -5.89535 -1.11234 -9.48071 2.05213 -8.55334 -6.01854 4.71993 -0.131284 17.3738 0.227233 0.552122 0.0597908 0.66614 0.53835 -0.771426 1.29071 -0.304483 -1.6552 0.43604 0.411485 -0.945959 -0.527039 
2.97672 1.23633 23.4645 6.54692 -4.78329 -5.05054 -7.55874 0.974897 -10.3505 -6.54039 5.25767 0.768229 16.8363 0.384451 0.747067 -0.67637 0.565114 0.165761 -0.922382 1.71995 -0.498626 -0.41768 0.235888 -0.425603 -0.576995 -0.612309 
4.4595 1.36409 20.5184 6.72215 -4.21821 -4.2267 -5.23481 1.14723 -13.1924 -4.36297 3.9058 -2.29399 16.033 -0.0415632 1.10335 -1.37737 0.0350663 0.991541 -1.1368 1.27393 -0.251577 -0.378155 -0.0846468 -0.835787 -0.21665 -0.720358 
4.19999 3.70602 19.1188 5.75774 -4.64243 -6.40977 -2.24645 1.32358 -9.93631 -5.14613 1.35972 -0.131981 15.2799 -0.528785 1.07012 -2.46499 -0.239547 1.977 0.614702 0.112351 0.197771 0.364366 0.709868 -0.453699 -0.653708 -0.718408 
2.09898 5.35812 16.8649 6.79126 -1.00807 -6.1167 -5.76723 0.619911 -10.6512 -7.13891 2.48996 -0.764427 14.5503 -0.490557 0.643721 -2.43113 0.780552 1.77049 -0.0959985 0.47412 -0.662332 0.2033 0.91632 0.382417 -0.353119 -0.565506 
1.51305 4.58993 12.9663 5.31463 3.49667 -1.03203 -6.73078 2.22741 -9.79928 -1.60308 3.69709 -3.26509 13.9857 -0.862326 -0.0198732 -4.34242 0.798627 1.9104 -0.657741 0.510864 -1.12927 -1.0339 0.974071 -0.693833 -0.29901 -0.686677 
3.35018 4.14073 11.439 10.8465 0.564678 -7.39556 -0.622051 -2.61635 -12.2444 -1.55289 4.6492 -2.49303 13.8526 -1.7084 -0.94033 -6.04177 -0.295812 1.85553 -0.614578 1.40599 -0.434726 1.92549 2.50845 -1.82795 0.00116258 -0.771098 
-0.737241 4.21535 0.119659 7.72328 4.1232 -9.05904 -2.26472 -2.70464 -14.3092 -3.06878 -3.18906 -0.762728 12.1953 -2.48122 -1.21518 -4.3075 -2.6065 1.19832 0.125103 -0.411865 0.392005 2.5895 1.04221 -1.36208 -0.101019 -0.47108 
-5.31789 0.843768 -6.92057 4.10788 7.95631 -5.17609 -0.970287 0.912307 1.23117 6.13618 -3.20673 -2.0098 11.5899 -2.48555 -1.28209 -3.46783 -3.69166 3.40724 1.19451 -1.72006 2.38277 1.38113 -0.397682 -0.544543 -0.962929 -0.164771 
-6.55899 0.16254 0.608624 -4.34858 5.79245 -1.51625 -8.61599 2.42311 -3.58956 -0.23656 0.81465 -4.0118 12.7616 -1.17692 -0.628094 -1.05449 -1.69766 2.66831 1.66323 -0.138074 1.65 0.0130148 -0.236842 1.01712 -0.0345385 0.0442338 
-6.16667 -0.243306 -6.14464 -1.5759 16.7663 -5.1944 -6.04672 6.73364 -10.6986 -4.95742 -0.0753747 -5.68313 12.7456 0.0398085 0.247158 -0.38969 0.503498 0.669453 0.0310302 1.05537 0.576731 -2.17446 -0.635035 0.332778 0.0236454 -0.112094 
-6.19745 1.61841 -5.54077 2.07689 13.0598 -0.733744 -0.416874 2.63469 -8.27929 1.29381 0.33087 0.901248 11.8386 0.483343 -2.10942 -3.14624 2.3281 3.21612 -0.49635 0.817893 0.324433 -0.632475 2.64192 -0.189922 -0.0151404 0.142216 
-5.29962 1.35162 -5.79432 3.41263 7.66991 -5.41219 0.207023 3.69017 -7.29625 2.19582 -1.30095 -4.3481 11.4909 0.565466 -2.83612 -2.79505 1.82233 3.36395 0.420253 -0.419013 0.210415 2.09316 4.69346 0.280295 -0.639778 0.326794 
-4.5758 -11.182 -15.2977 4.79766 26.4212 -3.88911 -7.6534 5.56701 -8.4531 9.39643 0.477829 -4.75502 14.1 0.312352 -1.02159 -1.35057 0.0368387 0.995105 0.468855 0.412856 1.70661 3.19067 2.18621 0.280871 -0.201963 0.071985 
-4.15017 -8.02368 -15.2414 6.17536 26.9053 -1.51546 -4.52352 6.31956 -0.145856 14.4586 1.25262 -6.05389 13.2489 -0.27464 0.884592 0.309245 -0.53468 -1.69099 0.747349 2.1999 0.607616 2.94894 0.386977 -0.27035 1.74366 -0.281794 
-5.21042 1.1981 -7.57005 0.879719 8.4176 -0.337837 4.01268 9.85305 4.09886 6.0935 0.458442 0.744329 11.3196 -0.90465 3.02905 1.9753 -1.0216 -5.03949 1.06769 4.77029 -0.0423319 1.51112 -1.62213 0.0643738 2.50205 -0.695271 
-6.35551 -0.415477 -8.11193 2.6982 8.21679 -3.45108 5.37348 4.58523 1.17245 5.78217 -2.64301 1.62053 11.4722 -1.0278 1.5066 1.27116 -1.34026 -3.8988 0.92449 2.79414 -0.525172 0.0223084 -0.827171 -0.0387609 1.08138 -0.365758 
-7.99637 0.159113 -8.98597 1.42825 10.568 2.41715 11.2495 6.22252 -1.55663 5.62397 2.74751 3.918 11.512 -0.211544 0.226677 0.310094 -0.425498 -0.183789 0.700857 1.85903 -0.0229082 -0.451953 1.41333 0.24761 -0.518461 0.0260169 
-7.89619 0.0288148 -8.17764 -0.800219 6.33605 1.7295 5.82873 5.50897 2.79343 10.5575 -0.0857194 -2.23381 11.3239 0.333658 0.568992 0.79609 0.256583 -0.4026 1.05866 0.692585 1.65747 0.848424 0.421645 0.110224 -0.960618 0.0745345 
-5.4978 2.10934 -5.98673 0.501438 8.43903 0.576156 13.0802 9.27664 1.0286 10.7725 0.417845 0.0791903 11.5238 0.541353 -0.0738564 0.347605 0.902393 -0.716349 -0.431883 -1.01264 0.801119 0.238808 -1.04373 -0.767938 0.00828042 0.0233577 
-5.93651 1.45437 -5.6311 4.44452 7.26829 2.76273 7.92108 11.3455 4.12195 5.31613 -0.927057 -1.26315 11.8389 -0.0135031 -0.543285 -0.362586 0.697215 0.29652 0.0697079 -0.340406 0.419941 -0.733002 -0.772788 0.266165 1.13184 0.0212565 
-6.26945 -0.922945 -8.52121 3.31784 6.52017 -0.258877 5.14015 7.30983 -1.02686 3.02601 -0.67151 3.47408 11.3713 -0.508316 -0.516369 -0.577453 -0.000967646 0.319438 -0.99034 -2.19726 -0.360499 0.352672 -0.323587 -1.18703 -0.721125 -0.0551428 
-7.57788 -1.17147 -8.72333 1.27765 8.77809 2.49556 8.09673 8.59208 0.156147 10.5668 1.78978 1.72793 11.5064 -0.252282 0.193126 -0.937253 -0.490192 0.861022 -0.25464 -0.383778 -0.234542 0.100892 1.23816 -0.525584 -1.46606 -0.0789097 
-7.21869 0.840413 -7.32788 2.08003 9.28132 -4.24196 2.00609 8.85088 4.77486 6.52925 -6.87573 -5.02198 11.4143 0.0329689 0.503315 -0.488392 -0.0999734 0.856154 0.555767 0.496789 0.951872 0.905181 1.26794 -0.634609 -1.84657 -0.000164032 
-6.72329 1.53832 -10.914 2.61247 10.1928 3.48106 7.56922 9.40231 1.72555 9.75531 -0.452867 -4.3454 11.4229 0.360688 0.139414 -0.271241 -0.707164 -0.908713 -0.68585 -0.870436 -0.0158672 -0.847559 -0.853472 -0.00788948 -0.0028165 0.00329628 
-6.5319 0.238736 -9.86782 2.15057 10.0936 2.02721 7.88785 11.6641 2.71435 9.77142 -2.72323 -2.72209 11.4123 -0.0554346 -0.192739 -0.043844 -1.03005 -0.392559 0.348687 -0.208114 -1.72372 -2.04498 1.04886 1.80826 0.431837 0.0209237 
-6.11784 -0.173557 -8.80956 -2.29344 3.8284 -4.06828 0.803668 7.10614 -3.05139 4.67834 -0.325917 0.563908 11.524 -0.34173 -0.11174 0.589789 -0.922735 0.102301 -0.516089 -0.99814 -2.63277 -1.53502 1.3654 0.993528 -0.453946 0.0147231 
-7.79859 0.732659 -8.59933 -0.617284 10.5007 1.27615 4.3483 1.38034 -3.06158 14.312 2.10211 -5.31745 11.4684 -0.421415 0.189406 0.274719 -0.385955 0.748669 0.384231 -0.353448 -2.62933 -1.15621 1.87149 1.20787 -1.10721 0.00567055 
