-6.55501 -3.89172 -8.71963 0.871383 11.4304 0.514777 6.61753 6.66129 6.78741 6.8956 2.11866 4.44972 12.0728 0.856435 0.651487 -0.656128 0.138015 -0.349097 -1.41588 0.661939 0.418426 -0.339534 -1.7313 -2.24016 -0.839597 -0.14203 
-3.92303 -3.73904 -11.0593 -2.69584 10.4806 -0.872214 11.178 10.2927 6.14434 0.982477 -5.6981 1.80752 11.587 0.824701 0.706993 -0.40129 0.562207 -0.237857 -0.41834 0.78648 1.26394 1.04469 -0.807945 -2.93918 -1.70942 -0.148934 
-3.58883 -0.710621 -10.8304 3.34507 10.1599 -5.87113 7.64701 6.93773 5.41128 1.19566 -5.17378 1.57284 11.6056 0.3097 0.361588 -0.112324 0.146435 -0.364376 -0.0834582 0.286583 1.63211 1.40754 1.33772 -0.771904 -0.275144 -0.140014 
-3.9146 -1.9473 -9.67067 2.44557 10.8764 1.61603 10.0352 12.8428 12.6989 5.70584 -8.93101 -2.65893 11.5618 0.320714 -0.304061 0.245462 0.0483882 -0.492287 0.531693 -1.06933 -1.29639 0.174582 1.46795 1.08535 1.32346 -0.0508805 
-5.01073 -2.97965 -9.97556 -0.96715 9.41062 -1.14664 8.62183 13.5468 10.5478 11.2225 -0.1244 5.30723 11.3854 0.263973 -0.267508 0.447813 -0.898304 -0.809268 0.148609 -0.087363 -0.986079 -1.19808 0.411441 1.51279 2.42166 -0.025909 
-1.60851 -4.12483 -10.2594 -0.297791 8.39376 -0.575994 5.3439 0.506207 4.44897 3.30878 -2.79604 6.55764 11.4427 0.403715 0.0978251 -0.226129 -0.216518 -0.719701 -0.601298 -0.0159532 -2.0641 -1.60781 -1.38626 0.818819 1.48969 -0.0281627 
-3.42202 -0.959395 -8.29699 0.225231 7.35489 -4.03207 9.55584 8.17561 3.54586 4.4514 -0.67733 9.07284 11.5356 0.218736 0.955573 0.152226 -0.247043 -0.4936 -0.449311 -0.783983 -1.32751 0.296802 -0.183762 -0.595342 -1.11981 0.0227199 
-2.69038 -2.4683 -11.6406 0.766793 8.30579 0.0522599 9.48842 5.20784 8.16085 2.1601 -4.56045 2.90672 11.3458 0.445297 2.21595 1.43448 0.32757 1.3666 0.283576 -0.674356 0.421455 -0.138101 0.228754 -0.533538 -2.14276 0.0984848 
-3.37611 0.969952 -8.52384 -2.73466 6.98661 -3.70732 2.62966 4.55841 10.1759 10.878 -2.21891 1.53364 11.5474 1.95558 2.86142 4.7834 0.979482 0.39015 0.780028 -2.52729 -2.05252 -2.93912 -1.56362 -0.50543 -2.39227 0.496984 
0.595028 5.99025 -2.97358 2.82 15.4109 0.679511 5.43521 4.42208 0.443446 1.23923 -4.69295 -0.386563 11.9292 2.46193 2.62474 7.75956 0.571804 -1.45952 0.465905 -3.69108 -0.879384 -5.60025 -2.42784 0.35463 -1.426 1.02959 
4.71319 9.11841 11.2865 4.09604 5.75308 -0.445557 -1.05399 -1.69412 -7.29101 -2.90626 -3.13823 -1.24185 13.7289 1.82654 1.3895 6.76309 0.435998 -2.78513 1.49956 -2.00537 -0.887326 -5.15705 -3.48662 0.205297 -1.64392 1.263 
5.57463 6.58117 17.252 0.210465 1.62495 0.750903 -7.12518 3.93718 -11.1069 -3.08695 -2.32764 -2.83555 15.4031 0.116569 -0.042305 3.99544 -0.926863 -3.53294 -0.0339687 -0.59327 -0.996823 -1.44665 -1.33199 0.309993 -0.735063 1.24927 
3.26676 7.62197 15.1788 0.750099 -0.0460453 3.75477 -1.11697 0.364236 -9.83416 -4.39197 -2.37508 -5.46147 16.1255 -1.38891 -0.473704 -0.0965733 -0.970772 -0.823766 -0.965619 1.54073 -0.245319 1.38123 -0.231481 -0.298284 -0.661396 0.973043 
1.90109 6.52695 15.0575 -0.14134 0.645776 -1.5905 2.50036 -1.59121 -5.51824 -4.67789 -3.52456 -1.95206 16.9773 -1.77737 -0.036151 -0.953854 0.0938214 0.0726014 -1.17568 0.981634 -1.1263 2.01774 0.891286 0.217094 -0.186581 0.740875 
-0.3946 6.777 11.9009 -0.581919 2.12384 -4.10295 1.83688 -0.156517 -3.1792 -3.26819 -4.03119 -4.99057 17.807 -1.5471 0.303146 -0.0337589 0.117821 -0.655641 -1.17638 -0.593198 0.707261 1.25698 1.18599 0.310244 0.883163 0.635245 
-1.48153 6.8229 14.1217 1.34558 0.903014 -1.19861 -3.69394 -1.43395 -4.3457 0.80759 -0.414109 -4.00391 18.2667 -1.3249 1.05426 -0.245373 -0.031884 -0.957521 0.717012 -1.01734 1.22431 0.340919 0.46941 0.412055 0.265374 0.404917 
-2.77741 8.98973 15.4779 0.595745 -3.45287 -2.32305 -0.985813 3.82191 -4.13551 -1.20477 -2.37908 -0.0197401 18.657 -0.903497 1.46068 -0.662698 -0.260143 0.827262 1.02564 0.285008 0.452293 0.250475 -0.308778 -0.507163 1.01823 0.0495171 
-3.53199 10.6919 12.0421 -0.889592 -1.35347 1.10462 -1.17499 2.54115 -3.33549 -3.36255 -2.29034 -3.11061 18.5768 -1.20735 2.27144 -1.61307 0.0395323 3.34201 -0.0620358 2.0877 -0.400712 0.252042 -0.327057 -0.862618 0.175538 -0.284505 
-3.88686 12.1459 9.62723 -0.765048 7.38839 -0.126392 2.00245 0.117399 -2.43193 -2.72702 -5.62889 -0.346048 17.8995 -1.17242 2.31891 -4.20574 1.41997 6.15715 -0.948117 2.06764 -0.870615 1.39216 0.263601 -1.02039 -1.47023 -0.529569 
-6.96357 16.602 8.98166 2.22364 12.1925 -2.60712 5.25042 -1.58525 -3.93727 -0.0665727 -3.10229 -2.96306 17.223 -0.858276 0.50783 -5.55214 1.67092 4.75766 -0.727161 2.37684 0.541052 1.54725 1.15127 -1.61673 -0.8354 -0.882022 
-6.92369 17.6292 -4.02058 6.13898 20.5599 -5.20777 6.13968 1.53203 3.12619 -1.53475 -7.07504 -7.44465 16.6861 -0.704392 -1.89997 -5.54419 0.528081 0.977501 0.186371 1.47047 2.15839 0.936163 1.79003 -0.279748 0.518372 -1.1044 
-6.30495 10.4894 -8.89468 4.01299 15.8491 0.00949991 8.64059 4.53909 1.62171 1.79767 -9.6509 -3.73831 14.7734 -0.83714 -3.90654 -4.7945 -1.0808 -0.743425 0.51406 -0.791203 2.54224 0.428291 0.638281 1.44697 1.38676 -0.773816 
-7.73813 5.70237 -9.15554 0.980681 10.4476 -0.502847 7.65969 7.84718 -0.530612 5.29099 -3.75332 2.63343 13.6022 -1.71935 -3.26553 -2.58466 -2.41822 -1.99617 0.413998 -1.55779 1.96791 -0.0606382 0.314716 2.79099 2.10619 -0.0700529 
-10.7421 3.03272 -12.4233 -0.60121 13.5315 -2.38928 0.534391 7.96838 0.0325847 -0.288043 2.4717 -1.06831 14.8958 -2.04719 -0.375267 -1.89684 -1.91099 -0.725504 -0.728926 -1.60269 0.345601 1.57872 0.274154 2.9623 0.920085 0.758894 
-13.3019 5.0299 -15.1796 -3.645 11.7379 -1.93838 2.40381 9.65691 3.61756 1.08168 0.818618 1.7513 16.2746 -1.06256 1.02348 -0.195676 -1.52487 -0.222548 -1.95843 -1.06373 -1.45133 0.677956 -0.0391321 -0.0377481 -0.143688 0.997404 
-13.759 8.94928 -15.3669 -3.22912 11.5764 -2.91736 3.25508 5.36222 7.44123 5.2731 2.87465 1.30319 17.2317 0.477493 2.30946 3.44992 -0.409106 -0.385173 -1.35169 -1.02729 -2.38715 -1.64822 -0.658114 -2.73174 -1.21733 0.627562 
-11.5424 7.86149 -8.66214 -5.3297 10.3124 -10.031 0.980716 1.89362 -0.845157 2.31476 -4.14354 0.729241 17.4213 2.07199 0.916684 6.89704 1.43461 -2.34045 -0.851181 -2.43066 -4.20816 -2.85477 -2.68271 -2.1988 -1.05045 0.326047 
-9.23433 13.1642 1.56753 -1.80439 12.3184 -5.10141 -3.89052 -0.0857391 -5.97717 -4.19515 -8.70592 -6.64392 17.4603 2.78909 -1.58245 7.83652 1.67199 -5.3084 1.03517 -2.68294 -3.91029 -2.54168 -4.36622 -0.72313 -0.0572067 0.430592 
-5.20432 7.50585 10.8384 2.81568 -0.335352 -5.10226 -6.17668 -8.6599 -3.94711 -7.59774 -4.38508 0.472612 17.7906 2.79703 -2.85499 5.87742 1.65414 -6.97666 2.65122 -1.75906 -3.12371 0.485742 -3.77089 2.10601 0.750386 0.689734 
-2.98265 1.21486 14.0654 1.05815 -9.6417 -0.20588 -6.58092 -8.91248 -3.71621 -11.6018 -0.62023 1.14547 19.2 2.48446 -3.63843 2.83177 1.01937 -6.91196 2.10928 -0.449484 -1.38195 1.74722 -2.12608 3.7367 1.42722 0.747774 
-0.683097 -0.438757 14.476 1.50971 -13.5909 0.777359 -6.46939 -9.31155 0.453076 -12.8364 2.34368 0.586473 20.0001 1.69408 -2.30591 0.483557 0.563663 -4.27098 1.3335 0.186523 -0.0896853 1.14769 -1.20111 2.94814 -0.11192 0.5731 
0.927361 -1.05564 13.9076 3.94545 -15.6137 2.50518 -5.99158 -6.66968 0.55885 -12.2062 6.6132 0.435246 20.0944 1.04163 -1.30511 -0.462635 1.05952 -2.69206 -0.394612 0.196304 -0.14746 0.431161 -0.193714 2.01989 -0.179468 0.233722 
1.31107 -2.88844 13.3352 4.19035 -18.7043 0.209691 -5.53874 -10.2297 -0.346172 -13.3011 6.73891 0.268122 20.2089 0.49569 -1.32917 -1.04831 1.00838 -1.86642 -2.11255 -0.107242 -0.657883 -1.01598 0.71724 1.06736 -0.00879025 0.0242908 
1.22843 -4.08584 12.3227 5.01543 -20.5453 -1.89511 -6.06473 -9.19069 -1.16079 -12.338 7.28161 0.407308 20.2642 0.558625 -1.1695 -1.37007 1.43774 -0.512408 -3.09817 -0.191525 -0.166707 -1.07719 2.17469 0.562841 1.17068 -0.087528 
1.64482 -5.56952 10.0269 6.01664 -20.4572 -7.58525 -6.96903 -11.3405 -3.76701 -9.18429 7.34627 0.55649 20.0367 0.969056 -0.98302 -2.5497 2.13703 1.20362 -2.54513 -1.15209 0.33841 -0.967476 3.23502 0.864643 1.52348 -0.173751 
3.55361 -5.56258 8.71138 10.221 -17.2992 -9.08818 -6.23406 -6.94785 -3.1167 -3.39116 9.12372 6.14446 19.7429 1.31598 -0.964163 -4.1622 1.28523 1.76047 -1.03422 -1.123 -0.290227 0.378799 3.70975 0.262281 0.588278 -0.153155 
4.99376 -7.06517 2.39234 12.2727 -14.3092 -8.91941 -11.2145 -9.6591 -4.2056 -1.59939 10.1411 5.01694 19.6008 1.28117 -0.711304 -4.98784 -0.638648 1.7062 2.10941 -0.935761 -0.33267 2.01295 3.62213 -0.168008 -1.61986 -0.0535196 
6.13386 -8.15883 -4.67104 8.31352 -14.817 -6.39911 -9.55696 -11.4825 0.952505 2.4183 7.19561 1.11848 19.7164 0.891014 -0.652311 -4.63632 -2.91715 1.33367 3.80062 -0.238769 -0.572049 2.00974 1.82124 -0.78066 -2.69137 -0.046273 
6.76052 -7.82791 -8.22108 3.77714 -13.1673 1.61727 -9.98638 -10.7365 4.26314 6.02164 7.47028 -5.0298 19.7823 0.760321 -0.508847 -3.34614 -4.19749 1.43762 4.3769 0.745777 0.383513 0.533119 0.395862 -0.623419 -2.01926 -0.0765301 
7.12531 -8.44276 -9.16351 -0.116944 -11.2018 4.64656 -8.04197 -9.26941 2.69762 1.90452 6.55581 -2.289 19.4208 0.730849 -0.341289 -2.03559 -3.60501 1.89328 3.03196 1.89067 0.636901 -1.60608 -0.812939 0.820988 -1.13282 -0.0876423 
8.29965 -9.46744 -12.0921 -4.49951 -8.92866 7.44226 -8.24313 -8.84808 -2.41256 0.636811 7.34387 -3.3756 19.366 0.579229 -0.320536 -1.05195 -2.94347 0.770237 0.907005 2.93944 -0.0524858 -2.06918 -1.41609 0.162274 -0.170135 -0.0396708 
9.01854 -9.04551 -12.9135 -5.57319 -7.4699 5.84822 -0.97522 -9.2422 -3.74002 1.04601 11.3638 -5.3727 19.4863 0.439935 -0.176344 -0.142159 -2.691 -0.603139 0.499262 3.02782 -0.964332 -0.939884 -0.810385 -0.828873 -0.198877 0.0545502 
8.71005 -9.12922 -11.6059 -8.21208 -11.1821 5.55147 1.17744 -11.0125 -2.86393 -0.62957 5.87768 -4.33863 19.5512 0.0764978 0.139768 0.557856 -2.2745 -1.49829 0.666247 2.63516 -1.05338 0.241058 -0.9854 -1.9394 0.990753 0.0722631 
9.11978 -9.49359 -10.1174 -11.7156 -13.0908 8.08826 2.38684 -13.0088 -1.77612 -1.51422 3.14455 -2.80187 19.6009 -0.00438275 0.265599 0.405754 -2.0946 -1.67697 1.14768 0.937045 -0.688255 -0.0408437 -1.4294 -2.37593 1.22383 0.03062 
8.63152 -8.54456 -10.7009 -12.8008 -13.6097 9.65347 3.25163 -12.2317 -2.18922 -3.01007 1.75646 0.29275 19.67 0.180569 0.408384 0.558859 -0.930423 0.104782 1.38778 0.833766 0.51431 0.0970709 -0.0879325 -0.361499 1.28818 0.020652 
9.03589 -8.00985 -11.3372 -13.7518 -14.641 9.5356 2.67291 -12.0739 -4.28159 -4.91075 1.54472 -1.56926 19.58 0.00747738 0.570001 0.627099 0.381268 1.2158 0.775837 0.611216 1.10131 0.431983 1.19888 0.911601 1.03438 -0.0184752 
9.65484 -7.82917 -8.20168 -11.8461 -9.88309 11.7667 5.20324 -8.90844 -1.12584 0.629032 4.8701 1.48597 19.6649 -0.289637 0.0449703 0.313965 0.879649 1.43052 -0.179644 -0.78643 0.408802 0.125834 1.43524 1.2032 -0.0755603 -0.0368151 
8.64551 -7.00127 -8.23153 -10.2866 -8.87509 10.9108 4.46712 -9.16393 -0.147895 2.66061 6.14574 1.7734 19.5111 -0.590803 -0.224015 -0.00871587 1.68343 2.11609 -0.581114 -2.45765 0.319164 1.02122 1.95814 1.92575 -0.526194 0.0277008 
7.37853 -8.82399 -10.6839 -10.1351 -9.34003 8.06763 -1.57763 -11.6426 -3.6269 0.380431 5.47195 -1.75639 19.5204 -0.607595 -0.634819 -0.0136774 2.43952 1.3424 -1.77123 -3.99515 -0.131616 2.31522 1.57783 0.978664 -2.43562 0.0593571 
7.22003 -8.63251 -10.1397 -6.19017 -4.33207 8.47956 -6.22492 -9.11097 2.07504 5.00425 10.8726 -2.57906 19.7908 -0.554978 -1.14847 1.18065 3.37654 0.217583 -2.81928 -4.1208 1.05872 2.5665 1.28568 -0.614228 -3.3059 0.157226 
7.3296 -10.1876 -7.31599 -1.69671 -5.44261 4.1262 -9.42651 -9.593 9.33879 7.34639 7.4 -8.5159 19.8218 -0.726784 -0.87399 3.43483 3.7065 -2.07714 -3.33905 -1.67153 2.54431 1.67495 -0.0870445 -1.42412 -1.94944 0.264021 
5.89508 -12.0618 -4.01222 2.37685 -9.73589 -1.21483 -12.2124 -4.89518 6.20178 5.60603 2.11057 -11.3763 20.1465 -0.941583 -0.322985 4.97168 2.87912 -4.17219 -2.14777 0.843142 2.03472 -1.18335 -2.08427 -1.57392 0.030249 0.300576 
4.40708 -11.4793 3.42654 4.11386 -17.0238 -3.78043 -6.94152 -1.02898 2.68447 -0.355682 2.73235 -7.10495 20.6626 -1.09967 0.974355 5.46505 1.2125 -3.72126 0.24841 1.98869 0.576271 -2.62025 -2.83711 -0.691955 2.67449 0.324292 
3.97337 -9.60161 9.34747 5.30013 -19.4024 1.69405 -3.2517 -3.2194 -0.514567 -1.56608 5.33677 -3.13329 20.8733 -0.841631 2.01904 5.08473 -0.539879 -1.29903 2.15597 1.17509 -0.668801 -1.93383 -2.6083 -0.156864 4.07388 0.196659 
2.7921 -6.54597 13.3294 2.90414 -19.2156 3.91381 -3.96345 -7.54954 -0.404287 -3.25312 2.32713 0.735034 21.0799 -0.54283 2.1457 3.54989 -1.37331 1.40877 2.43412 -0.52492 -0.680198 -1.7415 -1.17777 -0.620081 3.01059 -0.0434195 
2.49441 -4.43327 16.46 0.282317 -15.1351 5.71792 -7.82604 -4.9789 -1.92296 -5.98676 1.52886 5.07305 20.9211 -0.402862 1.96304 2.47228 -1.57818 2.37489 1.12204 -1.49827 1.47711 -1.93583 -0.402655 -0.694338 1.3868 -0.286505 
2.43241 -3.33496 17.6197 -0.243801 -12.1136 6.37821 -7.27895 -3.55022 -5.31882 -4.0342 1.5359 3.84483 20.4216 -0.0413998 1.58363 1.55302 -0.840528 2.64148 0.607452 -1.58852 2.79812 -2.24735 0.500604 0.00733695 -0.261237 -0.54457 
2.13891 -1.39194 19.5637 -1.01682 -11.079 6.07206 -9.08529 2.1665 -7.73644 -3.18881 2.2607 2.2458 19.7699 0.136443 1.41952 1.04442 -0.150479 2.24556 0.167522 -0.664779 1.53422 -1.713 0.631228 0.395261 -1.25709 -0.712444 
2.76286 -0.148477 19.5427 -0.648932 -8.03633 6.774 -11.2764 2.86838 -8.73428 -2.14907 1.99789 0.842474 18.9327 0.190762 1.23142 0.53321 0.0347479 1.99401 0.140468 -0.298188 0.47653 -1.34642 0.7493 -0.328891 -1.99168 -0.757227 
3.01141 1.07111 20.7206 -0.267511 -5.94597 6.35763 -9.1512 -0.517109 -8.78025 -3.77318 3.27417 0.288805 18.1034 0.459176 1.26425 0.157068 -0.247708 1.62901 -0.5041 1.61555 -1.16868 -0.618402 0.234883 -1.09604 -1.50791 -0.831348 
2.94997 1.59063 19.7073 -0.444717 -4.71007 6.93777 -8.73693 0.174237 -11.529 0.00448394 -0.61529 -5.13506 17.4687 0.497754 1.19167 -0.270019 -0.39346 1.65249 -1.23058 1.3999 -1.11414 -0.0340222 0.226053 -0.966116 -0.981733 -0.808774 
4.34123 4.05978 20.2667 -2.35747 -4.59701 3.46967 -2.27727 -2.32984 -9.43108 -3.09118 -1.9129 -2.305 16.3452 0.478118 1.10662 -0.898399 -0.909542 2.28098 -1.2857 0.0442015 -0.302316 0.263977 0.938595 -1.43582 -0.677581 -0.674463 
4.58672 4.31555 18.4195 -1.57125 -0.448384 2.06507 -7.7139 -1.79595 -8.57897 -1.35981 -0.23915 -2.76929 15.7679 0.295683 0.940653 -1.29449 -0.77598 2.67482 -1.83466 -0.194171 -0.283591 0.583819 1.02498 -1.19841 0.0940085 -0.585804 
4.58363 5.24176 16.8725 -4.25195 3.3281 2.36548 -9.44171 -1.0436 -8.93539 1.60194 -4.09299 -4.28199 15.5814 0.0553992 0.759082 -1.61162 0.157019 1.74511 -1.66985 -1.09352 0.691433 0.506228 1.41011 -1.02699 -0.71377 -0.546667 
4.30719 5.7029 14.932 -3.37738 4.70148 -1.68343 -6.12557 -1.88684 -8.85777 2.78282 -5.51729 -3.67653 14.9215 -0.383002 0.907752 -1.3435 0.223247 0.768792 -1.07893 -0.120683 0.607184 0.222533 -0.220358 -0.501272 -0.893361 -0.493107 
4.75799 7.16151 13.9524 -0.669314 1.55361 -3.00533 -8.53905 1.17277 -6.76055 1.88808 -4.40878 -5.42024 14.035 -0.34367 0.905201 -1.64352 1.45847 0.0425029 -1.53816 1.06053 0.789984 0.700487 -1.67505 0.591472 0.100324 -0.647019 
2.58453 7.89444 13.1621 -2.24634 4.28282 -0.64417 -8.76865 0.131786 -8.55373 -2.60467 -2.58762 -6.66697 14.0756 -0.76506 -0.0539027 -3.23212 2.20516 0.483622 -1.29495 1.61265 -0.531463 0.497121 -3.09075 0.221588 1.61167 -0.738842 
3.72661 8.672 9.53986 2.47489 3.74995 -5.84493 -2.81753 1.89701 -5.58497 -4.07959 -2.60047 -2.28514 12.7693 -1.87488 -1.17344 -3.90469 1.93129 1.25057 -0.176476 2.54565 -0.067993 0.933479 -1.38742 0.509232 1.77527 -0.659811 
0.99758 4.67815 0.977681 6.07634 6.02142 -6.73839 -0.923056 -4.90628 -6.95995 -9.68708 -5.3135 2.81426 11.8602 -2.1157 -2.38455 -5.01944 0.274922 1.19041 1.03007 2.61997 1.42347 2.83145 1.82009 0.331739 1.91712 -0.609365 
-3.82296 2.90247 0.521162 4.82581 6.93719 -0.840599 0.266395 3.35184 -2.89004 -1.5078 -0.499678 -1.28448 11.8437 -1.77631 -2.45341 -5.29197 -1.45544 1.22139 2.19482 1.86751 2.42348 4.09823 3.86561 0.706849 1.86189 -0.322602 
-4.21916 -1.14356 -7.42576 -2.04718 8.64126 2.00401 2.78923 6.52174 4.25608 5.20988 -1.97931 2.41827 11.4916 -0.55785 -1.34562 -3.74347 -2.04395 1.04786 1.0333 1.89129 3.60043 3.84281 3.21723 0.888063 1.00906 -0.113005 
-2.54656 -0.684191 -12.7183 -0.740564 8.547 0.757971 4.66386 8.3004 9.29818 7.79998 -0.733316 7.22228 11.3406 0.0501358 -1.0463 -2.44426 -1.07383 0.234611 -0.171355 2.00109 1.91724 1.69366 0.311506 -1.01356 1.53866 -0.0819239 
-2.42987 -0.256609 -11.12 -1.36022 10.4558 -2.37118 6.33467 10.6216 6.15997 1.7452 -0.756366 3.60617 11.5467 -0.246233 -0.245063 -0.165758 1.02964 0.643765 -0.280228 1.43483 -0.15222 -0.339978 -0.0800648 -1.15973 0.0634247 -0.0262053 
-4.46693 -2.77248 -9.85301 -0.886843 7.20296 0.490227 8.49911 10.8881 4.62632 1.78207 -6.17897 5.81488 11.4065 -0.41698 -0.143398 1.04394 1.13929 -0.167824 -0.556005 -0.217745 -0.246107 -0.676133 0.508036 -0.557001 -0.654523 -0.0189072 
-4.49014 -1.32472 -9.68718 3.17413 12.5321 0.736741 8.04577 4.46677 4.89212 7.81851 -5.05513 3.4391 11.3276 0.246799 0.772943 1.44465 1.8421 -0.988499 -1.4961 -0.735228 -1.06068 -1.0586 0.864048 0.271361 -1.00133 -0.0103706 
-3.60132 -0.867124 -8.21497 2.68874 6.66974 -3.57602 2.71959 10.1473 6.55144 7.3035 -1.36894 4.0332 11.3556 0.717164 1.09957 0.590702 0.637416 -1.13666 -2.14002 -0.986247 -0.828014 -0.26334 -0.206746 0.58101 -1.05351 0.0314593 
-1.62868 2.65543 -4.71574 6.06249 5.77995 -7.81857 5.5483 5.68861 -0.0956042 3.30473 -1.80458 -0.509649 11.5203 0.14018 -0.149252 -0.396826 -0.615199 -1.04695 -0.765037 0.141047 0.539641 1.88796 0.0345945 0.234109 -0.0665984 0.0624616 
-2.31184 0.735292 -9.38522 0.85606 4.89571 -5.93219 4.81662 6.13715 5.80348 3.00523 -4.89919 2.52171 11.4675 -0.27165 -0.66061 -0.728569 -0.597121 0.188147 0.758901 1.63525 -0.239677 0.757053 -0.191466 -0.399319 0.113062 0.00622759 
-4.43399 -2.87219 -11.0862 1.01447 8.18436 -1.91036 7.70249 9.17004 14.7059 10.1406 -2.11946 3.86185 11.584 -0.446222 -0.678429 -1.24387 -1.07186 0.891488 1.24065 0.691063 0.567374 0.128136 -0.522382 0.742621 1.06237 -0.0788537 
-3.55692 -1.40636 -8.67259 2.22714 6.40827 -2.73562 9.81876 7.20817 2.93596 2.92823 -3.2081 2.41276 11.3549 -0.240588 0.0197027 0.0829408 0.0987876 0.835634 0.854701 0.791701 -0.660495 -1.38207 -0.921182 0.386563 0.486642 -0.0784251 
-3.23725 0.33411 -11.2914 0.0176396 9.48111 -3.2136 6.50254 7.98997 1.97883 0.731317 1.06298 4.85668 11.1823 0.0276932 0.425212 0.173442 -0.308601 -0.48476 0.328224 0.538202 -0.626163 -1.75743 -1.41941 0.349642 0.879257 -0.0759585 
-4.11315 -0.769347 -8.86791 1.84841 8.42551 -1.00707 9.3751 3.42471 5.25665 3.10396 -4.5576 4.45751 11.2762 -0.153277 -0.118204 -0.266871 0.157061 1.0317 0.344822 -0.182102 -0.000160241 1.138 -0.153494 -0.23451 -0.180555 0.0202419 
-4.0174 -1.06464 -10.1213 -0.33917 4.75194 -1.13352 10.6153 7.93095 4.7584 2.95571 0.3035 7.23576 11.2436 0.204485 -0.276638 0.0514985 -0.429939 -0.0613307 0.338303 -0.171765 0.426126 1.64017 0.759028 0.0407939 -0.719269 0.0389009 
-3.93322 -1.29801 -10.592 3.19085 13.9314 -2.05155 6.85185 7.23688 7.23618 1.04856 -4.00091 0.320445 11.4255 0.33799 -0.0428275 -0.689881 -0.651687 -0.58845 -0.040309 -0.550583 1.00441 -0.101246 0.394891 1.32237 -0.410434 0.0399698 
-2.30479 -0.784748 -10.1719 -2.80327 6.42153 -0.99984 6.90533 8.21452 9.18991 5.55416 0.988607 3.32887 11.3022 0.231575 -0.273317 -0.568957 0.0935629 -0.246732 -0.963915 -0.0805772 0.299349 -0.0630326 0.210545 0.972044 -0.0867548 0.064975 
-3.27951 -1.12343 -12.292 -0.177968 4.64846 -1.27545 8.47718 8.305 2.53467 3.77919 1.71173 4.35879 11.4467 0.21957 -0.00741997 0.416083 0.772836 -1.15491 -0.812266 -0.241573 -0.208688 -0.472172 -1.0854 -0.567106 0.600962 0.0254683 
-3.18639 -2.51852 -12.1161 1.81305 8.15973 -6.34114 9.39978 8.89364 6.79399 2.64312 2.30741 4.78282 11.5578 0.0705366 0.128826 1.00173 2.00251 0.437162 -0.705156 -0.909755 -0.717239 -0.269464 -2.36563 -2.61765 -0.322168 0.0223905 
-2.39457 -0.468224 -7.53947 4.74687 7.28772 -3.44223 4.39677 5.85388 6.07328 -2.92294 -7.49584 2.59828 11.425 0.256169 0.336071 1.40817 1.27835 0.44065 -0.143466 -1.31638 -0.7942 0.635651 -1.89703 -2.82184 -0.570555 -0.0176259 
