-6.20808 4.4638 -9.50247 -0.291882 6.40607 -2.26234 7.72557 2.78534 -2.54865 1.9876 0.772732 0.129901 11.3873 -0.629858 -0.440117 -0.11004 0.777649 0.757064 0.429989 -1.1744 -0.203207 1.32557 -0.0224108 -0.172061 1.04811 -0.0157643 
-7.82724 3.10394 -11.0125 0.307261 9.04384 -1.57073 8.21166 2.81427 -0.888131 5.06179 3.93632 5.0394 11.3652 -0.629599 -0.810771 0.0483768 -0.4057 0.232817 1.10865 -0.663075 0.507315 1.96256 0.180355 -0.904305 0.887424 0.00472412 
-8.54778 2.94314 -9.29765 3.29679 8.87251 -0.4582 1.61051 1.75484 3.24894 0.338456 -1.66937 2.91569 11.3195 -0.127694 -0.316828 0.438097 -0.16774 -0.260568 0.424697 -0.243193 0.373045 1.77037 0.995614 0.334626 0.293442 0.0131588 
-8.18622 1.17027 -9.36299 -4.11472 6.33694 2.37884 7.46772 5.83717 4.36534 3.71395 -2.52774 3.17413 11.4448 0.561886 0.370479 1.01954 -0.395467 -0.982297 -0.397431 0.241163 -0.231922 0.821094 0.850774 0.369904 -1.03096 -0.00929565 
-6.66705 3.84649 -8.13674 1.08041 6.45668 -2.11364 6.88157 3.13912 3.67645 7.63959 5.67789 2.52974 11.4133 0.277535 -0.0169076 0.129329 -0.481142 -0.504554 -1.69247 -0.0777908 0.489296 -0.235053 0.877231 1.58718 0.367919 0.00930548 
-5.95817 4.50466 -6.49528 -0.561879 5.34027 -2.73016 6.78194 0.962527 3.00358 5.66509 2.11221 0.0775809 11.2719 -0.274559 0.199449 -0.303864 0.482117 1.50466 -1.1355 -0.554709 1.5531 -1.95974 -1.19653 1.0766 0.522895 0.0405805 
-8.27413 1.19141 -10.0849 -0.885337 6.84807 -6.36606 1.56445 6.63864 2.75455 3.74904 3.94657 6.30356 11.4525 0.84735 1.1299 1.03697 0.926291 2.93353 -0.132689 -1.14635 1.40662 -1.50648 -0.846237 -1.25528 -0.208585 0.100404 
-8.75548 3.49506 -9.90825 -0.721259 13.6645 -1.17245 7.35274 11.8529 -4.97239 -0.323414 3.72094 3.90169 11.6281 3.22518 2.25405 2.31404 0.865094 1.71159 -0.66429 -2.48027 -0.643793 -1.70701 0.150028 0.174419 -0.388739 0.380925 
-1.03165 10.0008 -1.2454 5.79155 16.9622 -3.55594 0.864402 4.72704 0.132046 6.40266 -1.40288 -0.425238 11.7372 4.73128 2.6074 2.05647 0.131911 0.460619 -0.389762 -3.12831 -3.22099 -0.768552 1.14863 0.320094 -2.05045 0.610579 
6.54649 11.3702 0.655194 0.425145 8.84114 -7.45667 -5.26937 -1.30063 -4.22022 5.08842 5.65903 1.49829 13.0341 4.24451 0.491023 0.783385 -0.0338648 -1.12475 -1.34882 -3.72024 -3.46735 0.0200742 1.1732 0.949818 -1.83505 0.79401 
7.7313 10.2909 -5.08426 -0.798983 11.5629 -5.17276 -7.76603 -2.88952 -1.46429 6.78629 4.578 -2.74697 13.8024 1.94564 -2.02524 -0.493144 -0.287895 -1.36705 -1.16308 -1.34601 -1.71124 -0.652172 -0.306043 1.00326 -0.978553 0.859801 
8.08562 5.80515 -4.0719 2.40468 10.7404 -7.10814 -6.93325 -1.67554 -4.07385 5.35077 5.47959 -4.11269 14.5656 0.236682 -3.0481 0.302469 0.984173 -0.597475 -1.0762 -0.194279 0.152576 0.119007 -0.546105 -0.910718 -0.62662 0.74686 
7.927 2.65714 -1.34758 3.36231 9.17729 -9.5456 -5.0337 -3.64171 -3.202 4.74127 3.70312 -2.51251 15.2705 -0.584344 -2.47233 1.29376 1.42563 -2.14529 -1.71637 0.273108 0.82933 0.275612 -1.4867 -1.18866 1.40976 0.724063 
7.63204 -0.0534582 0.299201 3.26536 7.04655 -10.6512 -7.60694 -0.161652 -2.75633 3.38041 1.54288 -1.75204 16.0344 -0.36981 -2.1846 1.02968 1.80021 -3.67953 -0.879235 -0.294122 1.41538 -0.192845 -0.711092 -1.62387 2.32496 0.703907 
5.03637 0.858501 -0.801016 5.89882 2.68337 -11.9831 -6.06365 0.500192 -0.744994 0.33798 0.603068 3.12151 16.6883 0.286612 -2.033 0.103051 3.32963 -4.32913 -1.78079 1.21543 0.277817 -0.542551 0.516897 -1.01646 2.57687 0.610577 
7.68188 -4.21853 0.803212 10.1375 -4.41026 -10.2856 -7.88889 3.33043 -6.26658 3.99696 -1.08973 4.69508 17.3762 -0.0923243 0.00328484 -0.234459 4.27244 -2.73065 -2.51128 3.52744 -0.188925 0.76126 -0.249012 -0.355451 1.33986 -0.118446 
9.33515 -5.42533 -1.08433 16.5744 -6.73993 -18.6324 1.18442 -3.99867 -4.15963 7.01748 -0.0628809 7.14828 17.6525 0.163249 -0.391196 -0.300169 1.93767 -2.30291 -0.935915 3.07565 -1.22713 1.44602 -0.392465 -0.263504 1.31161 -0.0866807 
5.02103 3.10488 -0.731437 19.2897 -1.89503 -19.883 6.40622 1.14316 2.75729 -1.2044 0.0986029 2.93386 14.9601 0.648258 -1.3423 -0.664204 -0.860771 -3.03334 1.27702 2.41095 -1.59761 3.02273 -0.257633 -0.939422 1.4577 0.284318 
7.18304 -4.75918 -1.53454 11.011 -10.0888 -11.8639 2.16703 -4.54182 1.97318 0.976333 -1.30862 10.5602 17.463 1.23016 -2.86955 -0.882451 -3.62728 -4.05456 4.43461 0.246106 -0.366491 3.22481 0.0421416 -1.32697 0.102888 0.696402 
11.9992 -11.2631 -2.29271 8.6153 -17.9025 -7.28467 3.67457 -4.38607 5.78066 5.72936 -5.16397 10.2776 18.8926 1.72978 -3.84843 -1.40244 -4.47938 -3.34977 5.33866 -0.515132 -0.149399 3.07259 0.545846 -1.20454 -1.75225 1.07189 
11.9969 -12.5891 -4.71595 3.77521 -19.009 -2.75846 3.78077 -3.06652 10.4527 3.7613 -4.06643 3.99084 19.1683 0.663415 -2.31699 -1.57623 -2.83192 0.132395 3.93507 0.230959 1.73853 3.12599 -0.585895 -1.11603 -4.96456 0.625816 
11.263 -12.2223 -6.15292 0.510775 -14.1838 2.25758 3.02369 -0.341488 13.8805 0.132345 -4.54521 -2.54272 19.4669 -0.571953 -1.82438 -2.19898 -2.31742 3.32657 2.63418 0.191602 1.54479 0.493344 -1.97388 -0.974367 -5.37564 0.54155 
10.8682 -15.8645 -7.48558 0.903693 -11.2862 3.04025 3.64726 2.12852 13.5532 0.845367 -7.19815 -7.85249 20.3049 -0.670633 -1.88406 -1.93684 -0.829553 4.21615 1.89278 0.245431 0.927661 -1.59244 -1.64124 -0.787288 -3.40578 0.56289 
9.70378 -18.7473 -11.9028 -1.53603 -5.13104 2.98685 4.69933 0.740376 6.69711 -2.68206 -8.46995 -10.6789 21.032 -0.619494 -1.55653 -1.39086 -0.159552 3.58514 0.570543 0.686611 -0.0381088 -2.3477 -1.25859 -0.339721 -1.33958 0.446422 
9.42331 -18.7469 -11.5252 0.650843 -2.45464 6.34082 4.17011 1.03085 6.08221 -3.03771 -6.04051 -8.96994 21.2002 -0.601237 -0.522093 -0.602007 0.154115 2.08943 0.0428955 0.260872 0.369513 -1.85524 -1.08053 0.147013 0.185421 0.237293 
8.88798 -18.5638 -11.0874 -0.16056 -0.673828 3.46001 6.19532 0.0168009 5.87748 -4.21906 -6.82264 -8.68191 21.2514 -0.534396 0.317182 0.478945 0.575957 -0.271204 -0.812511 -0.15839 1.60658 0.0595509 -0.417668 0.0676176 0.961245 0.0956743 
8.26995 -18.5667 -10.9033 0.986535 -3.06768 3.01815 4.20363 4.33787 4.68687 -3.78877 -7.28674 -7.92389 21.3817 -1.00351 1.04573 0.638403 0.00864804 -2.52195 -1.98441 -0.873285 2.10032 0.894355 -0.398319 -0.680054 0.696393 0.0302355 
7.60849 -17.2514 -9.81901 1.17591 -6.18053 0.585627 3.89062 7.11978 7.69254 -4.39487 -7.50875 -6.39571 21.4196 -1.22244 1.97743 1.03589 -0.393047 -4.00709 -1.51752 -1.44853 2.5866 1.02022 -0.418764 -0.828735 1.13631 -0.083498 
5.04553 -14.1744 -8.9674 0.0258465 -12.311 -2.14406 0.956032 7.98098 9.64646 -4.9414 -9.09772 -6.63107 21.2672 -1.22606 2.61001 1.17728 -0.742178 -3.49039 -0.655329 -1.43386 1.35493 -0.046708 -0.0938954 -0.204563 2.10357 -0.243549 
4.38801 -10.8728 -6.87592 -1.64545 -16.0876 -1.5465 0.576489 11.1282 8.4988 -5.73656 -10.0608 -3.64679 20.8911 -0.818103 2.38319 1.41694 -0.614265 -2.10445 0.854058 -1.67229 0.368766 -1.11772 0.800283 0.602348 2.8668 -0.263616 
3.7499 -8.70601 -6.48845 -1.31367 -15.5661 0.807567 -1.30858 9.10827 4.0502 -3.5874 -7.03351 1.21949 20.4282 -0.0677525 1.41993 1.85788 -0.427559 -0.108393 1.83532 -1.14648 -0.083267 -0.903026 1.31442 1.60449 3.0766 -0.156722 
4.16578 -8.0697 -3.97376 -1.22565 -15.0753 3.3801 -3.33852 8.39996 4.90207 -1.07045 -5.52911 4.01301 20.5211 0.0356784 0.377892 1.27924 -0.410491 0.339002 1.51116 -1.19874 -0.526047 -0.718304 0.920662 1.07147 2.10141 -0.021468 
4.81788 -8.47632 -1.12908 -2.32185 -13.3592 4.56925 -2.81888 8.92879 6.92969 -0.702371 -3.34114 4.92201 20.6686 0.0772171 -0.222215 0.476713 -0.293309 0.139749 0.882021 -0.487653 0.274477 -0.171978 -0.525829 0.0755533 0.413542 0.0256033 
4.03241 -9.09821 -3.15941 -3.19382 -15.4961 4.12844 -4.66205 8.58775 3.46753 -2.57577 -6.54964 5.00897 20.6635 0.0251097 -0.536658 -0.769575 0.216883 0.1769 0.367882 0.198505 0.892494 -0.74212 -1.26583 -0.810502 -1.0335 -0.0482832 
4.20267 -9.30283 -4.51206 -1.79613 -14.657 4.8435 -3.08508 10.3868 3.90757 -5.46389 -6.14548 2.78921 20.4849 -0.0277591 -0.926949 -1.46327 0.367494 0.938545 -0.0193714 0.320775 0.692534 -0.78256 -1.44058 -0.864045 -2.74925 -0.0641806 
4.59894 -10.3397 -6.13014 -0.404095 -13.5419 5.08239 -2.2129 12.1334 2.70253 -5.01883 -8.17945 -0.0881004 20.3715 0.390311 -1.64618 -1.30571 0.263866 1.99751 0.230051 0.384656 -0.299913 0.0322366 -1.23648 -0.081485 -3.90286 -0.00840206 
4.39583 -12.4903 -6.96007 -1.87924 -9.64355 3.99542 -2.43959 10.6186 3.3994 -6.68374 -6.84646 -6.27568 20.4937 0.682141 -1.90159 -1.28537 -0.176889 2.51258 0.321229 0.0134367 -2.15799 0.717412 -0.363995 0.0448364 -3.97312 0.0367868 
5.8874 -15.7354 -8.46394 -1.83294 -8.01523 5.70273 -3.06152 6.97226 3.88281 -8.14822 -6.60658 -9.97286 20.6171 1.05216 -1.19401 -1.14079 -0.905933 3.00593 0.265714 -0.541061 -3.63078 1.91583 0.748018 0.45014 -3.40438 -0.10311 
6.96915 -16.1129 -9.77199 -1.96616 -4.85738 6.13947 -2.59359 2.1774 6.90449 -5.71917 -6.70774 -12.134 20.5461 1.30989 1.13362 -0.638265 -0.347888 2.86519 -0.127134 -0.097941 -3.97282 1.62743 2.85895 1.162 -1.07209 -0.670537 
8.57306 -14.4984 -10.4282 -4.8903 -0.905293 5.33893 -4.8412 -1.79985 10.5291 -1.76103 -5.99811 -14.1808 19.8298 0.360604 3.65819 2.15783 1.86028 2.86844 -2.66655 -0.310715 -3.12729 -3.27033 3.67595 2.85553 0.212549 -1.3008 
9.60246 -7.44067 -9.16929 -2.09 1.12745 3.54165 -2.03945 -4.85943 8.21338 4.41744 -1.34069 -9.53215 17.5347 -0.470156 3.97644 4.00156 3.5698 2.22791 -3.5404 -0.89499 -2.21492 -5.98466 3.32802 3.72267 0.8034 -1.34844 
6.37376 -1.78055 2.02387 7.53037 3.33455 -6.33113 -4.89216 -5.1458 -13.1233 5.16324 4.98754 -10.211 15.6188 -0.912639 2.622 4.4707 3.69776 1.474 -2.60941 -0.574965 -1.24418 -6.9996 1.66155 3.37047 1.218 -0.912215 
5.71802 -2.58967 4.00981 9.6725 4.16224 -5.72752 -7.04306 -7.22423 -11.1926 7.45879 6.41279 -10.1019 15.9093 -1.08287 0.669557 2.71986 1.37737 1.30742 -0.522839 -0.193006 -1.09354 -5.06367 -0.382635 1.39128 1.57867 -0.231589 
5.95208 -3.81393 5.33578 7.71726 4.94731 -3.07353 -5.21422 -6.83837 -14.7659 5.02603 6.9775 -7.80595 16.0814 0.175782 -0.91672 -1.80723 -3.51441 0.109691 3.73003 0.893105 -0.854659 2.54575 -1.4972 -0.54948 2.14549 0.37155 
4.39893 -3.07619 2.77403 4.70342 6.85817 -0.701345 -2.84345 -9.48084 -16.2837 2.57287 4.62074 -2.84137 16.1455 0.901326 -2.00071 -3.58483 -4.91084 -0.828447 6.03834 0.866755 -0.691171 6.47669 -2.4229 -1.11868 1.88569 0.83018 
7.91222 -6.12089 -6.3944 -7.55711 2.53504 9.80593 -2.52644 -8.29079 2.151 0.1202 3.13616 -3.11385 17.3584 0.880237 -2.91673 -4.18689 -4.48495 -1.22907 5.87184 -0.619849 -1.00077 8.63688 -2.58406 -2.07884 0.0959126 1.15814 
9.24458 -11.4397 -8.04923 -7.24452 1.22614 18.0244 -4.05317 -9.95388 12.7324 -2.20279 2.74007 -3.01953 19.4217 0.711534 -3.23937 -2.65723 -2.83052 -0.573809 4.26764 -1.03288 -0.864199 7.45126 -1.87371 -1.96259 -1.42759 1.18236 
7.93044 -14.2158 -10.187 -8.73353 1.61799 16.9228 -7.7086 -11.6057 13.9105 -5.50642 -2.47634 -7.2373 20.234 -0.0930426 -2.26638 -0.634389 -0.272545 0.716953 1.30036 -0.509919 -1.13099 2.69045 -0.637893 -1.75396 -1.28467 0.805866 
7.94748 -15.2256 -8.61581 -8.86097 4.44765 17.0784 -5.41678 -12.1444 15.0929 -3.98236 -2.38596 -7.91759 20.6195 -0.391928 -1.20609 -0.17083 -0.212876 0.586166 -0.692646 0.340547 -0.75934 0.18255 -0.369608 -0.857242 -1.48628 0.328587 
8.09555 -15.5599 -9.28305 -8.11161 4.50905 16.7807 -4.39423 -12.8505 14.423 -2.17949 -3.07061 -7.08818 20.7889 -0.168985 -0.543702 0.453472 0.414213 0.126875 -0.986365 1.09827 0.793965 -0.203836 -0.0491199 0.189124 -0.371587 0.0764019 
7.20238 -16.7982 -9.35536 -8.61986 2.71144 14.6322 -4.00762 -13.1282 13.3889 -5.7143 -1.24901 -10.5255 20.7872 -0.189408 0.417187 0.737233 0.462485 -0.0526064 -1.29744 0.66239 2.77918 -0.4979 -0.104413 -0.159179 0.372189 -0.136835 
7.45806 -16.148 -7.54988 -6.78302 3.12047 13.2141 -2.92182 -7.14397 13.7433 -4.88604 -2.09921 -7.79129 20.5321 -0.577491 1.70776 0.988481 0.384616 -0.301958 -1.943 0.164597 4.07598 -1.57501 0.0299699 -0.562091 0.0772439 -0.388361 
7.31919 -12.8456 -5.79623 -7.21284 4.8789 12.3746 -2.84104 -1.10177 12.9432 -3.15114 -3.66757 -5.70509 20.0637 -0.568392 3.5268 1.58278 0.374393 -0.349373 -2.34273 0.610964 4.73887 -2.84572 0.971051 -0.952577 1.3967 -0.805256 
5.14969 -8.99733 -6.12021 -6.89205 1.91553 8.19456 -4.15454 1.51618 6.77081 -3.31121 -4.67179 -9.11216 19.2088 -2.1718 6.86752 1.03128 1.01565 1.10352 -4.05327 1.37164 4.03273 -2.90762 1.3159 -0.134566 1.71644 -1.05757 
5.51461 -2.7395 -2.15632 -6.69338 1.56705 5.42833 -0.336448 6.2361 2.64653 -1.64646 -4.7256 -2.88155 17.4226 -4.82326 8.48917 0.537799 2.22731 3.52256 -3.65291 2.19089 1.51266 -2.12874 0.840774 -0.910006 1.45273 -0.559055 
-2.49865 13.1365 -4.21345 -1.96448 10.294 -3.57915 2.68407 9.35076 4.35355 0.941116 -2.24302 -0.620839 16.5649 -7.27345 7.73709 -0.0371737 1.71458 4.83092 -2.10608 2.84224 0.521254 -0.917835 1.63523 0.169411 2.9197 0.324335 
-12.973 18.5334 -4.06062 1.45991 18.3025 -0.00314331 4.69413 2.54423 3.50812 -1.07343 -9.43198 -2.68708 18.5904 -8.09847 4.61278 -1.77115 -0.261618 3.57331 -1.10836 1.20032 -0.889541 -0.845667 2.40978 2.02069 1.56344 1.02959 
-21.9738 19.0517 -5.35393 -2.3958 17.7024 0.379919 7.54137 5.96838 1.75083 4.57843 -1.47155 5.38913 20.2466 -6.01334 0.986353 -0.928474 -1.61436 1.08694 0.757843 0.650944 -1.07848 -1.87351 1.81043 2.29634 0.904703 1.12964 
-25.2402 17.3668 -10.4418 -7.78581 15.7294 -2.09301 3.23648 3.47959 -0.280451 8.58379 4.9921 1.93066 20.7297 -2.7392 -0.000490379 0.598563 -1.06667 -0.652168 -0.100359 0.646229 0.672118 -1.80404 1.34052 2.60053 0.218684 0.50823 
-26.4318 18.6516 -5.66521 -5.41339 17.0152 1.255 6.66761 3.49069 -3.11973 5.16463 2.02665 1.59381 21.1434 -0.162395 -0.868099 1.56333 0.51678 -0.599287 0.295377 0.0560126 0.721535 -0.744271 -0.484514 0.624894 -1.34981 -0.136382 
-24.44 18.731 -0.912164 -2.36466 15.3852 -0.942479 8.36215 7.14366 -3.07678 5.33607 1.82159 0.304002 20.6831 0.909547 -1.46671 2.08957 0.474988 -0.678216 1.65274 1.23048 0.872477 -0.233542 -0.989793 -0.105446 -0.209709 -0.448765 
-23.1859 14.0291 -2.3021 -2.52247 14.878 1.28154 5.25859 7.74402 -0.572361 3.77972 3.23817 -0.546578 19.5879 0.593023 -2.59647 0.331068 -0.0233107 -0.564441 0.66113 0.530383 0.348026 -0.0465009 0.0456565 0.376855 -0.0873922 -0.512349 
-22.3154 12.3445 -1.67554 -6.85633 13.4069 6.15743 10.0934 5.71531 -2.72185 4.32728 3.85911 1.9523 19.2636 0.258553 -1.87592 -0.706832 -1.10569 -0.0582932 0.231909 0.373342 -1.21607 0.288372 0.0383996 -0.0380573 0.675908 -0.352277 
-24.5289 8.86248 -3.62818 -3.28411 15.1822 1.01069 8.45391 5.945 -3.5297 5.89731 2.89217 0.332699 19.2914 0.475913 -0.11576 0.278071 -0.773183 -0.158637 -0.363608 0.513584 -2.08289 0.524679 0.377002 -0.789526 0.0972364 -0.229617 
-22.4757 11.9347 -3.78328 -7.51228 14.9417 0.352489 8.63121 1.96284 -0.156244 4.46927 1.80431 3.2439 19.07 2.33644 1.12794 1.84035 1.23849 -1.90962 -2.47714 -1.42538 -2.91569 -0.539777 -1.30663 -1.95722 -0.136341 -0.363349 
-20.7262 13.6552 0.142126 -6.06041 13.3175 2.36597 8.5576 -0.794176 0.768233 5.59373 0.317946 -0.706195 18.5367 4.90049 -0.474547 3.79826 1.46327 -5.24836 -2.52629 -2.43352 -2.8296 -0.999893 -2.64896 -1.86073 0.465359 -0.324832 
-12.5346 15.5878 5.64103 0.724274 4.79117 -6.90591 2.91462 -5.49357 -7.5697 -2.05408 -4.6399 1.79005 17.8242 5.79815 -3.84474 4.8061 2.49501 -6.89091 -1.70705 -3.30071 -2.08118 -1.23939 -3.45541 -1.42133 0.452406 0.0435003 
-4.99704 4.66319 10.651 -0.0860133 -5.98434 -7.99158 -0.855409 -4.47481 -4.82244 -4.08582 -3.18937 3.38642 18.2901 5.68734 -6.05939 4.467 1.42054 -6.40772 -0.664998 -3.20072 -1.06647 -1.22123 -3.39118 -0.642969 1.08414 0.387226 
-1.34947 -2.79301 14.9928 1.9756 -9.86196 -3.004 -3.16584 -6.60277 -3.55785 -7.96799 -3.54868 3.45962 19.4108 3.67807 -5.55719 3.36463 0.271364 -3.84926 1.73224 -1.88439 0.218859 -0.139234 -1.26386 0.550941 0.453916 0.526454 
2.11799 -7.4513 17.8012 0.416617 -11.3946 -2.90997 -4.40575 -5.57192 -7.34385 -8.40522 -3.44251 3.8797 19.6796 1.7764 -2.46401 1.85462 0.576636 -2.01886 1.89899 -1.63517 0.187298 -0.962175 -0.529115 0.962347 -0.613628 0.284587 
2.29822 -6.14093 18.8891 1.82978 -11.75 -0.785504 -4.73216 -3.85072 -7.00517 -6.21366 -1.75862 3.81299 19.7618 0.697146 -0.340677 0.984763 0.440181 -1.20485 1.02693 -1.61248 0.635471 -0.79232 0.521081 1.18675 -0.858889 0.0129837 
2.06111 -5.98288 17.9759 2.87008 -15.1346 0.394131 -8.2481 -4.91434 -7.90965 -7.60856 0.727338 0.141603 19.5375 0.0307704 0.714354 0.408859 0.760478 -1.0088 0.975166 -0.88114 0.0222876 0.024724 0.350665 1.45748 -1.05362 -0.0939676 
2.1647 -5.23061 19.8292 2.94977 -14.0162 0.478608 -9.30707 -3.75421 -7.23654 -5.76091 0.30017 1.03423 19.5467 -0.0440575 0.756665 0.163814 0.0738863 -0.566764 0.426287 -0.210763 -0.344309 -0.205165 -0.137069 1.24834 -0.72699 -0.140725 
2.3386 -4.33469 19.3754 3.65901 -15.3055 1.3338 -6.52399 -5.50874 -7.10454 -6.87827 2.81552 0.000980377 19.3173 -0.00497694 0.899144 0.201586 -0.422377 0.326809 0.335942 0.436492 0.0733116 -0.12281 0.267692 0.398539 0.36192 -0.135298 
1.93919 -3.1817 19.0084 1.80474 -14.4984 0.876097 -6.64803 -5.27506 -8.43355 -7.26415 3.43899 0.248349 19.1683 -0.0731652 0.858747 -0.0271513 -0.624691 0.424108 0.293388 0.75961 -0.00473776 -0.158366 -0.0643735 0.449642 0.394801 -0.142888 
2.14898 -2.51161 19.3943 1.33071 -13.2595 1.8751 -7.39516 -3.78735 -7.9252 -5.51848 1.15062 2.34414 19.0502 0.0875426 0.589287 0.105052 -0.609013 0.967692 0.0580895 0.641583 0.043951 0.103915 0.67305 -0.157003 0.497473 -0.137334 
1.89368 -1.84841 19.684 0.99047 -12.9187 1.6749 -5.07344 -4.63859 -7.61805 -6.76268 3.38083 1.83665 18.9658 0.342285 0.417561 0.220033 -0.589279 1.09577 -0.195033 0.870575 0.189963 0.504403 1.00506 -0.0339506 -0.0202847 -0.199113 
2.79907 -2.0549 19.5629 1.02108 -11.2569 1.22485 -4.10337 -5.60722 -6.99272 -3.76376 2.05959 1.6942 18.7319 0.529893 0.423601 0.0848303 -0.726221 0.617696 0.119812 0.807608 0.0204393 0.325101 0.332841 0.856501 -0.63229 -0.257041 
3.32557 -1.32225 20.0243 -0.986838 -10.0208 0.226055 -3.94105 -3.41532 -6.37778 -3.1162 2.81475 0.471899 18.3319 0.582435 0.652326 0.0314886 -0.455515 0.298401 0.14709 0.107616 0.089073 0.578084 -0.0873892 0.874791 -0.489672 -0.309126 
4.0825 -0.656689 19.6483 -1.31174 -11.6199 3.19858 -3.92332 -4.29679 -6.91983 -5.67751 5.71617 -0.134933 18.0819 0.438814 1.0608 -0.195283 -0.301589 0.362967 0.160551 0.0197224 -0.214035 0.435306 -0.615044 0.777859 0.136047 -0.359628 
4.16414 0.714115 19.7987 -0.120694 -11.2451 1.42349 -4.62539 -4.84844 -4.76407 -6.24274 5.92649 0.302859 17.7451 0.289266 1.24309 -0.326114 -0.0284894 0.85052 -0.261176 0.177729 -0.682707 -0.469233 0.231799 -0.180733 0.845365 -0.39074 
4.57385 2.23092 18.6992 -0.919933 -8.82991 1.42888 -3.66259 -5.96084 -5.62304 -5.27571 4.39301 2.45895 17.2272 0.222857 1.36008 -0.744615 0.183539 1.15187 -0.279291 -0.116813 -0.483889 -0.281806 0.177837 -0.507042 0.743044 -0.45195 
4.52623 3.44938 18.8683 -1.32519 -7.16322 -0.194976 -3.18277 -5.99683 -9.37234 -2.15811 2.57267 3.40178 16.8056 0.165398 1.28571 -0.651159 -0.383163 0.875475 -0.116073 -0.259596 0.439799 -0.739078 -0.243417 0.345291 -0.0411505 -0.416998 
5.01575 4.77608 16.3905 0.208201 -7.90155 2.61136 -5.2287 -6.14205 -6.02472 -6.83065 4.85787 2.03083 16.2919 -0.180065 1.22754 -0.0427198 -0.422297 -0.555748 0.0641065 -0.129665 1.32269 0.0567281 -0.891645 0.161451 -0.0149625 -0.261363 
4.77019 5.87008 17.6973 -2.60058 -7.33194 0.251883 -5.14031 -2.55884 -8.25862 -6.68236 7.42052 0.311168 16.1277 -0.297481 1.12636 -0.357447 -0.501572 -0.684584 0.28046 0.549518 0.865382 0.514705 -0.333064 -0.334096 0.589806 -0.23527 
3.55155 7.15826 19.0711 -2.39372 -11.5243 1.52599 -3.33214 -1.06637 -5.89626 -7.47181 2.77634 3.92944 16.2593 -0.267381 1.27375 -0.62057 -0.544192 -0.779626 0.0113735 1.53984 0.522373 -0.0355526 0.510139 -0.961788 0.58598 -0.313956 
3.77092 7.8901 15.7407 -2.53209 -8.77477 1.75001 -1.38345 -4.20775 -6.86304 -3.50285 1.94295 5.4015 15.6456 -0.120278 1.084 -1.39158 0.638829 0.342384 -0.568624 0.00967269 0.316628 0.665088 0.543504 -0.964478 0.361763 -0.453943 
4.17848 10.1348 14.2659 -2.547 -11.0783 1.91916 0.592088 -2.70573 -6.90027 -5.86971 2.78771 2.41556 14.9632 0.019259 0.880573 -0.96168 0.0986172 1.45553 -0.886684 -0.65114 -0.875294 0.568207 1.58466 0.220687 -0.54998 -0.455659 
3.85533 9.80178 13.142 0.670211 -5.84303 -2.78782 -7.05407 -0.156024 -4.43117 -4.76589 2.59244 2.87692 14.506 -0.368907 0.102825 0.348165 -0.151191 1.00987 -0.329643 -1.51742 -0.664896 0.635907 1.41 0.57365 -0.281722 -0.154468 
3.60563 10.6053 15.5621 -3.50179 -5.71252 -0.638519 -3.75254 -7.46871 -4.27116 1.08303 3.55503 2.44183 14.5508 -0.687234 -0.0112712 0.206553 -0.0961338 1.21298 0.124156 -0.861094 -1.45317 0.0022891 1.56019 0.294426 0.800536 -0.103 
2.21281 8.16899 16.8335 -2.81065 -6.4083 1.38063 -6.79822 -5.15074 -4.99807 0.0708001 4.42755 3.97976 15.0795 -0.746206 0.617217 -0.948946 -0.0752098 0.971071 0.632859 0.457168 -1.18843 -1.16936 0.768241 0.390127 -0.238521 -0.260876 
1.56357 10.8948 13.453 -1.28724 -4.73075 0.455712 -3.8413 -7.47421 -6.60538 -0.487081 3.34229 5.86682 14.1615 -0.696437 0.291186 -1.9589 1.49933 1.29479 0.0134908 -0.245809 0.421495 -0.423351 -0.952729 0.705685 0.285501 -0.400769 
1.14534 12.7431 9.45182 -0.813112 -1.47856 -0.170642 -4.72384 -6.09543 -9.11088 -0.139629 4.64944 -0.0281734 13.3963 -0.390135 0.809129 -2.82513 2.14262 3.06803 -1.28932 -0.811864 -0.867846 0.139693 -0.444951 0.808787 1.09664 -0.620961 
0.657186 9.77416 9.4584 2.99611 -1.70346 0.204572 -6.01877 -4.8889 -4.3315 -3.5754 6.9725 5.8733 13.3885 -0.858738 0.0452266 -3.69166 1.45685 3.77675 -0.290133 0.389678 0.583808 1.59597 0.521327 0.215294 1.79445 -0.614625 
0.715324 12.775 4.70512 5.76079 7.41821 -4.94042 -9.76881 -10.7826 -5.43654 -0.609797 6.65637 9.45973 12.3612 -0.922882 -0.348891 -3.50659 1.06892 3.94789 0.170457 1.96361 2.74887 2.86398 1.35644 -1.24062 0.999843 -0.542719 
-2.51511 11.105 -2.63199 2.71008 9.70462 1.38994 0.629569 -2.21157 -0.462686 2.35464 3.4153 10.0951 11.606 -0.721603 -0.0747987 -2.34887 0.0400323 2.59896 0.000444937 2.80282 2.7709 1.45939 2.32275 -0.774849 -0.917084 -0.4366 
-1.88293 10.3332 -2.03593 4.67451 12.5569 0.0889604 1.77005 6.31027 3.27459 3.67757 0.224965 2.86013 11.574 -0.411439 -0.259211 -0.506533 0.480941 1.0433 0.577037 3.32837 2.26883 -0.0813018 1.31513 -0.698255 -1.99412 -0.194504 
-1.6517 10.6211 1.08459 3.73941 8.72199 -2.30789 2.22588 0.419162 -1.39012 5.89467 6.31396 4.58768 11.5991 0.206198 0.123792 0.274529 1.26217 0.585265 -1.13393 1.12844 -0.0181974 -0.00186047 0.396997 -0.162893 -2.17156 -0.0556996 
-1.77358 11.7209 0.314164 7.65083 13.126 -0.20632 6.07488 -0.753839 -5.37934 4.19585 1.71577 2.24286 11.3921 -0.33237 -0.479692 -0.666629 0.680719 0.0569929 0.549796 1.86484 -0.301098 0.251547 -0.471703 -0.574448 -1.83275 0.0174131 
-1.5388 11.0301 -2.4344 7.53274 12.3464 -4.13205 4.11935 1.2295 3.85497 4.08049 1.85543 -0.454022 11.4184 -0.892437 -1.69474 -1.74776 -0.414288 0.245473 1.14016 1.75111 1.3598 1.19652 -0.806418 -1.53224 -1.28085 0.0123774 
-3.60123 7.7302 -3.60958 6.18144 11.0296 3.75002 10.1475 4.39961 1.90978 2.22615 -0.41801 -3.78276 11.7514 -1.19853 -2.08208 -1.53767 -1.7549 -1.4507 0.436619 0.0859426 1.21254 1.06934 -0.346694 -0.0891192 0.28167 0.012115 
-5.20006 4.14269 -5.69235 2.40267 10.9975 1.41475 8.94515 4.64142 0.947911 2.84743 -0.28037 1.19622 11.4813 -1.416 -1.82109 -2.09906 -2.04657 -1.75966 -0.657108 -0.483343 0.61729 -1.38789 0.938561 0.224093 1.76003 -0.013211 
-5.93559 4.75425 -5.7452 1.44135 6.54693 -0.796625 4.0917 3.60289 1.42088 3.0789 2.33807 2.82609 11.4212 -1.41887 -1.13585 -2.67488 -2.13793 -1.65989 -2.63798 -1.16834 0.190601 -1.09071 1.98329 0.676493 2.35942 -0.00405388 
-7.4516 3.41264 -11.8619 -0.330059 5.78941 -5.14427 4.73054 4.71431 -2.84001 8.34692 1.59786 5.04173 11.5175 -0.831781 -0.368322 -2.00556 -1.53096 -1.10301 -1.91992 -0.274825 0.321337 -0.243312 0.757673 0.519255 1.20427 0.0616429 
-9.56979 2.41596 -13.8992 -3.14185 5.33424 -6.16039 6.41311 5.31617 -1.64981 9.39287 2.02534 6.09157 11.7131 -0.19708 0.163753 -0.171815 -0.775696 -0.148567 -0.852598 0.128493 0.289665 0.324133 0.964106 0.10959 0.362221 0.0457018 
-7.54186 3.47022 -11.6432 -2.96052 6.08884 -5.50295 6.41032 5.39147 1.26669 3.47882 2.47227 5.58482 11.6436 0.409847 0.91339 1.78711 0.329638 0.966061 0.38485 0.56816 1.0447 0.652368 -0.399143 0.342004 -0.635401 -0.0543165 
-6.87586 5.54423 -6.71363 -1.1219 5.65438 -4.88027 3.89427 4.71264 0.988189 10.3335 2.44881 4.36564 11.5866 0.407784 0.436447 1.0896 0.545549 0.616625 0.522586 0.6316 0.162597 -0.679211 -0.751352 0.0528018 -1.78123 -0.104677 
-6.74933 6.41546 -6.5191 0.308158 10.4597 -3.86008 8.83076 10.2396 -0.897174 5.88089 3.09614 2.72768 11.3091 -0.559748 -0.546631 -0.567582 -0.013627 0.205639 0.880717 1.45601 0.0823916 -0.181565 0.26848 -0.716998 -1.17376 -0.0329208 
-7.92714 3.12558 -11.0132 -2.04844 6.23196 -4.3689 8.3609 3.70509 -3.96393 4.43507 1.97741 -1.38599 11.3569 -0.470766 -0.825095 -1.57022 -0.891064 -0.332476 0.68319 0.208069 -0.347699 0.68732 -1.74669 -1.2528 -0.311571 -0.0255166 
-9.81496 1.94639 -12.3313 -2.56539 6.82825 -1.35505 11.4571 6.3072 2.83493 7.77043 -0.877023 2.59183 11.5939 -0.521124 -0.29298 -0.382402 -0.34631 -1.1833 -0.458047 -0.698768 -1.98098 0.735313 -0.860943 -1.46794 0.644728 0.0321144 
-7.69687 3.65329 -11.6586 -4.14044 5.8077 -2.71684 3.62147 4.94034 2.55874 0.65525 -1.82862 2.87572 11.3167 -0.274103 0.586258 1.00325 0.55301 -0.502631 -1.08362 -0.505896 -1.45662 0.36471 -0.624229 -1.00994 1.16416 0.0161727 
-9.47009 4.68671 -8.1084 -0.377389 4.75528 -6.97634 7.70663 -0.282945 -0.481945 3.46609 -2.34053 3.82047 11.4898 -0.108347 0.651405 1.1996 0.813905 -0.519834 -1.55021 -0.341569 -1.84036 -0.967444 -0.579782 -0.343892 0.340203 -0.00349245 
