8.834 4.78554 -2.22862 -9.11388 -10.0913 -0.545588 1.70019 8.52857 6.57288 4.5823 -4.85908 -3.85573 13.4934 -0.348911 0.0188866 0.890894 0.585036 1.63913 0.368087 -0.198002 -1.24521 -1.51041 -0.639796 0.60571 0.836388 -0.158869 
8.66247 4.72349 -0.643953 -8.31623 -5.38292 -0.579571 2.30685 4.11933 4.19229 4.63485 -1.65391 -3.45912 13.2084 -0.928201 -0.0760342 1.26677 0.669105 3.3396 1.12183 0.438914 -1.27842 -2.79061 -1.38335 -0.272079 0.682493 -0.188489 
7.17522 4.91101 1.43352 -6.58752 -4.24983 1.31184 0.40685 4.50715 0.211114 1.35704 -3.43313 0.12791 12.8415 -1.39425 -0.320113 1.56586 -0.100107 4.0839 2.08771 2.41514 -0.90804 -4.19102 -1.32329 -1.44692 0.312768 -0.0117909 
5.02239 4.34264 2.27415 -7.03153 3.68597 4.13486 4.54143 4.14715 -4.19928 -0.721806 -6.93246 -2.43508 12.8768 -1.2736 -0.391584 1.19021 -0.97098 3.59774 1.69307 2.55385 0.835921 -3.47744 -1.13413 -2.68245 -0.399977 0.198904 
3.68279 3.3754 4.14165 -10.2568 5.79374 7.53573 12.6586 3.97445 -10.1864 0.64416 -9.4544 -2.80391 13.6002 -0.75766 -0.0810593 0.482536 -1.09222 2.90986 0.373284 1.15113 1.30787 -1.38547 -0.583348 -1.74917 -0.918233 0.282706 
4.04066 3.53337 3.95302 -11.3365 7.58401 4.77382 8.95023 8.56528 -7.99613 -0.679358 -12.0555 -3.9931 13.8236 -0.472625 0.229364 0.734179 -0.95097 0.727738 -0.723597 -1.23704 0.992951 -0.259149 0.0569038 -0.74018 0.570127 0.380639 
3.87778 4.91035 3.00676 -9.89613 8.35044 2.85877 3.95808 8.83744 -4.81778 -1.58092 -9.61746 -3.68425 13.7817 0.306263 0.339289 -0.433298 0.376562 -0.144116 -1.67993 -3.83555 -0.300011 0.558907 0.336916 1.66545 0.841103 0.0599304 
2.56177 4.72199 6.51249 -11.9667 6.04631 2.85535 2.70649 6.68042 -8.17934 0.675254 -10.5518 0.855723 14.6893 0.798277 0.182145 -1.03432 0.503071 -1.22514 -2.00189 -2.85633 -1.87882 0.0331922 1.09212 2.26668 1.02587 -0.0669918 
5.95355 4.47754 0.695429 -8.05886 5.84201 0.0953231 -3.39728 3.41683 -7.30028 1.65143 -1.87896 -1.0228 13.467 1.3636 -0.743403 -1.58824 0.591704 -1.83729 -2.51626 -1.89404 -1.54322 -0.117061 1.70244 1.92128 0.485699 -0.0732989 
6.99416 4.6605 -0.062919 -9.73979 2.71254 -3.85392 -1.65373 1.88151 -6.58893 3.16508 -4.59137 -0.194487 13.646 1.55013 -1.01377 -1.47687 0.711638 -2.82752 -2.38141 -1.43755 -0.535734 1.38514 1.49152 1.303 -0.198358 -0.0153591 
8.47958 1.22408 -1.64674 -8.05106 0.830854 -6.36787 -3.33202 3.5208 -6.19829 5.68635 -2.99128 -0.730644 13.9368 1.10298 -0.775874 -0.387518 -0.564458 -3.46954 -1.05528 -0.0290669 1.00942 2.00344 0.536485 -0.334 -0.247699 0.37122 
9.04942 1.27987 0.29924 -8.4124 -5.5857 -5.82008 -4.51388 3.94976 -1.80464 6.11539 -3.48065 -0.282146 14.3776 0.971278 0.440161 -0.609614 -2.27834 -2.58575 1.62478 1.00569 1.45801 1.76196 -0.664447 -0.549573 -0.734671 0.453099 
10.4408 2.28848 -1.42324 -11.5448 -7.35655 -4.19798 -2.11254 7.42981 0.324773 2.8587 -4.10432 -2.21747 14.9573 0.767374 1.29807 -0.960734 -3.27804 -0.637556 3.15223 2.40742 0.332025 0.825474 -2.50955 -1.25739 -0.34746 0.428044 
10.8699 6.3291 -3.22274 -19.3846 -6.12248 3.18501 2.765 7.21706 -1.04068 1.25667 -6.78271 -3.12443 15.4012 0.630829 0.291263 -1.71748 -2.03993 1.9115 3.98458 2.05619 -1.03993 -0.916255 -2.84419 -0.245401 1.40711 0.31196 
11.4062 5.18979 -4.68942 -18.9552 -2.08853 4.89072 5.06563 3.54727 -2.45291 -4.43203 -7.62722 -1.0468 15.5652 0.106246 -0.94686 -0.982805 0.904645 2.86764 3.46391 1.02147 -2.77464 -0.8468 -0.949561 0.740792 2.74052 0.0436809 
11.7209 1.28553 -6.65506 -14.9069 1.33779 9.55849 2.17798 0.691377 -4.99708 -4.46019 -2.9462 6.16806 15.6334 -1.06504 -1.44629 0.336814 4.26198 2.3375 2.11791 -0.353334 -2.63742 0.181355 1.23934 3.43722 0.931948 -0.223233 
10.5466 0.0759683 -4.62111 -9.26047 3.25149 9.93483 3.28832 -3.18055 -1.93103 0.969323 -2.31862 6.83889 15.0596 -3.55505 -0.536852 2.71629 6.09381 2.1734 0.859809 -1.38424 0.62654 1.61204 3.05668 3.44106 -0.978495 0.0189698 
5.97456 1.65457 -1.57282 -2.92202 2.89501 11.2525 1.88699 -2.60612 -0.39484 4.75267 7.74907 -2.40753 14.5379 -6.30729 0.440881 3.34396 5.84527 1.05127 -0.384187 -1.13498 2.79136 1.37034 0.734781 0.4248 -1.85421 0.697306 
-3.49589 2.32101 6.35094 5.52143 7.99984 8.34276 -1.71006 8.32872 3.30617 6.24494 4.23043 -1.65148 16.2078 -6.98438 1.28519 2.55767 3.35474 0.926682 -0.689049 -0.860797 4.61101 0.860903 0.171584 -0.759855 -0.784735 1.27531 
-12.7943 2.36742 4.5787 6.9285 4.21998 8.43359 -0.997734 8.89354 -0.763997 -3.4241 -4.09673 1.14218 18.5458 -5.12109 1.91177 1.10302 1.09657 0.602344 -0.25085 -0.478677 1.64846 -0.318565 0.602902 -1.97979 2.46678 1.26666 
-14.9909 6.14547 5.09146 2.58797 7.22242 7.89905 0.426695 14.1247 2.55807 5.91563 -0.194998 1.14035 19.4322 -2.45937 2.39026 -0.560118 0.61441 0.381902 1.23893 1.84598 -1.76633 -1.02816 0.556592 -0.315564 2.56253 0.802715 
-13.8834 9.30117 4.572 4.02755 6.29544 10.2201 -1.57478 2.73823 -1.61361 7.93183 0.0628305 8.53048 19.259 -1.22331 2.12722 -0.475538 1.05733 0.539805 0.832749 1.22789 -2.47411 -0.943682 -0.156272 0.287867 1.46412 0.482372 
-15.2482 10.8054 3.55369 10.044 8.87162 13.6441 7.80835 2.5747 -1.40984 3.34994 0.572833 7.467 19.8648 -1.19355 0.497829 -0.423385 1.09076 -0.21527 0.187368 -0.750919 -1.29624 0.0165782 -2.82932 -0.575632 -0.303661 0.321182 
-18.7822 10.6735 2.96989 8.48715 6.0944 9.72479 1.45089 2.29799 -3.49845 -2.92261 -3.04131 5.29944 20.7414 -1.35375 -0.817238 0.174801 -0.909377 -1.33517 -2.34054 -2.82398 1.13573 1.94915 -2.05442 -1.06522 -2.90247 0.202189 
-18.5092 7.94843 3.77559 5.81195 6.24659 9.08355 -4.84073 7.86357 3.58338 -2.80375 -1.52109 1.23756 20.2969 -0.47855 -1.25869 0.492575 -2.87431 -2.92329 -2.15418 -2.95358 -0.226482 0.375877 -1.80422 -1.23873 -1.94061 -0.0937372 
-19.0216 6.64347 5.33506 1.59667 0.932117 0.797703 -9.37012 5.77243 5.63551 0.736578 -4.21631 -2.86715 20.0539 0.638566 -0.787419 2.01513 -1.77419 -1.74968 1.22366 1.16313 -0.630716 -0.374277 -0.313507 -0.715367 -1.84904 -0.293909 
-17.5212 6.52701 4.83398 -0.88236 -3.16366 7.3368 -1.54904 -0.294927 -4.09744 -7.50076 -5.03332 1.84725 19.7398 0.94774 -0.72484 2.55937 -0.226143 -0.843012 2.92915 2.63963 -1.89256 -1.15941 -0.145466 0.356704 -0.398291 -0.322059 
-16.0834 7.44716 12.5164 2.96337 2.05111 16.7164 5.6207 3.22366 -1.52943 -2.14164 -4.86203 -4.25061 19.5504 2.39784 -0.610806 2.71029 1.16 -1.23553 0.94489 0.167865 -2.45797 -0.713625 -0.408184 1.24929 -0.345901 -0.520544 
-15.2397 3.92239 12.9818 3.99788 1.47203 15.7699 0.862019 -0.324863 1.3688 -2.09197 0.585288 -0.0621653 18.9384 4.21752 -1.40606 2.00272 1.69145 -1.75603 -4.58422 -2.63263 -1.52392 0.669656 -1.02733 0.701669 0.275693 -0.920404 
-8.17321 4.89175 14.8126 4.95654 -7.5634 1.30559 -9.73633 -6.50247 -0.665734 -4.00874 -0.779155 -3.64195 17.8519 5.40235 -2.2418 -0.211601 0.752287 -2.10482 -9.00595 -2.5148 -1.49425 -0.694206 -2.76012 0.77566 0.725996 -0.97731 
-0.388689 0.77444 13.6994 6.57829 -7.13657 -7.87887 -7.03369 -3.05146 -1.181 -11.7039 -3.56641 2.92139 15.987 4.74041 -1.53352 -1.54599 0.97866 -1.22641 -7.36036 -1.55589 1.10533 -2.71054 -1.48943 0.238691 0.136877 -0.735882 
3.5029 -2.18785 11.0995 5.4346 -4.1687 -16.4889 -3.00542 -2.8843 -3.72556 -11.1363 1.09212 -2.11241 16.1395 2.7977 -1.67837 -2.18229 2.23977 -0.21943 -2.5672 -0.549192 1.44674 -1.87653 0.759172 -0.197675 0.723283 -0.438229 
2.62432 -0.205425 7.10837 8.65215 -6.35739 -12.1346 -10.2829 3.39269 -10.654 -5.97537 0.843107 -0.142553 16.1152 -0.338831 -1.53908 -1.67817 3.6089 -0.346135 0.308039 -0.554553 0.293021 -0.400854 4.16433 -0.964549 -0.991573 0.0247463 
4.30879 -3.01017 7.1967 15.1185 -9.05014 -9.40252 -10.8577 -2.49086 -5.31192 -3.07713 -3.97229 1.50643 15.5967 -0.157708 -1.14473 -1.9347 3.83837 0.0803402 -0.305996 0.412668 -1.02912 0.963057 3.59634 -1.88126 0.00833316 -0.326785 
-2.48579 -6.50978 7.26002 19.7808 -6.42652 -9.88186 -5.88032 -1.78308 -2.39209 5.08818 -5.85695 -3.8459 16.3822 1.3787 -1.05807 -2.23175 1.24355 1.24072 -1.35874 2.4627 -3.43701 2.01486 1.78496 -0.386566 0.536023 -0.243123 
5.26942 -4.7593 1.35018 19.0621 -3.73243 -19.1452 -3.14337 -5.44202 -3.04121 1.31364 -4.96416 -0.219071 14.3721 2.75886 0.321709 -3.39538 -2.60262 1.30543 -0.72307 1.97297 -3.46747 1.84788 0.751717 2.8041 -0.1357 0.0141891 
9.0375 -4.6212 -1.12715 12.8981 -2.81266 -14.057 -1.82657 -12.3168 -1.71501 0.754022 -0.593785 3.40031 15.5119 3.55445 1.43977 -3.7593 -5.42262 0.46112 1.36634 0.762324 -2.5416 0.385899 -0.630451 5.2929 0.061183 0.161312 
12.3414 -2.34591 -5.58661 5.54675 -4.32993 -10.9303 -3.01974 -14.5613 3.58892 2.84853 7.41663 -2.79517 16.1028 1.20227 1.37657 -2.52924 -5.95697 -0.183784 4.31051 0.307575 -0.326131 -1.15352 -0.0166357 5.43294 -0.47839 0.460437 
11.7504 -0.517605 -8.0681 -0.574598 -3.82217 -7.15763 -2.13052 -9.93144 -3.77767 1.16848 14.4171 -2.25193 16.3234 -0.0372058 1.56045 -1.81703 -5.21303 0.275037 3.36883 0.833914 1.56175 -2.7316 0.915455 3.93072 -0.61255 0.19249 
9.92432 0.0717702 -7.82552 -3.9864 -4.14659 -1.04239 -1.45351 -8.26535 -7.77749 1.02323 14.6951 0.215101 16.2685 -0.596967 0.718472 -0.70024 -3.98004 0.975084 2.01414 1.83106 1.91438 -2.94323 0.478789 1.77394 0.623433 0.06537 
10.06 1.97222 -9.09285 -8.40051 -1.52914 -2.15678 1.55989 -7.65605 -9.68981 6.24395 15.4206 -1.16757 16.3915 -0.448136 0.144244 -0.383551 -2.12509 1.26352 0.303465 1.98206 0.890149 -0.390343 0.281866 -0.594249 0.019479 -0.0265591 
10.2018 0.00153542 -8.57543 -10.4405 -0.601022 -3.36004 4.29036 -6.1271 -8.17115 2.70474 15.7846 -0.220189 16.3956 -0.0475898 -0.373824 -0.425091 -0.447932 1.68403 -1.50967 1.34446 0.783849 0.874249 -0.55425 -1.27788 -0.534839 -0.102026 
9.37102 0.238734 -9.6109 -7.97303 0.722628 -4.48147 4.90785 -6.54983 -5.53255 1.73705 10.9011 -1.93689 16.127 -0.245521 -0.661033 -0.227696 1.39581 1.91324 -2.59993 -0.15402 0.47524 2.78105 -2.00659 -1.79475 -0.363176 -0.159932 
10.0309 -0.930606 -9.69195 -6.4398 3.14765 -7.4284 3.59482 -4.89922 -5.48487 0.505429 10.5654 -2.07444 15.8906 -0.587047 -0.30222 -0.674624 3.0764 1.41716 -1.80514 -2.47284 0.151622 3.42413 -1.19527 -1.68309 -1.2041 -0.148388 
8.91788 -0.866873 -9.67307 -3.4218 6.16272 -13.1223 1.13756 -5.89379 2.8723 -2.68934 9.05647 -2.05633 15.8443 -0.532265 -0.635958 0.0545774 4.01707 0.358331 -1.47159 -3.39203 0.292801 3.20504 -1.08225 -1.08679 -0.892644 -0.180666 
7.49313 -0.956763 -11.9175 2.66594 3.76471 -8.06534 -6.18871 -5.69701 4.74708 -1.05842 8.29149 -6.18097 15.795 -0.640666 -0.74092 1.76359 4.83671 -1.02484 -1.39995 -3.29662 0.288976 2.9725 -1.53028 -1.27721 -0.180496 -0.27873 
7.97857 -2.92798 -8.22526 7.55945 2.20575 -11.5209 -7.16054 -4.68693 5.37667 -2.89225 6.60415 -4.34685 15.2715 -0.611465 -0.548585 2.72275 3.97385 -2.70141 -1.5188 -0.180041 1.24205 -0.184572 -3.27928 -0.433526 1.12154 -0.236115 
7.2972 -3.60465 -1.5979 12.2531 0.00194883 -15.2288 -8.73925 -4.05777 8.12544 -7.04453 5.40554 -1.83166 14.7833 -0.972149 0.137076 3.78294 2.1535 -2.66718 -1.79439 3.05677 -0.353765 -1.29473 -3.62703 -1.08474 1.19008 -0.232093 
5.95852 -2.28585 -1.2191 11.6538 -5.46297 -17.1345 1.51262 -0.503175 0.260264 -16.0927 8.33182 1.37673 15.1696 -1.29595 1.30248 3.80525 0.347127 -1.87911 -0.397553 3.89092 -1.33084 -2.11016 -2.28525 -2.11604 1.28288 -0.329916 
3.64241 -0.592445 3.49417 11.3862 -5.73684 -14.2305 4.75855 -9.55771 0.831651 -12.5933 2.00395 -3.09235 14.6855 -1.26714 2.02791 2.4091 -1.05277 0.482349 1.83406 1.85109 -2.00338 -2.22491 0.027552 -2.09763 1.15739 -0.50652 
3.32623 2.07834 8.25497 9.72853 -4.32039 -14.0079 5.54517 -8.59117 -1.52725 -11.5441 -2.27524 2.69789 13.6708 -1.27603 1.75418 1.72936 -0.922875 2.69503 3.21905 -1.88342 -1.96459 -1.27244 1.53041 -2.1426 0.560018 -0.635345 
2.27763 4.35278 5.71056 7.95192 1.8424 -7.62184 -1.50007 -10.0306 -2.10534 -9.18106 0.220925 3.29473 13.0001 -1.10062 1.1534 0.739542 -0.639398 2.73505 2.73007 -2.43472 0.725397 -0.936813 0.12088 -1.55283 0.409202 -0.478177 
0.260765 4.01244 6.3195 8.75663 4.22258 -4.34357 -4.77515 -10.0897 -4.63346 -10.1467 -1.48969 0.983276 12.8355 -1.40108 -0.653258 -1.28092 -1.29198 3.1623 3.07426 -2.09682 1.40902 0.788892 0.281548 -1.24724 -0.834253 -0.283549 
-0.32797 4.20752 8.15962 8.6752 3.66692 -5.41228 -2.2549 -5.18147 -2.29931 -12.6876 -6.153 -0.189037 12.7123 -0.977871 -1.34453 -1.3849 -1.50922 2.38665 1.58037 0.276012 2.65817 1.06378 0.0749104 -0.378174 -0.193591 -0.110247 
-2.37638 -1.11532 0.625851 2.90699 10.5789 0.25863 -4.56149 -3.97067 2.5142 -8.38309 -5.32445 0.268507 12.397 -0.586854 -0.813812 -1.12798 -2.17463 1.02353 0.353034 0.194725 1.73504 1.89148 1.03904 0.722209 0.517978 0.0248004 
-1.29315 0.194021 1.63288 3.33064 10.5975 -2.0211 -0.226831 0.200696 -0.360247 -9.68833 0.247439 2.68416 12.6681 -0.859321 -1.09496 -1.49706 -0.734819 -0.490757 2.21319 1.04897 1.53508 1.63172 2.44345 1.4241 0.187256 -0.140693 
-2.19091 1.95013 3.943 0.555747 5.87493 -4.27399 -4.81556 -4.10557 3.85443 -6.45118 -1.07886 2.13657 12.9816 -0.674006 -1.0042 -0.138569 0.928438 -1.97141 2.25404 2.12929 0.469971 0.847237 3.53832 1.13905 0.553483 -0.260691 
-4.71731 -2.8 -0.984249 6.17673 3.5651 7.91996 3.117 2.56135 5.18917 -1.4363 -1.15529 -0.186789 11.7165 -0.835978 -1.83142 -0.890708 0.0824351 -1.99357 2.77799 2.51603 0.500013 1.15386 4.54239 -0.275481 0.365434 -0.329511 
-4.03433 -4.63931 1.24157 6.12613 4.23803 6.55829 4.41303 -2.80114 3.97567 5.1825 1.07218 4.4714 11.5694 -0.856627 -2.45619 -1.91274 -0.710566 -1.97507 1.46849 2.10672 1.55526 0.592923 3.10244 1.03109 0.395882 -0.314344 
-4.55134 -5.66835 -1.46995 0.957626 1.44811 6.45269 7.73905 2.04855 5.34845 7.2068 -2.20549 3.34392 11.7267 -0.743848 -1.59581 -1.39712 -2.26497 -1.73259 -0.408355 -0.689499 0.721519 0.338527 1.33734 0.5703 0.2752 -0.0840537 
-6.55704 -8.89663 -5.37785 -0.387534 -2.94193 3.80212 3.40702 3.92713 6.73941 4.73947 4.60167 2.35062 11.4048 -0.871961 -1.0096 -1.22902 -1.67727 -1.88922 0.503472 -1.28896 0.799361 0.783194 -0.270703 -0.807492 -0.692644 -0.0689008 
-7.1752 -8.6504 -4.66014 -1.89127 -1.50789 7.25627 0.172509 2.80481 5.49994 5.47193 -0.0685395 2.2496 11.3785 -0.486919 -0.37489 -0.225947 -1.06098 -0.85414 0.864903 -0.43484 -0.711216 0.727127 -0.621052 -1.0741 -0.97306 -0.102345 
-7.08221 -8.1963 -3.30842 -0.83578 -3.73007 8.67386 1.7515 0.817534 7.81589 4.69642 -4.03375 1.55533 11.3989 0.019689 -0.00810146 0.156018 -0.400628 -0.288609 1.76055 1.19235 -0.460237 -0.217432 -0.585437 -1.22201 -0.609857 -0.0337193 
-6.72334 -7.89297 -3.6344 -4.12317 -2.42852 8.34133 6.3926 0.0472636 8.44584 4.12306 -3.25827 -1.12374 11.2179 0.203674 -0.148055 -0.0669578 0.396902 0.140135 -0.592473 0.455031 0.941416 -0.352529 -0.465389 0.512477 -1.05416 -0.0432031 
-6.68452 -9.31585 -5.11063 -1.27472 -3.92466 12.0623 6.25873 3.00471 4.1793 2.48672 0.0864863 0.988007 11.3165 0.0825354 -0.392513 -0.631667 0.167336 0.547442 -0.760573 -0.92385 0.723219 -1.59389 -0.488101 0.11351 -0.454896 -0.0513896 
-6.35567 -8.83089 -4.09382 0.312709 -0.70992 2.59967 0.194048 6.41829 5.55559 4.24984 0.433729 -2.73753 11.2037 -0.103812 -0.159499 -0.906825 0.0708057 0.88986 -1.50067 -2.51526 -0.475707 -1.10398 0.83383 1.06706 0.535839 -0.00522556 
-6.85337 -9.6899 -6.23704 -2.21704 -1.85216 7.74182 0.231526 1.24811 1.29156 2.19253 -5.3122 0.0877485 11.1491 0.00860653 0.159573 -0.132821 -0.506526 -0.207405 -1.40718 -1.65432 -0.80281 1.84969 2.827 1.05492 0.613585 0.0113011 
-7.15798 -8.50344 -7.60532 -3.29798 0.984533 2.99823 -3.17011 -1.45297 4.36981 8.43931 4.77637 2.00559 11.2755 -0.241691 -0.123134 -0.202115 -0.19818 -0.748364 0.562833 0.589277 -0.436998 1.86192 1.99437 1.28426 0.733153 0.0859533 
-6.24033 -8.68171 -4.01898 -2.00201 -5.80891 4.82714 -0.330772 2.92629 14.0206 14.527 3.18978 1.68438 11.3371 0.0123526 -0.00375576 0.254577 0.286813 -0.703682 -0.63616 0.597449 1.23212 1.96206 1.11326 1.31284 -0.609733 0.0716311 
-7.87065 -9.95066 -6.21343 -0.785705 -2.47336 6.87118 3.42158 3.39421 8.50062 8.05444 2.60402 0.129925 11.5395 0.351604 0.364274 0.0754374 -0.15175 -1.52627 -0.494041 0.800607 0.23331 0.0380753 -1.24343 -0.706419 -0.646218 0.0245209 
-6.43527 -8.98507 -5.6601 -2.03911 -3.64162 2.62455 -0.0770738 4.9851 9.03646 7.95126 2.33816 -2.02308 11.3752 0.640744 0.48881 -0.620586 0.027366 -0.31849 -1.16662 0.500526 -0.617307 -2.12868 -1.19928 0.281003 0.239088 -0.0386983 
-5.30249 -6.53039 -6.40758 -4.03818 -7.73046 1.62932 0.706079 -1.31582 7.05228 5.51004 1.67009 0.628225 11.379 0.921449 0.504301 -0.298756 0.28937 -0.573009 -1.1522 0.382274 -0.51892 -1.37334 0.534828 0.763907 0.965523 -0.0782631 
-4.32069 -7.94779 -7.02484 -0.238942 -4.77281 1.61495 3.52961 2.19478 4.10144 9.80281 5.06176 2.63067 11.2239 0.521095 0.0657161 -0.334674 0.739958 0.0695259 -0.203356 1.00369 -0.207004 -1.28209 0.799586 0.883888 1.13099 -0.0457924 
