-3.92534 -8.41488 -5.58692 2.78597 -4.82181 0.7015 1.8216 2.24707 -2.5352 1.3256 3.33425 2.49294 11.4321 -0.0141872 0.227111 0.476048 0.693134 1.13756 0.707168 -0.275257 0.640675 1.87233 0.61674 0.112031 -0.174975 -0.0181182 
-3.09509 -6.83078 -3.37707 5.1329 -3.05409 1.27271 -1.28995 0.953107 0.401935 -0.176092 0.655186 3.30921 11.2522 0.156348 0.367702 0.757925 0.649417 1.22997 1.59588 0.282595 0.700539 2.05434 0.817888 -0.236217 -0.663225 -0.0232932 
-4.4114 -8.07138 -4.3116 5.07818 -0.0178695 3.95174 2.00109 6.09742 5.3579 5.16015 5.23394 1.20993 11.4315 0.0376532 0.511392 0.943143 0.997937 1.03901 1.14787 0.638385 0.614331 1.87226 0.425602 -0.148265 -0.90811 0.00820847 
-2.90057 -6.74812 -2.43495 4.88695 -1.07393 7.05577 3.14482 3.82458 3.78992 3.49777 1.20332 -0.181684 11.316 -0.168159 0.0380641 0.328355 0.23971 0.563398 0.655434 -0.0656543 -0.037166 1.56392 -0.35984 -2.19505 -1.30979 0.0334852 
-3.83433 -5.89925 -1.34226 7.89863 -0.616843 3.54933 2.79613 3.88298 5.1321 1.61668 2.31886 -0.302162 11.4413 -0.134253 0.398575 0.184892 -0.617733 -0.583389 0.39849 0.233931 -0.806038 0.00337818 -1.37808 -2.82482 -0.727671 -0.0312543 
-4.22442 -7.72652 -3.21997 4.92122 0.0623884 4.75108 -2.01575 1.8745 8.33442 -0.203557 -8.8625 -2.48367 11.4147 0.237185 0.312949 -1.04884 -1.23632 -0.196054 0.847619 -0.271912 -1.94395 -0.115443 -0.277943 -0.944384 -0.530442 -0.00887165 
-4.42075 -5.58931 -2.99463 1.97237 -3.50297 7.09653 5.75103 3.04227 3.10254 0.120391 -3.85726 -1.27743 11.2259 1.97931 1.36423 -1.85718 -3.30949 -0.310526 -0.0221142 1.90967 -2.58059 -2.39586 -0.182986 0.0381063 0.612036 0.273076 
-1.42144 -5.33835 -6.85298 1.66847 -0.611131 9.52027 0.307817 -5.47479 4.22749 2.8562 -0.430539 -2.34626 11.3793 3.50857 2.7886 -0.619003 -2.88985 -0.564174 -1.51102 2.7929 -2.17169 -3.04178 -0.427021 1.49673 0.832671 0.464828 
4.6607 -0.272173 -8.81163 -7.02245 -1.83271 1.05417 11.1827 -5.34531 -4.79375 -0.828126 -1.70659 2.68931 12.8243 4.17899 2.85549 0.0663752 -2.92642 -0.831994 -1.43167 1.28911 -0.877192 -1.79841 -0.746511 0.102145 1.3897 0.757774 
8.77772 3.55791 -3.40648 -5.03061 -3.59361 0.217142 9.23289 -4.79016 -2.92633 -1.8644 -2.45419 -0.303692 12.9396 3.25249 2.72706 1.12089 -2.895 -1.77698 -1.12157 1.63907 1.54478 -0.802052 -1.3387 0.0570118 1.85947 0.853685 
11.3746 4.24003 -4.38601 -9.31019 -6.1717 4.58974 7.73402 -1.686 -2.31261 -1.25186 -2.3347 4.6498 14.2346 1.88658 1.86984 0.973864 -2.26299 -0.85193 0.120467 -0.630308 2.20639 1.24815 -0.408036 0.508866 0.677304 0.668195 
11.4841 6.04083 -3.46135 -11.6627 -7.32652 2.14462 10.2275 0.419452 -1.02335 -3.62543 0.168577 5.97087 14.9426 0.797375 1.38994 0.0550585 -1.70362 -0.138284 -0.560306 -1.15531 2.33879 1.19299 0.124496 0.15933 0.312123 0.489769 
12.7404 7.83556 -3.91488 -15.0214 -4.22591 0.692761 7.53386 3.08185 0.495527 -1.98779 -0.473648 2.93855 15.1638 0.216067 0.903198 0.954391 0.353671 0.560373 -1.31421 -2.63331 2.21377 -0.211445 1.54352 -0.0583187 -1.52561 0.000402355 
12.0817 8.70984 -3.36676 -10.6931 -5.25792 -0.635897 3.5564 4.51985 1.63455 -0.87396 -2.58807 2.11255 14.9238 -0.675578 -0.376288 2.01515 2.64124 1.12556 0.180258 -2.62916 0.774396 -1.64947 2.2086 -0.526697 -2.01859 -0.39996 
12.1561 7.42152 0.338651 -8.02661 -4.40413 -0.591063 -2.09698 7.33266 -4.69878 5.09 -1.24797 -1.04909 14.246 -1.50306 -1.2133 2.83449 3.30565 2.59205 1.272 -1.40034 -0.187868 -2.02271 0.056052 -1.37352 -1.36697 -0.439713 
8.3983 4.36642 4.48765 -1.95383 -1.60959 3.68782 1.89715 2.16603 -6.67355 3.87868 -2.07774 -2.12827 13.4017 -1.48197 -1.133 2.36969 2.08132 3.32609 2.54017 -0.261617 -0.564647 -1.78186 -1.40603 -1.75697 -1.32281 -0.30506 
7.0668 3.94078 6.33035 -2.86276 6.91019 4.8909 1.36181 3.31942 -5.46399 -4.08385 -7.59642 -1.77587 13.7263 -1.15286 -0.46324 1.6885 0.485147 2.91059 1.45258 -0.215256 -0.341247 -0.358358 -2.17233 -2.30934 -1.2796 0.0379799 
7.21654 4.78522 5.48586 -2.86842 5.71539 9.32399 0.518915 3.70324 -6.89215 -3.31716 -8.1987 -4.13812 13.6584 -0.253514 0.321269 0.915441 -1.0038 0.688294 -0.032659 -0.665866 0.502143 -0.305254 -0.410415 -2.21539 -1.4166 0.235152 
6.98271 4.89591 8.28206 -5.14358 6.48631 3.85375 -2.48415 4.85782 -6.38127 -2.17375 -9.7342 -6.44216 14.3076 -0.125949 0.211521 0.655138 -0.935996 -0.899733 -0.825494 -0.690355 -0.149678 -0.600758 0.945315 -0.885683 -0.736948 0.200963 
7.17278 5.49519 8.089 -5.83244 2.04382 4.0431 0.490793 3.90754 -7.74118 0.871554 -12.0858 -6.87812 14.2869 -0.11425 -0.520316 0.10941 -0.554157 -0.725965 -2.0676 -1.69703 -1.36963 -0.0175786 1.65416 -0.137599 0.131999 0.191158 
6.45894 4.6434 8.30447 -6.06073 4.24731 3.40387 -2.07591 2.46887 -8.04327 -1.45164 -10.0813 -4.09061 14.4169 0.890279 -0.479095 -2.03577 -1.81364 -1.82413 -2.31483 -0.9653 -0.557412 0.570961 2.22774 0.972144 0.9921 0.284886 
6.90717 2.3099 6.0217 -5.18062 3.20507 -0.789051 -8.17033 -1.95044 -6.14904 4.59258 -8.71316 -4.6539 14.5595 1.74777 -0.078566 -3.32953 -3.81405 -1.97881 -2.48802 -0.19526 0.868393 2.04044 0.457463 1.11726 1.24174 0.572204 
11.5669 4.09309 -0.863145 -14.5377 -3.21495 -5.30431 -2.98009 4.99975 -4.32253 7.10442 -6.55981 -2.59377 15.5957 1.87558 0.200961 -3.897 -4.80914 -2.21649 -1.22778 1.88922 0.34322 1.99081 -0.7287 0.0394106 1.53643 0.669327 
13.3577 5.37752 -3.97485 -20.6642 -4.1191 -4.0429 -0.033417 6.98407 0.600648 -1.11916 -8.26023 -1.41784 16.5585 1.14226 -0.0576664 -3.01888 -3.55793 -0.408652 0.891207 3.26293 -0.871869 1.47447 -2.46729 -0.135698 3.1906 0.583274 
12.6116 4.11439 -6.18227 -22.3647 -3.17307 -1.1081 3.30175 -0.282285 -1.46406 -2.23927 -10.1107 1.97349 16.764 -0.50312 -1.04093 -1.81389 -0.898958 2.34639 2.38439 1.61972 -4.10043 0.489782 -3.01895 0.321277 3.38833 0.413862 
12.0961 2.01091 -6.41314 -19.0568 1.14086 1.56888 5.00341 -3.66877 -0.20595 -3.07205 -7.61621 9.01546 16.8917 -1.26209 -1.5786 -1.74057 1.30265 2.72484 2.12106 -0.479912 -5.60028 -1.44019 -0.581358 1.6507 1.64725 0.265965 
9.68207 0.571738 -8.71345 -19.8362 5.887 3.81174 2.60012 -10.176 -1.47032 -7.01391 -5.27543 9.13123 17.4984 -1.47497 -0.795904 -2.21943 3.47627 1.91147 0.819285 -1.77231 -5.35619 -0.389973 0.637329 2.00727 -2.08573 0.163586 
8.51197 -0.744149 -11.4121 -15.4152 4.97505 4.1025 -2.08216 -16.0705 -6.59715 -1.63863 -2.42434 3.23954 17.5211 -1.68351 0.578514 -1.60998 4.67085 1.1383 -0.758054 -1.88342 -3.42079 0.959815 1.53944 0.0286052 -4.0876 0.0239159 
7.02884 1.51241 -14.7799 -6.80414 4.46718 1.72151 -2.01701 -20.8624 -0.218322 0.230668 -2.67025 -5.56721 17.2672 -2.66669 1.60242 1.37461 5.13234 0.174456 -1.19145 -1.96254 2.23734 1.42582 0.654895 -1.05512 -3.46198 -0.0112228 
5.00519 4.43315 -11.4298 -2.21856 7.54227 -1.17628 -2.10512 -15.4295 3.96713 1.00285 -8.77578 -4.0733 17.1269 -4.95785 2.39894 4.69525 4.42707 1.1074 -0.543945 -1.16079 6.74017 2.1883 -1.44478 0.52361 -1.46732 0.575505 
-1.89799 5.99521 -1.83157 -0.772799 5.47567 0.49386 -7.2011 0.690238 0.376632 -5.06017 -7.37531 -4.52223 17.6394 -7.09729 1.346 5.55591 2.89732 0.744616 1.72498 0.750763 8.14164 1.02912 -1.77133 1.9632 0.855575 1.085 
-11.8139 9.00914 5.58994 3.70447 10.0078 1.9966 -5.29407 6.85406 4.04689 -6.2171 2.54624 -4.61953 20.2126 -6.5979 0.491851 3.75916 1.25515 -0.824165 3.03006 1.87603 5.5044 0.0335738 -0.308652 3.55399 1.45392 1.05424 
-20.0481 5.95439 4.48976 4.72093 6.95749 8.75996 3.33128 8.70401 4.88742 -5.01599 1.48475 -1.01622 21.1494 -4.36553 -0.147708 1.10786 1.56926 -0.186536 3.27205 2.5184 1.78676 0.25424 2.19142 2.67404 2.2347 0.630044 
-18.9092 6.91281 4.20532 1.31034 2.68054 9.84097 2.00884 8.08558 1.8796 -0.562498 4.56413 1.44328 20.6431 -0.914463 0.116988 -0.736094 0.5298 -1.03575 1.90189 0.470761 0.0916009 -1.45921 2.44383 0.433081 1.04193 0.0983152 
-20.1779 6.30483 4.40002 8.27059 8.20663 12.9319 1.73946 9.00829 2.73148 3.06964 4.98596 3.61987 20.5744 -0.0193567 0.870603 -0.258328 0.265573 0.271491 0.372989 -1.11454 -0.338935 -0.747341 2.07119 -0.0158385 0.594708 0.0999619 
-16.3212 9.41886 1.95434 4.57864 4.20451 9.42006 -2.14435 7.15992 -2.17118 1.95923 2.96104 -1.72791 20.9916 -0.855577 1.05726 0.87006 0.734694 1.11187 0.6701 0.52978 -0.565468 -0.0634687 1.1049 -0.0156004 0.541992 0.274456 
-21.4389 9.05439 4.32361 4.41464 7.55296 10.8354 -0.164825 7.47217 3.17611 4.07909 2.20711 3.54291 21.4749 -0.462987 0.91933 1.65467 -1.09627 -0.184317 0.96783 0.72395 -0.906761 0.148749 0.148594 -0.0953736 -0.741024 0.269291 
-22.5567 10.8243 8.59382 6.91178 8.56673 14.2397 5.60988 6.0263 1.33994 4.45725 5.87555 4.19172 21.5651 -0.849958 -0.330501 2.44876 -1.11324 -0.810957 1.35008 1.31033 -0.715815 0.932259 -0.997292 -0.0685409 -0.230911 0.0986948 
-19.3752 10.1987 9.35363 1.62265 5.10393 15.3612 1.48209 5.0413 1.71966 2.5636 3.05183 -3.04507 21.6341 0.706739 -0.926242 1.52651 -1.31762 -1.94471 1.14219 0.486752 -1.03517 0.192435 -1.64142 -0.3951 -0.84027 -0.232497 
-21.6029 7.19418 11.6831 0.408423 1.37424 13.9075 3.58384 4.79628 3.21834 -2.26949 2.19597 0.411526 21.4055 1.54919 -0.64246 1.02516 -0.791315 -2.55094 -1.36157 -2.23741 -3.34847 0.000615047 -2.4212 -1.89223 0.129084 -0.480098 
-18.3821 6.23826 10.4115 1.07822 1.42566 16.7124 3.28196 2.91135 3.19908 -0.764619 2.0714 1.23166 20.3922 2.85211 -0.671642 0.898218 1.52433 -1.68545 -4.76361 -3.89211 -3.89127 -1.5829 -2.62032 -1.02016 1.61263 -0.796262 
-15.3073 9.59228 13.1906 3.22742 -2.34881 6.75626 -6.47711 -9.65107 0.603309 -5.98464 -3.09538 2.69877 19.7856 4.82692 -1.0318 0.652269 1.59281 -1.44064 -7.72407 -4.51675 -1.99376 -2.66645 -2.17643 -1.12671 1.37735 -1.02344 
-8.2624 5.64147 13.091 7.8348 -1.46181 -4.88122 -12.948 -7.19135 -4.88731 -8.68043 0.596691 3.87448 18.4628 5.03856 -1.91743 0.508589 0.332913 -1.1792 -9.16754 -2.9838 0.505649 -2.45918 -2.40139 0.37965 0.7545 -0.887649 
-2.52813 2.33355 13.6047 4.99421 -4.38525 -13.916 -10.8849 -0.121167 -6.07073 -9.19374 -2.70022 5.97688 17.2531 4.30873 -2.88634 -0.192454 -0.570438 -0.779256 -6.76958 -0.182261 2.46204 -1.49902 -1.38178 1.39295 0.102322 -0.741039 
0.42118 0.280476 12.7474 1.85939 -3.4521 -18.7891 -9.43313 0.674639 -5.75978 -11.167 3.77206 3.36511 17.2202 2.14427 -2.22866 -0.487297 0.949407 -3.56199 -1.882 1.3816 -0.264504 0.49354 0.175017 -0.0869457 -0.580603 -0.419119 
1.89456 -2.1589 12.4001 3.36294 -5.24994 -20.1377 -9.14583 -1.27389 -6.45558 -11.6502 2.28171 3.46506 16.7017 0.697878 -1.93312 -1.10475 3.1291 -2.86417 1.32662 3.01458 -1.85315 0.512633 2.68592 -1.11266 -0.938052 -0.291946 
0.247588 -3.2556 11.2568 13.3975 -18.8394 -11.1804 -6.90951 -7.93751 -2.22719 -6.5771 -2.329 2.22737 16.6429 1.03141 -1.6832 -2.37075 2.10811 -1.06294 0.88967 2.67906 -2.85056 -0.0181137 4.93144 -3.57485 -0.000159109 -0.158505 
1.04806 -5.56404 8.82633 14.8707 -11.0124 -11.0873 2.92615 -5.08086 -5.27386 1.94089 -5.213 1.85549 16.082 2.20187 -1.32185 -3.99198 -1.10716 2.12075 -0.547004 1.39011 -1.79572 0.851938 4.10978 -1.62719 -0.0123852 0.107448 
6.00146 -6.43297 2.68058 6.64606 -5.88556 -18.866 -2.07382 -11.6747 -6.44121 6.69461 -10.3548 4.1691 16.7375 3.045 -0.868723 -4.55551 -4.59651 4.36321 -0.613821 -0.326051 -0.911906 0.48873 1.73802 1.92312 -1.06073 0.191485 
10.027 -7.17947 -3.27168 1.20287 -1.12314 -19.0299 -4.61313 -8.38388 -0.0888791 2.26284 -1.84132 2.43227 17.1916 2.65855 0.161298 -3.89836 -5.48711 2.55918 2.25242 -2.12468 -1.01556 1.32303 -0.407124 4.72302 -2.24846 0.269832 
10.9831 -6.79149 -5.47179 -2.75117 -1.96799 -10.2782 -4.77013 -10.8455 -2.37603 1.95204 5.60078 -3.36465 17.0455 1.27446 1.11051 -2.33148 -3.94039 1.16603 4.66958 -0.524064 0.588572 1.05263 -0.685424 5.90144 -3.177 0.16237 
11.85 -4.57829 -6.58926 -7.86625 -0.175303 -4.11906 -6.34911 -10.5732 -0.691277 2.27655 10.4243 -5.61996 17.2772 0.30414 1.59218 -1.18647 -2.92948 0.373598 3.8031 0.0685956 0.772951 -0.626668 1.05867 3.44537 -2.34858 0.174842 
11.4622 -2.18101 -7.31801 -8.52135 -0.529351 -2.97352 -3.82615 -7.63715 -0.876879 3.26063 13.0196 -7.68979 17.5066 -0.02127 1.39891 -1.01138 -1.92427 0.578623 1.46966 0.0043705 1.63057 -0.794345 1.79785 1.76633 -1.27523 0.281707 
11.3081 -1.52383 -8.28094 -10.5594 0.025526 -3.66677 -4.74215 -6.12331 -3.97179 6.90188 11.6761 -7.14805 17.8352 -0.273358 0.607909 -0.839579 -0.44838 0.590845 0.378555 -0.0837429 1.40826 -0.884848 2.16094 1.027 -0.697929 0.268235 
11.1477 -1.32415 -9.68287 -11.0259 0.824704 -3.15607 -5.55176 -4.91763 -4.7075 8.62864 13.8065 -8.97677 18.175 -0.550459 0.163929 -0.694215 0.834261 0.689758 -0.852486 -0.0984049 0.178471 0.137356 1.78839 0.320929 -0.457161 0.171316 
10.6405 -1.96717 -9.60472 -8.85586 2.1019 -2.13501 -5.90502 -4.89169 -3.20021 10.3972 15.1658 -8.46611 18.2841 -0.780948 0.0978939 -0.268245 2.64448 0.809025 -1.60454 0.150462 -0.395643 1.30331 1.0345 -0.433979 -0.073747 0.00049572 
9.04377 -1.1397 -10.1272 -5.20182 1.88125 -8.00183 -3.73673 -7.36061 -0.575889 10.4549 12.8794 -9.31656 18.1387 -1.11091 0.400075 0.206212 3.97723 0.716093 -3.62323 0.310461 0.551122 0.985156 0.359073 -1.8494 0.402169 -0.127587 
8.45532 -1.12659 -9.40001 -0.24909 3.54238 -9.26657 -4.89735 -6.88004 0.478938 11.1612 9.96978 -7.34689 17.8559 -1.50439 0.879088 1.34885 4.00455 0.330233 -5.33969 1.00049 1.34806 0.930741 -1.76448 -2.35273 1.50062 -0.0917307 
6.68573 0.255935 -8.75417 4.55682 3.68493 -17.7064 -4.50329 -1.16785 -1.62129 10.042 7.15753 -7.52554 17.7512 -1.78645 1.08804 3.13659 2.63031 -0.259656 -4.86499 1.93817 1.76421 -0.319434 -3.22667 -1.67939 2.72541 0.0593054 
4.29752 1.73045 -3.547 6.28756 2.85122 -23.9811 -0.519295 -1.24779 1.97619 1.78128 6.26307 -1.85853 18.0192 -1.95015 1.09427 4.50594 0.808568 -1.08604 -3.39576 2.81315 -0.183854 -0.659517 -3.85247 -0.790569 2.73943 0.128587 
2.19042 2.872 2.62927 4.68139 0.928551 -24.9695 3.76507 -1.35571 -2.92169 -0.988472 6.33577 1.56631 18.3536 -1.67428 0.878877 5.22993 -0.0567014 -1.23188 0.0258879 1.46799 -1.88668 0.0517022 -4.45716 -1.82953 3.01535 -0.0495352 
0.952215 3.03672 7.43796 3.73147 -0.509616 -22.6139 5.0342 -7.70538 -2.16845 -2.58589 6.42781 1.80433 18.1976 -1.33679 0.742449 4.63152 -0.178485 -0.687031 1.70352 -0.902791 -1.36668 0.0512678 -3.54238 -3.59411 2.28817 -0.249974 
-0.0130205 3.99719 11.903 5.55136 -0.794062 -18.2606 0.0599389 -7.37245 0.70954 -10.0602 -2.07249 5.71981 17.4143 -0.879963 1.79233 2.26891 -0.497888 1.44433 1.37241 -2.08143 -0.323393 0.0269292 -4.68259 -2.83227 2.22654 -0.385972 
-1.28471 4.88011 14.9737 4.96015 0.277373 -18.818 -3.18068 -5.07284 0.416918 -11.3947 -7.50337 7.50557 17.239 -0.917357 1.83944 0.668195 -0.18469 3.09066 1.39012 -2.33778 0.142438 -1.95347 -4.17174 -1.1927 1.20358 -0.492971 
-1.09094 10.9119 10.2059 1.57761 7.75672 -20.0054 -2.53465 -4.28895 -4.07972 -19.997 -0.859965 9.8484 16.903 -0.68392 0.818994 -0.604706 -0.662311 3.90285 2.01414 -1.12578 0.103062 -3.48711 -0.875064 0.277373 0.655979 -0.498351 
-3.09561 8.77654 11.6275 4.79489 10.6683 -14.7909 -5.35742 -8.53495 -9.54115 -18.4762 -0.141958 5.75793 15.9884 -0.308906 -1.09603 -1.73061 0.274006 1.16669 4.20504 1.50282 0.482011 -1.03408 2.45992 -1.10056 -1.84117 -0.957853 
-2.52717 6.14394 10.5526 2.32244 13.5247 -10.2035 -4.48057 -5.12609 -11.747 -10.8948 -4.36633 9.87352 15.5478 0.0682199 -3.43667 -2.78238 0.204114 -3.2358 6.2267 2.65834 2.03662 2.28261 5.48181 -1.76259 -2.90286 -1.37718 
-2.11112 1.78397 6.14734 5.95776 3.22682 -2.69372 5.30638 -2.24421 -0.91984 -3.64627 -11.253 -1.71286 13.1273 0.618644 -3.5452 -3.86315 0.256989 -5.13206 5.98739 2.00067 2.9999 3.98978 4.62796 -0.647364 -2.14781 -1.32874 
-1.24208 -2.77515 -0.965918 2.01674 -4.70155 5.07952 5.42513 2.74879 3.02268 -0.00289106 -4.1174 -0.930488 11.4477 -0.238248 -3.58972 -3.82129 0.577194 -4.73064 4.36138 0.698227 1.99409 3.71374 4.08797 2.95501 -0.640495 -1.00594 
-0.644935 -4.48991 -1.92899 6.23268 -5.87888 7.5046 -0.306908 2.52712 3.02291 -0.782348 -3.50324 0.420863 11.3948 -0.728857 -2.49215 -2.27613 0.100138 -1.08417 2.10827 -1.27624 1.1148 0.427972 1.71175 4.45476 2.87264 -0.363288 
-4.4515 -8.66771 -4.51564 5.07095 -5.5756 6.50428 1.81721 2.45867 4.85033 8.1131 6.53387 5.60419 11.3844 -1.05233 -1.28731 -0.960379 0.631182 1.30212 -0.393151 -0.829008 0.38371 -0.525846 1.19382 2.00127 1.87989 -0.0641213 
-4.1507 -7.73049 -3.45846 4.93135 -1.75699 7.13524 0.729144 3.47485 0.306195 0.854484 5.69516 9.38301 11.3425 -0.597536 -0.202308 -0.28609 -0.394728 1.53462 -0.400876 0.753182 1.49618 -0.517515 -0.435814 0.52969 0.347992 -0.0818273 
-4.75083 -7.59143 -5.00308 5.82332 -0.251901 3.29844 0.762064 4.19347 1.75181 5.14779 1.28975 3.98786 11.1532 0.323823 0.504214 0.778622 0.054671 1.42866 1.38232 -0.0855847 0.206573 -0.346422 -1.35111 -1.61956 -1.88694 -0.0362137 
-3.48295 -6.03959 -3.11572 3.88286 -0.867632 7.10314 3.98657 9.14063 1.9846 -1.47877 1.76727 2.96898 11.1012 0.185728 0.0126707 0.380255 0.206992 0.768065 2.19636 0.856405 0.190207 1.76416 0.218806 -1.47628 -2.96602 0.0312196 
-3.16626 -6.99209 -0.7939 5.86855 1.123 13.4319 -0.239428 0.658645 2.27901 2.52417 0.40003 -0.623515 11.3239 0.225122 -0.303787 -0.151007 -0.0979173 -0.383879 1.57613 0.594894 0.61714 1.1755 -0.409314 0.415578 -1.35168 0.0540863 
-4.01434 -7.96681 -3.66178 5.9437 1.39588 13.0503 5.51192 6.1933 8.86341 3.26033 -1.24136 -3.1414 11.4133 0.298344 -0.38351 -1.02975 -0.147245 -1.191 -0.347593 -0.300519 -0.340124 0.437991 -0.324655 0.79496 -0.795498 0.0390583 
-3.35952 -8.14676 -5.48509 4.30331 -3.30305 8.2055 2.97386 8.75284 4.1899 0.731673 4.87196 0.284638 11.2676 0.219241 -0.0691715 -1.56539 -0.595481 -1.31501 -1.61167 0.215066 1.15386 -0.205875 -0.633821 0.867966 0.35028 -0.0357472 
-1.8946 -7.3798 -5.91889 3.92925 -4.60963 7.97839 0.877333 3.39292 3.21911 -2.2058 3.50611 -1.46258 11.3247 0.0147688 -0.17191 -0.349257 -0.923843 -1.19811 -1.30226 -0.465435 -0.260173 -0.766538 -0.895065 -0.510608 0.296922 -0.0694926 
-3.12993 -7.63145 -7.49231 3.89837 -2.44929 7.90953 3.15319 7.82813 4.07179 2.08812 2.36612 0.288474 11.1895 -0.20007 -0.385748 0.34139 -0.0697944 0.481455 -0.109986 0.926337 -0.614811 0.872181 1.18929 -1.89247 -0.882048 -0.016653 
-4.05529 -9.08401 -4.40445 1.52695 -5.02154 6.68696 3.09508 5.35479 5.08978 -1.89322 -2.54149 -1.65871 11.1049 -0.383772 -0.262852 0.738781 0.683676 0.558034 -0.171469 0.664201 0.672529 2.41558 3.04673 -0.927873 -0.521488 -0.0266204 
-3.27953 -9.22339 -4.53536 5.15549 -0.689822 8.30129 6.49668 4.69785 7.61547 6.52182 -1.56657 -4.02754 11.2943 -0.131174 -0.230158 0.735922 1.41849 0.529909 -0.533391 0.00327484 -0.101885 0.944136 1.50023 -0.155086 -0.829862 0.0385676 
-3.73866 -7.89809 -3.70346 6.71907 -2.69919 6.92517 2.52659 8.3207 13.5252 10.811 0.833092 -1.91201 11.1392 0.0564341 0.631295 0.587037 1.58881 0.789302 -0.267164 0.201282 0.755125 0.184088 1.68933 0.81933 -0.463113 0.0144665 
-3.94412 -9.3752 -4.1632 8.39475 -0.960923 5.12348 3.45381 5.83575 4.57478 3.23716 -0.0965977 -3.73418 11.3652 0.200181 1.12692 0.450316 0.599162 0.223939 -0.640238 -0.889794 0.890857 -0.708338 -1.49367 0.811483 1.06912 -0.0351181 
-3.44083 -5.85163 -1.65535 7.85135 -0.939483 6.94004 5.62292 8.56146 7.53056 8.19573 0.820173 -4.12095 11.1418 0.351622 1.22472 0.755125 -0.294345 0.161292 0.13103 -1.1385 -1.02452 -0.89793 -1.33053 -0.134818 0.799653 0.0028511 
-2.42754 -4.61202 -3.30783 7.58516 -0.449984 5.09266 0.499543 9.03175 7.07108 0.361093 2.4973 2.42253 11.1174 0.242312 0.850706 0.762888 -0.737287 -0.639596 0.0342765 -1.45105 -1.40361 -0.286051 -0.295197 0.0118118 0.447558 0.000481129 
-2.73884 -4.15609 -0.355521 5.65215 -2.1482 7.59573 -1.68878 1.60008 7.78736 5.59639 -1.13795 -0.992102 11.2773 -0.181744 -0.417078 -0.446159 -1.82921 -1.28885 -0.984417 -0.818752 -1.14179 -0.489418 -0.822094 0.818179 0.405733 0.0291072 
-3.08355 -5.96944 -0.998668 5.80792 -3.55454 4.96701 -0.14557 2.29841 3.01613 3.06085 0.941521 -3.06082 11.2998 -0.447071 -0.839481 -0.815099 -2.20407 -1.44461 -1.15387 0.624485 -0.100603 -0.0596684 0.188758 1.32102 -0.19048 0.00761442 
-4.02154 -7.25831 -5.04072 -0.406087 -5.83144 2.08078 1.85172 6.21918 7.11095 2.73539 5.68896 0.649385 11.1961 -0.350339 -0.749332 -1.34125 -1.83305 -0.964337 -1.39161 0.907829 1.3159 0.274199 -0.604747 1.84012 0.699318 -0.0266163 
