-2.63648 -6.38808 -6.31633 0.898055 -4.93188 0.604389 -2.35744 -0.0730848 -0.810909 -3.11899 -2.19079 -1.30041 11.5563 0.0410076 0.142089 -0.284661 -0.151716 0.612562 0.210292 0.656389 1.13302 0.905928 1.46513 1.27942 0.464798 0.112476 
-2.35435 -6.53637 -9.58449 0.819832 -2.52371 2.48962 -0.615495 1.03533 0.593885 0.387637 -0.775439 -2.86046 11.7832 -0.630548 0.523273 0.952447 -0.594928 1.40188 1.38551 1.8805 1.78914 0.302736 0.663266 0.547357 0.457538 0.435483 
-2.57251 -5.6035 -6.10555 0.178584 -3.07316 0.71323 0.0535344 5.03779 3.01633 2.45332 3.49861 1.80361 12.0053 -1.18925 2.12079 2.74544 -0.224037 2.19036 1.34074 0.106497 0.775423 -1.24673 1.12569 0.356677 0.662972 1.1752 
-5.82121 -4.16401 -1.65948 -1.71685 1.14816 7.47754 5.83958 6.31717 -1.21085 -2.58882 -2.29871 -0.564726 13.5092 -0.250689 2.56596 4.04416 0.715761 1.55769 -1.23807 -1.71377 -0.563947 -1.54249 0.108307 -0.415635 0.461367 1.33597 
-6.8493 3.0297 3.44835 1.04621 4.184 4.81411 -5.05249 1.16311 -6.14219 3.99768 0.354227 0.866586 16.5692 1.23183 2.04333 3.00738 1.83528 0.156271 -3.78635 -2.62481 -0.889917 -1.24408 -0.0177648 -0.787234 -0.212933 0.945379 
-1.46941 1.97686 5.85935 3.96483 1.63614 -5.75118 -6.63134 0.152936 -2.53929 0.15699 -1.28142 -0.0851135 16.181 2.83881 1.22766 0.872672 1.83326 -0.879488 -5.82573 -2.80323 0.0183755 -0.0712959 -0.141877 0.725864 0.427706 0.16843 
1.41075 1.54273 5.17195 6.51414 -2.5358 -11.6042 -6.83506 3.67032 -2.53985 0.991588 -0.946198 0.499135 15.3963 3.083 -0.238394 -0.646324 1.47181 -1.48717 -4.22803 -0.373105 1.57853 0.665221 -1.42396 0.244225 0.419466 -0.507111 
4.24282 2.71778 1.84208 4.71548 0.110614 -13.442 -7.28529 5.15545 -3.3685 -1.79516 1.98082 1.75753 14.9379 1.85065 -0.167207 -0.768491 1.73609 -0.651953 -1.77191 -0.759544 1.04389 0.514827 -0.865683 0.796636 0.975472 -0.357116 
5.7096 1.46727 2.22536 8.02992 -2.48909 -12.4807 -6.59105 6.55451 -2.40148 -2.14605 -0.0557714 2.0426 14.6553 1.1234 -0.0228959 -0.364402 1.3854 -0.0252277 -1.10313 -0.897483 0.736203 0.824476 -0.742463 0.561759 0.277768 -0.104311 
5.63443 1.17856 3.49019 11.8874 -1.64697 -14.1725 -10.5511 3.93029 -0.0343413 -2.60261 2.25654 4.02052 14.7659 0.506762 -0.778977 0.795436 0.64475 -0.980131 -0.000628471 -1.65611 0.195965 2.08871 -1.05682 0.252688 -0.45061 0.11092 
6.33193 2.19786 2.52588 9.85518 -1.78314 -16.7546 -9.68958 7.96391 -0.084553 -2.317 1.72474 0.756481 14.9607 -0.267516 -0.761818 0.761876 -0.0307906 -0.3181 1.65852 -1.85168 -1.06991 1.39247 -0.0917924 0.966263 -1.15413 0.154732 
6.46547 -1.5424 5.669 7.0266 -5.14301 -11.3081 -14.0165 5.43057 5.91658 -6.99377 2.35401 0.14754 15.3398 -0.772944 -1.15637 0.0523936 -0.928539 -1.13943 3.41897 -0.0683042 -1.36936 -1.20428 0.500096 0.645142 -1.2183 -0.0224661 
3.95651 -0.981345 4.94534 10.3064 -2.33157 -5.62022 -14.1167 0.454806 1.58539 -0.409426 4.72681 -1.79157 15.142 -0.172661 -1.16183 -0.61462 -0.123937 -1.90332 2.77345 1.3709 -2.69084 -2.25099 1.71522 -0.274906 -0.494834 -0.0977179 
2.95743 -3.01371 2.54243 7.0191 -7.06993 -2.64482 -8.67903 0.838063 -6.89071 -1.05591 3.98121 -0.79694 14.563 1.03942 -0.517344 -1.73333 -1.4402 -1.75356 2.14809 1.95959 -2.34381 -0.831771 1.9544 -2.02299 0.117741 -0.0018939 
7.22265 -2.87564 1.01606 9.23925 -10.3363 -7.21897 -5.50386 -3.19403 -4.93584 3.29019 -0.463396 -1.24545 14.8605 2.41796 -1.0004 -2.64515 -2.85905 -1.38135 1.68392 1.6314 -2.30971 2.53012 0.491306 -1.44331 -0.54434 0.284192 
10.0295 -3.18198 -1.03301 0.359167 -9.90844 0.231678 -8.525 -4.46408 5.01835 0.928399 -5.16586 0.463186 15.4711 2.30909 -0.619772 -3.10345 -3.62578 1.43345 1.05994 1.88489 -2.58947 3.74947 1.13828 -1.28582 -0.998514 0.501881 
12.5103 -5.8992 -6.49267 -0.658916 -7.81908 1.36115 -6.03672 -8.44268 8.28144 1.05495 2.08382 -5.14333 16.1089 1.30634 -0.581593 -2.91307 -3.61877 2.53154 1.83011 2.13994 -1.21583 0.967454 1.49022 -0.35053 -1.71393 0.391734 
11.8591 -4.60078 -9.22047 -6.16073 -1.16128 -1.63519 1.01184 -9.48495 5.248 5.7531 -3.72148 -3.84057 16.4482 0.649041 -0.569987 -2.42023 -1.85265 2.08093 0.922387 2.27993 -0.0410417 -2.96038 2.87356 -0.196135 -2.43035 0.285424 
12.8396 -5.0742 -9.45554 -5.59463 -2.05215 2.86502 0.427408 -6.76277 -0.213396 8.32895 -2.93824 -7.66322 16.3306 -0.0158784 0.030939 -1.56724 -1.23565 1.31679 0.65506 1.50559 0.660071 -3.61159 2.49431 -0.724044 -2.20858 0.208805 
13.1101 -6.44441 -11.6527 -6.43625 -2.38724 4.09168 -0.357399 -5.50925 -5.53612 11.6592 -3.63551 -10.4286 16.7873 -0.203907 -0.176194 -0.995777 -0.670567 0.870122 0.436511 -0.232857 1.32588 -3.02211 1.60083 0.190009 -2.02402 0.19346 
11.8054 -4.82269 -13.1127 -6.69942 -0.622148 1.77302 2.17585 -7.13017 -4.38447 10.5735 -1.57939 -12.8922 16.9833 -0.390757 0.069644 -0.682068 -0.895256 1.42818 -0.986743 -0.267145 0.693571 -0.801409 0.608233 -0.128443 -1.07417 0.17568 
11.3566 -5.60751 -12.3708 -8.96116 2.47432 1.09337 -1.02666 -2.67186 -7.77702 12.635 -3.45086 -11.3462 17.0891 -0.486536 0.325511 0.0341877 -0.682726 1.70955 -1.82297 -0.819535 1.09249 1.52691 -0.767751 -0.372502 0.204526 0.0873957 
11.7625 -5.14443 -12.5069 -8.80845 2.65799 -0.569539 -0.573685 -4.7136 -3.09999 10.8822 -3.67278 -12.5753 17.0581 -0.436605 -0.0894051 0.445725 0.330117 0.625466 -2.32154 -0.95671 1.15391 2.26581 -0.965607 -1.26822 1.53235 0.0701576 
10.6988 -4.65599 -11.7847 -8.79536 4.52045 -3.8519 -3.08031 -1.25509 1.4562 7.66608 -4.45132 -9.56445 17.1869 -0.673673 -0.0152384 0.969627 1.5563 -0.70527 -3.79003 0.302035 1.14181 2.58643 -2.48822 -0.413275 2.45229 0.0629795 
9.95125 -5.74548 -11.1771 -5.13174 1.48212 -7.36207 -1.58088 -2.06901 2.32796 8.22989 -7.42026 -6.12132 17.2852 -1.29016 0.160074 1.86065 2.20591 -1.9186 -3.92227 -0.190154 2.42369 0.673333 -2.74968 0.361384 3.69446 0.104242 
8.8939 -5.38318 -8.18748 -3.01803 -0.464091 -14.4605 0.987106 1.71487 2.44117 1.52006 -3.64349 -2.3117 17.2904 -1.52585 0.619942 2.68196 1.78016 -3.03876 -2.48621 -0.591281 2.13167 -1.03567 -2.63741 1.23983 4.21371 0.1075 
6.21414 -3.98047 -5.00223 -0.667548 -4.44274 -14.8766 -3.55816 5.91989 -0.225811 0.206841 -2.26977 2.27064 17.5276 -1.31373 1.13686 3.13558 0.582103 -2.73831 -1.24778 -1.25844 1.392 -1.05362 -2.33447 1.46886 3.77827 0.0686378 
4.93812 -2.43878 -1.46236 -2.12667 -7.71094 -12.5257 -5.04807 5.40882 -2.44524 -1.50945 -0.827395 7.30811 17.6032 -0.813446 1.20881 2.38849 -0.173908 -1.95735 -0.257884 -1.34507 -0.592415 -0.0453201 -1.24323 1.31586 2.17459 0.0324316 
5.3605 -1.53337 1.13817 -2.6669 -8.586 -14.5684 -4.85551 3.04401 -0.496931 -1.92771 -1.484 7.96013 17.472 0.149024 0.462347 1.60891 -0.721486 -0.787091 -0.550608 0.0821965 -1.8675 1.44686 -1.03574 1.08177 0.406091 -0.029903 
5.25348 -0.562675 0.684754 -2.8879 -8.17923 -15.904 -5.08959 0.190733 2.35013 -3.62882 2.54292 5.71651 17.4804 0.549954 -0.249165 0.449154 -0.599171 0.284839 -0.975695 0.597703 -1.53358 2.1279 -0.567912 0.595288 -0.728131 -0.0244558 
6.80158 -2.60679 1.96878 -3.89437 -8.14405 -15.9405 -3.12641 -0.808547 4.61078 -3.91216 1.4539 5.09689 17.4395 0.606535 -0.799529 -0.416599 -0.411715 0.882198 -1.02162 1.30935 -0.869753 1.99517 -0.472619 0.0223842 -0.759721 0.00560951 
6.96736 -3.1479 0.368109 -4.5088 -6.50772 -16.7181 -2.9241 -0.332819 5.64041 -3.35679 0.680095 5.09907 17.4972 0.57134 -1.20309 -0.709607 -0.39018 1.24161 -0.880495 1.57013 0.13244 1.14798 0.28155 -1.29594 -0.829581 0.0356213 
7.53624 -4.2384 -0.786499 -3.91503 -5.01076 -19.2694 0.608495 -1.04298 7.83376 -4.42682 -0.440667 4.47024 17.4916 0.350749 -1.17595 -1.25021 -0.62126 1.74966 -0.532888 1.56636 0.555465 0.204728 0.922647 -1.80942 -1.16389 0.0745049 
7.74285 -5.76233 -1.48564 -4.82847 -3.53782 -18.642 0.893617 0.970152 6.47853 -1.96374 -2.9895 1.88193 17.6324 0.406575 -1.15536 -1.78384 -0.486258 1.48504 0.974311 1.03827 1.18333 -0.488432 0.886597 -2.02692 -2.01206 0.0667871 
8.16758 -7.17932 -3.35542 -6.84083 -0.880724 -17.643 2.79653 1.31729 5.21535 0.00455236 -5.75838 0.886007 17.7444 0.485444 -0.832537 -2.29115 -0.444132 1.66013 2.46729 0.599934 0.466689 -0.349889 1.08 -1.50084 -2.92587 0.00213699 
8.68456 -7.45425 -7.26661 -5.47718 -1.14755 -12.6598 1.17323 4.40369 4.50746 -1.13949 -6.79566 -3.1691 17.7048 0.563475 -0.341991 -2.59378 -0.0558054 1.38401 3.10334 0.584644 -1.23624 0.036199 0.849063 -0.110499 -3.34696 -0.0993877 
9.49261 -7.55513 -9.35174 -5.81133 2.09475 -9.92409 3.46836 -0.42631 7.06985 0.561071 -6.0418 -7.6336 17.4662 0.73073 0.218708 -2.04229 -0.0344086 0.904067 3.57991 0.478787 -3.08689 0.495318 0.781979 1.6311 -2.91118 -0.200439 
9.89771 -7.28438 -11.4564 -5.62224 1.8945 -6.98477 3.48092 -4.33927 5.73228 2.00332 -3.40029 -10.593 17.2746 1.02151 0.82413 -1.34456 -0.872888 0.41597 3.12683 1.27017 -4.55539 -0.559923 1.12344 2.5701 -0.675804 -0.252213 
11.2147 -6.17072 -11.472 -6.94034 2.11858 -2.58093 4.03662 -9.74568 7.07953 2.34304 0.699455 -9.95791 16.9573 1.41275 1.48409 -0.665298 -1.26159 -1.4001 3.28602 1.20026 -3.25729 -2.37386 0.108953 3.01209 1.26217 -0.307287 
12.9311 -4.02581 -12.9293 -9.27712 0.920381 -0.697228 7.23994 -13.7136 1.70301 3.58675 2.68421 -5.38597 16.6981 0.935885 2.167 0.681821 -1.05604 -2.5331 2.69477 1.43873 -1.83627 -2.98428 0.00972541 0.507094 2.59477 -0.565162 
15.0397 -1.76396 -11.9418 -10.2918 -4.41871 3.36223 7.59015 -12.0256 -2.78483 0.314123 5.97639 -3.92629 16.218 -0.41499 2.38349 3.22329 0.572848 -2.35305 2.25845 1.07667 -0.642696 -4.66522 -0.582771 -2.18458 2.87689 -0.830476 
12.6646 1.34727 -7.81236 -9.22667 -7.50236 3.51752 8.89779 -12.3807 -4.25692 3.06641 -3.50329 -0.634982 14.8185 -1.33422 1.43685 4.21854 1.92903 -1.15023 1.59318 0.397926 0.288608 -3.57812 -0.870331 -3.79081 1.70589 -0.806286 
9.27293 3.06019 2.08602 -4.10132 -5.43528 6.60393 8.59103 -13.6256 -13.2666 -0.31064 -7.12972 2.05103 13.7448 -1.54962 0.392662 3.43295 2.2596 -0.0470709 1.22493 -0.0897984 0.584793 -2.531 -0.784272 -3.48677 0.404462 -0.569049 
9.14334 0.746389 1.14953 -2.72722 -4.32246 5.64783 8.72913 -11.4705 -10.9467 -0.452525 -9.71679 0.154845 13.9033 -0.847722 -0.214256 1.58113 1.74656 0.537308 1.0245 -0.266569 0.163422 -1.12231 -0.61227 -1.29541 -0.452766 -0.2041 
9.05221 0.499785 0.742003 -2.2436 -6.24401 8.42171 7.22549 -9.55674 -12.0949 -1.84777 -8.3507 -2.29889 13.8303 -0.138808 -0.326188 -0.450611 0.0600484 0.0919919 -0.077183 -0.183445 0.266697 1.04251 0.662771 -0.354591 -0.459959 0.00128765 
8.53639 1.55619 0.765287 -1.42275 -4.41145 7.73112 8.24772 -13.598 -10.4543 0.773621 -9.36983 -0.72385 13.7552 0.0743303 0.130345 -1.92524 -0.431397 -0.816452 -1.05859 -0.527961 0.551267 1.57082 1.54187 1.054 0.201565 0.157341 
8.88237 1.02435 0.0250881 -4.45331 -4.93082 5.17637 7.91452 -11.2284 -8.30024 2.39014 -9.07615 0.190578 13.8252 0.534953 -0.320502 -3.72592 -1.38149 -1.04925 -0.692253 -1.10064 1.4661 2.3139 1.07391 2.72287 0.748946 0.572953 
9.59991 1.13583 -8.11823 -3.77935 -9.06131 1.97754 5.74481 -7.87837 -4.98996 5.13787 -4.08408 -0.0820684 14.6925 1.12058 -0.730052 -4.18641 -2.19607 -0.558523 0.647125 -0.707961 1.11709 1.66719 0.32495 3.63283 0.129014 0.824954 
11.1952 -0.892547 -13.4458 -7.97276 -9.16532 7.83723 2.97373 -5.08605 -3.25758 1.33965 2.62076 1.12495 16.2264 1.06323 -1.10479 -2.90574 -1.68602 0.595753 1.71283 -0.000234318 -0.839355 1.09203 0.351508 3.59806 -1.00281 0.80481 
12.9828 -1.13563 -13.4313 -10.6434 -5.08682 9.63632 7.17831 -11.0837 -4.6397 2.92361 2.94588 -0.545963 16.6794 0.329066 -1.58579 -0.114404 -1.48366 2.54991 0.898047 0.650417 -1.96411 0.337261 0.668538 1.95437 -1.85718 0.538775 
12.5071 -3.36386 -11.8471 -9.4514 -3.9393 9.91115 7.1966 -13.8225 -3.01523 5.25481 5.39916 -4.59151 16.8559 -0.945364 -0.775718 1.09745 -0.301959 3.37723 -1.74656 1.33399 -2.6804 1.13597 1.13076 0.280329 -2.65683 0.278881 
10.5893 -5.55747 -9.48962 -10.4584 1.07524 5.43082 6.88547 -13.3307 -3.42483 6.52298 4.29858 -6.50972 17.0717 -1.6195 0.0669786 1.02444 0.326397 2.78189 -2.41337 0.713429 -1.34256 2.03151 0.671345 -0.434732 -1.99222 0.162229 
7.66516 -2.56021 -9.92943 -9.57507 4.63979 1.20721 9.79008 -17.3646 1.81482 5.19375 3.34606 -9.17733 17.4247 -1.02205 1.20036 0.846058 1.20778 1.23827 -1.97003 1.19033 -0.543024 1.64777 0.435861 -1.19029 -0.812824 -0.157553 
7.30628 -1.20256 -9.26791 -8.94956 4.53307 1.92145 9.44871 -16.0255 3.10284 6.31087 1.79877 -8.21413 17.2061 -0.915585 1.58107 1.4916 2.7694 -0.993475 -0.572073 0.802436 1.04776 0.959793 0.37242 -1.76988 0.979246 -0.428613 
9.03834 0.460485 -7.72766 -4.16688 0.523135 1.81567 11.8666 -15.1902 1.9598 7.54017 0.697602 -7.80343 16.0009 -2.39334 1.42211 3.46797 3.50977 -1.00746 0.293108 -0.427357 4.74725 -1.91196 0.4239 -1.78813 2.47898 -0.196733 
5.3248 0.837535 -3.13249 0.684561 -1.83381 2.26623 9.85937 -9.17911 1.30165 7.21187 -3.22661 -2.30044 15.6405 -4.80192 1.84409 3.80451 3.44479 -0.505385 0.235293 -1.73806 6.44756 -3.32431 0.224889 -1.27334 2.23759 0.423991 
-3.31083 3.53028 4.34271 3.15673 2.78595 2.50035 7.44797 2.94852 -6.84439 6.86274 -3.08191 0.260709 17.2238 -6.46477 1.1061 0.890523 2.54132 0.728994 0.953948 -2.49571 5.99415 -1.73006 -1.19728 -0.984801 2.52073 0.932396 
-10.5287 6.48301 3.71944 4.61259 0.874734 2.75557 2.96772 7.14295 -9.1166 7.77403 -2.67818 -1.05826 18.7146 -6.02475 0.846833 -1.1304 1.13819 1.71448 1.17253 -1.78171 4.63115 -0.841264 -1.97415 -0.157897 0.395203 0.899817 
-15.3588 3.16823 -6.70101 6.57568 2.81383 6.34074 2.8339 6.61948 -1.4814 1.27271 -4.50062 4.17913 19.1258 -3.21303 0.999383 -2.21612 -0.41009 1.47145 0.140029 -1.71931 0.92588 1.51556 -0.411341 1.15666 -0.397191 0.428327 
-18.775 5.25272 -3.26264 4.66604 6.72463 6.20869 3.25786 12.1412 -5.58617 0.136151 -3.30674 -2.28364 19.1886 -0.891482 1.4993 -0.916616 -0.815391 0.759883 -0.647242 -0.817371 -0.35045 1.65861 0.193394 1.3054 0.110812 0.251559 
-15.2528 9.14234 -3.24686 1.07956 7.21826 1.47394 -1.29363 5.07881 -1.03182 8.62498 3.01567 -1.11256 19.1285 -0.507999 1.74071 0.539283 -0.348671 0.198883 -1.16549 -0.00536706 0.104618 0.113826 0.796481 1.78371 0.427038 0.317198 
-15.0391 10.9924 -2.59071 3.2837 2.47194 1.95276 0.944636 6.16104 -1.04833 5.06486 0.0906703 2.14164 19.9711 -0.465987 0.989219 -0.031985 0.306083 -0.354017 -0.698291 -0.262482 -0.137934 0.133475 -0.833972 0.64513 1.71119 0.396092 
-19.7667 9.00191 -4.34056 5.52349 5.93459 2.64123 3.96368 10.1326 -3.18119 2.79076 2.71921 4.10168 20.3205 -1.36186 0.0533976 -0.170882 0.661828 0.22168 -0.66125 -0.100327 0.625154 0.210988 -1.63285 -1.25475 0.51442 0.41715 
-18.848 10.269 -2.87572 3.97448 5.59638 2.13359 -0.683206 8.92459 -3.84411 -1.1166 0.0671372 3.6652 20.573 -0.709953 0.437601 0.0776565 -1.05965 0.786393 -0.086191 -0.243769 -1.14114 0.312858 0.292166 -0.718065 -1.63861 0.190431 
-20.1577 9.77103 -3.95877 4.0433 6.76444 -1.92273 -0.981342 6.82281 1.42101 3.55145 -3.24633 0.697767 20.9132 -0.383301 0.360217 0.423755 -2.43075 -0.499191 1.24581 -0.264544 -2.22866 1.05644 1.86948 0.211162 -2.35316 0.104448 
-18.3934 12.7959 -2.39332 -1.27447 5.98898 3.80378 2.1983 2.11026 -1.78514 6.14535 -0.516884 -4.34947 20.6269 -0.577869 0.098314 1.14665 -2.67848 -0.900328 2.36816 0.905658 -1.77069 0.710331 1.66078 0.804914 -1.47374 -0.012525 
-21.9105 9.53957 -2.46298 -4.00578 3.24234 8.03517 1.2002 2.39651 1.07154 8.5072 4.06703 -3.65677 20.8158 -0.13116 -1.107 0.527796 -2.04723 -1.56274 2.03374 1.88098 0.707556 0.36012 1.16073 1.71945 0.536456 -0.106603 
-20.8609 10.8763 2.10964 -5.39339 2.85579 8.99542 2.75431 2.28429 -0.117717 4.70944 0.435029 -1.52626 20.5591 0.637953 -2.08155 -0.714514 -0.703401 -0.953025 -0.34085 0.729828 2.07728 0.446237 -0.552245 0.732623 1.52843 -0.116042 
-19.5797 5.19581 -3.57127 -4.13337 0.517317 5.65013 8.14554 10.2736 2.3879 10.0731 4.87494 1.96844 20.4141 1.68954 -1.57766 -0.154378 -0.0418727 -0.357365 -1.26441 0.126784 2.02618 -1.039 -1.34679 -0.779177 1.81981 -0.301914 
-16.369 4.56 -5.41175 -4.72768 2.58636 3.29205 2.37478 8.55815 -0.212138 2.60118 2.74227 0.480076 20.2475 2.40719 -0.327648 1.68709 0.813782 -1.199 -2.60362 -1.49251 -0.731279 -1.8651 -2.78563 -0.204606 0.633697 -0.469674 
-15.7088 4.80942 0.525822 -4.548 1.59023 4.56483 2.02389 9.39048 -4.07625 2.82736 -0.982477 4.43911 19.462 3.49152 1.56038 4.08162 1.18055 -0.945045 -3.21055 -4.21892 -4.66813 -1.19598 -4.15908 -1.73462 -0.208679 -0.705227 
-10.7604 9.43128 8.49654 -1.11717 -3.67568 -3.48001 -1.64742 -0.930566 -6.21116 -5.59586 2.34071 0.406891 18.6868 3.90773 1.32555 4.26666 0.923564 -0.298639 -3.9714 -3.90633 -3.96162 0.136981 -4.03805 -2.30928 -0.779876 -0.819732 
-4.92643 10.5621 9.88267 -0.0358973 -1.07688 -7.01657 -10.9379 -8.32273 -0.592486 -6.6238 -3.59737 0.961638 17.6684 4.17657 0.043539 1.91226 0.456591 1.5863 -3.07734 -3.11883 -3.33551 0.879224 -4.67418 -2.30709 -0.0471688 -0.839202 
-2.22154 8.31145 11.2431 -2.36591 2.42673 -10.7743 -10.6759 -2.39333 -1.26912 -12.8635 -7.49668 -1.68057 17.0457 3.01802 -1.32912 0.709091 -0.367529 2.86165 -1.05788 -1.95362 -0.571579 0.919694 -3.20758 -2.01236 0.132741 -0.723018 
0.904636 5.58703 8.71381 -1.64067 6.47055 -7.17475 -9.05602 -6.5557 -2.15116 -16.9097 -7.59925 5.247 16.0866 1.61815 -1.29484 1.03463 -0.481157 2.07373 -0.495393 0.316576 0.159236 -0.169327 -2.52601 0.218329 0.910033 -0.452392 
1.41414 5.27321 12.6264 -2.15243 6.85887 -8.69032 -12.3565 -4.67198 -0.833358 -16.4908 -5.72017 -1.07208 15.8626 0.73132 -0.638135 1.02375 0.0716487 1.25663 0.0536026 0.19066 -0.969841 0.0445941 -0.583043 0.856504 1.24079 -0.256439 
1.34649 5.60695 14.3642 -2.54842 7.07572 -10.5355 -8.51478 -6.38722 -1.657 -17.4402 -3.39398 5.20756 15.998 0.0640823 0.14915 1.46708 0.158994 -0.582401 -0.577105 0.119148 0.620377 0.290352 0.418983 0.314219 0.267528 -0.137588 
1.21414 5.11082 13.5367 -1.55379 8.4073 -8.82588 -9.99326 -7.32677 -1.29323 -15.5135 -5.31679 4.54312 15.8078 -0.0575016 0.161602 0.499953 0.758021 -0.866739 -0.215672 0.00323753 1.09979 0.10986 0.609027 0.33376 1.00327 -0.119271 
1.32505 6.41398 15.5941 -1.14502 2.78432 -9.99249 -9.6419 -2.12642 -0.469465 -15.3035 -6.22984 3.77704 15.426 0.0264726 0.0333196 0.742475 0.938723 -1.13246 -0.100442 -0.715958 1.06874 0.0494653 1.22443 0.729963 0.0182211 -0.144206 
1.13735 5.67771 14.5112 0.935977 4.67087 -10.0402 -11.7768 -1.30342 -0.877828 -14.5141 -2.63344 4.65954 15.5522 0.129755 -0.206301 0.718284 0.219944 -0.503151 0.393705 -1.09591 0.254829 0.0835226 0.782535 1.18781 0.883916 -0.0530704 
1.51725 5.49011 17.5893 0.900308 3.28164 -10.4306 -11.2028 -4.05519 -1.61737 -11.8178 -1.08584 5.24045 15.4048 0.0895152 -0.0649334 0.480492 -0.240653 0.621751 0.252061 -1.10245 -0.194787 0.147309 -0.629824 0.401012 2.06961 0.000917816 
1.76681 4.54125 16.1305 -1.47674 5.64289 -6.63832 -14.6923 -5.08824 -0.301658 -13.3436 -1.94974 8.23099 15.5531 -0.131075 0.435628 0.185296 -0.396691 0.711486 -0.220805 0.00806789 -0.818236 0.21358 -1.62591 -0.502504 2.35037 0.0371036 
1.45789 6.65754 17.1869 -1.14193 5.40707 -10.4331 -13.6964 -1.20794 -0.021003 -19.0378 -4.56663 12.3394 15.4302 -0.482969 0.436702 -0.0737682 -0.498328 1.50612 -0.0892279 0.842772 -1.15361 -0.492154 -2.7332 -0.523557 1.86386 0.130891 
0.51165 7.27213 15.6389 -0.0263586 7.16559 -11.1429 -10.4896 -6.81822 -0.608115 -19.0336 -3.40556 12.8619 15.725 -0.416583 0.0983508 0.234235 0.16699 0.789251 -0.20551 2.06673 -1.58033 -0.822791 -2.1183 -0.219594 0.684563 0.0520991 
-0.270017 6.30818 17.4663 -2.31652 10.0509 -8.62441 -9.09031 -8.95824 -3.92491 -22.6388 -2.97572 12.2443 15.9732 -0.397411 -0.150714 0.139729 0.086905 0.13597 0.185665 1.45833 -1.53697 -0.237032 -0.219075 0.0600517 -0.972445 0.0613315 
0.547853 5.20768 17.162 -0.054493 7.26724 -8.57023 -6.66173 -9.11476 -2.46366 -22.1347 -3.84316 11.7014 15.542 -0.381627 0.132108 -0.461571 -0.109365 -0.496467 0.468287 0.66775 -0.0995725 0.346483 0.182625 -0.584281 -1.4885 0.0585812 
-0.547265 6.93619 17.124 -0.693338 6.03609 -10.7911 -8.31869 -7.74451 -0.278392 -18.5826 -4.04757 8.05746 15.8283 0.039838 0.42172 -1.37983 0.0166023 -1.37592 0.338858 -0.151838 0.152797 0.948384 1.56208 -0.913949 -1.67241 -0.120397 
-1.25786 7.61866 13.5022 -1.38478 6.69064 -7.71813 -7.53671 -7.92295 -0.698959 -20.1486 -5.79104 7.51286 16.0904 -0.0595048 0.526839 -1.16554 0.308899 -0.818348 -0.56729 -1.05184 0.0957236 0.428654 1.59067 -0.221214 -1.27217 -0.159992 
0.832029 7.21129 12.397 -1.56837 3.45959 -7.35617 -9.41201 -8.79016 -0.0653436 -15.8214 -6.57153 5.97649 15.0971 -0.136555 0.284785 -0.945553 0.760802 -0.222901 -0.0345082 -0.889862 -1.04859 -0.523877 0.967343 0.90471 0.580866 -0.150187 
-0.439319 7.70434 13.6978 1.92752 4.46375 -13.1242 -11.3743 -8.11332 -0.426914 -15.5619 -3.68726 6.38097 15.1077 -0.467314 0.171253 -0.792815 0.655822 -0.469931 0.900359 -0.297091 -1.01372 -0.789609 1.13105 0.819043 0.353288 -0.0536426 
-1.63931 8.31728 12.2984 1.45453 6.03503 -8.26067 -10.8492 -12.8923 -3.0338 -16.0392 -0.575912 11.5277 15.5687 -0.609875 -0.340427 -1.43868 1.46685 -1.62038 1.98655 0.185411 -1.4605 -2.41361 0.906006 0.908335 -0.634828 -0.17158 
-2.35876 7.92193 9.5874 0.382886 3.05327 -2.76408 -8.30356 -10.9405 -3.16278 -14.3844 -4.69363 6.50368 15.5864 -0.534022 -1.13091 -2.29429 0.659602 -2.85604 2.92959 1.25023 0.478707 0.0788529 2.72768 -0.0983384 -1.36933 -0.324057 
-1.25762 5.40035 7.25882 6.53821 -3.93708 -2.60344 -10.0203 -14.6791 -10.7655 -11.8801 -1.52666 2.741 13.9998 0.10305 -1.12205 -2.0166 0.769607 -2.66825 2.03312 0.494615 0.703412 0.39869 3.2731 -0.305549 -2.13273 -0.529586 
-3.30027 3.50827 4.74613 2.68369 -4.8304 -1.30482 -5.53756 -4.8264 3.83318 -4.00309 -3.70357 3.9277 14.2719 0.66997 -0.531329 -0.879414 0.340101 -0.771812 0.60448 0.175519 0.632405 -0.375511 1.76524 0.346182 -0.319927 -0.518561 
-0.653302 4.91384 4.63606 4.15216 -3.36437 1.17531 -9.75914 -12.4323 -4.53833 -4.8644 -2.59868 2.15208 13.578 0.578551 -0.238155 -1.06402 -0.653813 1.03911 0.133649 -0.97175 1.19334 -0.501452 -0.0507782 -0.144176 -0.878675 -0.328525 
0.688929 5.50854 6.50171 3.27641 -1.09215 -1.63106 -7.55654 -8.90185 -8.1539 -9.06606 -2.42671 5.1985 13.2044 -0.246037 -1.47348 -1.72767 -0.856696 1.10902 -0.665452 -0.209168 1.88087 -1.64525 0.0386114 0.589897 -1.85583 -0.430808 
-0.359468 3.20944 1.06091 2.97278 -0.610639 -1.77208 -13.8696 -6.67465 -7.27918 -9.60254 -2.88598 -2.28778 12.8909 -1.44633 -3.26301 -3.21892 -1.9303 -0.135693 0.140541 2.02836 3.97235 2.29579 2.99421 0.815246 -2.00081 -0.429195 
-4.67737 -3.00693 -2.10464 -1.0101 -0.662153 -3.15838 -4.52819 1.69916 -3.02266 -1.44096 -0.61044 -3.13152 12.4614 -1.32486 -3.21178 -2.87736 -1.64648 -0.961985 1.14253 2.38712 3.24046 3.66582 4.64507 1.26112 -0.65759 -0.443235 
-5.20181 -7.14345 -7.15537 -3.35606 -4.25783 2.64168 -1.13151 2.12895 4.375 6.29412 0.569415 -3.68695 11.8036 -1.01939 -1.2437 -0.385347 -1.7304 -0.589188 2.55412 3.44315 2.18092 2.80223 3.11387 0.516582 0.863926 -0.00739222 
-3.51421 -5.37389 -3.77693 -1.79159 -4.07848 1.87473 -1.98999 2.89867 4.34814 6.21095 2.15121 2.61014 11.5319 -0.723904 0.497645 1.14694 -0.24736 0.136068 1.69973 0.935574 -0.00477145 0.574015 0.606723 0.382274 0.558729 0.342564 
-6.03799 -1.82558 -0.0296745 -5.2885 -1.84842 8.48194 2.07709 3.63021 3.04657 2.14087 -1.6839 -0.838982 13.3187 -0.814447 0.747636 2.22587 0.452944 0.709338 -0.137485 0.518358 0.405625 -1.6741 -1.31172 0.349468 0.148504 0.37887 
-7.8788 -3.17764 0.0672207 -1.28068 -1.18652 2.42015 -1.45462 0.924668 0.511628 3.66928 2.42759 -1.76186 13.4167 -0.576397 -0.394919 0.339139 0.583226 0.727753 0.291847 0.32262 0.115504 -0.622165 -1.15686 0.332518 -0.631411 0.101031 
-7.09175 -4.50339 2.05189 -1.34679 -2.15712 1.68154 1.1926 5.14408 -2.07726 1.00633 2.17857 -0.758439 12.7556 0.185623 -1.56297 -1.21144 0.944796 0.131195 0.0875801 0.0317845 1.01583 0.927999 -0.779102 -0.301839 0.0757279 -0.331382 
-5.86932 -6.00958 -3.12202 -0.84631 -0.285361 6.73417 0.0653553 2.71926 3.79923 0.993924 1.88257 -0.587191 12.3186 0.533152 -1.63959 -1.4297 0.37234 -0.470008 0.431454 0.392765 0.564106 0.0585974 -0.569083 -0.628018 0.173502 -0.318802 
-6.11461 -8.22445 -4.49227 -0.781703 -1.64302 6.76283 1.47602 7.81204 6.04276 -0.416961 -2.92058 -1.04767 12.2108 0.568929 -1.40532 -1.3579 -0.259939 -1.1616 -0.726629 0.227039 0.33493 -0.0948411 -0.44902 0.0629546 0.0574512 -0.237062 
-5.70161 -9.51504 -3.80918 0.298475 -3.7936 2.03678 0.367489 2.41122 -3.2554 1.53551 1.83707 -0.749727 12.095 0.860797 -0.622567 -0.304563 -0.00766258 -0.823119 -1.31977 -0.0473075 0.210452 -1.17759 -0.75313 0.0363014 0.0157658 -0.214999 
-4.33095 -9.77726 -4.39401 -3.21888 -6.21101 0.397092 2.17673 6.97275 0.975843 -1.50956 2.51609 -0.389915 11.6821 0.801201 0.0870837 -0.159358 0.672643 0.111182 -0.340676 0.510926 0.523494 0.155084 1.46526 1.73898 0.428716 -0.239021 
-2.45717 -8.34601 -4.69396 0.333966 -2.11696 3.31821 -0.521534 4.19117 0.44474 -2.22542 -0.654261 -0.837242 11.508 0.946338 1.03385 0.494605 0.860876 0.744036 1.51716 1.52976 1.65044 2.32082 2.0244 0.997374 1.23472 -0.181061 
-3.73083 -8.37355 -4.84667 2.56377 -1.92543 4.41874 4.47517 9.53954 4.96812 8.78983 7.01999 1.13966 11.3092 1.0403 1.31409 1.35656 1.41743 1.3153 2.26907 1.44359 0.503329 0.554957 2.37138 1.35884 0.786747 -0.100169 
-1.26998 -5.04764 -1.10983 1.71153 -2.21621 7.61173 6.86707 9.38 6.35259 6.5078 4.57199 4.65909 11.3762 0.508179 1.14539 0.984317 -0.480952 -0.613429 1.12457 1.77963 0.872285 -0.654123 1.57749 1.97919 0.0294408 -0.0384437 
0.276964 -4.85602 0.596719 3.17947 0.415124 9.5957 5.70039 6.89498 0.796704 5.98071 6.69717 0.795653 11.2471 0.435599 0.924652 0.274375 0.0146163 0.159886 0.821932 0.0461482 -0.222874 -0.98604 -0.18174 0.568424 -0.375653 0.0206244 
-1.92017 -4.37785 -2.49407 -2.37865 -6.35438 6.35257 7.76401 9.87488 -0.740171 7.06657 9.4031 -0.518034 11.3468 0.150354 0.363954 -0.793955 0.0654576 0.395456 -0.417005 -1.72617 -0.600702 -0.337246 -0.803228 0.251394 -1.20198 -0.031991 
-1.22775 -4.08518 -2.78267 4.68194 0.943081 9.15799 4.25744 8.17774 3.5843 7.60174 7.44656 1.84996 11.427 0.172648 0.0926936 -0.394137 0.586016 0.827818 -0.274002 -0.350311 0.349352 1.28132 -1.6185 -1.5337 -0.799433 -0.0423506 
0.234142 -3.61329 -3.38991 1.28758 -0.502913 5.74556 -1.04231 5.73512 3.27256 1.68114 5.45427 -1.87795 11.1263 0.69426 0.0935487 0.627848 1.42688 1.51927 0.899501 0.584562 1.31772 2.04669 -1.53225 -2.20123 -0.477183 -0.0402884 
0.0630484 -4.77483 -0.92605 4.27644 1.62848 8.52919 8.352 10.7116 5.19692 0.5809 1.00308 -2.52156 11.1457 0.310837 0.283704 0.746206 0.694793 -0.0276886 1.53764 1.09597 0.62688 0.112852 0.164617 -1.57231 0.539137 0.0464664 
0.905735 -3.56528 -0.283142 4.95848 0.899263 11.1645 8.63954 15.1965 8.68698 2.91572 1.61866 -0.718193 11.286 0.269017 0.857533 0.732689 1.37631 0.224874 0.989388 -0.131629 -0.0811817 -0.260353 2.27022 -0.799138 1.77616 0.13506 
-0.0093565 -2.69066 -0.605027 6.32046 0.103549 14.1367 4.89634 6.58143 1.44135 7.80754 1.50279 3.96576 11.5795 0.526492 1.71014 0.822332 1.73617 0.595516 0.259714 -1.02361 -1.58876 -0.572862 1.21133 -0.533632 1.40805 0.128169 
1.61543 -0.367707 0.113022 7.14714 1.38392 7.88874 0.0273706 7.3943 3.84858 9.4189 1.20872 3.75917 11.5847 -0.24144 2.02882 0.828734 1.79826 1.09739 -0.749177 0.330232 -2.09736 -0.930201 -1.39183 -0.678023 -1.16317 0.340301 
2.34066 2.17708 2.98753 11.863 4.36373 11.4656 7.54003 6.66894 4.75181 3.38597 -1.46011 2.28 11.6372 -1.42882 1.84544 0.800437 1.05821 1.21581 0.0907345 1.39408 -1.01864 0.49275 -2.74855 0.165172 -2.54428 0.724002 
-1.47648 4.14493 2.06425 11.1785 4.25612 8.75413 8.96885 4.66599 2.38074 -1.83267 -0.289998 -5.69117 12.9587 -2.30096 0.537053 -0.103887 -0.173441 -0.527721 0.52737 1.82499 -0.705839 -0.562709 -2.66885 0.731547 -2.21369 0.793268 
-5.60752 4.28022 2.42155 9.59581 4.74652 14.1577 7.39601 2.8524 4.63902 -0.309415 3.07801 -4.03049 14.5125 -2.46737 -0.299928 -0.461908 -1.99741 -2.21923 -0.891034 -1.25957 -1.55375 -0.68788 -1.47453 1.32012 -0.947898 0.759314 
-5.91527 1.26599 -0.123421 7.4135 -1.44608 9.17956 9.22435 5.77338 1.09143 -2.07764 2.59739 -4.15402 14.1134 -1.01114 -0.778216 -0.0462503 -1.48246 -1.44799 -0.496506 -0.537232 -0.36917 0.254079 1.02667 0.246003 -0.614446 0.214254 
-7.77677 2.11691 1.77182 3.75843 -3.88134 6.79774 1.11442 -1.65353 1.95706 -3.8642 3.69679 -3.22806 14.8564 -0.273074 -0.728932 0.32033 -0.714624 -0.0928505 -0.70039 0.135361 0.289882 -0.0798597 1.83237 0.502071 -0.314214 0.0304173 
-5.44753 1.3355 2.15786 6.68491 1.33011 9.95157 9.42349 5.0731 4.99211 5.0781 0.630632 -9.16461 13.858 -0.0115042 0.0293118 0.659337 -0.225363 1.63891 1.13557 0.096489 -0.568235 0.376265 2.82362 -0.0653252 -0.278124 0.0664403 
-7.20676 0.6008 2.88255 6.38699 2.89417 10.2697 7.97325 4.65194 2.28938 5.27457 6.57175 -3.09626 14.7922 -0.0656506 -0.14644 0.272133 -0.938507 0.920021 0.543593 0.996138 0.817442 -0.201353 1.09765 -0.374224 0.73859 0.0864767 
-6.25779 2.1706 2.6179 4.97241 3.3607 13.1214 6.27738 -0.220535 2.8066 7.47107 0.833286 -5.61054 14.4777 -0.335574 -0.0544448 0.62211 -0.722939 -0.0936238 -1.75302 -1.28468 -0.87256 -1.03576 0.109812 -0.34723 1.02737 0.188363 
-7.69989 0.96716 2.90247 -0.0778565 -0.296531 7.93078 7.66817 5.0805 2.04305 0.427559 1.72434 -1.31215 14.979 0.000720024 -0.097667 0.372269 -0.581392 1.16759 -0.125272 0.46518 -0.286684 -0.602612 -0.0849234 0.154605 0.582914 -0.0267835 
-6.87883 0.880097 5.25845 6.30264 2.45734 2.35593 3.15265 0.49602 -0.0635226 8.05066 1.31819 -4.9198 14.7064 -0.00798206 -0.6997 0.194945 -0.0335146 1.87783 -0.474704 0.453527 -0.677373 -1.1033 -0.640773 1.0659 0.246826 -0.10944 
-6.89264 0.757717 3.42362 2.81491 9.18378 15.0261 11.8615 2.86025 0.71138 4.56016 7.10232 -0.527064 14.5439 0.661298 -0.867007 -0.715072 -0.242395 1.41665 0.0424331 0.4173 -0.754176 -1.0194 1.06055 1.35371 0.548183 -0.419209 
-6.70133 -1.22318 3.33205 3.35845 8.00972 7.20024 6.44834 -2.49727 -2.04406 2.20091 3.47378 -4.76895 14.148 0.769185 -0.892837 -1.06473 -1.69916 -0.985483 -0.704423 -0.50812 0.146232 -1.32463 0.5216 -0.636588 -0.271019 -0.506016 
-4.48215 -2.31624 0.290312 0.182263 4.01054 5.7208 8.10682 2.80627 -2.06367 8.6552 7.41511 1.35335 13.1621 1.46996 -0.176551 -0.267982 -0.673405 -1.49018 -1.23214 -1.84705 1.41639 1.27792 1.60279 -0.688503 -0.925829 -0.567133 
-4.23815 -2.04711 1.50145 -0.876827 0.116542 3.48648 2.48939 1.25417 -5.29914 8.61114 -2.02115 -7.2151 12.8673 1.38328 0.295994 0.483699 0.57132 -1.45831 0.687592 -0.816211 2.88273 2.55857 1.1558 1.36945 -0.430349 -0.556657 
-0.774442 0.286931 2.99901 1.56552 5.67947 10.7223 4.60571 8.06647 8.72852 9.36901 6.40727 -3.93314 12.3486 1.0164 0.318958 0.785353 1.57827 -0.228327 0.929647 -0.39212 1.2136 1.72615 -1.40399 -0.35663 0.364555 -0.426288 
-1.63877 -1.04479 4.39619 5.52342 -0.116276 8.13744 4.11784 9.28627 5.35269 7.62302 10.825 -4.27746 11.7714 0.868842 0.232183 -0.179547 0.647196 0.305614 1.72011 1.11149 1.5181 0.445408 -0.694677 -0.336872 1.21377 -0.375338 
-0.699859 -1.22261 2.76971 4.87348 2.98532 8.04356 5.332 4.85821 1.24116 2.12929 -0.791103 1.7073 11.5786 0.264316 -0.640577 -0.922608 0.626208 0.19803 0.284014 0.829948 0.960679 -1.16116 -1.14399 -1.09803 1.88039 -0.24215 
0.0687666 -0.131423 0.718366 0.705173 2.99169 13.4264 7.68371 10.4488 0.671583 8.75761 -0.106318 -3.96648 11.3756 0.054959 -0.892631 -1.94386 -1.12832 -0.00543301 -1.50628 0.351897 1.75174 1.003 -0.177329 0.075479 1.64651 -0.0889493 
-0.306629 -3.37264 0.224882 7.10568 5.11564 9.49789 6.97252 12.2886 5.26326 3.08175 6.38276 5.31331 11.3358 -0.249474 -1.205 -1.19175 -0.371882 -1.27434 -2.25255 -0.418928 1.40909 1.28063 0.578465 1.71673 0.863895 -0.0341097 
-1.56059 -4.43293 -4.05068 -1.23428 -1.2086 -0.121106 5.05706 14.3298 8.35663 6.26014 7.61543 2.15208 11.4481 -0.339391 -1.02461 -0.704588 0.196954 -1.62348 -2.66758 0.0622804 -0.463556 0.695817 0.105443 2.39831 1.89237 0.060954 
-1.13255 -5.09686 -0.804507 3.9838 -1.28624 3.55455 4.55068 9.96318 3.8018 6.27035 3.93167 2.9675 11.3718 -0.266852 -0.267113 -0.871982 -1.45624 -1.20275 0.406694 1.12008 -0.949956 -1.73772 0.42276 1.0213 0.0918836 0.0643336 
-1.21523 -4.39234 -2.28988 3.25089 -1.92476 3.06019 9.20603 9.29374 4.8814 7.69053 13.1108 6.66825 11.6623 0.0713991 0.152265 -0.110868 -0.0879125 0.219665 2.02117 -0.0578044 -1.66337 -1.71171 -1.08649 -0.30874 0.293402 0.00919352 
-1.81357 -4.7285 -5.01543 -2.41808 -0.540032 9.94072 10.4984 10.0568 -1.68773 4.48036 8.74161 3.51464 11.5504 0.442849 0.277374 -0.622103 -0.0835219 0.441426 0.848799 -2.1092 -0.972505 0.141719 -1.7592 -0.418908 -0.735176 -0.0352151 
-0.863084 -3.85579 -2.49955 1.52709 -0.483381 6.79164 1.79416 5.96611 2.54281 1.72271 3.66676 3.34552 11.4048 0.335087 0.0836776 -0.0420905 0.651203 0.125181 -0.301749 -3.64476 -1.34831 0.530158 -0.525012 -1.79017 -1.54903 -0.101832 
0.905618 -3.97826 -3.81018 4.42809 0.200202 5.93283 -2.28938 6.76446 5.67969 0.458249 6.55914 0.952983 11.3245 -0.116533 0.17807 0.645017 1.81748 -0.81813 -2.25278 -3.02326 -0.873695 1.74647 0.554532 0.0782073 -0.459582 -0.0316573 
-0.899386 -4.34907 -3.10295 3.08382 -1.66898 3.55539 -2.62388 4.19837 3.84848 7.07653 5.25115 0.203915 11.2661 -0.430611 -0.0566171 0.0370256 -0.113748 -1.28857 -1.54621 -0.493916 0.112099 -0.291495 0.860102 -0.133311 -0.385575 -0.0109194 
-2.37808 -3.59151 -1.48864 5.89097 -4.03788 0.294967 -2.40883 6.57223 6.39181 4.5761 8.34045 2.78753 11.4614 -0.503471 -0.0691155 0.0297731 -1.12593 -1.3153 -0.978248 0.535557 0.214087 -1.302 0.389984 -1.20408 -0.060877 -0.0069891 
-1.37429 -4.33225 -3.4752 0.226912 -4.80719 1.87952 -0.615689 6.62272 0.729275 3.96429 2.10955 0.50037 11.2817 0.00539932 -0.0707107 -0.273104 -1.13779 -0.704573 -0.176719 0.580952 0.48992 -1.1901 -0.68363 -1.25141 -0.169425 -0.0148411 
