-0.743383 -4.74483 -4.41334 -1.07921 -0.00639439 9.22598 5.06592 3.46347 1.65791 1.70755 -1.07538 1.93139 11.0545 -0.479507 0.217277 -0.0683085 -1.00242 -1.86262 -1.4705 -1.33748 -0.24223 -0.337757 -0.756165 0.780859 0.684778 0.115607 
-1.70798 -3.77942 -4.59304 -3.49325 -5.91372 2.8864 0.771466 3.75938 1.40034 3.57219 5.11244 3.75626 11.3044 -0.472804 0.214546 0.513396 0.11587 -1.39383 -1.43285 -0.283738 0.0938547 -0.0496565 -0.200324 0.296379 0.745231 0.139893 
-2.65862 -4.14114 -4.66503 -4.88431 -6.36581 5.04329 0.52573 2.10436 0.0979177 -3.0056 -0.264996 4.44284 11.5076 -0.226651 -0.16955 0.380897 0.804546 -0.040926 -1.0759 -0.550838 0.15113 1.32266 0.255225 -1.62174 0.474237 0.0944697 
-2.14979 -3.97394 -1.72051 1.40268 -3.79584 4.15306 5.91733 4.6123 2.18963 3.06251 0.00131655 4.40182 11.5275 -0.223048 -0.274136 -0.012534 -0.229918 2.32833 0.495802 0.603398 0.265597 1.55437 1.38222 -2.7369 0.0190635 0.188967 
-1.65573 -5.49532 -3.94512 0.495554 -1.26996 3.21317 -0.261196 3.79266 7.87659 3.23852 -6.62851 3.9798 11.4154 -1.06877 0.0713279 0.245322 -1.93962 2.50482 -0.375371 -1.01576 -0.724106 -0.104963 3.08801 -1.35955 -1.83449 0.487892 
-3.32466 -4.47301 -5.01567 -7.33277 3.17998 6.28047 4.18192 4.24322 5.28286 7.36123 -5.39032 4.0831 12.2954 -1.30469 0.350523 0.390879 -2.03211 1.94703 -0.621175 -1.28023 -0.932903 -1.89759 2.38103 -0.00825254 -2.446 0.4945 
-7.41504 -3.53497 -1.79084 -10.2147 2.67039 2.10273 -3.68536 -1.33163 -1.97351 10.2851 -4.36691 -4.57024 13.5631 -1.20458 -0.262306 0.501349 -0.412851 0.679922 -0.598975 0.12447 -0.607763 -2.58977 0.455296 0.928342 -1.57582 0.304699 
-5.79359 -3.2015 -0.84326 -3.40276 3.96913 1.6024 1.22824 2.50992 -2.37325 11.4444 -1.17075 -3.55315 12.9261 -0.159798 -0.15155 -0.0344465 1.57146 -0.315403 -0.0754123 0.710595 0.983848 -1.88587 -2.17357 0.312765 -0.787976 -0.0781432 
-6.44418 -7.44261 -3.52457 -3.5337 1.73507 2.55732 1.83799 1.62049 -1.24422 3.47342 -4.09659 -0.0811605 12.6235 0.159573 -0.202102 -0.811652 1.43656 -0.624083 1.10679 2.4209 1.84318 1.03309 -3.08384 -0.139123 -0.236495 -0.240955 
-4.60909 -3.27695 -4.32103 -2.81593 2.07062 5.67611 4.97322 7.6864 -4.51116 -0.100803 -3.96165 -2.10132 12.3745 -0.546544 0.216968 -0.625053 0.79187 -1.23554 1.04814 0.876282 -0.796025 3.09435 -2.44515 0.290774 -0.446476 0.168725 
-7.20943 -4.50775 -4.11021 -3.32528 0.499228 5.59981 6.54665 5.29604 4.2609 0.638473 -3.66707 -6.47863 12.6342 0.10588 1.4012 0.0481538 1.41826 -0.146078 0.164293 -1.07944 -2.02655 3.33769 0.0129965 1.59618 -0.539849 0.289566 
-8.14369 -3.58409 -3.67571 0.452374 -1.59062 5.32186 3.25532 -3.30798 10.3459 0.636092 0.0683697 -2.58679 13.7644 0.722347 1.08873 0.614729 1.52661 1.04807 0.0649637 -1.42859 -2.0043 3.30593 0.839562 1.16367 0.0636683 0.121411 
-4.14748 -0.283056 -3.60647 1.92345 2.83531 3.55591 -2.70024 -3.01506 8.01571 3.16995 1.86931 -2.53767 13.3764 1.17049 1.7025 1.6626 1.86758 1.88159 1.40068 0.019869 -0.648065 0.639282 -0.0360208 -0.0863377 0.195986 -0.0903224 
-2.52832 0.0543671 -1.49926 2.19276 6.14292 7.02287 2.45371 1.82044 10.1411 2.83127 -0.911488 -3.75346 12.6104 1.34917 1.37578 2.12533 0.937823 1.58319 2.08246 1.30269 0.841565 -1.33472 -0.690981 -0.900426 0.598089 -0.359261 
-4.16467 2.18551 3.11459 5.14243 6.04039 11.7527 7.04681 -0.508492 7.55973 -0.639218 -3.60883 -4.91537 12.7595 0.732132 0.208392 1.48724 0.974669 0.429488 1.58529 2.30258 0.918152 -0.920594 -0.437912 -0.742685 0.458137 -0.29821 
-1.38926 2.06053 3.5904 3.532 4.72277 11.6358 4.89525 -0.353435 3.90034 -0.914227 -1.69469 1.5925 12.2765 0.312984 -0.778078 0.200779 0.468547 -0.0785188 0.573782 0.286311 -0.165652 -1.37956 0.382953 1.08335 1.15487 -0.243513 
-1.05635 -0.244176 1.28492 6.12718 5.69282 9.17592 7.59188 2.66264 6.53312 2.85314 -1.45251 -2.91997 12.0523 -0.0157887 -1.61665 -1.50281 -2.06801 -1.98227 -0.981721 -0.992631 1.06432 0.301022 2.00502 2.47715 2.09234 -0.256034 
-2.51757 -2.62118 0.419469 4.04312 5.92411 11.1802 3.61273 -0.593387 3.7566 2.99985 3.4271 1.02321 11.7465 -0.867592 -2.06322 -1.84371 -2.60898 -2.61288 -0.944882 -0.281472 1.54278 0.121577 1.09592 1.63181 0.767887 -0.229065 
-3.67946 -3.55687 -2.814 -5.45318 -4.47163 7.07189 2.72491 4.9331 9.13671 7.42885 6.21604 5.831 11.7444 -0.532501 -1.02957 -1.16693 -2.04917 -2.30603 -0.528924 -0.428336 0.961409 0.0462551 -0.430377 -0.416918 0.288065 -0.191051 
-4.41566 -6.59924 -3.57869 -3.72272 -3.25943 7.96338 5.92138 6.22521 3.20643 2.27751 2.63008 1.05645 11.2851 0.122122 -0.0503773 -0.0429701 -0.786092 -1.188 -0.309106 0.0416089 0.588096 0.07005 -0.0921047 -1.06827 -0.596682 -0.0951366 
-2.76981 -3.40298 -2.55063 -0.235756 -1.24556 8.13969 4.29587 4.06038 7.03947 1.06243 -3.1386 -1.49627 11.3277 0.483982 0.486587 0.348829 1.45523 0.877838 0.146639 -1.15714 -0.343689 -0.0165207 -0.203457 -1.33138 -0.765966 -0.0171535 
-2.36178 -2.95001 0.0729351 -2.49605 -1.6289 9.10073 3.03529 2.78345 5.15547 5.72254 2.76308 1.70343 11.4791 -0.550743 1.44718 1.54896 -1.05905 1.01513 -0.993371 -2.54569 -1.22132 0.00597064 -0.288121 -0.088622 -0.227885 1.10696 
-2.28649 -2.94855 -2.89567 1.20962 -0.897699 7.23641 -1.61777 4.93554 8.07959 4.68905 -0.507387 1.67768 11.5616 -1.19319 1.18507 1.42035 -2.62939 0.971737 -1.25338 -2.15243 -0.288308 -0.728502 -1.0858 0.391642 0.0455771 1.83527 
-7.41104 0.409441 4.33862 -9.74067 1.64231 3.44817 -3.85027 -0.318966 2.71623 -0.976403 0.871367 -1.66995 16.703 -1.46386 1.20788 0.523241 -3.13331 0.594234 -1.2861 -2.46966 -0.922956 -0.842815 -2.55824 -0.895672 -0.86502 2.19483 
-6.21115 0.842665 2.41826 -9.76041 1.97752 4.69905 -3.02349 4.17005 4.61659 -1.0171 -0.234528 0.418309 17.8921 -2.21299 1.6688 0.366464 -2.59297 -0.57348 -0.574148 -1.7902 -1.63044 -0.538886 -1.3845 -0.428886 0.236708 1.56355 
-7.71877 1.19378 0.0321739 -12.6776 -0.095346 3.9389 -8.61015 -1.44858 2.67289 -4.21556 -1.85171 -1.99198 19.288 -2.22729 1.0977 -1.53764 1.58938 -0.299707 0.602069 -0.25572 0.356299 1.00409 -0.477078 -0.179816 0.859551 0.103393 
-13.1976 5.00327 1.08987 -10.2868 -2.89627 4.1203 -8.18882 -2.65188 5.40683 -0.613877 -1.29028 3.02224 18.0869 -1.47345 1.45407 -0.214745 3.49569 0.592183 1.1276 0.976637 -0.0705856 0.353117 -0.584697 -0.301177 -0.592187 -0.499044 
-15.0543 3.81765 -2.68541 -1.53057 2.58067 6.74789 -2.54621 4.87349 7.34155 -3.56341 0.500161 1.32584 17.1226 1.2157 3.13912 2.13247 4.76071 0.699321 -0.262327 1.59841 -0.219594 -0.939893 -1.65066 -0.290455 -0.6087 -0.741257 
-9.91063 6.80109 2.70333 2.14454 3.60043 8.93255 -1.17227 0.656089 4.04784 -4.26666 -2.91635 -4.20154 16.4796 3.72478 2.85414 3.76503 3.38735 1.76173 -1.35111 -1.39018 -0.643247 -3.26286 -3.8402 -1.2315 -0.534309 -0.543678 
-3.28372 15.9905 9.88782 4.91029 0.152911 0.221139 -4.12637 -4.20053 -1.34708 -10.6425 -2.49095 -1.42359 16.3854 4.12806 2.31526 5.58143 1.06155 0.244656 -2.9894 -3.37986 -1.69444 -4.53168 -3.85461 -0.0314412 1.25654 -0.349703 
-0.458942 13.1876 13.6284 3.42957 7.12627 0.628113 -14.3496 -1.3311 -6.56315 -16.2754 -5.95225 1.72541 15.7371 2.7234 0.465521 4.62848 0.146899 -0.344714 -3.74655 -2.18109 -0.962975 -4.57951 -3.17527 0.939587 2.31084 -0.188715 
0.860164 12.2007 19.7592 3.13465 2.04103 -4.04686 -12.8568 -2.60511 -10.0114 -16.8321 1.86091 4.64509 15.7453 1.62108 -1.54907 1.84228 0.22717 0.619575 -2.32508 0.336135 -0.949872 -3.97986 -0.649666 -0.323752 0.68532 -0.102378 
1.63445 11.0236 20.9101 3.76685 0.9328 -7.66618 -7.71249 -4.9565 -14.5176 -17.0482 -0.394342 4.3183 15.8561 1.45676 -1.3889 -0.211437 0.308234 -0.806351 -3.05232 2.93476 -1.27709 -2.8075 1.8661 -0.405842 -0.431303 0.0939413 
3.77499 9.32711 15.4584 5.8775 6.34752 -7.25711 -5.76427 -7.1372 -17.2692 -13.5044 -6.88866 0.706559 15.814 1.69798 -1.48311 -2.46812 0.765616 -1.7493 -3.75332 3.27891 0.0365545 -2.16124 2.98498 0.0143864 -1.22495 0.19431 
5.36745 7.67983 14.7216 3.59931 0.941272 -13.0284 -3.2221 -5.4505 -16.9717 -8.60869 -3.60668 1.53816 16.1725 1.90154 -1.55768 -3.08632 1.08629 -2.72475 -4.29252 2.28759 1.58598 -0.42559 2.68395 2.22785 -0.484241 0.195004 
7.48358 6.457 10.5128 7.0465 -6.70973 -20.1324 1.29255 -2.17534 -19.5905 -6.12694 3.539 -0.0895734 16.5587 1.69136 -1.50921 -3.04556 0.375339 -1.47041 -4.23211 0.37097 2.79495 0.95302 2.42456 2.67241 0.488453 0.190434 
9.28785 4.67024 7.95122 8.61378 -6.16233 -22.6911 0.197042 0.492454 -15.4849 -7.31719 5.53107 2.29516 16.4587 1.84417 -1.33933 -3.85349 0.264401 1.19673 -1.68457 -2.27258 1.71406 1.65188 2.62536 1.95338 0.389408 0.0962475 
10.2716 3.28584 3.6158 5.24696 2.54728 -23.5863 -5.61898 3.8661 -13.2475 -2.02732 1.90454 2.77032 16.623 1.62158 -0.74397 -4.04199 -1.50168 2.2535 1.61265 -3.97206 -0.546059 2.56272 4.07299 0.284587 0.382139 0.135428 
13.1943 2.56875 -1.0973 5.82109 2.2964 -19.7242 -11.1292 0.0990657 -11.8839 2.46828 6.97746 2.05525 16.6215 1.23924 0.0540386 -4.37158 -2.67135 1.44567 2.50747 -2.32763 -2.25924 2.61051 4.36738 0.792643 -1.02638 0.247502 
13.6382 3.7879 -5.17286 0.93444 0.328415 -13.5526 -12.9046 -4.70894 -8.5774 9.34528 4.23875 1.94108 17.1544 0.952665 0.378944 -3.94235 -1.87148 -0.647723 2.53631 0.462616 -3.60081 2.96801 3.11449 1.33008 -1.94857 0.196205 
13.8007 4.6894 -9.51235 -2.58669 2.17543 -15.1707 -7.79829 -6.51622 -4.76739 8.8334 8.32718 -2.42212 17.4306 0.593459 -0.155335 -2.61942 -1.20841 -0.684527 1.66305 1.81519 -2.03629 2.13084 1.18489 0.74073 -2.97245 0.0518801 
14.7317 4.12023 -11.8884 0.0934412 -0.630852 -13.1815 -4.97137 -10.8303 -1.96574 10.3626 7.88007 -4.73382 17.1995 0.0806706 -0.448235 -1.05342 -0.154557 0.106525 -0.391007 2.45581 -0.811235 0.775314 -0.671643 0.661316 -2.58854 -0.139447 
15.6149 1.62591 -10.8366 0.199536 -0.646605 -11.5945 -6.01989 -7.0217 -4.53549 7.88408 8.86045 -9.46952 16.8584 -0.686318 -0.598562 0.61772 0.802121 0.467172 -1.69323 1.89292 0.565588 -0.629702 -1.79436 -0.237702 -0.433537 -0.178207 
13.1345 3.07847 -9.7778 -1.23146 2.27206 -17.2957 -1.51476 -8.51238 -4.81678 6.46173 7.2787 -7.47792 16.7433 -1.31152 -0.561603 2.18815 0.773133 1.04433 -3.26112 1.84434 1.79437 -0.898838 -3.35044 -1.04295 2.12072 -0.0940611 
11.1677 2.21747 -7.47907 2.08637 3.05984 -21.5797 -0.0620126 -4.84725 -6.49038 1.81204 7.43936 -3.21775 16.7676 -1.86024 -0.081939 3.33815 1.81553 0.0320742 -4.24343 2.94971 1.1199 -0.36273 -4.84724 -0.676849 3.68953 0.0391958 
10.3977 1.01644 -2.62645 3.01569 2.73758 -24.4945 1.27141 -2.94568 -5.48248 -3.35364 3.37585 2.7439 16.7746 -1.6644 0.0756221 4.83153 2.2119 -1.66879 -2.20424 2.47685 -0.283439 -1.22238 -3.94267 -0.60773 2.96917 -0.0412804 
7.6821 2.24723 2.27844 7.15364 -0.718993 -29.2122 7.33557 -4.20556 -6.01629 -11.4445 7.42763 3.86723 17.0387 -1.64843 1.09046 5.44469 1.68323 -2.86672 0.835691 2.17635 -2.75429 -0.866158 -3.02714 -1.95633 1.09793 -0.236177 
6.55533 3.4417 9.50111 7.2944 -4.18246 -24.5006 7.17068 -10.2504 -11.1657 -6.62338 4.24591 3.82541 16.4013 -1.41017 1.73225 3.81194 1.25435 -1.36329 4.29229 -0.279272 -3.38844 0.106668 -1.40702 -2.94826 0.74345 -0.604824 
4.84676 6.45714 13.6806 8.36317 -7.81375 -17.3982 7.87011 -14.9663 -7.97954 -11.6888 -2.77733 1.73114 15.7734 -0.996226 1.27339 1.11771 0.492116 1.95274 6.61571 -2.14821 -2.09386 1.51604 -0.482886 -3.44874 0.0381533 -0.871884 
4.76451 7.57276 10.7322 8.68267 -0.531486 -8.94007 -0.392221 -14.5075 -3.96751 -10.2666 -6.26295 7.5292 14.3831 -0.633004 -0.295256 -1.52572 -0.395481 2.77295 8.17682 -1.48708 2.20172 2.21652 -0.280775 -2.50284 -1.08771 -1.19006 
3.59637 6.54867 7.25146 8.92008 7.21921 -3.91397 0.375997 -12.5463 -2.03518 -12.0373 -4.56166 2.20611 13.6884 -0.683087 -1.40572 -2.08508 -1.36088 1.95197 6.2148 -0.811183 4.21596 1.7042 1.51908 -0.85013 -1.97086 -1.13075 
4.0155 1.91966 5.08708 5.03854 2.16579 9.64135 3.48234 -0.451816 -3.05533 -7.85302 -7.3761 -1.85061 11.4935 -1.37325 -1.96998 -1.46349 -1.83714 -0.688654 3.52572 1.20639 4.71878 1.14383 3.17881 -0.0705575 -3.98962 -0.820815 
1.80583 2.2551 6.07777 3.38084 0.597466 4.38507 1.87691 -0.91438 0.0853742 -5.30021 -6.47141 -3.43325 11.5645 -0.989371 -1.42806 -0.83356 -2.02177 -1.97484 1.61404 -0.251203 3.45447 2.02946 4.08514 -0.499415 -2.24931 -0.527021 
-1.20644 -0.130369 4.00159 2.26659 -0.663883 4.53901 4.88925 3.27042 0.691352 2.25891 -5.66086 -9.59925 11.341 -0.855586 -1.56324 -1.50034 -0.831504 -0.475246 -0.335496 -1.00734 1.36438 2.49812 3.2542 1.2732 -0.485607 -0.158981 
1.26049 0.433399 3.6264 0.197201 -1.24017 6.70738 -1.58347 2.86495 6.23876 3.33247 -7.91635 -5.1661 11.1295 -0.490103 -2.0145 -2.19746 -0.791341 -0.630232 0.553787 -0.662906 1.49806 1.26393 0.788329 0.929097 0.284562 -0.140668 
0.0102425 -4.9857 -1.18895 2.47284 0.70838 6.80272 0.175837 4.48045 6.35859 4.10162 -0.287628 -3.41222 10.9161 -0.448533 -1.73902 -2.50297 -1.05981 -0.695853 -0.492888 -0.596841 0.597799 0.164823 -0.674755 1.52872 1.69912 -0.0203427 
-1.25303 -5.38974 -2.31424 -0.678988 -3.23983 6.02215 0.919083 5.97093 3.57139 -2.27992 -4.51254 -5.10396 11.0736 -0.818298 -0.984648 -2.19473 -1.27832 0.120366 -1.10824 0.316436 0.0468184 -0.901842 -0.265387 1.90522 1.38739 0.0820747 
-2.19235 -5.9139 -5.54292 -2.59438 -3.14332 2.41718 0.653765 4.70642 2.84915 1.69133 0.280811 -1.13471 11.2673 -0.599987 0.24174 -0.701937 -0.940756 -0.10422 -0.481266 -0.213401 -1.1499 -0.550299 -0.156373 -0.393405 1.37814 0.115988 
-1.72971 -4.02574 -5.17028 -3.6608 1.28751 3.35896 -0.240257 2.98605 3.48427 3.21068 1.32552 0.632086 11.3643 -0.102494 0.531575 0.827327 0.176112 0.172795 0.143536 -0.0895114 -1.80493 0.728707 0.732143 -0.374697 1.527 0.0762054 
-2.75135 -4.459 -3.27062 -0.740036 -2.07639 5.72798 -0.311499 0.223391 3.65066 0.574463 -5.17369 0.61045 11.3507 0.207689 -0.0536183 0.937733 0.089907 -0.557165 1.21584 0.588229 -1.241 0.373613 0.0831109 0.631858 0.841064 0.0263011 
-1.486 -3.45932 0.686239 -0.725601 -2.90932 5.08443 0.954158 -0.812191 6.81417 1.93923 -3.65878 1.65846 11.4129 0.244927 -0.362861 0.31984 0.457796 -0.424643 0.733695 0.618289 0.669371 0.776568 1.09642 2.11795 0.858545 -0.0358664 
-1.27576 -6.46521 -3.78252 -3.61245 -3.83073 7.63367 2.9977 0.400537 3.05227 2.74261 5.93225 2.55742 11.3745 0.334556 -0.334672 -0.677365 -0.0846132 -0.0215262 0.0562239 0.5613 1.89794 0.871596 1.11899 2.73706 0.84853 -0.0361669 
-1.24287 -4.83694 -3.31513 0.0643873 0.0414677 6.07459 1.19659 6.24433 7.66631 7.6087 6.36231 3.95133 11.1731 0.0238968 -0.210446 -1.4871 -0.211094 -0.619159 -0.0561345 0.248649 1.24794 -0.87827 -0.447818 0.178883 0.203773 -0.0147913 
-1.20014 -5.44354 -4.65676 -1.5581 -3.65941 5.51402 2.37379 6.18482 7.58257 3.3347 3.50106 3.70667 11.2898 0.0115524 0.421044 -1.01973 0.157329 -0.0391894 0.353943 0.158615 0.230596 -0.397891 -0.669018 -1.23688 -0.570492 -0.0260837 
-1.40433 -5.02238 -6.31213 -2.80825 -6.09078 5.86359 2.50936 2.53538 0.15767 -0.595902 -1.54876 2.1027 11.3813 -0.0791101 -0.0368433 -1.07989 -0.390521 -0.0460226 1.23204 -0.375538 -1.11709 -1.42687 -0.485378 -0.549784 -0.982821 0.0119363 
-1.13727 -4.26727 -7.38265 -1.38948 -0.960559 9.50889 3.13439 3.40799 4.81713 3.49982 3.70337 0.629278 11.1399 -0.231904 0.333102 0.222942 -0.0446295 1.20548 0.25508 -1.05 -1.53648 -1.0712 0.114426 -0.324155 -0.870788 0.0676138 
-1.66985 -5.6093 -7.35161 -1.97252 -1.53807 10.2374 -1.0614 2.04731 1.91469 5.09925 3.51224 0.575916 11.3077 -0.367962 0.214989 0.78717 -0.542749 0.608643 -0.523927 -0.911011 0.290855 1.13122 0.48199 -0.577662 -0.636614 0.0544535 
-2.22689 -3.48457 -3.02231 -2.1991 0.0916157 4.60253 -1.09083 -1.25354 1.34805 1.05925 -0.650221 0.116118 11.6647 -0.216599 -0.192599 0.38558 -1.15458 -0.251001 -1.1025 0.447943 0.198817 -0.0332289 0.6098 -1.66232 0.371483 0.0272331 
-2.69933 -4.33878 -4.55645 -5.11718 -3.57365 5.69713 0.0669164 6.32042 7.54832 3.03433 -2.26028 -0.823789 11.3912 0.218389 0.0330257 0.0770565 -0.66349 0.0332166 -0.0135623 1.46149 0.452356 -0.403471 0.321176 -0.957406 0.211694 -0.0159356 
-1.70553 -5.86552 -6.85233 -5.59005 -1.19778 6.26652 4.80994 2.26552 1.83417 7.58127 -1.72196 3.18655 11.2343 0.0667787 0.287306 -0.309314 0.0953877 -0.235456 0.868158 0.832321 1.7562 -0.615832 0.505552 0.797366 -0.119744 0.00760536 
-0.838592 -4.25369 -5.05132 -3.5945 -0.727292 9.33757 3.29566 2.54956 -0.34572 3.44412 -0.738921 0.0991738 11.4432 -0.299116 0.171701 0.424019 0.984618 0.15152 0.183742 0.091107 -0.521636 -0.697321 0.0977084 0.802088 -0.410425 0.0714886 
-2.82337 -2.09058 -4.32145 -2.4835 -2.50884 7.1231 1.4564 9.41289 2.21592 3.38212 2.57593 -0.944081 11.6767 -0.665832 -0.0118499 0.76506 0.953252 -0.33587 -0.330796 -0.631788 -0.666493 0.828992 -0.173931 0.298651 -0.890406 0.0670655 
-3.63599 -5.36775 -3.70179 -1.74736 -2.16051 6.18755 2.19922 0.138558 3.87085 5.62245 -0.398778 -0.810599 11.5275 -0.640742 -0.550526 0.33187 0.443043 -0.251812 -0.723558 -0.145006 -1.40963 1.00881 0.6597 -0.229442 -0.168606 0.00193834 
