-8.34025 -5.83744 -5.14378 0.576871 -0.570031 4.26477 5.56901 -0.136791 10.1179 5.7298 -3.98098 0.484502 12.0439 -0.219017 0.293037 -0.542542 -0.928029 0.330498 -0.377968 0.878601 0.478555 0.206347 0.844153 1.3503 0.929783 -0.0280095 
-9.48815 -5.99231 -7.6021 -5.29588 -3.35391 0.427859 6.0229 6.20551 11.987 8.71474 3.23546 4.68421 12.1303 -0.109229 0.414758 -0.466648 -1.02259 1.28783 0.673686 1.19738 -0.217866 -0.739772 0.112016 1.4317 1.10682 -0.084911 
-8.86139 -4.29482 -6.62733 -1.1269 2.4744 4.29339 9.73507 -0.915162 10.215 8.4581 -0.837698 3.03356 11.8607 0.0751526 0.695327 -0.346868 -0.775368 1.26879 0.61187 -0.366504 -1.20641 -0.855636 0.170441 0.939115 0.686549 -0.0249317 
-8.62583 -4.53496 -6.73524 -3.6842 4.34691 7.6189 9.47287 -0.836934 6.37042 4.92573 1.60586 4.74406 11.711 0.540435 0.486863 0.731604 0.639844 1.23883 0.738872 -1.39472 -1.75001 -1.54237 -1.15408 -0.167323 0.374431 -0.0113076 
-8.39565 -3.08948 -7.31154 -4.10581 1.9235 3.7286 2.01151 -2.64764 8.64797 8.47651 1.5294 3.88732 12.1289 0.589163 0.216593 0.625532 -0.319611 -0.471823 -0.601321 -1.89204 0.109786 -1.54139 -1.43949 0.8783 0.985151 0.0374533 
-7.01885 -4.16066 -3.60197 -0.607209 3.11567 4.40461 2.91109 -1.67833 5.0587 2.93515 1.2153 6.12948 11.9396 0.159805 -0.221815 0.460831 0.102616 -0.802977 -0.40623 -0.266409 1.17069 0.462385 1.06564 0.219904 0.418991 0.0151875 
-6.71907 -3.399 -5.0663 -4.26345 0.730903 2.89393 3.55577 0.0544641 3.16395 2.25595 3.74908 7.26661 11.9337 0.0635609 -0.394173 0.370684 0.439661 -0.282689 0.43176 1.36873 1.22283 0.180437 0.833952 -0.181611 -0.592528 -0.0951602 
-8.6651 -5.48927 -5.5537 -3.0923 0.92832 6.00509 7.3687 3.66544 11.4244 13.3642 1.59554 5.14937 11.8846 0.273401 0.556253 0.201484 0.630815 0.33672 -0.189653 1.54347 0.773575 1.39245 1.46127 -1.04816 -1.38209 -0.0393735 
-7.25472 -4.39604 -4.48226 -0.664956 1.60373 5.08717 6.62638 0.794634 6.36732 7.43174 0.431222 1.41473 11.6807 2.55902 2.34702 1.08659 0.946301 0.468847 -0.149054 0.838626 -0.512738 -0.593608 -1.62905 -2.38577 -1.55074 0.16208 
-5.38402 -0.880874 -2.88657 0.747619 4.36286 2.35973 9.09314 1.81946 10.4193 7.65363 -2.36656 2.14495 11.8693 4.8857 2.94 -0.270626 -0.43746 0.235171 -1.23552 0.398448 -1.14656 -2.99891 -5.45482 -2.28235 -0.114452 0.672993 
4.43551 6.03192 -0.966938 -1.45191 1.35787 3.97134 6.88667 -1.58624 0.698461 -3.03402 -6.19875 1.01514 12.7517 5.15309 2.14763 -1.52607 -1.61096 -0.250637 -0.0910896 0.324626 -0.749105 -3.54361 -5.58973 -1.14638 0.359218 1.14404 
9.9183 3.99675 -8.66449 -4.88613 2.2271 0.385403 9.23079 -0.876901 -0.735762 -8.67701 -6.50125 4.7769 14.714 4.06197 0.202596 -2.29582 -1.38891 -0.988337 0.94395 -0.0209938 0.788847 -4.10598 -6.12377 0.692613 -0.0516453 1.27188 
10.8596 3.90331 -9.22367 -5.90291 1.41842 5.61888 8.18068 -1.60271 -5.77322 -12.3516 -3.23333 1.89485 15.9785 1.99091 -1.01844 -1.73863 -0.763842 -0.947797 0.888182 0.181054 2.55417 -2.65614 -3.20942 1.75815 0.121998 0.968952 
11.7138 1.19641 -10.2373 -3.97142 -0.609103 6.25571 8.34117 5.77193 -6.87482 -18.3064 -0.3862 1.44687 16.6152 1.07855 -0.0624719 -0.051149 0.101032 -0.905143 -0.0976385 0.358571 2.31233 -2.1519 -1.12205 1.57639 -0.509748 0.441021 
13.4923 2.33988 -8.87369 -5.72847 -1.96301 5.47709 8.23676 7.86021 -9.5127 -14.2664 -0.465517 3.29015 16.6458 0.899933 0.123279 1.1776 0.869563 -1.41599 -2.55714 1.06672 1.66123 -1.07661 0.784849 0.235002 -0.573901 0.157122 
13.9947 4.4661 -9.09523 -4.46818 -0.607893 -0.0318947 10.9956 5.95328 -9.62551 -13.3299 -0.0032084 1.53051 16.5854 0.63135 0.25211 2.69164 0.885713 -1.81461 -3.54041 0.575376 0.481896 -0.558691 2.44486 -0.876588 -1.512 0.126948 
14.2188 2.88486 -3.90673 -1.30671 -5.66211 -4.02303 12.187 6.61275 -9.78094 -10.9156 -2.24981 -1.01648 16.779 -0.249753 0.206981 4.01087 1.32429 -2.23096 -3.97604 -0.109518 0.185143 0.859843 2.14239 -1.21458 -1.92972 0.191104 
14.5073 2.18447 0.737408 -1.75374 -7.83259 -6.69629 9.24291 8.80515 -9.53416 -7.7575 -3.87699 -3.9598 17.1834 -0.993802 -0.444141 5.2221 1.17498 -1.37978 -2.38734 -2.05896 -0.88735 1.10675 2.47281 0.45305 -1.33231 0.203426 
11.9873 4.5156 6.26434 -0.464241 -9.50547 -11.0709 8.56552 7.35999 -5.25916 -6.34063 -4.60151 -3.61327 17.3024 -1.81506 0.169633 4.48241 1.34936 0.345417 -1.96695 -2.48871 -2.94807 1.97849 2.67661 1.29908 -0.994815 0.156012 
10.1415 1.43003 11.9298 0.985499 -5.58509 -8.44468 2.51155 1.1429 -6.35262 -3.25332 3.43789 -3.83267 17.3409 -1.79163 0.286985 3.23587 1.29508 1.61131 -2.3067 -0.671807 -3.67783 1.09911 2.45277 0.322335 -0.560742 0.122261 
7.32641 4.11025 12.9092 4.07046 -5.05877 -12.9836 3.10915 -4.2965 -1.47926 0.215341 0.588154 -6.05412 17.4803 -0.871779 -0.363479 1.64272 0.882482 2.11955 -1.86549 -0.413352 -2.11681 -0.639646 1.28766 -0.332548 -1.12092 0.166238 
7.87958 3.82207 13.5944 2.45432 -1.99938 -17.2735 8.61205 -3.75574 -5.92857 1.22838 -4.86015 -5.54308 17.7057 -0.0351698 -0.34732 0.416155 0.234159 0.391402 -1.23398 -0.168319 0.723436 -1.88053 -0.0965877 -0.811136 -1.86906 0.222131 
8.7593 1.50218 13.6456 3.21376 -0.70059 -15.9839 3.4485 -0.774748 -8.66942 -2.14319 -2.11523 -8.36269 17.9512 0.755999 -0.911266 -0.479559 -0.503277 -1.03304 1.02625 -1.28607 2.34646 -2.84986 -0.840648 0.682892 -2.19541 0.239484 
9.24916 0.99746 13.6423 2.58464 -5.80718 -13.1144 1.50028 2.99921 -12.1602 -2.557 0.733902 -12.0237 18.2161 0.71181 -0.688182 -1.33502 -1.35401 -2.13421 2.6541 -1.21819 2.86827 -2.19841 -1.87818 1.42236 -1.31546 0.253872 
10.4216 0.966222 10.4874 1.48892 -8.32006 -9.93185 0.234676 4.05834 -12.6127 -2.09521 1.20559 -13.7909 18.4226 0.939779 -0.576746 -2.42245 -2.01896 -1.56134 3.37681 0.699754 1.99202 -2.7369 -1.92658 1.95749 0.295596 0.261356 
10.6075 0.649141 8.49839 -3.45333 -8.86069 -7.02902 4.12803 8.16908 -14.949 -8.18651 0.59124 -9.40628 18.7394 0.971218 -0.826456 -3.33862 -1.68892 0.437302 3.94751 0.226545 0.242597 -3.24564 -1.00174 3.18945 1.91246 0.236024 
12.779 -1.20739 4.10531 -3.86203 -6.98055 -2.1426 5.6334 6.60044 -20.9596 -8.96132 7.74353 -8.19342 18.9963 0.500279 -0.915494 -3.68565 -0.595599 1.5833 3.96496 -1.74021 -1.64874 -2.25347 0.236103 4.15736 2.09979 0.174898 
12.9265 -2.04801 0.140275 -3.18447 -4.29042 2.72851 -0.0663562 2.94115 -24.215 -4.13263 13.4122 -5.26011 19.1094 0.196597 -0.952919 -3.64184 1.13568 2.10311 2.11802 -4.35615 -2.6966 0.650892 1.81728 2.76934 1.03884 0.068301 
11.7635 -2.26267 -3.7618 -1.62351 -2.68867 5.0142 -6.3692 -1.57137 -19.2471 -2.94163 15.5819 -5.365 19.112 -0.283256 -1.01986 -2.1296 2.30681 2.61571 -0.498575 -3.68644 -2.07498 3.95053 1.88619 -0.958838 1.11965 -0.0649267 
12.0982 -3.58781 -5.77725 1.10582 -0.491066 -0.0173283 -11.6514 -1.22802 -12.5507 -2.10997 10.5187 -5.62628 19.023 -1.03786 -0.110555 -0.168263 3.01532 2.52564 -1.70194 -0.782392 -1.71064 5.12761 0.95471 -3.62464 1.45491 -0.288552 
11.7769 -5.53681 -3.58393 5.52687 4.19832 -3.26255 -7.00628 -1.68988 -7.03904 -0.541679 4.39607 -2.4121 18.7149 -3.4681 2.67485 2.21379 1.19425 3.09558 -1.00996 2.27948 -0.430176 4.84962 1.41325 -5.51077 1.48269 -0.150577 
7.73053 -0.963718 -0.789976 8.31692 4.89428 -1.64283 -3.65978 -5.55279 -4.68095 -0.559061 0.881884 0.53799 17.8652 -6.28008 4.35888 2.42967 -2.44331 1.55942 1.81509 4.00058 1.02448 2.81774 2.61937 -3.24604 0.92104 0.341069 
-3.39318 9.79952 4.8135 0.742185 10.0966 0.777147 1.03238 -1.55987 1.06611 3.34916 -7.1535 -1.0337 18.9381 -7.67144 4.21979 1.76317 -5.10131 0.156417 2.02253 1.66475 2.6613 1.37535 1.86546 -1.32956 -0.106416 0.959283 
-11.7171 10.5384 2.17238 -8.71836 4.3569 7.03827 4.33215 3.82937 -2.5146 9.04146 0.0633283 -1.71027 20.6168 -6.73103 2.67858 0.560238 -4.65848 0.0714327 0.139427 -0.307326 2.25835 -0.29384 0.587093 0.217562 -0.422896 1.30793 
-16.8565 9.81106 3.75076 -11.462 5.2491 2.50954 -2.67852 6.92555 -1.24547 3.98537 -1.84246 -1.82004 22.1355 -4.44227 0.75168 -1.22096 -2.59346 -0.259759 -0.347767 -1.50714 -0.193512 -0.89836 -0.996297 1.57387 0.502602 1.08281 
-19.193 12.4234 2.54259 -8.87337 7.67517 -1.81189 -3.34096 1.49624 -4.99437 2.0583 -0.685826 -1.18332 22.8062 -2.68091 0.643462 -1.00685 -0.360991 0.513212 -0.26099 -2.32595 -2.03027 -0.313723 -1.47141 0.0201566 0.128207 0.65412 
-21.8666 12.6154 -1.4764 -12.1476 7.13863 3.4634 -2.66676 -1.36086 -2.18581 1.85925 1.09042 1.21583 23.2574 -1.40603 0.206924 -0.652942 -0.287144 0.736488 1.41111 0.0053956 -1.35166 1.29661 0.790218 0.626095 0.217399 0.238442 
-22.6166 12.3535 -0.248275 -10.1805 5.97819 5.2564 -7.30348 -2.17876 -3.61305 2.74745 -1.30233 -2.58718 23.3264 -0.757213 -0.875325 1.03958 -0.506483 -0.276194 2.4229 0.62274 -0.336745 3.75277 1.12481 0.675935 -0.0853853 -0.0129454 
-22.1748 10.8806 1.88148 -12.2442 9.78003 6.03095 -0.670279 2.00475 4.54691 7.59188 1.59626 -0.0311195 23.0676 0.330336 -1.61299 2.38493 0.644198 -1.41063 2.08091 1.56311 -0.0420018 2.9344 0.359874 -0.00912826 -1.25462 -0.304069 
-22.8249 8.91419 6.06154 -11.3575 4.9735 9.01885 -1.2255 -1.87029 10.4031 4.81601 2.44093 -0.986767 22.8363 0.487244 -2.11345 2.01498 1.23838 -2.17872 1.76333 1.74771 -1.52254 0.587776 -0.993095 -0.00154426 -0.884431 -0.533562 
-20.1108 6.27014 7.29335 -8.33812 0.587808 11.9867 2.10982 -1.72511 5.47811 2.62434 -0.826852 -5.85749 21.9821 2.16999 -0.675192 2.1643 2.9935 -2.50483 0.497513 -0.185125 -1.86471 -1.75769 -2.59613 -1.60682 -1.44037 -0.81062 
-21.2124 4.09153 7.12067 -5.94164 -0.319312 11.0952 0.0450459 -7.92653 -1.13977 0.265742 -0.0984929 -4.09615 21.2014 5.27426 -0.224134 0.924648 3.29877 -1.14143 -2.71647 -1.53434 -1.19891 -1.72283 -2.60697 -2.51378 0.513455 -1.17562 
-12.1311 9.91599 12.1734 0.0153961 -0.0977015 7.48035 -2.23118 -4.2907 1.5299 -3.11365 -5.16813 -5.67827 19.832 6.51825 -0.945726 0.504431 3.66086 -1.34017 -4.0854 -2.32171 -0.428974 -0.747512 -1.88909 -2.66817 2.26071 -1.08768 
-0.443441 5.97059 8.24475 0.959591 -0.390891 -2.31031 -6.72667 -6.58205 3.76307 -5.34985 -7.95734 1.4909 18.0333 6.52992 -2.06885 0.41758 3.08474 -2.28182 -3.86121 -2.39082 0.498628 -0.415128 -0.447258 -2.40564 2.27799 -0.730552 
2.09602 0.601975 9.25346 6.51555 -6.07724 -1.73753 -6.11285 -4.54222 -0.710864 -4.01332 -10.2383 2.65256 18.1277 3.94645 -3.33761 -0.105931 1.75631 -2.45133 -2.25385 -2.37372 0.555793 -1.85086 0.985379 -0.889719 1.77636 -0.260525 
4.32367 -1.59569 10.6685 6.23199 -8.73865 -3.60194 -9.96824 -5.30764 -2.09503 -1.52071 -9.59159 3.12837 18.4007 1.83546 -2.55499 0.776927 1.49223 -1.35924 -0.775506 -1.24576 0.574917 -2.05352 1.28298 0.220469 -0.317977 0.0334644 
5.21757 -2.98893 10.4319 6.16073 -8.18047 -3.14307 -12.479 -2.14895 -4.79537 -0.101324 -8.7996 2.3848 18.3456 0.254309 -0.0941413 -0.0315566 0.971395 1.43072 -1.90712 0.300459 -0.757605 -1.31381 0.834594 0.737592 -1.21851 -0.100416 
7.17307 -5.00889 11.5402 8.59814 -6.13546 -5.48506 -9.7724 -4.90411 -4.46229 -0.890934 -7.57434 0.034893 18.0917 -0.767739 1.51922 -1.42619 1.39979 2.681 -1.67756 1.1171 -1.45816 -0.0872979 -0.0456522 0.57791 -1.18217 -0.296636 
1.94286 1.83787 8.65985 10.1894 -0.225229 -10.3316 -4.70847 -8.53201 -6.09628 -0.155244 -7.55896 -1.89323 17.7802 -0.753643 1.57389 -2.55766 1.79794 1.86888 -1.56517 0.308028 -2.59744 2.67861 -0.957806 0.815606 -0.616001 -0.216264 
2.12233 3.587 4.42361 11.2166 0.688718 -8.39547 -8.26799 -9.40692 -1.88106 -1.72201 -7.32236 -0.643475 17.2003 0.719756 -0.103479 -3.11734 0.311757 -0.111714 0.057827 -2.00931 0.851638 2.19691 0.0235724 0.314131 0.549743 0.0772179 
3.97473 0.582578 1.20187 13.8412 -2.24818 -9.51372 -11.6911 -12.8847 7.30708 -4.47481 -4.84755 -0.356018 17.71 2.73777 -2.47123 -2.67501 -0.850724 -1.9524 2.00643 -4.20849 4.22637 0.519845 1.55627 0.379166 1.33676 0.380167 
9.75592 -4.89864 -0.317537 8.33105 -5.68256 -5.60485 -16.3276 1.53044 -0.179422 1.38671 -7.35938 2.015 18.5128 2.76378 -2.56972 -2.08432 -2.12496 -1.59858 2.60523 -3.90897 5.02073 -1.45616 2.27622 1.77755 0.755145 0.508936 
11.8149 -6.27548 -2.34465 7.37859 -6.80161 -1.69473 -21.7211 7.13115 -4.34787 6.07177 -5.64462 3.46131 19.0247 1.93229 -1.28966 -1.76564 -2.96531 -0.108307 2.86788 -2.50275 4.16244 -2.93606 2.14522 3.48191 -0.542161 0.331607 
12.0211 -5.83257 -4.22472 3.82307 -5.02747 0.721178 -22.7978 5.68881 -3.33439 4.3858 1.96394 1.22359 19.0876 0.684199 -0.0241826 -1.51649 -2.55614 1.23163 1.49484 0.105743 0.568445 -1.80372 0.725586 4.78625 -1.69204 0.105903 
12.5036 -5.39874 -5.67274 1.26864 -3.11726 1.66268 -20.9697 5.84827 -5.79571 4.75176 7.90034 -2.67111 19.0807 0.311387 0.215593 -1.07102 -2.64017 1.69141 0.00337582 2.99265 -1.00424 -1.69747 -0.18947 4.45621 -2.02549 -0.0221582 
12.8326 -5.45792 -6.23595 -1.39469 -1.3666 0.190652 -16.1746 5.01411 -8.47408 5.67465 9.79939 -3.37897 19.0144 0.189899 0.114281 -0.659829 -2.0425 1.49208 -0.556231 3.71191 -1.01404 -1.8123 0.109212 2.99698 -1.22978 -0.0409122 
12.9661 -5.38484 -6.69414 -3.2134 -0.174985 -1.41259 -10.0695 2.44732 -10.2654 4.48 12.7187 -4.36487 18.9505 0.117404 -0.010374 -0.335325 -1.375 1.46475 -0.811422 3.30307 -1.06644 -1.05684 -0.206398 1.90256 -0.279305 -0.0757698 
12.7393 -5.26812 -7.01317 -4.1484 0.96179 -0.52234 -9.68844 2.31911 -10.1611 5.06774 14.5397 -4.07846 18.9481 0.0475043 -0.0385244 -0.0640995 -0.402643 1.38743 -0.271778 1.62638 -0.658778 -0.119064 -0.0596675 0.629701 0.122096 -0.104416 
13.1372 -5.54551 -6.96075 -4.2295 3.04231 -2.03793 -7.6975 1.86356 -10.2364 4.02322 15.043 -3.71789 18.735 0.0391098 -0.231373 0.195802 0.633222 1.32947 -0.0781616 -0.0946847 -0.270961 1.12772 -0.165953 -0.805439 0.133035 -0.133689 
12.9846 -5.57021 -6.42314 -2.89986 3.96193 -0.855567 -9.22867 2.0121 -9.08389 5.6047 11.7858 -3.09198 18.6001 -0.196345 -0.259981 0.667629 1.54829 1.03218 -0.862507 -0.628922 0.0472325 2.29121 -0.959192 -2.15502 -0.0692146 -0.1969 
13.039 -6.39066 -6.01014 -0.671557 4.97227 -1.63678 -10.7728 1.24602 -5.16537 3.38176 10.0685 -4.19293 18.4561 -0.547035 -0.0537397 1.11403 2.34511 0.342952 -1.65223 -0.797231 0.767242 2.69901 -1.78249 -2.8023 0.261684 -0.222582 
11.8067 -6.14544 -4.15032 1.81409 5.15771 -5.03545 -11.2954 2.86404 -1.24052 0.592516 6.25182 -4.18701 18.103 -0.90851 0.235518 1.54183 3.1158 -0.386103 -2.94 -0.186176 1.4535 2.18481 -2.75627 -2.57271 0.623269 -0.204337 
10.991 -5.52659 -2.527 5.13906 4.15918 -8.20913 -10.6503 5.27379 -0.663049 -2.38312 3.79848 -1.86196 17.8706 -1.34538 0.549283 2.52254 3.58332 -2.01573 -2.86243 1.03728 1.11729 0.57754 -3.43635 -1.34802 0.614749 -0.141147 
9.46606 -4.82466 -0.455541 9.77384 2.43796 -12.2694 -10.2208 7.26571 -0.410978 -5.29419 2.05719 -1.14112 17.8712 -1.94153 1.14517 2.85215 3.73851 -3.63921 -1.23683 1.69226 -0.727014 -0.888742 -3.25791 -0.390118 0.409335 -0.0654415 
7.48247 -4.30464 4.75516 13.2652 -3.7465 -12.332 -6.1237 4.63165 -2.69245 -10.8567 5.42567 -2.64213 17.8663 -2.3582 1.74614 3.2972 2.01174 -3.73088 0.257291 1.99043 -3.1454 -0.889352 -2.38611 -0.449038 0.0920627 -0.121327 
3.85328 -1.03056 6.46934 16.4436 -9.08551 -9.15819 -5.09739 -0.449955 -4.66954 -11.4603 3.48763 -1.75025 17.778 -2.10064 2.47984 3.07193 -0.234642 -2.02449 1.74209 1.57917 -5.33966 -0.0126757 -1.14296 -0.813214 0.503543 -0.273274 
2.00635 1.30708 10.4966 11.8629 -8.73349 -8.47828 -3.25981 -6.59535 -2.98053 -11.2306 0.838065 -1.09708 17.3106 -1.43602 2.98459 2.01631 -1.62168 0.66169 2.36508 0.635907 -4.93462 0.961798 -0.325768 -1.75324 1.41654 -0.425539 
1.70092 4.76868 12.0334 9.30177 -5.19102 -5.48578 -3.75688 -13.8191 -0.330314 -10.822 0.284923 0.604069 16.7826 -1.0371 3.04667 1.18106 -1.50878 2.96283 2.43449 0.693567 -2.29612 1.24173 -1.10968 -1.92014 1.46784 -0.493309 
1.37855 7.71871 12.0547 8.72767 -2.38529 -2.34281 -3.61442 -13.3569 -0.0530672 -12.8046 -1.73919 3.26339 16.2363 -0.666716 2.56241 -0.255022 -0.508713 3.35334 1.71758 1.08424 0.778017 -0.322052 -1.46202 -0.593917 1.95926 -0.575293 
-1.01834 10.997 11.5956 10.4673 2.55453 -0.0534816 -1.45225 -8.54977 0.0753942 -16.2216 -4.82444 3.4087 15.8486 -0.810755 1.72443 -1.3262 -0.0147124 2.86094 0.233586 0.993174 1.67006 -1.1268 -0.892167 -0.320177 0.752933 -0.538719 
0.0324011 11.005 9.44038 8.73658 4.16041 -2.60653 1.00908 -5.33992 -4.79365 -15.8409 0.423162 7.29691 14.9011 -0.932285 0.489758 -0.72843 0.245122 2.49633 0.147053 0.847145 1.01301 -0.74158 1.03637 0.24794 -0.135669 -0.537428 
-1.67978 11.7477 6.7096 9.22376 5.84083 -4.18598 -1.10276 -9.47727 -3.59403 -13.7647 -2.39714 2.35198 14.7566 -1.35585 -0.692117 -1.18552 -1.0399 0.00948753 0.152762 0.357222 0.811449 1.21316 2.19472 -1.22276 -0.903557 -0.430995 
-2.95216 9.79215 10.8555 10.575 8.45322 0.458708 0.446565 -7.82811 -1.92626 -8.85123 -1.71315 3.11341 14.0951 -1.3863 -1.70285 -1.62889 -1.65916 0.00403992 2.51702 2.09721 2.05968 3.90483 4.22925 -1.65202 -1.1484 -0.532042 
-6.30529 8.14282 4.96041 4.34854 0.455564 -0.822295 0.615121 -3.24843 4.70747 -8.74287 -9.87007 0.982663 14.0966 -0.000436306 -1.35267 -0.891395 -1.15258 0.224562 2.39866 2.14954 2.49878 2.24189 2.38449 -1.94752 -1.07705 -0.588737 
-4.58636 4.29318 2.17052 2.87838 6.87324 8.29675 10.6362 1.84408 10.5797 2.79442 -4.10047 2.23955 12.5709 0.525916 -1.8407 -1.35919 -1.31191 -0.248064 1.04934 0.334175 -0.947099 -0.272018 0.674486 -1.0449 -1.02201 -0.553184 
-0.86486 7.73381 6.59514 7.3092 7.75363 3.88829 4.55013 -1.81948 1.36241 -7.66509 -10.9411 -2.59637 12.575 0.127023 -2.53304 -1.45198 -0.861413 0.531201 0.500329 -0.552015 -1.4523 -0.889173 2.03877 1.74578 0.481704 -0.49999 
-3.0428 0.793132 3.24224 2.53514 3.56387 3.35012 0.149934 -13.2781 -1.61381 -6.01769 -6.40213 -0.207149 12.09 -1.01343 -2.73125 -2.17283 -2.31662 -1.45876 0.0212277 -0.600559 -0.711737 -0.436387 2.62797 1.46773 0.0241434 -0.187113 
-6.44196 -2.77235 -2.83537 0.213098 4.76626 4.15266 3.09817 -2.94887 6.35839 5.85704 0.00963044 4.61453 11.8371 -1.94967 -2.5306 -3.33094 -3.48874 -2.04795 0.853792 1.91732 2.82533 2.78625 4.52123 2.56577 1.26859 -0.0355188 
-6.86497 -4.10998 -3.97837 -5.15665 1.07311 8.2707 8.35937 -1.14991 5.89982 9.17318 -2.23717 -1.24518 12.0043 -1.56397 -1.2666 -2.47522 -1.92355 -1.43137 0.976883 2.31652 4.38545 2.95577 3.3419 2.47214 1.71881 0.0613116 
-8.70212 -2.46762 -6.44925 -6.2886 -1.24074 5.69697 10.032 6.24309 11.5368 7.34564 -0.194712 4.26558 12.4402 -0.53278 -0.598542 -1.08678 -0.323897 -1.24242 -0.0677247 0.71225 1.20852 1.80495 0.879327 0.350023 0.99221 0.0435286 
-9.73258 -5.69223 -7.32691 -3.83175 -0.589507 7.46238 8.26564 4.05321 10.5758 9.9475 6.06072 8.56136 12.095 -0.0939905 -0.352115 -0.341989 0.96842 0.247032 -1.08458 -0.533354 -0.0895069 0.691839 -0.975866 -0.980078 1.21885 -0.0549605 
-7.67205 -4.97394 -6.59502 -2.06884 -0.614558 4.2182 6.70629 0.492156 13.0452 9.86652 -2.3892 4.67232 12.0094 0.235641 -0.368322 0.467742 0.365525 0.466692 -0.41389 -0.0140266 -0.324099 -0.00661864 -0.494962 -1.00866 0.81985 -0.139674 
-7.84996 -4.6174 -5.61543 -2.42443 1.99519 3.58718 7.35546 1.27802 8.60485 3.03341 -6.04031 4.64573 11.9449 0.477652 0.0819239 0.2319 -0.504424 -0.4979 -0.516381 0.189394 1.25245 0.387942 -0.664864 -1.32966 -0.0408552 -0.110466 
-8.46522 -4.84664 -4.96628 -5.16464 -0.199625 5.56512 10.417 6.01018 12.4892 8.32787 0.812501 10.3226 11.8169 0.191053 -0.338395 -0.549308 -0.452311 0.109548 -0.205305 -0.425744 1.33531 0.534823 -0.46415 0.700277 -0.0884664 -0.0675918 
-6.94773 -5.34626 -6.98178 -4.80597 -3.28647 4.20702 7.35727 7.55645 12.7935 7.3925 -2.18844 5.53191 11.6389 0.172474 -0.530068 -0.471064 0.203622 0.295535 0.304878 -0.759892 -0.807738 0.572063 0.46582 -0.0967649 -2.32462 -0.00469666 
-7.1679 -6.30149 -8.65839 -3.13962 2.57401 2.88175 4.57666 4.02951 13.625 5.36622 -0.813751 3.78689 11.8245 -0.0244345 -0.733457 0.0549215 0.0440503 0.0116378 -0.546514 -1.24654 -1.5924 -0.110007 0.634093 0.226993 -1.74585 0.0452113 
-7.63625 -6.54031 -6.1247 -2.41883 2.08604 6.45325 6.47616 -1.77033 10.8973 6.84333 -5.71101 -3.70949 11.9176 -0.473331 -0.385217 0.379099 0.279906 0.636501 0.334145 1.13412 -0.423307 -0.59301 1.11232 1.72143 -1.20289 0.0667645 
-8.24314 -7.9169 -5.12021 -6.13796 -2.82769 1.70943 4.62484 2.71158 12.8873 11.7729 3.70875 6.21409 11.9036 -0.305077 0.230243 0.0318045 -0.0108253 -0.357418 0.596041 0.702959 0.59089 -0.795075 0.131115 1.21891 0.235627 0.0305171 
-8.77677 -6.46464 -6.85537 -1.90727 2.59689 6.4639 13.0038 6.09888 10.1973 9.75077 4.15745 -1.69612 11.9332 0.00268631 0.724488 -0.687147 -0.589734 -1.17912 -0.0822963 0.219463 0.658432 0.417402 -0.89125 1.21951 1.2899 0.00981388 
-8.12302 -5.18811 -8.13403 -3.44953 0.531502 5.85663 4.82763 3.04935 9.9996 4.56808 0.346581 3.95834 11.9693 0.383569 0.75329 -0.86102 -0.829041 -0.181068 0.188772 -0.135667 -1.13865 -0.837304 -1.34992 -1.50712 -0.502813 -0.00153513 
-7.68288 -4.28227 -8.05353 -6.71171 -5.48916 3.96817 7.47208 1.35294 14.4281 5.9895 2.06762 3.86787 11.9339 0.634798 0.326294 -0.356867 -0.598962 -0.143395 -0.945098 -1.32423 -1.70024 -0.645302 -0.757225 -1.89026 -0.145128 -0.0158692 
-6.87224 -5.24163 -8.82624 -7.88094 0.309988 3.90116 6.71237 -0.608686 6.58531 6.90396 -2.78194 0.918029 11.8956 0.276909 -0.371985 -0.054532 0.722095 1.89859 0.29488 -0.119227 -0.731913 -0.238964 0.802914 -0.406147 -0.846509 -0.0170919 
-6.22817 -4.80641 -8.29361 -2.68638 1.99067 2.71615 5.44026 -0.573277 8.6779 4.7967 -3.72959 -0.901607 11.8907 0.113996 -0.24425 0.287674 1.06284 1.90483 0.105666 -1.06435 -0.386054 -0.790023 0.0502117 0.744486 1.34464 -0.0129776 
-7.46583 -6.78596 -8.28665 -1.85172 6.28452 7.95704 5.2474 0.3529 11.6799 9.17905 1.21445 2.11054 11.9054 0.0121138 0.000851393 0.119244 -0.177076 -0.326584 -0.119724 -1.71322 0.265999 1.04515 -0.0306572 0.813115 1.52699 -0.0297027 
-6.8161 -4.73135 -6.88495 -4.41211 1.04771 2.46856 2.88281 -1.05812 7.93073 5.10301 3.79186 9.99481 11.864 0.0369059 0.0574061 -0.192917 -1.64859 -1.28202 -0.311032 -1.78529 0.368484 0.751817 0.102011 -0.118654 0.900707 -0.0405612 
-6.5177 -5.2749 -8.93434 -7.90345 -0.851453 3.42634 -0.574985 0.96373 12.1846 6.59752 -2.47709 3.1048 11.7604 0.219465 0.247856 -0.334478 -1.55948 -1.61711 -0.810363 -1.51026 0.324351 0.526334 -0.366855 -1.3652 -0.490149 -0.039375 
