-4.56095 2.86978 -7.42926 -2.89525 3.03926 -1.72624 2.72593 -0.198315 -5.43196 4.65974 -5.07411 -6.25071 12.4445 0.112534 -0.0212746 -0.133017 -0.472616 1.36993 1.09781 0.204789 0.478495 0.422133 -0.673437 1.15682 1.56544 -0.0529096 
-2.99922 2.96879 -7.72488 -3.52495 8.69995 1.55971 2.9263 2.86869 -5.06743 7.64822 -2.60258 -0.188239 12.2144 -0.125555 -0.421855 0.272216 -0.240246 1.347 0.443395 -0.414449 0.171291 0.894202 0.188167 2.02672 -0.0829364 0.0111053 
-4.77914 2.7139 -7.94653 -4.94348 7.05855 2.11981 3.64969 0.660655 -3.50356 -0.201684 -0.525774 -1.45473 12.2949 -0.249955 -1.05487 0.161069 -0.530396 0.053176 -1.089 -0.118537 0.34219 1.28149 0.339078 2.141 -0.909127 0.0719218 
-5.07963 0.838444 -5.80954 -3.07236 7.7646 -1.43229 0.191806 0.228655 -1.92515 8.03129 2.78534 -9.06338 12.5747 -0.173271 -1.1851 -0.535917 0.205218 -1.74678 -1.66025 0.296413 0.0812891 -0.0534124 -0.235324 2.12125 -0.0837646 0.0532999 
-4.77052 -1.33941 -7.58158 -5.77352 3.77282 -5.67525 3.5005 2.83265 -0.595641 6.16359 2.93692 -6.35878 12.6239 0.31195 -0.734378 -0.539102 0.601253 -1.69969 -1.00198 0.346431 -0.165326 0.0502323 0.487868 0.55017 0.96768 -0.0308046 
-3.86989 -0.930034 -10.5869 -2.08383 1.60893 -2.84403 4.48296 2.18914 -6.78846 3.28896 6.27233 1.84496 12.3164 0.520095 -0.307257 -0.47682 0.274968 -1.8957 0.390704 1.22159 0.211977 1.25663 -0.806537 -0.727269 2.13173 -0.113486 
-3.82426 -0.0737495 -8.25334 -2.43148 1.63791 -2.18425 3.23627 -1.14622 -0.820747 4.60882 0.481582 -2.0705 12.2701 0.754599 1.09674 2.76711 1.21445 0.364335 3.05117 0.171971 -0.611224 1.76065 -0.579671 -1.29616 1.15324 0.146969 
-2.95228 -1.33067 -7.85776 -3.36855 -0.646457 -1.22427 6.43188 3.27798 4.47053 4.77599 0.376666 -0.548881 12.1842 0.680086 2.03746 5.46319 0.103264 1.28095 4.86978 0.251397 -1.55561 1.65181 -0.0997622 -2.0855 -0.557159 0.650782 
-1.45633 4.34461 4.88938 0.94106 6.72218 8.77074 3.38589 -0.767886 2.57809 2.52172 -0.596029 0.604364 13.4248 1.2919 2.22859 5.82737 1.01456 -0.0289021 2.4542 -0.87708 -1.22116 -0.393105 0.0812405 -1.38644 0.226557 0.846981 
-1.65343 7.0481 10.1577 -3.25379 5.47154 16.0274 5.66514 -5.77808 -0.228837 3.8337 -3.61637 -2.27827 14.993 1.43152 2.11966 5.46273 1.70875 -1.32776 0.43357 -2.68838 -0.646855 -2.43753 -1.20826 -0.464367 0.715614 0.833305 
1.9858 6.87979 11.8758 2.58396 -1.5656 1.46095 -0.765757 -2.72401 -0.436591 5.48617 -4.45409 -0.073028 15.1006 1.21102 0.778671 1.87006 1.9101 -3.18281 -1.94082 -2.35202 0.974711 -3.09847 -2.35231 0.01982 1.00629 0.594305 
2.48424 8.00004 15.9627 4.35374 -3.14138 4.59847 -4.93419 1.02176 -6.20979 -2.74753 -0.0161407 3.36789 15.5129 0.377165 0.105901 1.06684 2.8123 -2.53275 -1.58006 -1.73572 1.64023 -3.4286 -2.69075 -0.943231 0.896794 0.381305 
2.52996 7.76199 11.3372 6.68779 -4.88541 4.7811 -3.07455 0.705751 -9.92377 -5.94924 -2.29704 2.81275 16.1364 -0.65375 -0.331865 -0.087714 1.27145 0.171542 0.731696 0.08977 -0.307501 -1.91516 0.934959 -0.739609 -0.181128 0.144735 
-0.0396814 7.1365 15.7612 8.75582 -5.53228 6.46702 -1.85905 0.708182 -12.6283 -3.90233 -9.41104 0.762815 16.3816 -0.735838 -1.24684 -0.72613 0.197065 2.10158 0.401243 2.28029 -2.28255 0.45856 4.99165 -2.03517 -1.66845 -0.310829 
-0.0209885 5.65224 11.538 6.74016 0.487567 4.18516 -1.85448 -4.10473 -6.80318 10.7384 -3.45468 0.323869 15.3899 -0.258895 -0.493082 -2.24847 0.0441212 3.85884 -0.591275 2.81228 -0.316378 2.482 3.84043 -1.76219 -2.36305 -1.0049 
0.0805254 2.8207 12.2316 5.31288 4.68002 6.90266 5.85721 -7.98573 -5.47729 13.8669 -9.61319 -3.72992 14.332 0.217155 -0.642716 -5.2134 -1.09796 3.5854 -1.41799 3.44946 1.16731 2.1398 1.47191 1.63154 -1.45684 -1.21024 
1.17538 7.45449 1.8596 8.62987 9.30263 1.6069 7.1287 3.47082 -1.08924 4.36829 -11.0069 -6.75612 12.1367 -0.519703 -0.84281 -5.32891 -1.93169 1.38325 -0.758555 3.53329 3.6095 1.43169 -2.61956 2.20373 -1.05508 -0.883415 
0.447909 3.0218 -5.46662 2.32116 7.98719 0.666173 10.8966 2.75696 -4.78622 6.64225 2.52278 -2.98138 11.957 -1.40947 -1.10118 -4.63714 -1.93467 0.105853 -0.433522 0.995444 2.80048 2.05041 -1.40292 2.62877 1.17991 -0.43925 
-2.80319 1.33764 -6.25746 -1.42242 5.75023 3.51063 13.2923 8.57141 0.0097301 1.2529 1.49599 -5.32578 12.1603 -2.51722 -2.13915 -1.16946 -2.90784 -1.37899 -0.224218 -1.81036 -1.00644 1.95477 0.771702 1.40504 2.812 0.725858 
-4.97756 0.373233 -6.89553 0.665699 6.98549 3.78319 7.75264 3.46637 4.22526 8.41005 -2.72083 1.45448 12.1239 -3.23151 -1.2565 0.43916 -2.1957 -1.9078 -0.800123 -3.95264 -2.24822 1.09363 -0.186857 -1.82157 1.65474 1.74799 
-8.698 -1.91698 -3.27325 -5.08158 2.90853 -1.07269 -0.351103 -1.91611 4.17888 7.3429 -1.35995 5.08595 15.6826 -1.79588 -0.042178 1.43365 -1.40642 -1.62666 -0.622842 -3.31918 -3.31054 -1.38459 -0.618803 -1.3722 1.25052 1.90961 
-12.7622 -1.63337 -4.76293 -6.82776 -0.13096 -1.04278 -2.04488 -3.24038 -1.40264 2.66297 -5.15711 0.0864566 18.9359 -0.238203 2.18796 3.29823 0.638008 -0.127096 -0.0129537 -1.00242 -0.639372 -2.64929 -2.4833 -0.968229 -0.501354 1.33971 
-7.89026 2.13005 -0.155527 -4.7078 1.17517 2.8094 1.59513 -4.6279 -4.09925 1.03243 -4.14686 1.61084 18.3024 1.4258 2.55384 4.79602 3.25135 0.110509 0.890614 0.0337692 0.304791 -1.69365 -3.62375 -2.36635 0.792766 0.481343 
-6.57244 9.28951 8.03677 3.66885 7.21668 1.77737 1.76742 1.62541 -4.88213 -0.851218 -6.16851 0.685266 17.5126 2.51015 1.26408 5.11982 4.29998 -1.94667 1.07932 -1.10078 0.507595 0.173508 -3.50306 -2.75775 2.66374 0.260554 
-4.66392 5.39077 14.307 5.92685 -0.212748 1.9703 -2.08841 -2.82504 -2.54961 -9.01875 -12.686 8.75037 18.8009 1.93894 -1.09379 3.95193 4.12587 -3.06496 0.370037 -2.56716 -1.05976 0.700038 -3.52217 -3.02983 2.85329 0.634083 
-1.82467 3.05668 13.6049 9.3548 -9.17037 4.77337 -5.70702 -1.60383 -1.30992 -9.82676 -14.6763 9.83541 19.9894 1.99921 -2.62327 1.40823 2.8593 -4.53189 0.182438 -2.05596 -3.05536 0.468987 -2.83068 -2.05328 2.39678 0.632147 
-0.56943 -0.222491 16.82 13.0786 -5.9561 3.16159 -7.50344 -8.31207 -2.38516 -12.0906 -15.0421 11.3022 20.2344 1.69973 -1.74468 -0.396774 1.6125 -3.04561 -1.48401 -0.145518 -1.96889 -0.647645 -1.19972 -0.232763 0.576141 0.237447 
1.37636 -1.02021 13.8214 14.3895 -12.5711 2.09392 -5.80485 -10.9079 -2.61942 -13.4687 -15.2568 11.3932 19.9566 1.38903 -1.27391 -1.16513 0.0861127 -2.66421 -2.88609 1.13677 -0.363427 -1.31852 -0.792639 1.68022 -0.725341 0.0509497 
2.2342 -1.2942 12.2149 11.472 -13.7404 -4.11002 -2.76708 -8.01749 -5.13309 -13.1964 -13.5595 10.8522 20.0046 1.39377 -1.38907 -2.31124 -1.11663 -2.98391 -3.52319 1.05023 2.11821 -0.597636 -0.102095 3.26994 -1.34844 0.129857 
3.71868 -2.77701 10.0819 10.5887 -18.5992 -6.0213 -2.39135 -3.56825 -6.52854 -13.2371 -7.01649 6.43372 20.359 1.31936 -2.10223 -2.42885 -1.27011 -0.857948 -3.46102 -0.515914 3.0174 1.4914 -0.0985134 3.67178 -1.16661 0.214082 
5.22827 -6.28942 7.13361 9.39583 -17.8616 -10.3967 -3.95906 -1.39084 -3.41878 -12.7169 -2.81261 7.03978 20.6825 1.5872 -2.26385 -3.02787 -0.789466 1.2456 -2.24984 -1.84764 2.23257 4.30308 0.343135 2.98573 -1.4514 0.0581512 
6.47614 -9.03372 4.21778 9.07699 -14.8003 -12.0678 -7.78844 0.865831 3.98045 -14.201 -2.27139 7.46635 20.688 1.66536 -1.36454 -3.59047 -1.72385 3.99619 -1.42738 -1.75112 -0.765046 5.71311 1.86419 2.31057 -2.06132 -0.211475 
8.79146 -9.48511 0.00757051 8.28051 -9.41194 -12.336 -9.30674 0.928321 11.1278 -10.9988 -1.00342 3.07883 20.1308 1.4826 0.0776712 -3.28134 -3.22322 4.42464 0.823614 -0.506715 -3.41478 3.85073 3.37664 3.53626 -2.43563 -0.348863 
10.2639 -8.00184 -4.30744 2.52705 -2.84309 -12.1886 -8.47311 -8.55307 14.7637 -4.77522 3.63177 -1.89241 19.5775 1.19285 0.813054 -2.71718 -4.50053 3.33109 2.74847 0.580822 -4.90673 0.402039 3.93685 4.71986 -0.828841 -0.227229 
10.7474 -6.417 -5.01047 -3.44531 -1.71695 -6.21829 -6.1503 -13.7553 10.4433 -0.546601 11.9171 -0.459003 19.4934 0.729132 0.726042 -1.76852 -4.93947 1.72737 3.5103 1.30626 -3.4994 -2.59585 3.2882 4.04684 1.30836 0.00231895 
11.4624 -6.50251 -6.85909 -7.56274 -1.99231 -1.38428 -6.46255 -16.326 6.33291 0.257177 14.8676 5.09106 19.8706 0.431339 0.470834 -1.3485 -3.36822 0.224468 3.25683 1.33822 -0.92239 -2.59268 1.01043 2.38831 1.82594 0.0738338 
11.8379 -6.60457 -7.55918 -11.3719 -1.20046 -0.186615 -3.78071 -12.6822 2.36396 2.92606 13.6128 6.12887 19.9959 0.241295 0.0544098 -0.796182 -1.33465 -0.105837 1.63719 0.872954 0.422906 -0.633927 -0.673208 0.247452 -0.0521097 -0.0653049 
11.8754 -5.55389 -9.77561 -10.3507 -1.979 1.07973 -2.96682 -13.7016 5.83995 -1.45941 14.7254 3.94337 19.6954 -0.113206 -0.0460361 0.0409576 0.240535 0.34257 -0.0578586 0.135066 0.763414 1.49708 -1.05347 -0.9094 -2.16169 -0.2084 
11.7474 -6.61926 -7.53312 -8.72457 -2.25279 0.735631 -3.53339 -12.953 7.52011 -3.05435 13.2255 -0.145704 19.2545 -0.390399 -0.15195 1.01331 1.38041 0.517007 -1.47358 -0.763503 0.437602 2.9638 -1.47916 -0.954473 -2.73232 -0.221646 
10.9416 -6.72534 -6.66733 -7.68374 0.246708 -2.1347 -5.91088 -12.3736 11.2402 -2.01995 10.5143 -2.58009 19.1993 -0.429036 -0.471111 2.01768 2.15252 0.35233 -2.70403 -1.40713 1.98411 2.0458 -0.696872 -1.14904 -1.94597 -0.122947 
10.3527 -6.77859 -4.04675 -5.80336 0.271722 -5.9473 -6.1262 -11.1582 14.4828 -4.18947 10.946 -4.27099 19.1357 -0.397093 -0.329391 2.55395 2.78649 -1.02282 -2.68162 -1.18393 3.49031 0.040242 -1.02514 -1.11221 0.345013 -0.0586452 
10.4275 -7.82978 -1.43041 -1.0487 -1.4796 -9.09894 -8.70608 -4.67841 12.5876 -4.37621 10.1199 -3.72382 19.1401 -0.39105 -0.0815923 3.40112 2.9721 -2.955 -1.85566 0.332084 4.20602 -2.95142 -2.19309 -0.275557 1.41464 -0.0490667 
10.019 -7.714 2.61817 1.89034 -6.50373 -9.19036 -8.05544 0.65097 7.04762 -7.0019 7.86161 2.15123 18.9909 -0.50888 0.701381 3.53206 2.67049 -3.57322 -0.910931 1.49703 3.37712 -4.93567 -2.03292 -0.481947 1.90895 -0.138553 
9.15324 -6.6656 7.00583 3.32993 -11.1406 -9.79148 -3.28584 2.75196 0.200718 -11.5792 10.6787 1.28198 19.0264 -0.65345 1.69826 3.20039 1.39378 -3.32678 0.97857 1.35451 1.58238 -4.93091 -1.09308 -1.64782 1.59091 -0.315245 
8.44546 -3.85378 9.39544 5.35976 -12.7639 -10.1557 -1.35117 2.01222 -4.00205 -10.7526 8.25689 2.77085 18.4998 -0.947473 2.40141 2.62524 0.506286 -1.77111 1.84038 -0.140331 -0.199546 -2.48291 -0.0308038 -2.23718 -0.199076 -0.46009 
7.94703 -1.26858 11.1829 4.18548 -14.9834 -3.72343 -5.28564 2.55285 -6.5421 -7.96627 1.68319 3.92092 17.8094 -1.21488 2.70582 2.0275 0.333844 0.0595306 2.15609 -2.4027 -0.0620125 0.0524017 -0.19597 -3.06727 -0.0363987 -0.541292 
5.88473 1.59456 13.6558 3.994 -13.4378 -3.02248 -7.75719 -0.247201 -1.99551 -8.96237 1.17351 -0.163619 17.2989 -1.36303 2.41467 1.2551 -0.0705202 1.36948 2.46405 -3.05303 0.616246 0.825212 -0.71306 -1.44455 -1.48173 -0.447889 
4.35919 4.13931 15.0131 5.68203 -10.5059 -2.57762 -12.0964 3.57161 -0.540545 -13.4541 -1.11594 2.56723 16.9203 -1.58382 2.10216 1.42921 -0.461719 2.60055 1.4456 -1.45697 2.40866 -1.04297 -2.09338 0.813919 -1.5747 -0.224045 
3.42421 5.51565 13.7558 4.25889 -8.1552 1.59164 -13.2109 4.58407 -2.87677 -11.574 2.43369 -3.96095 16.7049 -1.52474 1.26879 0.377665 -0.429679 3.22879 1.31384 0.0286123 2.18634 -2.94077 -1.11049 0.924712 -1.19911 -0.174673 
1.25818 7.28169 18.279 1.74444 -4.62197 1.19752 -9.84364 12.1805 -11.3163 -17.1274 5.12269 -2.05389 16.9862 -1.13108 0.874249 -0.288902 -1.10556 3.17507 1.48814 0.0266336 -0.375581 -3.18565 0.510655 0.356048 -1.12085 -0.312095 
-0.188485 6.36733 13.9112 3.8144 -0.235862 1.65917 -8.74049 6.38003 -11.3115 -12.6782 2.67775 -3.8486 16.3926 -0.789643 0.739489 -0.339758 -0.49585 2.4696 0.0856755 0.0405596 -1.00186 -1.36333 1.0653 -0.521384 -0.638418 -0.428877 
0.510125 8.08471 13.4909 0.376499 1.40975 4.82929 -14.1984 0.795724 -12.2515 -10.3487 0.542276 -3.09321 15.516 -0.219905 -0.218841 -3.51925 -0.571268 2.09079 -1.05261 0.187174 -2.59963 0.530282 2.38 -1.35624 -1.77395 -0.92249 
-0.149979 8.81159 14.4511 2.46361 1.17693 0.204128 -10.8308 5.26717 -9.22584 -9.63677 2.11698 -6.63338 15.2956 -0.509535 -1.2025 -5.41355 -0.817563 1.60702 -1.86655 2.25698 -2.02205 2.30073 3.91578 -0.10475 -0.553904 -1.12807 
0.1394 4.96536 0.412769 -0.436506 5.12559 -3.33799 -7.86263 -0.261194 -9.7077 -6.74808 -1.37813 -9.53124 12.9223 -0.954974 -2.26974 -6.53692 -1.11248 1.66196 -1.15337 4.34835 -0.480042 4.13935 5.30794 0.379217 0.758895 -1.04353 
-2.5508 1.91449 -6.61744 0.133087 5.94131 -3.58994 -0.623481 -3.20178 -1.07969 5.10041 3.11421 -3.3991 12.0491 -1.25056 -2.74189 -5.66032 -1.56532 1.29046 0.978875 4.73859 0.837398 3.15893 4.82284 -0.528435 1.79404 -0.790002 
-3.06434 0.184537 -8.65943 -4.02066 7.33735 0.959479 2.43968 2.62999 4.37224 8.82234 1.93974 -0.915872 11.9215 -1.20565 -1.3983 -1.9327 -0.532966 0.409528 2.43331 4.45954 1.44713 1.69967 2.76194 -1.66604 1.22364 -0.196887 
-4.80092 -2.50746 -9.31443 -3.57093 6.52334 2.94977 7.71103 8.00857 -0.471172 6.69222 -2.18413 -1.97087 11.8459 -0.796499 -0.314237 -0.696046 -0.880091 -0.607299 1.25825 2.75398 1.40886 0.263061 0.589006 -1.78732 -0.148863 0.0192706 
-4.76379 0.184823 -7.90226 -1.24933 6.88222 5.55869 10.2678 1.36929 -1.51361 6.2657 -7.05917 -4.12713 12.0394 -0.416887 0.157059 0.423836 -0.249207 -1.31582 -0.396252 1.1216 0.953478 0.6381 0.148767 -0.606102 0.176929 0.054164 
-5.68357 0.343162 -10.4763 -5.65303 3.13239 0.401733 9.23236 4.47289 3.17854 9.32376 -1.32292 -2.53779 12.0866 0.0459583 0.387753 0.310021 0.0823605 -1.18292 -1.37222 -1.25764 0.91838 1.04757 0.571262 -0.342675 -0.0412387 0.0165013 
-4.70744 -0.455483 -5.95934 -4.22564 2.45375 0.252239 7.28701 9.16521 5.73788 8.25041 -1.52137 0.252234 12.072 0.0192966 -0.278895 0.652403 1.1475 -0.0397006 -0.26896 0.293194 2.69272 0.410076 -1.04592 -0.33526 -0.382105 -0.0551077 
-4.5993 -0.248547 -8.73578 -1.67097 2.82295 -1.25811 2.91321 8.70251 1.14092 8.55618 -6.66641 -4.36674 11.9121 -0.0808619 -0.394788 0.380044 1.09666 0.91398 0.899944 -0.317595 0.811215 -0.164261 -1.10671 -0.35649 -1.21927 -0.0605454 
-5.20944 -0.913795 -5.51048 2.49711 6.83843 5.04381 14.8934 12.7181 1.55558 1.41987 -6.06373 -5.12318 11.8511 -0.367868 -0.328255 -1.28045 -0.96953 0.533533 1.37385 0.319491 -0.457274 0.561229 0.607031 1.17303 0.41644 0.03175 
-5.83687 -1.40162 -8.80046 -3.5311 5.50995 2.50567 3.8412 6.75252 4.44839 7.20546 -0.834197 -5.94644 11.8943 -0.0939375 -0.274759 -0.535204 -1.7395 0.647184 0.64077 -0.0732115 -1.74509 1.31228 1.18413 2.83713 1.97008 0.0961603 
-5.928 -1.52022 -12.3292 -8.14322 3.77792 5.23958 8.42047 7.85383 6.89029 11.9609 1.4277 3.12429 12.2397 0.250045 0.0556983 -0.633474 -1.43843 0.322038 -0.492117 -1.89429 -2.08694 0.0836669 1.94294 2.34834 1.07104 0.107762 
-4.70971 -1.31913 -8.00242 -5.04832 7.58913 1.84785 5.78361 2.4092 5.03496 9.20629 3.77353 1.35994 12.1986 0.140173 0.357132 0.552754 0.71575 0.0103164 -0.536463 -0.394994 -1.928 -2.17271 -0.199866 0.560501 0.594578 0.0225711 
-4.5228 -0.676551 -9.07687 -3.93645 7.40903 2.91213 4.45071 4.45507 1.68063 10.1342 3.37411 -3.42116 12.2378 0.0249086 0.461842 0.862259 1.23349 -0.204219 -0.447353 -0.646075 -0.694096 -0.87267 -0.873179 -1.0665 -0.60186 -0.0379478 
-5.83861 -0.0377936 -7.66287 -2.05574 3.74598 0.98708 3.85111 -1.18812 -3.81031 7.11951 0.9951 0.29917 12.0081 -0.187308 -0.137492 -0.460319 0.972163 -0.071665 0.18696 1.12421 1.24279 -0.542722 -1.04848 -2.11486 -1.00015 -0.0525261 
-5.23901 0.148324 -8.18771 -3.47204 4.6784 3.4332 6.15634 6.18201 6.94957 8.63841 -2.51556 0.645369 12.1452 0.104491 -0.0758406 -0.170554 1.37469 0.810827 -0.374128 0.780219 1.25001 0.854755 -1.59927 -1.89655 -0.39147 -0.0537598 
-5.28815 -2.41903 -10.7486 -0.419707 8.59612 2.52212 10.5518 7.75968 -0.313126 4.71176 -3.85592 -5.67407 11.9823 0.00876999 -0.578388 -0.666579 0.222569 0.854984 -0.126928 0.203808 0.79865 1.55668 -0.542116 -0.379831 -0.399897 0.00262718 
-4.27558 0.134862 -8.38678 2.11897 9.03809 0.273973 5.00144 6.2312 4.20581 3.34167 -3.68313 -2.39189 11.9819 -0.114513 -0.554056 0.122618 -1.08098 -0.627543 -0.171309 -0.667893 -0.92741 -0.0488181 0.515575 2.23975 1.46023 0.0481691 
-6.27647 -2.923 -10.8962 -3.7384 5.84105 1.93205 5.4476 2.78054 5.34498 7.05731 -0.320269 -0.181684 12.1029 0.0509735 -0.333082 0.647724 -1.94445 -1.48182 0.338524 -0.694847 -1.17591 0.184382 0.571574 2.14408 1.60112 0.134793 
-5.3174 -2.36997 -7.5008 -7.21761 2.91822 2.87169 5.369 4.03453 3.87643 10.0435 6.91536 5.20034 12.3257 0.337998 -0.621101 -0.367076 -1.95816 -0.92488 0.834076 0.420274 -1.10812 -0.971185 1.57324 1.79011 0.0384477 0.0954809 
-4.51237 -2.83202 -7.95296 -5.47365 4.24696 2.91588 6.89383 2.97845 0.773473 4.2187 1.56525 -1.46457 12.4843 0.714877 0.472467 -0.525294 -1.32197 -0.329931 0.733093 0.226489 -0.0657017 -0.736409 0.735585 0.736516 -0.842168 0.0016098 
-3.46764 -3.01613 -11.6938 -6.80419 5.21074 3.95244 6.3797 0.59165 1.63564 12.6272 4.32464 -1.55821 12.2686 0.426627 0.685921 -1.13241 -1.1756 -0.0948004 0.651218 0.0592266 0.147289 -0.0176351 0.402446 -0.142295 -1.19759 -0.0717125 
-3.62697 -0.237582 -11.4262 -10.5549 3.04513 5.05715 6.07469 4.17347 2.78333 9.4434 4.65767 -1.01325 12.1395 0.161146 0.796743 -0.667893 -1.39133 -0.456926 0.538723 -0.194327 0.597185 0.51674 0.72656 0.651786 0.144761 -0.0818573 
