-8.07722 0.822854 -0.398441 -0.0694962 2.04038 2.68422 4.32806 -1.19686 1.28315 2.74223 -4.92637 6.02323 11.3181 -0.258177 -0.32539 -0.35742 -0.410764 -0.134083 0.537452 0.0181494 0.867205 0.282931 0.790626 0.303692 0.0917951 0.0168505 
-7.61314 0.505759 -3.82944 -2.82115 -1.02961 3.5113 2.70967 -0.320231 2.57829 8.31115 0.82665 7.10679 11.2469 -0.025584 -0.340494 -0.255302 0.179685 0.186046 0.583456 0.744429 0.992145 0.294405 1.08097 0.379244 -1.04714 0.0205556 
-9.60014 -0.645549 -0.470037 -0.74749 2.90495 4.95794 5.228 2.70085 2.05024 3.91091 -6.28443 5.94043 11.438 -0.0306587 -0.138199 0.471799 0.41953 0.790503 -0.22286 0.123919 1.22389 0.629868 0.385302 0.0117574 -0.572723 0.0594773 
-7.44367 -0.145414 -1.63915 1.16793 2.53831 4.46464 7.60024 1.81501 2.37163 7.56272 -2.35113 0.828957 11.361 -0.0528221 0.251701 1.14842 1.38888 1.74566 -0.61837 0.125656 0.174945 -0.00863812 -1.23202 -0.568801 -0.227155 0.0626925 
-8.31524 0.457447 0.865409 0.0336146 4.20893 1.09325 2.50237 3.85499 4.53582 5.04296 -3.2787 6.29854 11.5585 0.169646 0.468154 0.0235111 0.270955 0.989639 -0.835965 -0.440845 -0.517501 0.963412 -0.409515 0.796999 0.791903 0.0169769 
-8.5197 1.21276 1.24496 3.7327 7.04668 2.35179 4.70077 -0.0225749 1.29231 1.58505 -3.52022 5.79196 11.5001 -0.301149 -0.970887 -1.65025 -0.482517 2.23024 -2.35464 -1.59463 0.160187 -1.35165 0.211397 -1.283 -0.89178 0.637623 
-8.2139 1.01613 -1.79454 -0.675097 5.59897 1.83453 4.47351 1.03213 7.40696 4.85217 -1.71489 7.41844 11.4533 0.168744 -1.36017 -2.67404 -0.381482 2.77258 -2.35249 -1.19649 0.952574 -2.10785 1.23966 -2.43511 -2.33561 0.977328 
-9.00009 -5.27919 -8.56041 -0.890301 12.9945 -7.67919 -1.3585 4.02737 -5.82217 8.71511 -9.54803 -4.18989 14.6016 1.38005 0.0292196 -1.24551 0.19539 2.73464 -2.80403 -2.86616 1.34137 -0.945422 1.82667 -2.96884 -2.58123 0.918918 
-7.23132 -3.09743 -7.6021 0.437702 15.0979 -5.6537 -0.450463 6.59289 -2.44622 7.67622 -12.4403 -0.388577 14.8943 2.787 1.53186 1.88227 2.03695 1.69121 -3.22113 -4.01024 0.302215 -0.824629 0.0766554 -1.96326 -2.03461 0.632391 
-2.11072 3.41564 -2.07883 4.15324 15.9704 -7.92423 -7.16803 3.9039 1.49178 9.3064 -13.0017 -3.2107 14.3742 3.82738 1.89329 4.26671 2.19194 -1.07071 -0.887525 -3.48521 -1.31954 0.33393 -2.50335 1.64287 0.258243 0.105328 
2.27641 4.32802 4.37602 6.98789 12.5671 -14.1486 -12.6729 2.60494 -0.373166 4.9398 -9.80433 -3.24421 14.729 3.75597 -0.0820415 3.75685 1.4151 -3.14431 0.735262 -3.56766 -2.06147 -0.923891 -3.31854 4.32321 0.601727 0.249583 
5.38296 0.474535 6.78409 6.79428 8.90638 -7.86938 -12.6733 -0.576364 -5.18904 -2.43342 -2.65169 -1.47086 15.2109 2.71393 -1.78117 1.82341 -0.250944 -3.94255 2.34068 -1.40229 -1.96274 -0.762202 -3.79733 5.51809 1.81519 0.444602 
7.8017 -2.03708 6.7507 6.19267 2.90838 -2.00482 -15.5361 -1.47433 -3.72526 -3.04659 4.00071 1.75014 15.7239 1.61866 -1.43771 -0.345195 -1.28713 -3.42516 2.8644 0.476354 -2.17967 0.392279 -2.62248 5.48342 1.5454 0.423849 
8.69629 -2.30766 5.85088 3.29613 1.08699 -2.29269 -12.7479 -3.87018 -0.643179 -5.68706 7.68621 3.36807 16.0998 1.03028 -0.689658 -1.06868 -1.87169 -2.6087 1.76877 0.949106 -2.05036 1.04318 -1.12312 4.22364 1.17862 0.387328 
8.71304 -1.46943 3.11665 2.30131 -0.649021 -2.61493 -10.2539 -6.6465 -0.684704 -6.5458 12.4438 2.06333 16.4038 0.497594 0.0735124 -1.74767 -2.12555 -1.22716 0.712401 1.92561 -2.5071 0.470003 0.0485497 2.53756 0.914814 0.374129 
10.0787 -3.25758 3.25773 -0.61851 -2.3584 1.27951 -10.5689 -8.24207 -1.4934 -6.29941 14.245 4.26564 16.8076 0.438738 -0.250522 -2.02788 -1.59526 -1.52503 0.451374 2.11635 -1.65516 -0.361171 0.753216 1.95754 0.240949 0.404689 
9.59848 -1.19456 -0.691064 -2.47774 -1.50471 -0.228911 -6.99754 -11.8239 -0.950134 -2.49766 13.4091 5.87542 17.2406 0.398337 -0.384744 -2.40717 -1.07107 -1.31689 0.263556 2.59885 -1.07291 0.130415 0.953323 1.06486 -0.482402 0.356399 
10.4473 -3.69771 -2.38466 -2.29063 -6.1103 -1.22883 -3.79428 -9.55728 -2.31632 -3.94504 16.9913 2.66677 17.7048 -0.103623 -0.366564 -2.12982 -0.646602 -1.13744 0.618569 2.91432 0.0641365 0.395119 0.892036 0.879929 -1.75596 0.256056 
10.5204 -3.17308 -6.09801 -2.21798 -5.35751 -0.0429759 -0.646929 -11.3534 0.378828 -2.95636 16.395 0.450755 17.7372 -0.370714 -0.831549 -1.23523 -0.736163 -1.00959 1.65686 2.21593 1.66348 -0.0451224 1.31395 0.755262 -3.25639 0.220475 
9.09959 -4.10114 -4.6879 -3.9814 -6.11919 4.27939 0.827343 -8.15662 -0.182282 -1.60988 17.1517 -1.80185 17.8396 -0.448383 -0.705569 -0.928627 -1.41852 0.00270061 2.2851 1.41567 1.73521 1.01284 1.41251 0.221808 -3.73056 0.237602 
8.41874 -5.15059 -5.71559 -5.31317 -6.54821 5.30128 1.7713 -4.20684 -2.24276 2.90453 17.1052 -8.17222 18.2756 -0.405832 -0.872693 -0.861068 -0.945243 0.260945 1.38994 1.64641 1.60546 0.596219 1.5218 -0.230291 -3.77631 0.293789 
9.25619 -6.2368 -7.219 -7.83566 -5.50145 7.52453 2.07494 -4.45454 4.05869 0.187053 17.7452 -11.6745 18.6236 -0.0863074 -1.07762 -0.70361 -0.495475 0.998562 0.790797 1.36738 0.535101 1.27327 0.610844 -0.994343 -2.58557 0.26307 
8.41298 -6.46872 -9.1378 -5.01706 -4.36165 5.28414 6.96133 -5.17718 1.23944 3.75418 14.9468 -13.4945 18.8141 -0.104106 -0.911757 -0.555603 0.456936 1.31349 0.317601 1.53026 -0.0639648 1.03691 -0.113828 -2.05792 -1.07733 0.161409 
8.67093 -8.8302 -6.49485 -6.60682 -2.21965 8.24194 5.0692 -4.99594 4.44297 1.01951 13.2592 -12.0686 18.8856 -0.502478 -0.629529 -0.204352 0.601083 1.10341 0.419274 0.940986 0.261617 0.462646 -0.588678 -1.88496 -1.24439 0.10901 
8.19084 -8.41267 -8.85568 -3.64291 -1.62167 6.53058 7.92546 -4.25596 2.74963 1.91915 9.05859 -13.3619 18.9516 -0.52607 -0.359815 -0.0598592 0.134 0.702846 0.65108 0.318105 0.372393 1.11405 -1.32801 -1.40287 -1.55615 0.08743 
6.85487 -8.41246 -8.38182 -5.51732 -1.35438 8.99768 6.2978 -3.60706 5.61682 -1.83882 11.2645 -17.9628 19.0999 -0.528364 -0.124347 -0.237306 0.486388 -0.144485 0.303666 0.317481 0.784474 0.311313 -0.508718 -1.25517 -1.92561 0.0971952 
6.69066 -8.47666 -8.49361 -4.89182 -1.28006 8.16167 7.93755 -4.00965 6.22275 -1.45669 8.92975 -18.3281 19.1441 -0.197665 -0.351093 0.0412189 0.470794 0.0894049 -0.748644 0.499515 0.546602 0.522504 -0.194121 -1.24829 -1.57538 0.0845902 
6.7792 -9.41994 -7.86241 -3.55043 -3.11288 8.94472 6.65056 -1.19672 4.26298 0.163845 7.04779 -19.2135 19.2754 0.162435 -0.244318 -0.15994 0.998537 0.231789 -1.8629 0.843907 0.704063 0.11627 0.664499 -2.31833 -0.352419 0.027136 
7.24035 -9.6644 -8.90929 -2.27238 -0.295398 2.81384 10.2467 -2.72812 6.03907 -0.0527825 4.92548 -20.6134 19.2869 0.296075 -0.119765 -0.258396 1.22299 0.14112 -2.47843 0.968364 0.601552 0.475871 0.587633 -2.72512 0.688052 -0.0267935 
7.3922 -9.04018 -8.97368 -1.83435 -0.68777 2.35708 9.36279 -0.727519 6.29001 0.781717 1.67497 -18.5823 19.1642 0.154582 0.0692722 0.249195 0.656872 0.364025 -2.74151 0.465476 1.11686 0.859134 0.084529 -2.42056 1.15749 -0.08123 
7.86454 -9.26536 -9.22995 0.365082 -1.78702 -0.936645 11.4233 -1.2365 7.58859 1.17254 -2.00942 -15.2035 19.0657 -0.124421 0.518142 0.654337 0.423874 -0.367578 -1.98002 -0.715797 2.00908 0.691744 -0.58356 -1.0802 1.21591 -0.125306 
7.24002 -9.2731 -6.4561 -1.5848 -0.546949 -2.8876 8.38964 3.64178 7.78389 -0.0261693 -1.58756 -16.131 18.9798 -0.213479 0.789106 0.639576 0.586389 -0.388996 -2.7224 -1.06232 2.24323 0.335314 -0.505233 -0.642421 1.6915 -0.145376 
6.69433 -6.95723 -6.89639 -0.277788 -2.2037 -4.46394 7.15424 5.13266 8.75085 -2.56664 1.15575 -15.7595 18.7526 -0.317184 1.05059 1.05005 0.82732 -1.17333 -2.29827 -2.00142 1.67229 0.642984 -0.513063 -0.432379 2.97939 -0.196734 
6.90991 -6.24871 -6.94258 1.41903 -2.42441 -9.4913 6.18571 7.30404 7.38545 0.125143 -3.11973 -9.84673 18.5939 -0.272584 1.16643 1.46406 1.61505 -2.79796 -1.60806 -1.86836 0.122777 -0.0632256 -0.0484451 0.104659 4.1157 -0.249804 
6.44367 -5.5246 -3.73645 2.99977 -6.71492 -9.12612 2.51815 5.2938 11.0027 -1.46843 -3.40524 -3.44865 18.275 -0.394154 1.08615 2.77584 1.29022 -3.71665 -0.921806 -1.42641 -1.06659 -1.22219 0.479917 0.257323 5.40865 -0.223043 
6.00243 -4.15727 -0.715763 4.85166 -12.2812 -8.59681 1.36588 4.17509 6.34182 -0.817499 1.21623 -1.70796 17.9696 -0.549557 1.58075 2.97746 0.821676 -3.3329 0.141361 -1.27916 -2.55601 -1.84266 0.500476 0.388473 5.08128 -0.280892 
5.1773 -2.57221 3.86941 4.45699 -15.8586 -9.52021 2.43213 1.36419 3.1617 0.304264 0.274387 7.21435 17.9495 -0.599543 2.36257 1.97597 1.10669 -1.97223 -0.0279719 -0.581716 -2.38373 -3.48498 0.428508 -0.926943 4.38672 -0.322174 
4.79531 0.178826 4.14181 4.7988 -14.5171 -8.58745 -0.167062 -3.51122 2.09268 1.74117 -3.01717 10.2282 17.3522 -0.679805 2.5291 1.60905 1.03674 -0.765862 0.690218 -1.64567 -2.24439 -2.26864 -0.915055 -2.26711 3.86923 -0.331947 
4.04952 4.12021 3.71461 8.55964 -15.4581 -9.27066 0.376039 -2.78172 -4.29761 -0.60523 -5.92325 12.5169 16.9728 -0.556039 2.56004 0.922528 0.799561 0.408671 1.22142 -2.5068 -0.549819 -1.98911 -2.07809 -1.27169 1.39694 -0.423524 
3.16729 5.14201 7.40691 7.98403 -16.3107 -5.27049 -5.83444 -4.97389 -1.27174 -4.93803 -7.0205 14.9869 16.7982 -0.586929 2.22506 0.804619 -0.0514535 2.23912 0.705884 -2.99181 1.56511 -0.880635 -3.8496 0.0527985 0.0294387 -0.435393 
3.21111 7.74637 6.8495 6.86218 -12.9184 -5.07158 -7.26818 -0.653573 -5.10165 -6.74657 -4.08238 11.8197 16.1089 -0.504506 1.86074 1.44106 -1.68952 2.90105 0.627061 -2.52788 2.90089 -0.632963 -4.56695 1.03549 -1.17009 -0.464725 
2.27986 9.49102 6.59745 5.39027 -4.59133 -7.15757 -11.304 3.25025 -1.90848 -14.4362 -3.67361 10.724 15.6072 -0.349517 1.72358 1.30514 -2.47172 3.16254 1.54238 -1.76886 1.76123 -0.837721 -4.16999 1.45703 -2.03858 -0.427052 
1.9707 11.2494 11.3247 1.40892 -6.81257 -5.19182 -9.52858 7.61067 -7.14406 -18.6909 -2.41922 8.79791 15.2447 -0.63852 1.63967 1.84148 -1.69653 1.87877 1.86621 -0.573807 -0.468083 -1.42534 -1.85917 -0.085473 -2.74612 -0.385994 
2.03991 12.0084 11.695 -1.64795 -3.55092 2.5015 -13.5486 -0.299873 -4.43914 -19.8158 -0.566949 6.30495 15.0951 -0.838924 1.60139 1.80826 -1.22867 1.74292 2.5097 0.208237 -1.44595 -4.00524 -0.0845129 -0.163257 -2.76564 -0.350226 
0.138488 14.686 13.5081 1.89866 -4.04475 -0.570078 -9.01493 -1.21893 -10.963 -13.3526 -6.06308 0.298612 14.435 -0.896395 0.964671 1.20393 -0.424707 2.57015 0.861737 -0.135544 -1.5953 -3.64212 1.87477 0.299287 -1.95658 -0.378208 
-0.998649 15.7797 14.547 -0.997956 2.73938 3.08005 -10.5196 0.435294 -20.0252 -17.5279 -2.66797 1.14545 14.2609 -0.768038 -0.331729 0.360946 0.0590284 2.56724 -1.20542 -0.391121 -0.391711 -2.26255 1.97733 0.284166 -1.39445 -0.47368 
-0.991993 14.1871 15.9183 -1.03961 2.89302 -1.17241 -11.7208 -0.733398 -17.5616 -10.461 0.127722 1.59476 13.7707 -0.411327 -1.09009 -0.0774706 -0.325328 2.43531 -1.41781 -1.3117 -0.213007 0.263795 1.58729 0.787098 -0.166814 -0.402222 
-1.23504 10.5992 12.2947 0.116325 5.81641 -3.22442 -14.1512 -2.50119 -12.4526 -11.375 -2.24152 -1.3154 13.0588 -0.637554 -2.55916 -2.62057 0.610248 0.949693 -0.945171 0.423359 -1.18887 2.78398 3.83574 -1.90157 -0.634523 -0.621442 
-1.79995 11.8258 14.2469 -0.285125 6.59327 -4.50691 -13.7576 -0.815724 -13.4304 -8.49264 -2.34082 0.694963 13.0249 -1.11371 -2.89154 -3.96222 0.773242 -0.395797 1.77644 3.07084 0.0737597 2.73839 3.27329 -3.08537 -0.788301 -0.582089 
-3.78244 4.16452 2.27983 1.67604 5.63772 0.0214458 -7.38439 -5.46792 -8.17095 0.666632 -10.9416 -1.57727 11.5266 -1.13805 -1.95641 -2.88133 1.32256 -1.23881 2.92523 3.44691 -0.205666 2.29773 2.05232 -2.50474 -0.167285 -0.445687 
-5.28686 2.94678 1.11465 2.04674 1.00338 6.08688 0.249989 1.11876 -6.0105 -0.11538 -10.9491 -2.21581 11.6264 -1.06139 -1.69122 -2.52722 0.356446 -0.972102 1.83893 2.79465 -0.386893 2.29243 0.563875 -1.26532 0.9822 -0.338469 
-5.18183 5.25666 4.45417 5.56321 2.4173 6.10484 -3.9205 -4.49676 -4.67389 -5.30199 -10.4611 -0.696437 11.5296 -0.747563 -0.648039 -1.01475 -1.28436 -0.481587 -0.353768 1.77038 0.438271 1.22572 0.32929 1.88509 2.75437 -0.0708066 
-6.40718 2.82361 0.523683 -0.446478 3.34297 1.64603 -1.51632 -3.23577 -3.71673 -2.68895 -8.90765 5.16555 11.3311 -0.429769 -0.594194 -0.878879 -1.75767 0.392183 -1.89239 0.995993 -0.222867 0.500854 0.788929 1.92069 2.84776 -0.054117 
-6.96009 0.985905 -2.49842 -3.49917 2.06 0.473034 2.35065 -1.0993 -3.18921 3.59987 -2.53685 8.50392 11.3202 -0.574843 -0.853293 -0.910059 -2.10039 -0.852114 -1.45848 2.32477 1.88761 0.745324 2.20187 1.42144 1.3696 0.0177052 
-6.54657 2.11118 0.196549 -2.21043 3.14294 -0.559144 2.09438 -1.6943 -4.24857 -0.621665 -5.30779 7.42281 11.4605 -0.358514 -0.556065 -0.211997 -0.448124 -0.376028 0.192464 1.95175 2.39458 0.685816 1.31271 0.578096 -1.33365 0.0330606 
-7.98635 1.34641 0.0674384 -4.05677 -1.74326 -0.0849576 5.89799 4.17055 -0.68135 4.67373 -5.15379 5.02295 11.5534 -0.308735 -0.227651 0.594801 0.577805 -0.548901 0.403848 -0.0457188 2.26113 2.1769 1.54571 0.886211 -0.92571 0.0229443 
-7.68662 -0.136972 -1.81923 -2.4083 3.36446 2.88735 6.46877 6.10219 -1.54159 3.33769 -4.7087 0.237806 11.3797 -0.465722 -0.110587 0.29959 0.521322 -0.136898 0.828496 -0.30682 0.545192 0.90104 2.24295 1.73581 0.273247 -0.0329743 
-7.93374 0.971728 1.48347 -0.511209 -0.795268 0.769027 -0.0651383 6.30808 6.34181 9.34875 1.59466 7.46787 11.4753 -0.297163 0.0952224 0.0156034 0.53104 0.886739 0.606493 -0.0484678 -0.5929 0.636653 2.61509 0.997565 0.70957 -0.0873614 
-8.90149 1.74559 0.98648 -1.3766 1.98446 3.15634 3.54184 -0.0371077 -3.25495 8.25559 -0.00295019 7.56658 11.3347 -0.0878632 -0.40452 -0.514052 -0.26024 0.506081 -0.117192 0.470702 -0.613284 1.20124 1.29221 0.374664 1.23323 -0.0936297 
-8.86473 0.881241 -1.2574 -1.91742 3.38044 2.81301 7.11911 4.2757 3.35859 15.2902 -2.51884 4.90641 11.1391 0.174618 -0.756895 -0.589311 0.170077 0.808095 -0.178629 1.56713 0.239908 0.12069 -0.673601 -2.30617 -1.20388 -0.0530802 
-7.66044 -2.11433 -3.01905 -3.00639 3.80701 1.2794 5.23016 4.05196 5.95622 6.82798 -0.778633 7.68471 11.0797 0.21191 -0.348347 0.0254221 0.70801 0.0770404 -1.04836 0.0544464 1.21294 1.3589 -0.190751 -1.35322 -1.09809 0.0555161 
-7.68117 -0.882789 0.539684 1.15407 2.33393 0.814356 6.92635 5.46309 2.33967 6.69455 -9.54837 1.3894 11.3374 0.107201 0.425884 0.85121 1.01283 0.458464 0.485176 -0.372481 -0.866436 -0.629031 -0.956884 -0.658315 -1.04453 0.0982769 
-8.43371 0.885867 0.215049 0.62771 2.89292 -1.0861 3.91046 5.43389 4.04903 11.5997 -3.25427 3.83463 11.5131 -0.0880537 0.751552 0.310394 -0.0340573 0.503218 1.3405 -0.105075 -0.0584885 -0.708899 -0.559664 0.130401 0.4089 0.0870964 
-7.94209 1.51057 1.3816 1.32968 6.1298 6.42164 5.91656 -0.747443 1.16703 8.11997 -4.5726 1.60879 11.4138 0.0126451 0.472852 -0.41103 -1.50378 0.285393 1.71213 0.0492637 0.201438 0.704803 -1.03066 1.22069 0.599922 0.0327446 
-7.97025 0.446755 -1.88804 -3.26448 4.42516 5.17828 5.20968 6.86478 2.99804 3.31695 -2.61452 9.61952 11.477 0.24784 0.0571378 -0.37651 -0.904706 -0.102695 0.737628 -0.178191 0.886799 0.409231 -1.34013 0.105574 -0.175741 -0.0112123 
-7.84968 1.70103 -0.463918 -4.41875 2.99477 6.2428 6.52306 5.75483 6.38918 5.68264 -3.7648 1.49657 11.5192 -0.129864 -0.179953 -0.547557 -0.408476 -0.0943324 -0.476025 0.233653 1.43256 0.181229 -0.502852 0.573118 0.599286 0.102417 
-7.24072 1.07632 -0.744742 -1.0216 3.94696 2.69146 2.71625 6.61674 3.48411 6.1177 -3.1303 3.01203 11.4044 -0.133253 -0.379119 -0.514643 1.00544 -0.19528 -1.05183 0.253049 0.0384365 -0.291721 -0.418523 0.111602 0.0486226 0.0797327 
-8.95618 0.296017 -1.92783 -1.83414 5.89724 5.28493 8.33154 6.53935 1.83015 4.20534 -1.44912 7.90896 11.9622 -0.130972 -0.671739 -0.951531 1.12703 -0.394391 -1.39829 0.0949685 0.186769 -0.48056 -1.1594 0.101686 1.39641 0.0519678 
-8.08327 -0.746336 -3.7293 0.470396 1.99753 0.398042 5.57068 6.6647 3.81896 1.96298 -3.21435 6.65644 11.6542 -0.0812178 -0.468767 -0.777057 0.528853 -0.779857 -0.947371 0.294801 0.0221256 0.265851 -1.05518 -0.193333 0.603629 0.0191596 
