-6.97771 2.3894 -4.14679 2.72225 6.09771 2.3995 -0.974949 4.20051 0.265282 10.2308 -2.13806 4.02361 11.3235 -0.274465 0.0862084 -0.164799 -1.64171 -1.0681 -0.1251 0.722798 -0.72645 0.832564 -0.390788 0.324132 -0.455989 0.0187838 
-6.96475 2.88886 -5.87484 -3.55707 4.06835 -0.00710773 5.18278 6.22155 4.6152 9.30037 -3.58125 2.53566 11.3558 -0.470521 -0.0841311 0.93769 -0.41499 0.168914 0.214573 0.794849 -0.95158 0.0197395 -0.600493 -1.12037 -0.986139 0.0390009 
-8.35652 2.57072 -4.10677 -2.34662 1.7719 2.9773 -0.439821 -0.442262 2.25314 8.74213 0.204201 2.48765 11.4013 -0.24032 -0.100839 0.668164 0.42012 0.618377 -0.731254 0.375239 -0.263304 0.45968 -0.287159 -1.29939 -0.049652 0.0436846 
-8.64092 1.87809 0.521645 3.18174 9.10518 3.18346 2.73173 1.76399 -0.629951 7.97273 -8.91102 -0.139096 11.4796 -0.128182 -0.337873 0.0900348 0.456653 0.0796836 -0.465339 -1.19573 -0.68399 -0.812462 -0.529559 -0.551136 -0.112709 0.00686274 
-7.34123 2.3906 -4.00422 1.45344 6.67118 -2.85206 2.12677 5.11277 5.18626 9.45887 -5.97014 5.11274 11.48 -0.00267677 -0.255718 -0.0382889 -0.650098 -0.511548 -0.762424 0.0693088 -0.0942223 -1.69502 -2.08614 -0.772924 -0.339522 -0.0283913 
-8.11331 1.28956 -5.47594 -3.17384 2.01713 0.58088 -2.07918 0.0240893 -0.913667 6.29421 -3.24976 0.659577 11.3507 -0.0823532 -0.0637326 -0.0897205 -1.21214 -1.51012 0.224364 -0.547854 -0.304619 -0.777814 -1.42504 1.13759 0.562624 -0.0394298 
-8.63371 1.58639 -1.29942 -2.41932 2.75818 0.466475 2.31218 -0.0434208 -6.0801 -0.849313 -6.49105 0.390702 11.3238 0.24655 0.81184 1.70165 1.02745 0.880147 1.6712 -0.397829 -0.541964 -0.841756 -0.984209 0.0730671 0.0177225 -0.0339783 
-8.40644 1.96153 -1.27936 -0.942603 3.51107 2.64602 -0.100243 2.81899 1.11416 6.00163 -2.96264 5.03504 11.3606 1.19521 2.44168 2.18911 2.2937 2.35409 0.347707 0.898466 0.991274 1.09863 -0.531278 -0.736714 0.290799 0.100105 
-5.96191 6.11381 2.40574 5.47508 10.3249 4.47138 -0.85184 1.00549 -0.0364326 4.68411 -5.74837 3.01361 11.3052 2.43299 2.25073 1.53243 2.31722 2.28835 -2.10064 -1.40696 -0.521115 0.363945 -0.522934 0.84638 -0.192591 0.522225 
-3.47317 11.2343 3.61702 4.34744 10.0042 0.316965 3.99516 4.456 1.55763 0.871104 -7.30468 0.802118 11.8606 3.43848 -0.199018 1.30986 1.71766 0.157638 -3.13434 -3.3822 -1.22706 -1.89255 -1.85214 1.1437 -0.649288 1.05679 
1.0646 8.20365 3.91453 6.52174 10.9534 -8.87221 -6.77033 -3.4675 -4.48211 -0.898717 -0.0881252 1.54421 13.685 3.39722 -2.62676 0.582406 0.508553 -2.42458 -2.78477 -3.79912 -1.74322 -0.632921 -1.42632 2.49616 0.401346 1.32657 
5.27268 -0.0784798 4.51553 7.12236 3.98505 -6.3539 -14.052 -1.07983 -6.12577 -0.467676 -0.074254 2.5233 15.4547 2.8165 -3.62382 0.148075 -0.312552 -3.18776 -0.255039 -3.37817 -2.01436 0.373349 -0.489799 3.50724 0.556065 1.16674 
6.65127 -1.36362 4.86851 6.63039 1.21163 -6.11703 -10.8239 -4.94272 0.640666 -1.77809 3.1172 4.15975 16.141 1.70724 -2.27268 -0.437365 -1.64036 -2.98657 2.2051 -0.274276 -0.566245 1.57335 0.424794 2.91251 0.415941 0.702306 
7.81598 -2.10117 3.8804 2.73036 -1.0637 -2.33582 -10.8689 -4.87819 0.86299 -1.1382 8.62886 2.27467 16.4663 0.843193 -0.771339 -1.06268 -2.38813 -1.60179 2.04572 1.67308 -1.39085 1.7227 0.783067 3.13145 0.185114 0.391373 
8.32915 -2.14842 2.04527 0.515958 -1.4551 0.144266 -9.73324 -4.39955 -0.109749 1.56052 10.1228 3.74823 16.6907 0.420958 -0.865553 -1.40924 -2.61248 -1.25125 2.049 1.21079 -0.349315 0.537833 1.12528 2.24339 -0.584089 0.363333 
8.64971 -3.54278 0.613762 -1.76106 -2.69051 0.744044 -6.23191 -8.30569 2.86295 1.77836 12.0802 3.65463 17.1367 0.363775 -1.20841 -1.47169 -1.95801 -1.10864 1.46453 1.39715 0.311343 0.305197 1.19792 0.734677 -0.557837 0.361068 
8.33919 -4.97058 -0.54436 -4.18629 -4.23121 2.58806 -7.08845 -4.97554 2.32985 2.39004 12.6085 0.549324 17.6224 0.45542 -1.35693 -1.58667 -1.38309 -0.721954 1.36712 1.43184 1.08988 -0.281619 1.32276 -0.177517 -1.49854 0.302707 
9.62983 -6.73216 -2.18324 -4.70855 -5.21885 3.76493 -5.20561 -3.03348 1.16918 4.43662 11.0594 1.08494 17.8057 0.400377 -0.934857 -2.02983 -0.213174 -0.408008 0.795563 2.42402 1.2011 -0.446087 1.44515 -0.780214 -2.05102 0.207615 
10.1162 -7.33837 -4.48957 -4.92572 -3.8007 5.46942 -3.08721 -1.58626 -0.67096 6.84519 9.74563 -2.45965 17.8697 0.276199 -0.425138 -2.17907 0.348559 0.256427 0.254257 3.25461 0.609144 0.148654 1.20854 -1.11887 -1.94588 0.147008 
9.76309 -7.03317 -7.56281 -2.45722 -4.94581 3.28118 3.88757 -3.99483 2.13292 6.77653 9.61052 -5.09599 18.0511 -0.31091 -0.0858712 -1.8683 0.67886 0.258284 0.396121 2.53539 0.771273 0.476231 0.733749 -1.45775 -1.99436 0.185945 
9.65355 -6.94576 -8.74993 -3.56916 -3.0856 4.10122 4.63802 -1.44914 2.59125 7.26279 7.73859 -6.0896 18.2348 -0.578314 -0.406143 -0.806285 0.512232 0.461404 0.465223 1.19407 1.02184 0.945977 -0.399031 -0.891802 -2.03982 0.24198 
8.30659 -7.35782 -9.39456 -1.99253 -4.28498 6.42963 3.60871 0.754328 1.91923 7.89657 4.77421 -7.07189 18.5529 -0.444337 -0.836632 -0.0623008 -0.0370456 1.08585 0.415509 0.233305 0.749336 0.491709 -0.987987 -0.64908 -2.1677 0.233626 
7.95286 -9.20676 -7.60512 -2.59691 -1.82409 6.22131 3.02257 1.14837 4.16577 4.29001 7.70478 -11.6708 18.8287 -0.382444 -1.27421 0.70705 -0.246712 1.09171 0.252387 0.0379235 -0.00630794 0.697753 -1.81261 -0.0406563 -2.24034 0.193513 
8.39175 -10.0858 -8.44671 -3.12857 -0.147309 4.29868 5.86182 -1.5469 3.80421 3.32298 6.38203 -13.1439 18.9223 -0.265262 -0.971399 0.415695 -0.195732 1.05456 -0.135122 0.673712 -0.994015 1.51293 -2.60225 0.431983 -1.7725 0.113712 
7.69875 -11.9528 -5.6886 -4.2347 0.304098 6.42863 3.70108 -0.330068 5.13752 0.486545 6.7314 -14.2553 19.0177 -0.188076 -0.810836 0.19563 0.140584 0.202014 0.207065 0.627223 -0.651261 1.03204 -1.55349 -0.578754 -0.732358 0.0793192 
7.10734 -10.8418 -8.27434 -2.15229 -0.0762882 5.65036 6.63802 -3.47653 8.998 -3.21295 7.42081 -14.6421 19.027 -0.355741 -0.402743 0.179791 0.405216 0.00542803 0.0985475 0.394018 0.0938619 0.96673 -1.01951 -0.666206 -0.409012 0.057165 
7.65469 -12.883 -6.71316 -2.38213 -0.849534 6.58079 5.77059 -1.14313 6.72906 -0.209455 4.29162 -14.5835 19.173 -0.148296 -0.0258287 -0.11123 0.815576 -0.2464 -0.541553 0.338263 0.456565 0.599165 -0.450602 -1.10692 -0.0497553 0.0164946 
6.63508 -11.6345 -7.03548 -2.02878 0.456647 4.71534 6.79716 -0.671063 7.84208 -1.42657 4.27089 -15.0249 19.1305 -0.161092 -0.109132 0.637172 0.582007 0.0171178 -1.31536 -0.00280179 1.05523 0.342194 -0.650433 -0.710249 -0.152328 0.0105991 
7.1934 -11.6856 -6.86418 -0.218579 -1.19437 4.18838 5.31283 0.550025 8.71131 -2.65965 2.77178 -14.3127 19.0484 -0.292419 0.190571 0.758017 0.616902 -0.141512 -1.65702 -0.536024 1.63456 0.254165 -0.838166 -0.732494 0.48189 -0.02304 
6.53252 -11.9861 -5.01297 -0.324035 0.181717 0.26976 6.85289 0.95306 9.71785 -5.24001 4.62949 -15.5391 19.1423 -0.300474 -0.0463112 1.17309 0.294255 -0.718681 -1.47605 -1.16167 2.28174 -0.0853528 -0.539389 -1.0051 1.24327 -0.0123058 
6.24387 -11.7543 -3.93433 -0.149992 -1.41963 0.518485 3.0626 6.21761 7.06201 -2.49356 0.44985 -11.9169 19.0518 -0.589173 0.105257 1.74634 -0.297422 -1.23735 -1.28894 -1.36425 2.55735 0.126285 -0.868781 -0.644332 1.85066 -0.0150349 
5.60747 -11.8317 -2.63497 -0.591798 -3.02413 -0.829939 2.11391 7.90382 8.23997 -4.20656 0.40636 -10.0064 19.0672 -0.566773 0.617729 1.748 -0.372745 -1.87854 -1.50289 -1.02988 2.02048 0.274323 -0.618332 -0.565127 2.66849 -0.0796137 
4.71006 -11.2365 0.678499 -1.57181 -5.7782 -1.70646 0.861047 9.86141 10.0817 -7.52028 1.66168 -7.82576 19.0108 -0.464815 1.12234 1.83627 -0.160145 -2.21832 -2.18857 -0.0305992 0.555102 0.477732 -0.47305 0.658622 2.8446 -0.11043 
4.46556 -9.15635 1.42062 -1.47685 -7.03171 -6.13224 2.80428 9.23357 9.57963 -5.81832 1.19793 -4.24227 18.7648 -0.357962 1.5739 2.29152 0.194708 -2.65744 -1.98044 0.0755892 -1.01854 -0.392413 0.636402 1.35965 2.88051 -0.158386 
4.49075 -7.48029 3.21922 -0.508193 -10.5074 -7.77324 2.56442 8.32825 8.78084 -4.05294 3.34717 -0.57597 18.6509 -0.200226 1.87537 2.64178 0.555719 -2.74791 -1.3918 0.0919185 -2.7947 -1.44018 0.693063 1.57002 3.01796 -0.200478 
3.92732 -5.84034 7.55225 -0.150065 -13.9467 -7.69874 1.64017 3.57771 6.92832 -2.75822 6.36188 0.771243 18.4552 -0.25008 2.05082 3.20892 0.469694 -2.16229 -0.354124 -0.845805 -3.9233 -1.88705 -0.373369 1.28683 3.16659 -0.252504 
3.97805 -3.51769 10.8216 0.543393 -16.0603 -7.8822 1.9027 -1.28415 4.20643 -5.58501 6.92979 4.75727 18.1631 -0.577339 2.50653 2.61736 0.545386 -1.18843 0.689934 -1.97975 -2.73677 -2.72293 -0.75723 -0.541554 3.16135 -0.375158 
3.47151 -0.883523 13.664 0.345825 -15.0667 -7.84838 -1.09388 -5.57673 2.43161 -6.91912 5.84076 8.92407 17.7462 -0.761722 2.78065 1.14054 0.885797 0.35948 1.16071 -2.26653 -1.34727 -2.30697 -1.88673 -1.54736 2.20394 -0.487628 
1.83196 2.57398 13.2501 1.97079 -15.8896 -4.24875 -5.9673 -0.778392 -2.58546 -5.75864 0.899964 11.1543 17.1297 -0.745958 2.3633 0.682687 0.499272 2.31425 0.664232 -1.92993 -0.466987 -2.36918 -2.42478 -1.38643 0.37496 -0.564469 
1.19175 5.01706 12.0407 3.56522 -12.2347 -3.71194 -5.7575 -3.41154 -1.21058 -12.1051 1.63999 8.5924 16.5338 -0.966314 2.61749 1.20639 -0.626358 3.15029 0.396538 -1.12486 0.392196 -2.52248 -3.11703 -0.76589 -0.899163 -0.511419 
1.38815 5.34851 15.0467 1.43005 -5.90502 -6.62926 -5.41512 -4.70168 -5.81837 -15.116 2.09805 6.79791 15.947 -0.911006 2.55279 0.937549 -0.548383 4.0736 1.19482 -1.29563 -1.07906 -2.42527 -3.02248 0.444543 -1.20548 -0.510563 
-1.13815 10.8166 18.7977 -2.5156 -4.30756 -4.67543 -6.99424 -1.6541 -8.56435 -17.8256 1.41226 6.60647 15.7804 -0.666063 2.76502 -0.31694 0.190041 2.58675 0.968038 -1.45786 0.390452 -2.90561 -0.205659 -0.582338 -1.17494 -0.658089 
-1.55812 12.4381 14.5594 2.26929 0.514887 2.20708 -11.8271 -7.05243 -11.0349 -18.0107 3.23654 6.11988 14.9536 -0.548023 2.3374 -2.12103 1.60737 1.48031 1.14319 -0.459398 0.378903 -2.38721 0.496737 -1.01618 -0.227874 -0.704212 
-0.66543 15.2974 10.6996 4.09581 -2.51089 -3.28992 -9.84081 -0.283903 -13.1303 -11.686 -1.84094 3.05669 13.7401 0.0823955 0.620378 -3.2063 2.32523 1.16592 -0.258681 1.03149 0.044414 -1.12135 3.2835 -1.92698 -2.04202 -0.804537 
-1.58833 14.7952 8.49058 6.16119 0.598202 -1.60606 -6.28883 -3.49227 -15.4714 -15.7021 -1.35622 7.43343 13.4461 -0.383296 -1.07893 -2.36719 0.737983 1.32358 -0.871843 2.09524 0.0756774 0.348709 3.27937 -3.10115 -2.41128 -0.771908 
-0.711065 12.74 5.80062 7.16462 1.48041 -4.06227 -4.60591 -3.21211 -11.9529 -2.56243 -5.92627 -4.26038 12.5115 -0.543195 -1.65856 -1.1226 -0.0613675 2.04394 -0.310678 0.894993 -1.28477 0.87527 1.27878 -1.58687 -0.876579 -0.521273 
-3.45178 8.32214 5.17292 4.4248 5.13714 -1.76596 -3.96833 -5.20994 -9.88013 -6.17568 -10.2265 -2.27798 11.7083 -0.74591 -2.22695 -1.57528 -1.33024 1.38556 0.456767 1.07907 0.0549022 1.98851 2.32749 -1.42125 -0.106198 -0.46455 
-2.44968 10.2411 6.74548 4.65716 5.43935 -4.76336 -6.5261 -5.8489 -11.5496 -10.0553 -5.34013 3.52951 12.0026 -1.26215 -2.18469 -1.7635 -2.09766 -0.340661 0.857723 2.04609 0.94319 3.15124 2.75137 -0.178185 2.22499 -0.282314 
-4.44857 4.90987 0.141742 0.763697 5.54655 1.02832 0.066606 -1.89936 -5.73048 -0.318222 -8.75557 3.0075 11.3778 -1.12935 -2.28486 -2.2902 -1.34028 -0.0531578 1.25372 1.63377 1.71625 3.24153 4.19055 0.771798 1.09126 -0.114076 
-6.52341 3.52269 -0.50128 -1.49312 -0.427603 -1.1708 3.60706 -0.151455 1.72852 8.2657 -7.55267 4.22183 11.2652 -1.22038 -1.91553 -2.39169 -0.895724 0.000320911 1.64657 1.20338 0.911974 2.04996 3.42008 0.589838 0.298759 -0.0594881 
-7.06166 0.257033 -2.65471 0.798521 7.80483 2.70635 -0.866084 0.522608 -0.311564 5.61656 -5.26126 2.83217 11.5066 -0.637032 -0.432029 -1.03132 -0.493034 0.269117 1.18599 0.0524092 0.504445 1.95174 0.880992 1.21039 0.994474 0.0446116 
-7.24501 2.98981 -3.81474 0.161132 4.31182 2.63048 -0.0428464 -2.50002 -4.00929 4.07774 -4.13809 5.11097 11.6407 0.0401514 0.716813 -0.322107 0.239321 0.546148 -0.123309 0.113215 1.1481 0.193303 -1.74883 0.835789 -0.369832 0.0261572 
-7.27293 3.01616 -3.35811 -2.5286 4.52242 5.05762 2.1536 1.79714 6.89711 6.18071 -4.4109 7.5353 11.4131 0.209167 0.833702 0.369603 0.39777 -0.807603 -0.940416 1.18834 1.00558 -0.530621 -2.28775 -0.498051 -0.416204 -0.00916681 
-6.21702 5.7272 -1.76011 1.36705 3.94434 -2.96298 2.66329 4.95176 -0.9093 -0.760509 -3.79891 0.0211072 11.4427 0.732717 0.281791 0.0262292 -0.161654 0.29586 -0.322616 1.43181 1.11228 -1.46106 -2.20837 -1.05667 -0.273594 0.050796 
-6.52983 3.05685 -1.83401 2.18442 3.95055 0.800997 3.72255 1.82462 -4.51466 -3.40307 -7.9211 3.29608 11.5598 0.819188 -0.000677335 -0.836932 -1.24558 -0.430788 -0.54646 0.419811 -0.909011 -2.91541 -1.16682 -1.69439 -0.970471 0.180072 
-3.95298 4.37842 -4.44564 -3.00364 6.07706 3.14571 6.33174 3.04767 -5.60871 -2.17222 -7.66632 5.8626 11.8213 0.59698 -0.728982 -1.05973 -2.22034 -0.916464 0.309614 -0.0898238 -1.03234 0.743588 1.10568 -1.32287 0.472244 0.0995098 
-4.30901 3.68716 -6.2 -6.57116 1.30213 -0.729025 2.41843 -1.79586 -5.33024 1.05248 -10.9491 -0.237804 12.1241 -0.161771 -0.489089 -0.781447 -0.987154 -0.294083 0.255862 -0.075365 -0.451749 0.681105 0.346273 0.438265 -0.177893 0.00881128 
-4.34252 1.76713 -4.87575 -5.35687 0.686234 -0.649898 2.86623 1.60033 3.21643 2.54012 -8.89926 4.14927 11.6581 -0.871428 -0.367378 0.482579 1.1072 -0.170409 0.744974 -0.201633 -0.951999 1.02536 0.750497 1.23994 -0.347906 -0.0624621 
-7.14391 1.91705 -5.52619 -1.57474 5.17555 3.97811 5.07849 0.289548 -5.52171 -4.02788 -5.11331 3.26328 11.6854 -0.611752 0.314015 1.16269 1.81731 0.483442 0.687777 0.319227 0.258667 -0.593821 1.24811 2.20671 0.913296 -0.143773 
-6.89267 3.42659 -2.36966 0.0341625 3.28831 4.51701 3.99355 -2.75504 -0.386191 4.12044 -4.38454 2.37253 11.7284 -0.320675 0.721674 0.828139 0.86065 -0.215765 -0.520439 -0.430878 0.249509 -0.697765 2.57741 2.40742 0.574891 -0.0475109 
-6.0927 4.4275 -1.63958 -0.1801 2.4183 0.126405 3.4509 1.67515 -6.49804 6.50287 -2.17298 5.21705 11.3702 0.216796 0.521721 0.938531 -0.0989831 -1.33768 -1.55302 -0.044375 0.466771 1.14589 2.74579 0.306675 0.997486 -0.0800117 
-6.4715 4.12027 -2.67836 -1.75094 0.986034 -1.32624 1.52563 2.15507 0.215768 10.1618 1.66769 6.04684 11.5782 -0.0130822 -0.0880054 0.0990369 -0.024188 -0.382221 -0.962437 0.567008 1.10713 -0.0271468 0.862254 -0.578854 0.00138965 -0.072042 
-6.27051 4.17881 -0.679183 -1.17711 -0.361729 -0.865344 6.09057 0.168349 -0.0932404 6.6804 -6.60605 6.41356 11.3605 0.00566177 -0.243468 -0.461417 0.334976 0.598981 0.0561855 1.21334 0.283671 0.648086 -0.48045 -1.1118 -1.34945 -0.0179118 
-6.86917 3.11091 -2.35467 0.411726 2.76722 0.200699 5.50876 3.534 -3.72432 8.34295 -5.06227 1.78122 11.373 0.11008 -0.213611 -0.679652 0.55795 1.37994 0.393659 0.460256 0.446985 -0.123128 -1.44737 -0.664452 -1.33146 -0.0470639 
-5.86556 3.71485 -4.10851 0.413446 4.52261 -0.356138 7.52605 2.40404 -1.28756 5.01005 -4.36698 0.602594 11.3832 0.103947 -0.161593 -0.937284 0.26731 1.42869 0.269234 -0.836239 0.594574 0.450267 -1.04234 0.995206 -0.772323 -0.00993662 
-6.12358 3.2842 -4.36196 0.243536 5.44354 0.387452 3.10917 3.27215 0.197289 3.76011 -2.7741 2.29504 11.3315 0.123317 -0.00840559 -0.426802 -0.0506289 0.627358 0.111709 -0.921605 0.0344399 0.932808 -1.04156 0.616922 0.272007 -0.0134659 
