-6.57717 -3.03371 -9.86467 1.64626 1.64866 2.23031 5.20634 3.19525 9.72436 1.9108 -3.22492 2.92677 12.2555 0.575215 0.226878 0.0178817 -0.312237 0.202638 -0.792835 0.0662849 -0.294735 -0.601675 0.0369298 1.64486 0.168778 -0.0229617 
-5.38528 -2.13165 -8.99619 0.193111 3.30934 -0.649852 6.27835 0.387209 10.052 3.23794 2.12265 3.28593 12.2081 0.62841 0.0774915 0.202101 -0.362457 -0.294554 0.178164 0.0171406 -0.215194 -1.74532 -0.274963 1.47152 0.0674423 -0.0041317 
-4.29703 -2.35035 -10.2095 0.811649 1.83152 -0.293778 5.00176 3.12559 6.55217 1.43188 2.32561 3.59107 12.1644 0.217731 -0.516367 0.531167 -0.649295 -0.555276 0.984669 1.06745 0.190288 -2.31138 -0.430212 0.730154 -0.566111 0.0571726 
-4.57518 -2.98793 -8.68175 0.251284 0.0844691 4.38318 5.39434 2.15411 2.58386 0.775445 1.35739 2.93183 12.2804 -0.124399 -0.532272 0.770819 0.352293 -0.788948 1.21031 0.645538 0.28814 -1.05741 -0.159018 -0.16036 -0.559205 0.0855239 
-5.89356 -5.1874 -7.36606 -1.6293 0.48472 4.63714 10.9856 3.26324 1.90152 0.99099 0.808477 0.273266 12.5052 -0.147815 0.111625 0.954608 -0.0469109 -0.403194 0.347651 -0.0896028 -0.56471 0.410709 -0.505811 -0.806035 0.512938 0.0506574 
-5.20901 -3.37449 -6.56382 3.17505 0.0380015 2.93623 6.51411 1.75908 7.09027 2.66329 2.07942 2.14881 12.4653 0.2143 0.231651 0.100112 -0.263484 -1.05511 -0.527786 0.537438 0.602968 1.36656 -0.234377 -0.670458 1.39354 -0.0319616 
-4.71919 -1.59895 -6.49543 -0.884789 -0.161217 2.16795 3.99386 0.499552 6.35251 -2.0411 -2.06558 6.54727 12.3252 0.270427 0.950875 0.116437 -0.250495 -1.05467 -0.676946 0.0928455 0.688901 2.09635 0.37702 -0.340068 0.94542 -0.0821289 
-4.09087 -3.62391 -8.61651 -1.43839 -4.8681 2.97884 11.5774 6.55079 7.19114 1.1196 -0.55787 6.76253 12.2106 0.347776 0.767739 0.239706 -0.435246 0.0754507 -0.288451 0.218031 1.32005 -0.278977 -0.00869433 0.535162 0.185398 -0.0399684 
-5.1005 -0.308314 -5.75753 -0.575056 -2.33558 1.23111 8.9182 4.31189 12.3329 3.64793 0.42678 2.69351 12.2219 1.87081 2.28794 1.69982 0.670631 0.911757 0.0538359 -1.06381 -1.14328 -1.72812 -0.310717 0.497367 -1.48145 0.091249 
-3.27948 -0.181108 -5.73424 0.843954 1.50244 1.9624 5.14209 6.45316 2.70522 -0.224694 3.50905 5.00269 12.3171 3.42664 2.91128 1.59711 1.4865 1.1873 -0.818454 -3.83675 -3.94637 -3.23562 -0.752677 0.96886 -0.955814 0.445902 
4.22915 8.11935 0.562551 1.32719 1.2123 2.94535 1.89247 -5.16801 -0.0451365 -2.92253 -1.6122 0.0199418 12.7282 4.10661 1.94578 0.570839 1.7049 0.187408 -1.53676 -3.80249 -4.63126 -3.1878 -0.764817 2.65274 -0.253622 0.683464 
8.37751 6.71865 -3.79102 5.04296 -0.705534 -1.97056 -4.09346 -8.44111 -2.79795 0.641454 5.30592 3.32024 14.187 3.1891 0.770171 -0.0907175 1.32626 -0.0773145 -1.97387 -3.01124 -2.92089 -1.38965 0.341078 2.58478 -0.282714 0.746413 
9.60403 5.9707 -3.87494 5.84994 -0.294554 -4.48624 -5.47646 -11.3973 -0.854582 -0.609223 12.792 2.26662 14.7043 1.56363 -1.24365 -0.634505 0.865136 0.249957 -1.83233 -1.94676 0.197011 -0.438014 1.41058 2.13622 -0.42023 0.643992 
9.97859 4.74407 -3.96908 5.2139 1.86929 -4.19117 -6.22963 -5.03668 -3.83829 0.324042 9.23083 2.46578 15.0611 0.771695 -1.28205 0.340224 0.124177 0.538587 -1.07068 -1.0598 1.66739 0.709281 0.658708 -0.593647 -1.4348 0.448816 
11.2468 2.88836 -2.52095 5.56741 1.17468 -5.10597 -6.77323 -5.88517 -1.71504 4.28906 7.10644 -1.65398 15.5111 0.656393 -1.46503 0.415695 0.629375 -0.284116 -1.56531 -0.447604 1.62381 1.3462 0.0884339 -1.71396 -1.39181 0.449328 
11.4146 1.84957 -2.7669 5.80511 1.25279 -7.0141 -8.74407 -2.86021 1.17868 1.48585 5.18048 -1.89347 16.0277 0.534486 -1.56938 -0.124935 2.25822 -2.46882 -1.19993 -0.276025 -0.01059 1.51335 -0.0416084 -2.17794 -0.420719 0.434255 
12.168 0.0928013 -2.39756 8.70121 -1.40688 -10.9013 -6.45726 -4.36646 3.36795 -0.747959 6.24737 -2.51282 16.4677 -0.77398 -0.554388 -1.00072 3.82777 -1.47809 -0.038574 -1.07552 0.468021 -0.67922 -0.0880018 -2.7889 1.64284 -0.0215168 
12.1904 -1.70504 -4.65544 14.9381 -9.18404 -7.29314 -7.76774 -5.84899 1.18695 2.63451 -1.22934 0.791602 16.7541 -2.14035 -1.23371 -0.112626 2.8648 -1.38947 2.32024 1.27772 1.18402 -1.66323 -0.105998 -2.68614 2.12238 -0.218385 
6.98897 1.89373 -6.58027 20.1398 -0.99736 -5.15932 -12.639 -2.05067 -5.11528 3.27472 -3.63315 5.21767 15.0403 -2.57403 -1.0906 0.843406 -1.00911 -0.703799 2.2319 0.979487 1.99108 -0.599958 -0.683106 -1.21249 1.48308 0.175855 
3.30238 -5.21944 -1.23867 14.4098 -5.89934 1.71609 0.735413 1.90199 -2.89588 -1.05548 -3.30994 4.8532 15.6494 -0.744005 -2.40233 1.69875 -3.42959 -1.5159 1.84722 -0.50493 2.09334 2.80835 -1.59972 1.57907 -1.17159 0.80583 
3.74183 -3.60299 0.111086 3.91982 -6.56823 -4.24643 -5.8114 1.71344 2.40957 -2.31849 1.2252 2.87179 17.8993 1.61166 -2.75352 0.65134 -4.835 -2.51992 1.41641 -1.66835 2.27398 3.78398 -1.06673 2.10071 -3.46659 1.26137 
10.094 -10.9683 0.492621 5.90012 -13.9781 1.48654 -13.7062 2.73568 11.4663 -2.56748 4.23682 -3.8934 19.3537 2.36223 -1.2928 -1.50022 -3.90434 -0.948315 1.1507 -3.26371 2.54795 1.97453 0.788058 0.750751 -4.14719 1.04417 
11.6515 -8.99941 -4.18921 0.219649 -9.55756 2.0375 -13.76 8.9024 6.62358 -1.30295 3.09701 -7.742 19.495 1.57085 -1.11566 -2.34493 -2.42466 0.207191 2.04635 -0.25113 2.68378 -0.133918 1.42729 -1.36336 -3.86666 0.568082 
11.1587 -8.98521 -6.58961 -3.2618 -9.14625 4.32763 -11.6089 11.0473 4.86975 2.37703 -0.492085 -10.5759 20.0724 0.097503 -0.226238 -2.01723 -2.5068 2.20629 0.290823 1.95846 1.9684 -1.52203 1.0834 -2.46635 -2.04571 0.293734 
11.0637 -10.1729 -8.07246 -3.62253 -7.9482 4.5648 -8.11571 10.9766 5.03824 2.3457 -3.22714 -13.1203 20.3803 -0.560527 -0.373057 -1.08761 -0.94831 1.78126 -0.674491 2.11407 0.540925 -0.526228 0.273856 -2.05154 -0.822111 0.189084 
10.8753 -11.5128 -7.65191 -4.71277 -3.75132 1.67701 -6.73602 11.5406 4.64875 1.0252 -4.93285 -11.4328 20.3797 -0.812644 0.0183908 -0.354099 -0.247718 1.66242 -1.88141 1.78338 0.141264 -0.120247 -0.759226 -1.14755 0.597181 0.0261419 
8.99052 -9.60091 -9.09612 -3.79641 -3.34871 -0.00964499 -5.62604 11.3603 4.10294 0.742248 -4.94029 -11.4241 20.2867 -0.957349 0.478075 0.351155 -0.137311 0.446115 -1.95832 1.04474 0.283966 -0.17258 -0.919089 -0.0871083 1.63185 -0.0503439 
8.13209 -9.17923 -7.84828 -4.41344 -3.13388 -2.79221 -3.9368 11.5617 4.73616 -0.617371 -5.37326 -8.43807 20.2499 -0.949393 1.03705 0.757714 -0.00250998 -1.2718 -1.325 0.438288 -0.0278093 -0.092813 -0.77696 1.16565 1.88841 -0.0961655 
7.6486 -8.94927 -6.2185 -4.45875 -6.02635 -2.99221 -4.29164 12.3859 4.13163 -1.42847 -3.44248 -6.45841 20.1935 -0.870674 1.23165 1.75608 -0.125299 -1.56025 -0.924762 -0.122022 -0.64227 -0.170275 -0.164895 2.12196 2.26917 -0.169042 
6.79934 -6.65338 -5.30215 -4.39415 -8.77149 -3.45669 -5.21179 10.8888 4.17034 -1.77425 0.146516 -4.47356 19.9455 -0.821332 1.36619 2.08488 0.0882842 -1.5301 -0.596547 -0.916329 -1.54367 -0.651121 0.0876043 2.54405 2.30756 -0.232438 
5.30352 -4.70559 -1.5888 -4.43256 -8.33114 -4.30121 -5.59866 8.48543 3.53448 0.496212 2.90965 -2.06048 19.5937 -0.75073 1.35772 2.00228 0.229389 -0.92126 -0.794695 -1.08269 -1.96473 -0.747909 -0.105362 2.2098 2.33377 -0.207117 
5.19797 -4.47013 0.261289 -3.98512 -9.632 -5.12044 -7.86494 5.79357 1.77914 -1.14169 4.17093 0.900765 19.3876 -0.482678 0.881398 1.60218 0.0267517 -0.282834 -1.09769 -0.720969 -1.37689 -0.967389 -0.145605 1.49426 1.91638 -0.109183 
4.69564 -3.25227 1.01117 -3.51632 -10.2024 -6.13381 -8.37851 5.10986 1.58769 -2.27156 5.59433 2.52328 19.4369 -0.152074 0.415684 0.715999 -0.12978 -0.249363 -1.11341 -0.154402 -0.63946 -0.696841 -0.600089 1.19429 0.842647 -0.0136438 
4.68989 -2.97305 1.40874 -4.71851 -9.25003 -8.02882 -7.42671 5.69214 0.306785 -1.11839 6.27549 2.81647 19.478 -0.130552 0.19429 0.145517 -0.281513 -0.0508313 -0.713802 0.685544 -0.0276487 0.0518626 0.0760012 0.599564 -0.213424 0.0103371 
4.79719 -3.37571 1.41746 -4.71476 -9.76894 -8.41406 -6.58978 5.33884 0.786443 -2.51588 7.82884 1.1949 19.4803 0.00577536 -0.232797 -0.293261 -0.234863 -0.128824 0.197214 1.23765 -0.131476 0.570402 0.359702 -0.264229 -1.25633 -0.023354 
4.49443 -3.43695 0.785731 -4.79347 -10.1029 -7.54933 -5.33158 5.54083 2.43907 -0.639519 6.0515 0.497834 19.4176 0.158446 -0.572682 -0.850295 -0.0120721 0.114232 1.14121 1.27719 0.00512457 1.02984 0.203426 -1.16177 -2.01572 -0.0285381 
4.82224 -4.1843 -0.143626 -4.65316 -10.4201 -5.38749 -3.23784 4.52813 3.37355 -0.712481 4.38518 -2.59906 19.3503 0.337022 -0.940177 -1.53547 0.0129138 0.892746 1.389 1.19407 0.807878 0.416144 0.588692 -2.77243 -1.84471 0.0398737 
5.46959 -5.43216 -2.06219 -4.80967 -8.3533 -3.83607 -2.71674 6.12312 4.16243 -1.00296 2.18848 -5.36516 19.4003 0.654028 -1.55384 -2.02099 0.10667 1.98324 1.05501 0.341723 2.08259 -0.56298 0.367296 -3.62671 -1.7185 0.14322 
5.99472 -7.07899 -4.8359 -4.64209 -6.18001 -3.3257 -1.92687 9.08709 2.00549 0.609301 -4.10178 -5.09718 19.6883 0.973291 -1.72061 -2.19109 0.144867 2.6369 1.13883 -0.805875 2.13865 -0.707168 0.83946 -3.38075 -1.54301 0.160925 
7.17834 -9.75879 -6.97306 -4.26565 -2.30675 -3.30518 -4.27845 13.6743 0.308208 0.536072 -7.83858 -6.84562 19.9647 1.26167 -1.26172 -1.92141 -0.17351 2.99938 1.66452 -1.55847 0.687681 -0.587275 2.03037 -1.92725 -1.64675 0.0841936 
8.83432 -10.624 -8.64362 -4.20083 -0.258862 0.0412006 -6.48636 11.4458 1.76482 2.71531 -7.50502 -9.57388 19.8728 1.50782 0.0117476 -2.02696 -0.650245 2.30986 2.85138 -2.47444 -1.74802 -0.522869 2.21891 1.73889 -1.92873 -0.0844477 
10.3581 -9.96822 -9.7654 -5.89785 3.68303 2.80307 -8.22935 8.38217 1.34639 8.09588 -5.74614 -11.3606 19.7291 1.15083 1.8594 -1.54872 0.324991 0.831638 2.81208 -0.502428 -4.27727 -1.01113 1.19805 5.52197 -1.60593 -0.546987 
11.9439 -6.91554 -13.5745 -7.07721 2.37443 7.8771 -12.3236 2.99306 -1.12795 7.92397 3.54644 -12.4833 19.3839 -0.172018 2.72509 0.347327 3.15349 -0.0436265 1.09181 2.02308 -7.0923 -3.19586 -0.773536 5.80146 1.16579 -0.986583 
11.3777 -2.31604 -12.2512 -1.20251 0.534794 6.83725 -3.87196 -3.48563 -3.30108 3.922 14.2455 -13.4205 17.4742 -0.955981 2.38754 1.63129 4.60852 -0.103113 -0.314806 3.22981 -7.46048 -3.79713 -1.80922 3.66031 3.38982 -1.06238 
7.46446 -0.824693 -5.66408 9.21894 1.09712 3.48317 1.45035 -18.0818 -11.8907 0.934567 11.5064 -2.71494 16.0673 -0.99616 1.23076 1.76315 2.50345 -0.544515 -1.22401 3.40088 -4.53687 -1.56191 -1.60785 0.126364 3.85798 -0.706686 
7.81796 -1.07592 -5.56419 8.99665 3.80611 3.426 1.03271 -18.3828 -12.2579 2.54446 8.5754 0.704369 16.0755 0.299988 -0.122176 -0.83432 -1.88095 -0.31478 -0.294192 -0.24555 1.00897 0.957338 -0.613084 -1.23114 1.73157 0.24323 
8.74299 -1.3818 -8.10227 0.340452 -1.9838 3.46265 2.22845 -12.2427 -4.45908 0.573481 7.01331 -0.255894 16.5498 1.28145 -1.04814 -2.95788 -5.43692 0.171061 1.99585 -2.8349 5.33746 3.71622 0.314789 -1.30487 -2.08322 0.987048 
12.2384 -2.64837 -15.2037 -6.16802 0.501358 5.37655 -5.48876 -1.36029 -2.23021 1.03712 10.3364 -5.99221 18.4491 1.07695 -1.67258 -2.97892 -4.48219 0.688352 2.39067 -2.94993 4.8986 3.58303 0.527546 -2.08993 -3.33589 1.16425 
11.6615 -5.27915 -15.6337 -10.3833 3.6048 12.4871 -9.4634 0.0942659 1.67654 3.26218 4.1016 -9.78273 19.8157 0.165822 -1.74299 -1.99879 -1.08943 1.77894 1.19127 -2.03254 2.75369 1.71675 1.38837 -2.96794 -3.14564 0.927401 
11.7435 -7.49014 -16.6931 -8.05243 4.45357 10.8671 -7.87101 -0.0582936 2.58943 3.83784 -0.418412 -11.2117 20.2638 -0.917256 -1.34065 -0.128037 1.14778 0.860424 -0.693751 0.165382 0.419164 1.21664 1.25473 -4.12621 -1.64942 0.378127 
9.81955 -7.67587 -17.3515 -4.16447 4.93481 6.67372 -6.74312 0.874699 1.71486 6.11498 -2.44897 -13.3744 20.2795 -1.14101 -0.714633 0.592858 2.54139 -0.263014 -2.60559 1.75159 -0.209177 0.992319 0.689585 -3.11787 -0.323951 0.0192224 
8.57305 -8.15328 -14.985 -3.53853 4.13847 4.8145 -6.02199 0.345314 3.83385 5.88436 -7.01939 -12.4435 20.1078 -1.42074 -0.268555 1.36127 2.06167 -1.17349 -1.9756 1.17775 0.261913 0.529384 -0.0173125 -2.40341 1.17895 -0.136924 
7.54164 -8.52075 -13.5235 0.0666723 2.44728 2.48547 -1.62997 -1.15342 6.01593 5.68684 -8.18726 -10.7866 19.9898 -1.46274 0.344689 2.15406 1.11812 -1.70908 -1.3794 0.884607 1.35084 -0.159278 -1.04792 -1.30979 2.58008 -0.177091 
5.77873 -8.41048 -11.8007 0.140335 -0.170122 3.08323 -4.53884 2.26533 3.08582 3.96535 -9.56632 -6.61081 19.724 -1.98554 1.58989 2.35271 0.61081 -2.04746 -1.22445 0.646711 1.90575 -1.3789 -1.12233 -0.453356 3.41106 -0.142466 
3.90299 -5.82383 -8.17333 -0.413291 -1.45627 0.642334 -3.06166 6.66887 1.29249 1.83488 -7.72447 -3.39032 19.5859 -2.13763 2.7043 2.59284 0.454052 -1.62521 -1.3729 0.699642 1.56156 -1.9614 -0.901716 -0.615143 4.62675 -0.170273 
0.464685 -1.5523 -5.89655 -0.244501 -4.14704 -0.386182 -2.07259 5.9629 -0.698946 2.19868 -9.51756 0.913683 19.5974 -1.4242 3.3511 2.56937 1.20613 -0.416746 -2.24343 3.08024 -0.39904 -1.12489 -0.815398 -1.10931 4.73516 -0.443256 
-0.489509 1.57167 -3.5114 2.52935 -3.69031 -2.64433 0.635116 4.80559 -1.89867 2.0616 -11.2874 8.58492 19.2017 -1.96976 4.17938 1.80006 1.77087 1.23928 -1.96464 3.8745 -3.30107 0.981599 -0.546914 -0.544541 3.00672 -0.37524 
0.854006 4.64726 -1.28484 4.69964 -1.13683 -6.49058 9.01397 1.20177 -0.943077 -0.225 -13.3314 11.0774 17.6998 -2.93786 3.90762 -0.205342 2.02823 4.2146 -0.600827 4.7986 -3.49223 1.05801 -1.10637 1.72231 0.516744 0.0463726 
-6.14046 11.9733 -1.4789 5.96897 3.23501 -6.12869 10.7676 -7.45591 6.32255 0.312152 -8.54023 6.56145 18.6585 -4.22986 2.1387 -1.47909 0.182909 5.23472 0.686736 2.47139 -2.51809 0.203556 -1.23808 2.28367 -0.648041 0.506206 
-11.3991 12.785 -7.93951 8.17682 13.4633 -1.64814 16.8542 -5.36749 0.4805 -2.45846 -2.27959 4.50914 20.1009 -4.6539 0.545886 -1.13579 -1.53207 4.76638 1.10815 0.270324 0.256621 -0.0592297 -0.641043 2.82063 -0.974572 0.824287 
-15.5122 8.19632 -7.57952 1.7053 15.1832 -1.63187 9.07196 -4.50024 -1.59268 -3.01207 -5.39492 8.62884 20.5322 -2.82461 -0.942111 -0.901744 -2.8783 2.08121 -0.294184 -1.91858 1.64747 -0.620222 0.352477 1.70073 0.400381 0.486875 
-17.7296 9.26517 -3.91347 -0.828878 16.721 -3.19823 11.2134 1.00704 2.71839 -1.7681 -0.800939 5.17083 20.8844 -1.52152 -0.991102 0.148115 -3.01261 -0.552665 -0.793835 -2.1644 1.03533 0.623381 1.57498 0.669279 0.209837 0.148195 
-17.0983 9.02263 -8.00064 -3.91967 12.0122 -6.82456 3.99507 -2.40581 2.10249 1.72936 -0.775932 8.2325 20.7011 -0.801002 -0.785162 -0.676805 -2.28196 -1.48254 -0.884896 -0.48374 0.494688 0.642846 2.17638 1.70105 -0.892391 0.107039 
-18.2137 7.4163 -6.98838 -4.07376 12.2855 -3.02097 8.5706 -1.23804 1.74981 3.04574 -1.24269 5.75649 20.7574 -0.503442 -1.04407 -0.803574 -2.05837 -1.63879 -0.224217 -0.0889958 0.150141 0.0891853 1.6391 1.0755 -0.582024 0.0814613 
-19.2752 5.19494 -9.4261 -8.08205 9.98824 -6.14498 7.97465 -0.904258 2.10583 5.46291 3.33119 3.87405 21.1309 -0.318188 -0.535192 0.516149 -1.08985 0.245501 0.425445 1.04665 1.21408 -0.141924 0.649969 0.632396 -2.52065 0.140704 
-19.1584 5.95865 -7.21861 -9.03953 9.53905 -4.65911 8.77862 1.00697 3.16265 4.56061 2.52298 4.43994 21.0768 -0.199112 -0.301712 1.13576 -0.344856 0.638406 1.27086 0.673546 0.814617 -0.934787 -0.618667 -0.0748118 -2.48482 0.0592901 
-18.2169 7.0755 -5.30478 -6.88602 14.6129 -3.87827 9.12431 2.5421 0.686459 4.22177 0.503212 -3.71246 21.2449 0.0979658 0.19795 2.50128 1.30284 0.124613 1.72256 0.480659 -0.0471897 -1.25452 -1.13889 -1.19125 -1.28588 -0.0648516 
-19.7384 4.96746 -3.37024 -6.39606 13.1651 2.19999 11.3635 1.11186 -2.21443 0.572976 -0.202762 -2.87434 20.9968 0.574321 0.486634 2.12017 1.09974 -1.19624 1.03932 -0.250635 -0.506298 0.377786 -0.62657 -0.838926 -0.908638 -0.221264 
-18.4953 6.68028 1.1561 -2.88959 8.79826 -0.961718 9.08551 -1.19265 -1.47822 1.76227 -1.26217 1.10178 20.8467 0.8344 0.0871635 0.991876 -0.363056 -2.3725 -0.0951288 -1.84618 -0.295783 1.41222 0.166264 1.16909 1.79724 -0.328306 
-16.1475 8.58943 0.151817 -5.53906 6.46521 -0.920791 7.54485 0.342855 6.13392 2.65751 -0.788961 -2.51037 20.1697 0.875229 0.159015 0.732745 -0.646303 -1.23203 -0.57091 -1.91323 0.769216 1.78958 0.29894 0.857484 1.60643 -0.374085 
-15.8403 5.70034 -2.10642 -9.1298 6.10042 -2.79353 1.80272 1.44769 3.57339 4.01082 6.64175 5.09178 20.017 1.81283 0.841554 1.41423 0.307962 -0.946136 -1.2697 -2.51697 -0.717408 -0.779255 -0.157506 0.0682595 1.04056 -0.443367 
-16.6898 6.25251 1.92475 -6.50746 8.35393 0.261341 5.43875 3.63777 4.20768 0.943397 0.132701 3.16279 19.5412 3.31672 0.44013 2.85262 1.77999 -1.88118 -1.93899 -1.50767 -2.47361 -3.48432 -1.60307 -0.442342 1.13112 -0.456276 
-9.16004 12.0565 7.34079 -0.865574 3.12322 -7.90129 -2.44629 -6.42715 -4.41138 1.83179 -1.3817 3.46797 18.944 4.47669 -0.599664 4.01662 2.25159 -2.7609 -1.23345 -1.10639 -2.55797 -2.99811 -2.53166 -0.829264 -1.04737 -0.391696 
-2.9041 7.61199 9.69129 -0.771223 -1.4521 -8.06185 2.13103 -8.08779 -7.29528 -4.26832 1.01105 3.95716 18.4248 4.52226 -1.85792 3.18671 1.10809 -3.52892 -0.119339 -1.5562 -1.55141 -1.67857 -2.7574 1.3278 -1.49755 -0.28686 
-0.349709 2.02227 14.0934 -0.739958 -2.80105 -4.7992 -2.07537 -5.4794 -5.66569 -6.04162 2.05625 -0.542237 18.6168 2.55684 -2.78811 2.38167 0.0240118 -2.4386 1.7678 -0.950814 0.920542 0.524666 -2.42492 1.76696 -2.29487 -0.113035 
1.51636 1.98002 14.482 -1.02983 -6.32853 -1.8864 -2.52774 -4.59314 -3.55799 -8.9069 5.05273 -2.31984 18.2706 1.15633 -1.48892 1.79825 -0.087511 -1.8019 1.89112 -1.52101 1.15055 0.993306 -1.37735 1.41873 -1.93744 -0.0327103 
1.41391 0.931941 16.8538 -0.616212 -6.63157 -2.15004 -4.87098 -3.57176 -3.65669 -7.97352 5.43228 -4.86786 18.456 0.377319 -0.0498471 1.07387 -0.327517 -1.21372 1.12868 -0.549205 0.945461 -0.197507 -0.809322 1.26162 -0.631517 -0.0761423 
1.99573 0.712546 17.3024 -1.27065 -8.54634 0.0691853 -4.07619 -3.28886 -3.33325 -10.1891 6.4167 -3.56722 18.3416 -0.200348 0.113605 1.087 -0.819899 -0.0515896 0.96985 0.021066 -0.0640348 -0.81912 -0.384576 0.726876 0.166445 0.037499 
1.2972 2.40678 18.0526 -2.25713 -7.76077 -0.133596 -4.04716 -1.40424 -6.76559 -9.44712 7.68235 -3.07613 18.2006 -0.176646 0.406837 0.3255 -0.649379 0.751617 0.803261 0.120087 -0.495622 -1.14201 -0.45605 -0.0544879 1.08145 -0.0426277 
0.572971 1.81063 19.3176 -4.30886 -6.02188 1.95463 -2.83431 -5.99708 -6.09914 -10.093 7.56208 -2.38348 18.5858 -0.203135 0.31032 0.476949 -0.156773 0.789845 0.166064 0.0466244 -0.141459 -1.6207 -0.0680616 -0.927707 0.747994 -0.0362804 
1.24206 2.41708 17.4737 -2.344 -4.13572 0.923543 -4.89148 -4.69576 -7.98377 -10.3018 4.58715 -0.0524549 18.1207 -0.116823 0.0411291 0.549169 0.186482 0.887742 -0.0587231 -0.0978421 0.0242549 -1.28683 -0.256347 -1.70687 0.271863 -0.035405 
1.00762 2.25899 19.9765 -2.01108 -6.40964 0.370937 -3.42091 -2.35039 -10.8276 -10.1021 3.32576 -1.33909 18.2001 -0.211329 0.292643 0.970557 0.107338 0.965568 -1.04413 -0.257805 1.08966 -1.74851 -0.256421 -1.73975 0.135675 -0.0370855 
0.495754 2.38824 20.4689 -2.47361 -3.12817 0.364634 -4.24308 -3.10631 -10.8355 -10.7243 1.26616 -2.23901 18.2164 -0.445219 0.301952 1.33953 -0.746143 0.780336 -0.981615 -0.0618098 0.494445 -1.47272 -0.00249958 -1.12317 -0.0483632 0.0737518 
-0.11052 3.28826 22.6728 -3.70737 -1.69781 -2.98655 -4.44754 -1.3435 -13.4159 -11.1639 0.523835 -0.611825 18.3525 -0.556589 0.379577 0.958931 -0.863611 0.741056 -0.984917 -0.546356 -0.0667883 -1.37711 0.831953 -0.58233 0.0862674 0.0741959 
-0.424966 3.41221 22.8232 -5.22657 -2.58996 -2.30579 -4.68721 -2.72699 -14.0532 -9.78344 0.372255 -0.657902 18.4133 -0.591008 0.499546 0.409573 -0.798729 0.105147 -0.994295 -0.0118972 0.101097 -0.901662 1.32569 -0.545685 0.222057 0.0192247 
-1.31496 3.6449 23.5941 -4.95265 -2.97347 -3.21844 -5.93062 -2.874 -16.1043 -6.41274 0.861059 -1.6983 18.4726 -0.146113 0.0606914 -0.144251 -0.401112 -0.453008 0.238453 -0.409663 0.317526 -0.0490433 1.12103 -0.890216 -0.190183 -0.105883 
-1.85707 4.70765 22.0561 -5.84461 -1.96461 -4.49089 -3.56103 -1.83558 -13.9996 -6.47144 -1.63088 -0.585482 18.2524 0.020624 -0.428948 -0.208934 -0.460485 0.185203 0.0848462 0.194379 -0.257676 0.446035 1.4273 -1.44613 0.294426 -0.226543 
-0.125035 2.944 22.335 -5.40391 -4.27553 -0.701732 -7.05895 -0.20158 -13.6879 -7.21468 -2.92568 -1.59895 17.9036 0.269684 -0.137942 -1.00164 -0.182925 0.242907 0.0949985 0.033181 -1.19404 -0.0142139 0.927742 -0.293028 0.460139 -0.502497 
-0.916809 1.61792 22.408 -7.30337 -1.01292 -3.13991 -3.15115 -5.35158 -13.0313 -2.24596 -4.96502 0.764551 17.5651 0.391418 -0.0291921 -0.661404 0.390583 -0.204038 -0.484261 -0.230294 -1.08166 -0.311772 1.2772 0.268425 0.911923 -0.451871 
-0.43667 4.50005 18.4099 -5.1379 -2.23479 -3.41893 -5.96965 -7.08621 -16.6595 -3.88676 1.06299 -0.0726256 16.3038 -0.386781 0.225174 -1.17173 1.21001 0.706252 -1.09358 0.331529 -0.241609 1.08636 0.524495 -0.72149 0.501774 -0.547101 
0.255839 3.78366 20.7117 -4.0247 -4.00517 -5.5536 -5.25715 -3.80156 -14.0726 -1.74941 -2.28309 3.21097 16.7929 -0.0756288 0.704602 -0.610037 0.920314 -0.316926 -0.961172 -0.0668787 0.790187 1.27013 -0.474309 -1.13493 0.424654 -0.322153 
-2.64527 2.98699 17.3246 -0.993177 0.751862 -4.96281 -4.34831 -2.18463 -7.73543 -4.84048 -7.8741 -0.313291 15.5541 -0.530483 -0.0013798 -1.86937 0.581819 0.102935 -0.663463 -0.165113 -0.250713 1.93722 -0.00131412 -1.42987 0.246853 -0.500852 
-0.190655 5.89746 19.9005 -4.77416 -4.09087 -7.17384 -4.29622 -3.85143 -11.1427 -4.14065 -6.17113 3.00815 16.3292 -0.422668 0.0366237 -1.00181 -0.38493 0.499939 0.505494 0.187681 -1.74626 -1.06222 -0.009765 0.200768 0.668208 -0.17336 
-2.86584 3.43626 9.46866 -1.85408 -1.67726 -5.92613 -7.27568 -8.31484 -8.4384 -2.69772 -4.14233 1.26305 14.0314 0.273149 0.324177 -2.10946 0.334218 -0.60921 0.531626 -0.186422 -3.02902 -1.24949 0.109004 0.845935 1.71228 -0.299982 
-1.74721 3.74215 19.6306 -5.5189 -0.290915 -2.54446 -2.85506 -9.46774 -19.0322 -2.86962 -3.14513 5.76384 16.6875 -0.844665 -0.802168 -2.3291 0.554322 0.19429 -0.209902 -0.93414 -0.208678 0.67183 1.50636 0.692991 1.35037 -0.334736 
-0.50124 5.68553 6.91228 1.05028 -4.19417 -4.61936 -6.001 -14.5216 -10.0381 -4.93097 -5.15742 6.87029 13.8751 -0.783236 -0.969947 0.445468 -0.28106 0.289557 0.0264661 0.999053 2.28442 1.81526 1.95858 0.345798 1.17418 0.204973 
-5.59628 0.761982 9.53325 -3.45473 -1.86097 -8.87673 -9.60426 -1.79146 -6.98364 4.50778 -2.19863 6.95639 14.7337 -0.641877 -0.397882 -1.31823 0.607574 1.29042 0.132398 0.93275 2.17905 3.42625 1.66027 0.0179507 0.06278 -0.318766 
-4.85748 0.0766094 16.7446 -4.29146 0.555554 -2.62767 1.09418 -0.730897 -5.38639 3.40647 -2.88659 6.53767 16.0332 -0.651058 -0.886848 -1.82209 1.42204 2.21575 2.66643 2.70267 2.3677 3.11087 1.49615 0.691803 -1.94165 -0.309797 
-2.77848 4.5572 8.12325 0.189836 3.78633 -2.87832 -1.7389 -5.46781 -4.22684 1.26302 -4.1908 6.24405 14.0146 0.164204 -0.220546 -4.29062 2.76485 0.944319 3.36345 2.6669 -0.787029 3.25403 -0.50974 0.758753 -1.91896 -0.74885 
-5.16543 -0.646319 -1.49315 6.33821 4.06094 5.71358 3.57966 -0.844866 4.13784 4.17213 -0.702327 -2.4818 12.6856 -0.385044 -0.944708 -5.24769 1.87523 -0.641451 1.71572 1.90073 0.843676 2.25191 -0.735415 1.54977 -0.898444 -0.747599 
-4.62128 0.0207148 -2.80096 5.05466 1.10794 3.76992 2.48751 -5.66962 4.5244 1.57625 0.503009 1.87133 12.6632 -0.291596 -0.951808 -2.12207 0.436705 -0.184741 1.44775 2.92725 2.4267 2.39845 0.74137 1.2424 -0.581716 -0.221596 
-5.8613 -2.37869 -4.03173 2.65225 -1.3125 2.62683 8.48463 3.58839 1.49756 -0.427217 2.51536 4.23181 12.9709 0.748806 0.761016 0.54726 0.126374 0.352677 -0.136351 1.83184 1.57597 1.37572 0.060709 -0.627352 0.956861 -0.0140603 
-3.88852 0.664342 -1.2178 4.21634 5.54935 5.90382 10.4449 4.44906 9.08557 7.26954 0.412345 -0.021337 12.764 0.839901 1.08463 1.38865 1.56509 1.95596 0.962197 1.31747 0.63863 0.973158 0.942804 -1.05 0.56589 -0.00473976 
-1.78778 2.83695 0.451571 7.38924 3.60362 3.96487 8.76019 1.97562 8.73586 1.62903 -3.79375 3.24884 12.5649 0.956374 1.27125 1.27529 1.9673 0.76093 1.90739 0.604674 -1.35706 0.697751 -0.0425874 -1.53891 0.709092 -0.0820562 
-2.45854 2.83605 1.90066 10.5116 8.42967 7.91188 8.93707 -1.67009 5.77104 5.26214 -1.59244 5.19227 12.8425 0.409863 0.557712 0.105171 0.824885 -0.251172 1.53457 -0.495049 -1.58278 -1.40658 -1.5109 -1.19644 0.0640399 -0.0818075 
-1.79442 2.8917 0.785517 9.34111 1.05199 11.1598 12.2619 -0.137344 6.64358 0.363544 -4.17681 5.17047 12.5213 -0.176303 0.188051 -0.23679 0.00584173 0.663473 1.62301 0.075475 -1.71081 -2.18893 -1.33079 0.688749 -0.0362299 -0.11312 
-1.83589 3.42553 -0.858916 7.36484 5.56931 9.97921 6.21877 -2.40838 3.09883 0.347783 -5.37832 -0.661953 12.3767 -0.290694 -0.242675 -1.28307 -1.27703 -0.714237 -1.52931 -1.16733 -0.606553 -0.0797796 -0.890404 0.502621 0.2596 -0.173077 
-2.98062 3.48246 0.647405 8.99185 8.35117 11.0463 10.4967 -6.20928 -0.872682 -2.56776 1.54293 5.9948 12.2322 -0.442714 -0.71601 -0.908389 -0.682607 0.608805 -1.77022 -2.19327 -0.0411409 1.24784 0.0161276 0.445382 1.76136 -0.092042 
-3.31891 1.32729 -4.44566 4.30112 1.2089 0.322086 3.98302 -1.66688 9.13028 2.27578 -1.93921 6.07811 12.1217 -0.441355 -1.12766 -0.400342 -0.0848153 -0.005656 -0.577629 -0.53823 0.84119 2.31154 1.59037 0.212708 1.33729 -0.0540917 
-3.26648 0.360765 -1.96305 7.45993 6.27622 7.13724 2.41342 -0.713796 9.86707 -0.519815 -3.66946 10.6073 12.1887 -0.717939 -0.696015 -0.383142 -0.957547 -0.421275 0.333042 1.03694 0.798965 1.49659 2.25663 -0.199989 -1.24994 0.172767 
-3.89973 -0.651949 -1.5554 7.70672 6.5785 9.04557 7.56926 -0.95017 9.28665 7.27565 -1.70859 3.71829 12.1281 -0.358609 -0.486021 -0.0587119 -0.797522 -0.894016 0.696693 1.81187 -0.0223725 -1.92809 0.468554 0.257389 -0.958831 0.155438 
-6.27991 0.992008 -2.71343 2.50131 3.55999 8.34972 13.8883 -2.57281 6.53206 6.21546 0.42768 0.925018 13.0929 0.205627 -0.0822733 -0.150689 -0.61105 -2.32946 -1.59686 1.20834 1.20326 -2.11556 0.195747 0.503672 -1.08317 0.0608859 
-3.60524 -1.41843 -4.36403 2.79282 -1.90307 3.19931 7.30492 -0.849238 1.15731 1.25091 -2.70083 6.12507 12.4468 0.720363 0.165349 0.493508 0.489869 -0.73179 -1.15839 -0.616345 1.57803 -0.465526 -1.47755 0.118665 0.372773 -0.0539753 
-2.38559 0.33264 -1.31218 6.86163 -1.13029 2.07609 8.58729 5.25202 3.35392 3.47129 -0.654978 3.98801 12.3338 1.06188 0.211618 0.997706 1.54867 1.02859 0.672744 -0.076626 -0.167415 0.238382 -1.64663 -0.80882 -0.261562 -0.162835 
-2.24507 0.50448 0.211515 7.97591 5.26469 6.39045 7.13804 3.02757 8.54809 1.25997 -0.57393 4.05066 12.2377 0.263851 0.252771 0.164105 0.252438 1.9935 1.74224 0.901342 -0.100612 1.97098 0.436166 0.401858 -1.11578 -0.00233269 
-1.65057 1.08864 -0.0126791 7.65309 5.11908 10.1179 13.5886 -5.34829 4.02858 -2.02223 -4.67987 0.654411 12.3832 0.183544 0.266273 -0.96322 -0.416838 1.46119 1.69504 0.435591 0.000859547 1.40367 0.467504 0.769565 0.277786 0.00541039 
-2.65349 -0.532578 -4.19326 3.65928 4.93976 7.88961 9.31098 3.94785 10.6749 6.1785 1.32091 2.21297 12.4104 0.0482168 0.233115 -1.33199 -0.310524 0.0229534 0.58262 0.943182 0.252391 -0.377279 1.31114 0.668396 0.764523 -0.0254352 
-1.26366 2.18253 -3.9259 6.93575 6.33811 9.80172 9.67878 4.79617 9.30887 3.34955 2.24543 6.29579 12.2745 -0.0637703 0.172462 -0.92568 0.138041 -0.0868086 0.0259525 0.493839 0.44006 -0.666738 1.32553 0.595504 1.1636 -0.0682 
-2.19745 1.12311 -4.4918 6.78196 4.76995 9.46163 13.8089 -0.782706 4.02155 5.12978 -0.694595 5.05259 12.1649 -0.00217009 0.225195 -0.1163 0.609156 -0.190779 0.280394 1.31259 -1.504 -1.85939 -0.0317203 -0.697103 0.443603 -0.0600459 
