-5.24809 -3.70497 -6.33119 3.72139 4.46911 0.80109 6.90432 7.32287 5.3832 3.97726 -0.469393 5.49279 12.1713 -0.361959 0.484653 1.11364 0.398567 0.417791 -0.555496 -0.623031 -0.384449 -0.0426592 0.311007 -0.719672 -0.581126 -0.00482283 
-6.00566 -3.71676 -3.93392 6.47597 4.68867 2.74771 9.19907 4.71904 2.87395 -3.87511 -3.91419 0.654538 12.0288 -0.396227 0.238192 0.738951 -0.31165 0.0695893 -0.373777 -1.02871 -0.470321 0.78582 2.68863 0.219304 -0.21794 -0.0142428 
-6.6791 -1.27581 -1.96163 4.33694 6.44829 -2.9497 2.64179 6.70254 6.42453 9.45848 -2.34535 5.00628 12.2184 -0.328343 0.178177 0.248888 -0.428962 -0.203518 0.159712 -0.610411 -0.813705 -0.160363 1.8842 0.441547 -0.268408 0.0393803 
-6.51372 -3.72859 -4.82121 1.85537 3.82747 0.807601 3.89203 5.28143 8.79164 14.6798 1.56511 4.64634 12.0765 0.000935936 -0.0413911 -0.389804 -0.64533 -0.843553 -0.740188 -0.758823 -1.04882 -0.284269 0.474121 0.341884 1.19603 0.0206545 
-6.63577 -2.80817 -4.6431 3.88688 3.88212 2.56971 6.50578 2.97315 1.62254 4.12081 -1.00131 2.15484 12.3443 0.0846875 -0.00347185 -0.51327 -0.617885 -0.987746 0.090877 1.1095 -1.12113 -1.10303 -2.55379 0.546305 0.281081 -0.00284872 
-6.02264 -3.15754 -4.54221 3.47435 1.75399 -3.71293 3.47296 1.33966 3.85359 1.16433 -2.87679 8.06043 12.0691 -0.0425722 0.508088 0.45093 0.459709 -0.187833 -0.322939 0.354348 -1.48618 -0.942297 -2.54072 -1.01159 -0.593091 -0.00267735 
-6.5012 -1.5787 -4.66748 0.438025 2.5463 -0.235049 8.39883 3.06775 3.37841 3.44727 2.60712 4.70464 12.2078 0.21676 0.250853 0.415183 0.352402 -0.0939595 0.210162 -0.200005 -0.499124 0.479244 -0.226586 -0.888595 -0.086032 -0.0775331 
-6.79387 -1.80289 -2.55437 5.87834 3.55621 0.595286 4.71725 -2.19677 3.20222 2.31297 -5.29707 0.405991 12.1314 0.396425 0.231131 -0.00927689 0.829095 0.71199 1.56249 0.97059 0.594316 0.810994 0.603695 -0.159443 -0.987166 -0.00995932 
-5.16636 -2.23123 -3.5611 4.44689 2.51121 1.46641 4.88362 2.24574 4.34445 2.41356 -4.23415 5.5519 11.9255 2.11753 1.65532 0.745489 1.02016 -0.559089 0.756813 -0.169115 -0.302392 0.095696 -0.281768 -0.69473 -0.787131 0.0384404 
-4.70794 -1.67561 -5.14178 5.61539 5.33148 3.24877 10.0835 4.72224 7.42554 4.69966 -0.25337 2.70097 12.1605 4.26467 3.29836 0.191332 -2.68088 -1.8699 0.705899 0.944854 0.077157 -0.734369 -1.05083 -0.0459128 0.384622 0.572181 
3.04349 6.63428 0.353664 5.67028 -1.13677 2.22227 4.87012 -1.90372 1.74522 0.845089 -3.38838 -0.378507 12.3855 5.166 3.58287 -0.195894 -4.80365 -3.08376 -0.14694 1.62035 -0.606255 -1.32132 -1.69653 -0.00579009 0.51682 1.12776 
10.4245 10.2562 -3.5551 -8.13774 -3.96931 3.74685 9.44827 0.26374 0.82999 -2.15693 -5.94952 5.29431 14.7623 4.74154 2.23727 -0.329315 -5.7182 -3.4894 -0.195589 0.393472 -0.238933 -1.39151 -1.7371 0.757186 0.209843 1.31858 
13.0974 9.71724 -5.33391 -12.6948 -8.25717 0.482672 13.303 1.44372 1.03564 -2.64079 -1.41502 6.83933 16.2634 2.33165 0.100865 -0.803423 -4.10975 -1.91309 -0.00306421 -0.387822 1.14835 0.373347 -0.578838 1.01351 0.157734 1.09205 
13.9728 7.96926 -3.94457 -13.7931 -8.5553 3.14063 7.83444 1.85386 0.822805 -2.24288 2.54588 0.141259 16.8144 0.238761 -0.514747 0.608705 -0.211822 -0.886136 -0.576767 -1.39112 0.469755 -0.0531656 0.192821 0.807568 -1.03408 0.350594 
12.9276 8.28205 -3.46872 -12.0508 -8.40921 2.51006 3.73792 3.04296 3.61555 -2.00613 -2.56852 2.98669 16.8197 -0.687738 -0.481689 1.22663 2.53335 0.546246 -0.281939 -0.987786 -1.01127 -0.387913 0.0281438 -0.881357 -0.56729 -0.283835 
11.7032 8.40002 -1.44417 -9.51886 -8.32398 -0.150686 7.27519 1.81289 -0.725792 -1.51015 -1.33493 2.05023 16.2371 -1.40339 -0.632894 1.02864 4.31795 1.90859 -0.0946654 0.775989 -2.28601 -0.710058 -0.0489953 -2.07314 0.0240789 -0.657942 
10.7935 7.09342 -0.450976 -2.16516 -5.6416 0.718636 8.6437 -3.59212 -0.129624 -2.86643 -3.8814 3.0484 15.1328 -1.57627 -1.22613 1.22446 4.45832 2.46846 1.82372 2.36085 -3.13455 -1.38786 -1.55763 -1.65401 -1.1536 -0.650455 
8.02293 5.39911 -0.310227 2.85384 -0.396167 3.56301 9.2615 -6.25866 -0.854899 -2.0577 -7.16335 0.230801 14.3681 -1.38626 -1.2746 0.932788 3.2288 2.54923 3.45391 1.27781 -1.9135 -0.856187 -2.60413 -2.02338 -1.52058 -0.35452 
6.88643 3.65187 2.08663 4.05448 -0.0308061 9.77182 14.549 -8.594 -3.25921 -9.52051 -7.92435 -1.87159 14.5019 -0.847596 -0.711965 0.610255 0.828251 2.29251 3.12208 0.0529451 0.0946406 -1.27183 -2.51559 -1.15577 -1.48219 -0.028917 
6.7255 3.74781 1.95097 3.51534 1.61676 12.5923 10.7116 -5.25364 -3.44193 -11.2038 -9.43037 -3.09266 14.78 -0.458012 -0.149011 0.350625 -0.419966 0.933667 1.44915 -0.744946 1.04352 -1.07475 -1.49667 -0.106652 -0.653683 0.183788 
7.20425 4.35925 1.4697 1.64535 4.8145 11.8144 8.18339 -3.62143 -5.19526 -10.8713 -8.52674 -2.70082 14.7823 0.0738649 0.135987 -0.918514 -1.62179 -0.917521 -2.52435 -2.75476 1.16255 0.479649 1.73743 1.6927 1.12267 0.401896 
5.57396 4.30036 1.75136 1.95858 1.84951 9.78745 8.71957 -3.52734 -5.26063 -8.86561 -7.39541 -2.623 15.1468 0.856651 0.125745 -0.719321 -2.69814 -3.41295 -3.67555 -2.80214 0.578953 3.10197 2.05017 3.94602 0.865884 0.677254 
7.83153 4.05553 -2.40614 -3.27611 -4.73478 -1.44751 1.77122 -3.64442 0.0483828 -2.00244 -0.478328 3.50695 16.328 1.56096 -0.209338 -0.725154 -3.34878 -5.01701 -2.08139 -2.75505 0.953002 5.09202 0.330536 4.39929 0.0471496 0.910454 
10.6951 4.52839 0.292282 -7.51464 -10.6734 0.845457 -0.0930505 -2.34738 9.44611 -5.38734 6.27553 -1.86713 17.3934 1.80305 -0.541392 -1.21581 -3.11456 -4.37901 1.50602 -2.54544 1.05828 5.1857 -2.44621 3.098 -0.197442 0.859507 
12.4485 3.19854 -1.42653 -10.362 -14.0091 5.87844 -1.18556 0.5536 12.9114 -10.9578 6.63423 -2.84301 18.2113 0.911731 -1.05121 -1.14718 -1.90336 -2.62555 5.38378 -0.583153 0.477518 2.18907 -3.92212 0.451789 0.0658965 0.608 
12.2807 2.02189 -4.81748 -10.0713 -15.4084 13.6546 -2.52924 -0.334973 14.2363 -16.619 4.53831 -0.435225 18.5027 0.00570271 -1.7985 -1.31371 -1.23542 0.319367 5.14701 -0.54158 -0.529317 -2.29071 -0.990776 -1.05687 1.97802 0.335706 
11.5974 0.0527393 -5.58715 -11.5146 -15.495 19.0668 0.073554 -2.26304 8.59861 -15.9972 2.64923 3.12049 18.8133 -0.484784 -2.31904 -0.221917 -0.656515 2.96001 3.41735 -1.32101 -1.88447 -5.04944 3.13797 -0.607639 2.41658 0.187484 
11.1492 -2.89121 -4.19597 -13.1154 -8.33357 19.9863 -3.43051 -3.58565 0.149006 -7.8215 2.98367 5.04122 18.7709 -1.1913 -1.93072 0.721991 0.401281 4.97157 0.30493 -2.53237 -1.8699 -4.6835 6.06932 -0.531118 0.69308 0.0964644 
10.5903 -5.94009 -2.84687 -12.1225 -2.74649 19.7993 -7.34 -7.24342 -5.29208 0.333346 4.37336 6.5017 19.0146 -1.8942 -0.748589 1.30283 1.99533 4.95062 -2.60216 -3.26845 -0.472136 -1.91098 5.52576 -1.23645 -1.69601 -0.000521088 
6.82774 -4.63531 -2.57767 -7.76095 3.07518 14.813 -11.4843 -7.19426 -2.23584 5.56235 1.02066 1.33957 18.8844 -2.6108 0.685525 1.75216 3.37516 3.29363 -4.84429 -1.70433 1.2887 0.640401 2.95593 -2.93002 -2.66186 -0.0908041 
4.28709 -2.81815 0.117862 -4.2152 3.5537 8.64266 -12.2418 -2.81941 0.236143 4.93966 -2.55152 -3.50876 18.754 -2.958 2.18773 1.71487 3.67816 2.56707 -5.98055 -0.0311386 3.02219 1.95207 0.339041 -3.50369 -3.02525 -0.196519 
1.24678 -1.02455 3.08245 -0.19326 4.98448 1.34319 -9.50129 0.645837 0.586903 4.65497 -8.204 -3.26287 18.4472 -3.6925 3.79149 1.16297 3.50621 2.73824 -5.24076 2.33379 3.07218 1.1345 -1.1511 -1.64689 -1.00519 -0.0464363 
-1.40919 3.19317 2.89741 2.48453 9.13421 -3.36853 -8.48721 3.9475 3.05692 2.48225 -8.53275 -6.32333 18.2506 -4.529 3.77246 -0.419975 2.14128 2.94696 -3.35628 4.56386 3.4124 0.0408512 -1.36033 0.747692 0.873013 0.222854 
-8.78662 11.3165 1.8474 6.42021 13.9761 -5.38523 -1.69263 4.78317 2.02629 1.03557 -4.22319 -2.27907 18.9039 -4.78914 2.13488 -2.02228 -0.482869 2.52679 -0.774553 4.78704 2.29095 -0.241724 -1.04491 2.988 2.30695 0.486211 
-13.3412 9.87364 -1.36449 3.18446 13.7927 -4.77452 6.67321 12.1739 -0.279294 -0.0522659 -0.803461 0.364403 19.6399 -4.36199 -0.427716 -3.02516 -2.25718 0.858545 0.153403 3.25632 0.676587 -0.413905 -0.735406 2.22695 2.29048 0.592856 
-16.7329 6.30963 -4.898 -2.95757 15.2892 -1.82658 6.85371 7.9874 1.04639 0.69768 2.87134 4.928 20.1836 -2.7365 -2.04047 -2.84632 -3.41089 -0.552253 0.217695 1.17861 -0.299097 0.620451 -0.102665 0.979111 0.00529599 0.500286 
-19.246 3.55803 -8.8557 -4.11248 12.7704 -4.38084 3.52122 5.72831 1.47734 -1.02584 -0.945252 1.52556 20.575 -1.64886 -1.09275 -1.58722 -2.5037 -0.880836 0.3925 0.545421 -1.71393 -0.214991 0.194217 -0.144146 -1.13872 0.363107 
-19.5167 4.27196 -8.63858 -6.98577 11.726 -4.49359 5.77643 6.51048 4.25023 1.00903 0.743258 -2.83317 20.9378 -0.862729 0.189694 0.057619 -0.395787 -0.179044 1.34025 0.0265759 -2.33012 0.173414 0.321661 -0.265425 -1.50284 0.157772 
-20.1936 5.42874 -7.43031 -7.31994 11.1701 -1.47851 9.93896 4.34274 -2.95617 0.763145 -0.46015 -1.44862 21.0783 -0.163883 0.327531 1.29354 0.492014 0.273724 1.66339 1.65555 -0.391552 -0.234578 -0.0794777 0.47331 -0.315774 -0.0273867 
-20.5727 6.32274 -5.3226 -3.33277 15.1941 3.4235 3.77772 -2.97041 4.13022 1.41149 1.30166 -1.09911 20.7208 -0.171758 -0.140916 1.79238 0.616746 -1.66708 -0.0900953 0.26767 0.0525175 0.105987 -0.200282 1.32301 0.497808 -0.196213 
-19.5374 4.17029 -4.04597 -3.4789 12.405 -0.0224564 12.7983 8.511 0.364458 -1.62446 1.1421 -0.920343 20.5466 0.290772 -0.0176212 1.92653 -0.643823 -3.10351 -0.946073 -0.170429 -0.180098 1.51399 0.747737 0.755703 0.675762 -0.297829 
-20.7036 4.19661 -1.36883 -5.82256 2.77316 -5.6721 5.6851 4.68894 3.11985 1.20142 6.55719 -0.60827 20.2226 1.25733 1.11614 2.25233 -1.18703 -3.39203 -1.49403 -0.0991332 0.130873 0.487212 1.92595 -0.926084 -0.622479 -0.426956 
-18.6743 6.4037 0.225446 -9.29416 1.86304 -1.66108 8.13312 -0.38743 5.11896 4.60687 0.690602 1.68477 19.8383 3.36638 1.63834 3.40709 1.53129 -2.09911 -1.11696 -2.40074 -1.46936 -0.202177 -0.710268 -1.8472 -0.544246 -0.646554 
-14.7176 10.7867 3.80333 -6.36028 3.50492 -3.22734 5.61465 2.13317 4.18902 7.9256 -3.10301 -5.51406 18.9402 5.71362 -0.346221 3.5888 3.63859 -1.6778 -1.30705 -2.59388 -0.816702 -1.67448 -3.57596 -2.12341 0.61223 -0.659559 
-5.69848 9.06691 10.4034 4.44643 1.54356 -6.82962 0.829866 2.44208 -1.18102 -8.53789 -3.26381 -1.18868 17.955 5.82851 -2.61119 2.99143 3.96746 -2.5309 -2.71906 -3.09228 -0.840375 -1.57377 -4.50384 0.429806 1.35015 -0.377064 
1.37657 1.1339 11.4862 5.5001 -5.45608 -9.62306 -3.63266 -0.809326 -2.10255 -10.106 -2.08266 3.8896 17.8664 4.13599 -3.5267 1.06556 2.48998 -2.82861 -2.57031 -1.86374 -1.73299 -0.753744 -3.14299 1.84333 2.12337 -0.0106316 
2.4211 -1.82582 11.3412 4.61294 -6.31096 -12.0585 -2.70462 -3.11806 0.395898 -8.8965 2.32946 3.73368 18.4899 1.69522 -2.55977 -0.474431 -0.0889966 -1.35949 -1.83327 -0.925902 -0.584624 -0.217605 1.13345 1.67334 0.507257 0.233243 
1.90254 -1.40043 8.66224 6.00636 -6.71089 -13.4644 -1.93679 -3.75173 -0.368152 -7.61003 3.31702 2.6416 18.6196 0.473391 -1.34314 -0.513088 0.185105 -0.671325 0.265562 -1.65697 0.986107 -0.1458 0.764464 1.43868 -1.02223 0.148366 
2.51465 -2.46479 9.44322 3.74831 -4.62647 -14.0753 -4.64758 0.990162 -3.13624 -4.11861 2.40303 1.97161 18.7447 0.33214 -0.674971 -1.26159 2.66446 -1.53054 2.15829 -1.17588 1.24378 -0.72045 1.36323 -2.28462 -0.023034 -0.259836 
3.69675 -5.26232 9.86973 6.85793 -9.65495 -7.28687 -10.9461 2.0671 -1.06548 -8.67264 5.07396 -0.340489 18.4809 1.0884 -0.6315 -2.3703 3.21295 -0.775087 2.34577 -0.828668 0.249939 0.16859 1.9502 -3.31254 0.71224 -0.429935 
3.1847 -3.26973 4.42946 17.5094 -12.4916 -4.35586 -4.07939 0.191441 -2.85769 -1.54904 -9.97214 5.10956 17.26 1.76883 -0.74929 -3.77505 2.71966 0.0565641 0.948701 -0.479123 -1.20397 1.56502 2.11959 -2.14341 0.370392 -0.210087 
7.00953 -4.15546 -0.682372 15.1905 -6.65375 -6.59529 -6.36423 -2.10268 0.335522 0.856211 -7.05808 4.63383 17.2122 2.30836 -0.902851 -4.14382 0.66437 0.558489 -0.0409828 0.0979025 -2.77399 2.92677 1.70456 1.13277 -0.688406 0.147521 
9.70239 -6.76466 -4.15599 13.1803 -5.84425 -9.67758 -9.33411 -2.94481 3.98836 1.71492 -2.248 1.33641 18.3285 2.29828 -1.08724 -3.08465 -2.44818 0.516972 1.34635 -1.23571 -2.65797 2.92267 0.0854165 5.86338 -2.77759 0.434795 
11.9797 -8.0291 -6.55665 12.3443 -10.1862 -4.83093 -7.82918 -10.2347 10.1453 -1.78184 6.87577 -1.89594 18.6842 0.977336 -0.0479321 -1.73178 -3.33514 -0.462455 4.33764 -1.4907 -1.05651 0.483396 0.154065 5.46659 -3.37841 0.278351 
12.191 -6.76909 -8.05667 6.69162 -8.14054 1.4937 -9.52545 -9.03238 6.85079 0.197065 12.3778 -5.5135 18.698 0.0580847 1.0806 -0.758555 -4.04878 0.0111437 5.95984 -1.11029 0.142309 -1.94741 0.421346 3.90102 -2.39104 0.00162563 
10.6519 -4.39291 -7.39091 1.7592 -7.81788 9.50726 -13.722 -4.34145 1.32129 2.38546 12.9619 -8.83327 18.4192 -0.212092 1.29249 -0.112254 -4.12864 0.832591 4.9188 -0.541234 1.18001 -3.04585 0.583156 1.41884 -0.386746 -0.0470907 
10.6567 -3.17975 -7.53163 -1.77102 -6.97268 12.9525 -11.9391 -5.1799 -1.33669 1.738 14.214 -7.15013 18.4692 0.0459501 0.74002 0.315005 -3.26183 0.447661 2.81834 0.894325 0.311631 -2.26028 0.172014 0.0714749 1.41146 0.0201063 
11.6864 -3.36133 -7.38044 -4.06754 -6.60715 14.0336 -9.3285 -6.26092 -0.990176 0.363476 13.0519 -3.01136 18.5632 0.341087 0.101717 0.380215 -2.19178 0.330775 0.530316 1.87607 -0.383224 -1.33541 0.557622 0.0594537 1.82049 0.085778 
11.9035 -3.58478 -6.48689 -6.70415 -6.50759 13.3222 -7.25059 -6.51449 -3.29487 2.06813 12.6903 -1.36717 18.7266 0.355536 -0.230059 0.620817 -1.31945 0.0708124 -0.668952 0.907222 0.400973 -0.926448 1.40741 0.100574 0.664738 0.0476856 
11.7339 -3.68181 -6.01221 -6.73312 -6.39655 11.974 -6.68595 -5.59028 -4.37667 5.0085 14.0211 -2.62231 18.7194 0.354442 -0.580369 0.474968 -0.349021 0.305712 -1.445 -0.374262 1.00468 -0.758775 2.12875 0.774335 -0.768725 0.0328766 
12.4106 -4.1698 -5.11166 -7.03546 -6.72392 10.6376 -8.72431 -3.51036 -4.27568 6.45255 14.2323 -4.02097 18.6295 0.0810077 -0.922929 0.763444 0.450927 0.776442 -2.54387 -1.22014 1.2283 0.612966 1.76273 0.212154 -1.06562 -0.0284077 
13.205 -5.97066 -5.69321 -5.64699 -4.97043 8.15096 -10.4629 -2.7396 -4.29364 8.815 16.1526 -5.52809 18.7761 -0.273163 -0.911219 1.15559 1.01439 1.29639 -3.19136 -1.71481 1.4024 1.42343 1.12432 -0.599575 -1.16913 -0.105974 
11.573 -7.055 -2.82917 -4.99259 -3.33845 2.51436 -11.4628 -1.79834 -0.271555 8.97852 12.6853 -5.24237 18.5562 -0.848819 -0.869667 1.77216 1.80797 1.70338 -4.31333 -1.37172 2.30787 1.59111 -0.855085 -2.16141 -0.750802 -0.212402 
10.787 -6.79531 -1.37551 -2.68261 -1.60735 0.0788012 -13.8908 0.565725 0.738428 9.36713 11.7967 -7.85725 18.2262 -1.49236 -0.241973 2.89244 2.01608 1.18941 -5.01766 -0.666876 3.21983 0.651184 -2.35705 -3.15331 -0.014377 -0.275101 
9.37558 -8.10582 1.59029 0.52219 0.111461 -6.89298 -13.869 6.37632 1.16385 1.90106 5.60314 -6.6104 17.8424 -1.8594 0.380543 3.56832 1.73998 -0.133441 -4.32401 0.490011 2.68524 -1.76669 -2.83205 -2.47201 0.690821 -0.212153 
6.84197 -6.65512 6.55926 1.67601 -0.748339 -12.2337 -12.5942 9.27224 -1.75543 0.568486 3.92708 -4.91596 17.7575 -2.37525 0.710511 4.38679 0.695852 -1.56097 -3.03526 1.7126 1.09649 -3.32508 -2.38693 -1.92575 1.81298 -0.0593914 
4.24846 -5.22238 11.0451 1.52799 -4.43516 -12.9495 -9.661 7.27458 -7.85806 -0.782434 4.26003 -3.25891 17.7298 -2.2509 1.1678 4.62078 -0.451796 -2.31832 0.0514794 1.90749 -1.26017 -4.26095 -0.794027 -0.431023 1.25968 0.028797 
1.47426 -4.68447 15.831 0.293748 -7.1389 -12.0693 -7.43174 5.59907 -11.376 -1.22579 2.83949 -0.468105 17.9856 -1.68584 1.39295 3.85159 -1.03997 -1.27166 1.97965 1.21493 -2.11414 -2.99066 -0.0899412 -1.02 0.708221 -0.0663244 
0.804937 -3.25213 20.0583 -1.04566 -8.28485 -6.71779 -6.91277 1.91205 -15.3306 -1.17194 3.99183 -2.53592 17.8724 -1.57997 1.84411 2.61581 -1.06313 0.748402 2.19494 0.606959 -1.58488 -0.74436 0.738094 -1.73437 0.439631 -0.285176 
0.134506 -0.675489 21.3106 -2.23699 -5.1818 -5.45128 -7.8937 1.38283 -12.9724 0.313534 -1.03883 -1.73634 17.3546 -0.802414 2.20632 0.783762 -0.932239 1.75265 1.00337 -0.511607 -0.826971 0.745394 0.596857 -2.08465 0.0122493 -0.536787 
-2.98152 1.99371 21.3843 -2.52227 -1.6717 -5.28377 -6.39523 1.45829 -10.7816 2.13837 -2.47265 -0.426631 16.6194 -1.07056 1.26807 -2.30324 -0.462738 3.55174 1.53297 0.660709 0.233538 1.68978 -0.470812 -1.88001 0.511521 -0.840569 
-0.644588 3.72421 19.0868 -3.62914 -1.68223 -7.76943 -10.2486 1.69109 -9.92354 0.103338 -4.35154 -1.4615 15.9281 -0.837137 1.20464 -1.31311 0.227659 2.25778 0.748389 0.0242678 0.831326 0.159388 -0.939297 -1.01901 0.631273 -0.492047 
-4.15833 0.888369 9.65397 -2.66327 7.72409 2.10612 -2.4318 2.92561 -8.40619 -3.4209 -3.75186 -0.115736 14.3828 -0.60242 -0.120865 -2.34773 -0.792025 1.08404 -0.0980671 -0.138922 -0.225055 -0.448407 -1.62681 -1.06587 -0.344834 -0.385796 
-3.46278 5.90037 20.6103 -1.0282 1.4092 -5.40428 -9.75407 4.8058 -13.3632 -1.60331 -5.49425 1.26458 16.0127 -1.20314 -0.853975 -2.75633 -0.419042 0.779937 -0.191605 0.417506 -0.57726 -0.325596 -0.879193 -0.317183 -0.241748 -0.253984 
-4.58452 0.301305 8.88398 -7.78287 2.20281 -6.95668 -7.33708 -1.22434 -11.3038 -5.14235 -7.23065 -3.51384 14.6482 -1.07552 -0.864777 -3.88737 1.24736 -0.0517657 -0.907165 0.309896 -1.34021 1.64111 0.657104 1.36512 -0.241353 -0.404317 
-6.44722 -0.252128 5.69019 -3.16455 4.9781 -4.19606 -5.70839 0.87977 -10.1027 -3.4319 -4.19806 -0.971188 14.5255 -0.803692 -1.69743 -5.35215 2.19498 0.783574 1.19824 2.08298 -1.07417 3.77246 0.990753 1.38447 0.174947 -0.814885 
-8.04369 -0.35927 -2.32283 4.64169 5.68081 -3.03381 -2.90517 -1.81244 -1.83089 0.778909 2.42563 -0.204617 13.1047 -0.241308 -0.641444 -2.10783 1.84519 0.395491 1.30195 2.90036 1.08227 3.71201 2.06467 1.00317 0.568105 -0.517196 
-5.75165 -2.25648 -0.547095 3.73443 3.58807 -1.37451 -1.55514 -0.270987 0.762588 0.389822 -3.40002 0.484696 12.7099 0.0680142 -0.756317 -0.949937 0.721997 0.209254 0.559531 2.77008 0.0763624 1.76578 1.72567 -0.233055 0.110728 -0.377191 
-6.13885 -1.90374 1.46349 -2.00642 4.87528 -1.85771 5.08808 4.76237 1.82359 3.27012 -2.61383 -1.40126 12.97 0.124442 -0.380096 0.548138 0.274141 0.922189 -0.24399 1.17135 0.0361107 -0.558947 1.47965 -1.24994 0.669986 -0.00401535 
-7.05956 -3.26148 -0.952658 3.76949 6.42714 -1.98646 4.14538 -2.02582 -3.10102 3.95082 -2.8436 0.180773 12.707 -0.343836 -0.30426 -0.767658 0.215239 1.28873 -0.208605 1.83118 0.389648 -0.593409 1.77655 -1.17605 -0.0517572 0.0789439 
-6.76752 -1.75725 0.620639 5.99487 8.87222 -3.94779 0.101322 -0.754473 -2.69382 6.39667 -4.1023 3.29727 13.0862 -0.00110874 -0.599444 -1.6793 0.379373 -0.530184 -0.330102 1.00882 -0.13287 0.954442 0.986255 -1.03382 0.0633232 -0.0926576 
-7.1565 -3.85103 -3.96396 0.809979 8.03324 -1.37249 10.0941 4.43567 0.0542454 7.70932 -8.53602 -2.12336 13.0466 0.555766 -0.208564 -1.25732 -0.26562 -1.46016 -0.771337 0.923734 -0.062525 1.00464 -1.09509 -0.327714 -0.439011 -0.195416 
-6.09592 -4.60618 -5.42733 1.37021 1.42131 -3.8152 7.1578 0.867266 5.01816 6.32215 -4.93673 0.0674229 12.3369 0.498314 0.0449175 -1.0827 0.313815 -1.62364 -0.26683 0.422383 -1.43333 0.375524 -1.27734 0.122781 -0.433405 -0.280312 
-4.61653 -2.87984 -4.21525 4.75372 2.85181 -5.90944 5.23581 -3.14932 -1.93379 -1.48737 -4.06496 -0.399354 12.1045 0.232285 0.718684 0.358524 1.56176 -0.472947 -0.5856 -1.15708 -2.30696 -0.137904 -1.6757 0.60216 1.27904 -0.169642 
-5.54594 -2.01826 -4.66724 5.59207 3.34474 -3.01347 4.6424 -4.12863 0.177821 4.60831 -5.72393 0.268251 12.1556 -0.0533861 0.472045 0.272208 0.970012 1.89229 1.41071 0.575213 0.415587 -0.12141 -0.275805 -0.73525 -0.115747 -0.0257817 
-6.27007 -1.55157 -2.55139 6.50783 4.70679 -4.70136 5.56641 -4.6012 1.7849 0.187722 -5.13162 4.17142 12.289 -0.23118 0.104982 -0.11561 -0.65223 0.421497 1.33867 0.909914 1.65289 1.57521 0.764119 -0.15148 -0.353391 -0.0190663 
-5.53609 -2.91009 -4.89823 5.34321 9.95528 2.63431 9.86856 3.67114 2.55177 4.10558 -8.07965 -2.7967 12.1157 0.447249 0.267241 -0.133726 -0.859655 -0.626701 -0.103109 0.190544 0.810624 0.79366 -0.356364 1.04533 0.366504 -0.0368319 
-5.77736 -1.90901 -4.67781 1.617 1.65403 -2.04 7.1723 1.21526 4.75529 2.58459 -3.6445 -0.633832 12.0291 0.561538 0.621978 1.14473 0.760565 -0.640886 -0.0906541 -2.09806 -1.10665 -0.159154 0.12203 1.32463 -0.274431 -0.0316401 
-3.55605 -0.503332 -4.27266 3.73921 1.73762 -4.85969 4.79217 -2.98374 2.66092 1.62806 -1.24082 4.5034 12.1014 0.610631 0.633406 1.09953 0.975717 -1.22062 -0.687719 -2.27133 -2.42959 -0.483611 -0.180733 0.991699 0.215128 -0.00376263 
-4.4524 0.354941 2.85949 11.1127 5.61119 -1.40763 -2.38569 -6.80699 0.934552 2.03664 -1.92787 -0.85078 12.138 0.283012 -0.117425 0.280854 0.424445 -1.00223 -0.287322 -0.53075 -0.616446 -0.70936 0.52591 0.557501 0.709355 0.0263659 
-3.14541 -0.875038 -3.16924 5.47397 1.87359 -1.12047 3.29091 -4.46566 2.04408 3.47589 -3.97946 -1.61259 12.0425 -0.144808 -1.14259 -0.8225 -1.38667 -2.17394 -0.368299 0.119003 1.51267 -0.84566 0.109114 -0.422499 -0.257662 0.0103544 
-4.56761 -2.31028 -3.82524 2.87185 -3.42511 -5.34622 5.26918 -1.12602 1.51691 4.29023 0.512329 5.97093 12.1904 0.153264 -0.677756 -1.5097 -2.14308 -1.29578 0.194346 0.781102 1.03521 -0.150789 -0.444466 0.500121 0.0831483 -0.0314287 
-4.22248 -4.88367 -5.0428 0.926262 -4.61395 -4.73189 1.55975 1.73912 -1.85856 1.04683 -4.57342 -0.195767 12.1269 0.118721 0.297598 0.208259 0.719137 1.5723 0.738034 -0.0500307 0.217899 0.107649 -0.957141 0.735833 0.421055 -0.0365269 
-3.14754 -1.02952 -3.75222 2.67111 2.37603 1.36981 2.3854 -4.73335 2.13193 1.02884 0.869715 -1.14345 11.9386 0.357218 0.942195 0.619991 2.08401 3.19677 1.30594 0.134981 -0.42046 0.56492 -0.866464 0.211179 0.0403532 -0.0550426 
-3.26184 -0.0274265 -2.16446 9.17002 6.83451 -0.788316 4.48264 -1.5725 2.27482 0.320882 -0.478992 4.04988 11.9858 0.180699 1.07146 0.734444 2.29864 2.73554 0.572902 0.794303 -0.34624 0.840965 -0.215985 0.684015 1.36846 -0.0235144 
