-4.40161 -1.292 -6.30688 2.13385 7.23731 1.08939 4.87971 -5.75965 0.60134 -5.2789 -7.0769 3.40672 12.0705 -0.395 -0.349174 0.225558 0.55115 -0.762933 -0.501283 0.148206 2.05557 1.38126 0.823751 -1.99554 -0.372746 0.0370078 
-5.47676 -2.67881 -6.19264 5.75959 5.93219 1.42898 4.64989 -6.42773 2.71853 0.298499 -10.5674 2.96293 12.2636 -0.286751 -0.603708 0.0993488 0.0421091 -0.763956 -0.612083 1.01374 3.25861 2.67443 1.68914 -0.741801 -1.08693 0.0429404 
-5.83903 -2.34446 -5.23622 3.07674 4.07521 -1.58682 5.73565 4.85223 6.44905 -3.94885 -15.3093 1.76489 12.159 -0.4425 -0.784265 0.0315903 -0.509697 -0.0609874 -0.606852 0.9571 2.19775 2.31886 2.22708 0.698457 -0.315217 0.0205856 
-5.11665 -3.7843 -6.34547 1.87296 4.99858 -0.632924 9.52043 5.22747 11.0496 2.50175 -6.66969 -1.20699 12.241 -0.23835 -0.533999 -0.50387 -1.72359 -0.702352 -0.235943 1.20501 1.56916 1.20151 1.01993 1.91129 1.41313 -0.0323086 
-6.79416 -4.66057 -6.07252 1.52868 7.39918 -0.913924 7.22994 -0.598481 8.03008 4.75489 -5.53349 3.9156 12.1847 -0.0158052 0.11846 -0.75863 -0.544261 -1.56729 -0.149966 0.865132 -0.828653 -1.13606 1.88475 1.99789 1.71054 -0.02356 
-6.19094 -4.19074 -8.29384 -2.08434 0.758446 -0.0871879 9.92778 4.14344 7.93558 1.04627 -5.8989 8.9532 12.0892 -0.0834527 -0.0242548 -0.218133 -0.0185377 -1.71072 -0.300074 -0.611528 -0.210116 -1.49073 0.874001 0.0170924 0.684855 -0.00218954 
-5.38091 -1.54894 -8.05518 2.33408 -1.64115 -2.60952 9.85764 1.25098 2.32578 6.20264 -5.7053 5.23749 12.1171 0.082183 0.107838 0.230224 0.265839 -1.0997 0.364415 -0.0154868 0.448949 0.248538 0.272268 -0.024127 -0.721097 -0.0176963 
-6.24054 -5.46139 -6.44481 1.37757 0.965134 -1.2855 5.14894 3.25216 6.44815 6.14788 -6.49832 1.55634 12.2638 0.372053 0.288189 1.32596 0.556561 1.24109 0.647495 0.311055 0.243331 1.55405 -0.214283 0.409152 -1.6821 -0.00105972 
-6.35845 -3.48606 -5.84591 1.12692 1.79731 1.50731 9.54192 2.09191 10.0165 3.56542 -5.35441 4.00854 12.0089 1.69249 2.25277 2.8601 -0.00712986 2.42544 0.237022 -1.42305 -1.11065 0.94522 -3.28294 -0.308788 -0.655136 0.234764 
-3.84191 -1.78124 -2.76868 1.30205 5.24466 1.09187 11.6409 4.93963 11.8605 1.29346 -4.02858 1.15715 12.138 2.61308 3.8022 3.11621 -1.15078 1.3235 -0.0745304 -3.29359 -1.26745 -1.14433 -4.07466 1.51358 0.518692 0.615302 
1.88222 7.87482 4.40726 2.33619 8.34628 -2.61309 -0.503579 -5.14599 4.34572 -7.78485 -8.48411 2.1614 13.3539 2.68036 2.85645 3.55363 -1.77581 -0.103963 -0.591595 -4.3371 -0.155316 -3.92328 -3.41588 2.56377 0.0451767 0.889737 
2.70451 7.86918 4.00964 -4.98097 4.30814 0.402053 -6.29626 0.533838 3.56186 -8.55031 2.63444 5.07337 14.6679 1.46654 1.48709 3.02048 -1.93865 -1.3664 0.164074 -3.60614 0.261268 -4.08211 -1.66278 2.92725 0.351471 0.952575 
3.77015 5.97099 8.53307 -4.61061 1.74576 -1.10576 -3.17497 3.51822 -5.45061 -8.59208 4.13295 2.27632 15.1927 -0.0629179 -0.467335 1.97082 -1.27013 -1.32574 0.742166 -0.649882 1.37914 -1.92963 -0.207286 2.91987 -0.871233 0.769065 
2.54683 6.60614 10.2708 -4.91778 1.71293 1.15858 -5.05409 1.91387 -3.65189 -6.61682 4.29913 2.85705 15.9814 -0.618037 -0.05757 2.18714 0.336518 -0.692129 -0.277251 -0.0287722 0.862331 -0.462011 -0.22446 0.693615 -2.01735 0.569885 
1.64647 6.16967 11.1308 -4.04606 3.01521 0.719475 -4.37408 1.05968 -1.69553 -9.78801 5.28288 -1.0866 16.5424 -1.06932 0.387205 1.35672 1.249 -0.330895 -0.865762 -0.906158 0.478896 1.19343 -0.117272 0.466936 -1.65905 0.439334 
0.676163 7.48199 13.6465 -3.58065 0.21277 -1.89682 -5.84057 6.07476 -0.625738 -9.07463 5.52755 -3.33194 16.8424 -0.921886 0.421582 1.11341 1.32246 -0.642389 -0.989651 -0.290976 0.8219 0.377556 -0.630115 0.423405 -1.44373 0.280145 
-0.64114 7.46909 13.6288 0.965845 0.841366 -3.90687 -7.31251 3.83225 -0.996544 -7.94953 5.85342 -2.92441 16.9588 -0.91316 0.305057 0.841766 1.07993 -0.842871 -0.105722 0.291356 -0.125729 -0.129177 -0.658747 -0.121213 0.135088 0.22499 
-0.918797 8.06434 14.5888 -0.811417 -0.412097 -1.47651 -5.03975 4.63708 -2.11361 -10.6866 6.13088 -3.44272 17.1739 -1.07745 0.328966 0.175948 0.412328 -0.0110095 0.149263 0.951044 -1.12667 -0.0888123 -1.0254 -0.498695 0.0690341 0.283798 
-2.12185 7.40378 14.8685 -0.0310388 -0.886715 -0.0192944 -3.3177 1.14988 -1.59748 -12.2757 4.37514 -0.355773 17.5016 -0.580613 -0.180135 0.548002 -0.453078 -1.00502 0.828146 0.69821 -0.499185 -0.12237 -1.11797 -1.17937 0.285542 0.332192 
-3.97071 9.15947 13.9064 -1.02057 1.02176 -3.0943 -3.08275 1.7826 -0.769333 -12.0385 3.77321 -4.27109 17.99 0.156682 -1.3709 0.583103 0.180195 -2.32721 1.13919 -0.325789 -0.892981 -0.361451 -0.092108 -1.41456 0.681332 0.332813 
-2.01825 6.02085 16.71 -1.19497 -4.90066 1.04275 -4.79996 2.76357 -2.28053 -12.8634 1.13541 -1.08252 18.2117 1.16746 -2.46801 0.0472988 0.47056 -3.90999 0.486472 0.142144 -1.0977 -0.759384 0.779673 -0.438172 0.0476682 0.297103 
-0.187188 1.90128 16.5835 0.671523 -10.0412 3.68841 -5.92756 -0.634668 -3.57934 -10.8533 0.677953 0.327315 18.4829 1.8662 -3.55926 -1.12846 1.6804 -4.48949 -0.792858 0.594917 -0.822061 -1.66889 1.00543 1.71281 -0.138783 0.279948 
1.82371 -1.30717 13.7664 1.47571 -14.9052 -0.978285 -1.18458 -3.12998 -3.9894 -8.96997 3.73191 -2.41664 18.7407 1.85713 -3.2654 -3.33902 2.56167 -2.20221 -3.90234 0.757045 0.544538 -1.36853 0.813753 2.73819 -0.233178 0.22367 
3.43929 -4.97283 9.73595 6.04607 -16.4234 -6.04807 -1.91586 0.61907 -8.25935 -8.95813 11.039 -4.29795 19.1253 1.72693 -2.19793 -5.0112 1.92419 0.53734 -4.07314 -0.6286 1.19713 0.525923 1.49959 0.946353 0.104051 0.031612 
5.45418 -6.8691 3.43874 8.92612 -12.7206 -13.6007 -3.02059 4.85939 -6.78319 -9.74227 9.64582 0.06422 19.0089 1.88284 -0.900003 -6.30919 0.987103 2.96274 -2.0452 -2.51467 -0.547756 2.43607 3.28357 -0.545837 -0.737014 -0.104047 
6.63224 -6.30743 -3.30862 6.56727 -8.44678 -10.3661 -8.15256 1.35629 0.447176 -2.96925 2.45276 -0.392858 18.5069 1.77791 0.41339 -6.31363 -0.855392 3.32014 1.02702 -2.38723 -3.53102 3.00233 5.25875 -0.59347 -1.94764 -0.0958326 
9.64145 -5.13989 -11.2573 6.15063 -4.07981 -9.04528 -10.6396 -6.23737 3.83767 4.45342 5.29585 -8.05425 18.5296 1.40476 0.870312 -4.77021 -2.37483 1.97559 3.58615 -1.51859 -4.87029 1.25919 5.40199 1.68694 -2.98552 0.0582386 
10.2352 -3.77049 -14.4842 3.15686 -4.14313 -3.19069 -10.0425 -11.4877 1.44189 10.2378 10.2466 -9.97693 18.8858 1.1296 0.603037 -2.53413 -2.95784 0.726123 3.54722 0.0857302 -3.52755 -0.803454 2.86517 3.56813 -1.87148 0.194157 
10.6765 -3.78601 -14.8245 -1.24282 -4.99448 0.742368 -9.66854 -13.0701 -0.984621 10.6642 14.1836 -10.0713 19.1106 0.604812 0.468306 -0.565865 -3.53949 0.446979 3.11065 1.0066 -1.89161 -1.64337 0.933201 2.95854 0.177306 0.185026 
11.7627 -3.96918 -14.1956 -4.52521 -4.35884 2.47618 -8.20942 -12.8651 -1.15895 8.25122 15.8495 -8.74173 19.1872 0.428863 0.269303 0.116317 -3.13961 0.879313 1.58068 0.632996 -1.00558 -1.32018 -0.177986 1.50745 0.412976 0.0797977 
11.9018 -2.69901 -14.2309 -7.70578 -1.73707 3.67454 -6.52312 -15.0067 -3.07874 10.1127 17.2871 -7.78532 19.3041 0.144927 0.248216 0.465621 -1.70278 1.08776 0.835916 0.0183205 -0.53583 -0.558087 0.314756 0.278419 -0.0631685 -0.0142315 
11.7669 -2.96748 -14.1994 -9.30969 -1.37527 3.24661 -8.45026 -15.5473 -4.11196 9.62358 16.2321 -9.05506 19.1881 -0.31351 -0.138071 0.653949 -0.0605224 0.648701 0.121766 -1.52127 -0.0315285 -0.0416016 0.637513 -0.681708 -0.874641 -0.100006 
11.399 -3.04578 -12.4945 -7.3645 -1.04746 4.53673 -9.45652 -14.4081 -2.29855 11.5518 15.3844 -10.2305 19.039 -0.530775 -0.521346 1.27711 1.49493 0.512683 -1.29929 -2.37364 1.4423 1.13175 0.444891 -2.09989 -1.28445 -0.182228 
10.4465 -4.48615 -11.7941 -4.99847 -1.46014 2.65391 -14.3491 -13.3221 -1.75705 10.7192 13.3924 -11.8923 18.8197 -0.867075 -0.485845 1.80103 2.48897 0.619573 -2.5472 -2.63248 2.62328 1.77342 -0.462254 -3.10607 -0.729054 -0.200391 
9.90807 -4.54641 -9.04801 -2.38673 0.868779 -2.52558 -15.4419 -8.90781 1.40254 11.7893 8.20751 -12.7889 18.5771 -1.20519 -0.623453 2.68834 3.00191 -0.00884357 -4.03371 -1.27581 3.62203 1.17858 -3.16716 -3.88766 1.32809 -0.213876 
8.17701 -4.64639 -6.91754 0.646276 0.764474 -5.95825 -18.62 -5.18103 2.90458 7.19354 4.29023 -11.4211 18.417 -1.76428 -0.271305 4.40392 2.84263 -1.644 -3.13482 1.74603 3.77474 -1.1969 -4.87071 -2.80522 2.8982 -0.0618324 
6.50785 -6.08293 -1.49107 4.82266 -2.20398 -11.3258 -13.7002 -0.36851 1.26353 -2.52118 0.49714 -3.82567 18.171 -2.20975 -0.0384607 5.69394 1.94591 -4.09313 -0.0708643 4.13405 2.01392 -3.93779 -4.93068 -0.834345 2.43055 0.171006 
3.32524 -5.07441 6.44707 5.60998 -8.14377 -8.6201 -6.48982 1.28196 -7.67206 -6.47904 3.22146 -1.88298 18.7136 -2.28978 0.91681 5.75895 0.16422 -4.10374 2.8941 4.50871 -0.0617579 -3.56967 -3.6672 -0.310574 1.60929 0.260712 
1.28523 -4.5247 12.7394 4.86096 -15.1428 -1.54897 -0.836697 -2.06971 -12.9981 -6.02777 4.57018 -5.40525 19.2839 -2.11614 2.09189 4.19899 -1.30277 -2.18935 4.62683 2.24696 -0.670878 -1.48204 -2.22565 -0.762608 0.190244 0.232689 
-0.66059 -0.841457 14.762 1.44823 -13.2848 3.62384 -2.50815 -4.63922 -7.81296 -9.38917 0.700836 -2.58488 19.1641 -1.53956 2.40961 2.1651 -1.62151 0.528222 3.29486 -0.0910178 0.172533 1.66726 -2.08113 -1.99007 -0.0475292 0.0446993 
-2.07995 2.26004 15.3464 0.389677 -10.5802 5.68644 -4.45616 -0.762309 -6.0762 -12.1943 -2.05559 -2.5235 19.1091 -0.997257 2.32265 0.833965 -1.19678 2.04687 0.977846 -1.30275 2.22262 3.01829 -1.78536 -1.91094 -0.329237 -0.123369 
-2.68997 3.58125 15.969 -0.261907 -7.78393 4.23651 -5.13518 1.49093 -2.79669 -13.8014 -3.41603 -3.5615 19.0245 -0.38631 1.42563 0.200224 -0.759829 2.2415 0.0911968 -0.636901 2.50088 0.958154 -0.117725 0.134585 -0.875351 -0.174496 
-2.68637 4.87721 16.3057 -0.267855 -7.65885 3.03392 -6.03693 5.97832 -0.414793 -12.7485 -2.9261 -6.56312 18.7369 -0.113053 0.786521 -0.40075 -0.523735 2.47053 -0.00550008 0.0638695 1.02123 -0.473291 1.26581 1.62532 -0.674621 -0.226022 
-2.28893 4.97813 15.2835 -2.02215 -3.538 5.40608 -4.90227 4.49485 -5.85289 -9.70074 1.80901 -4.94182 18.4778 -0.0984906 0.653431 -0.222985 -0.429874 1.94201 -0.167982 0.696317 1.29518 -1.55024 0.728577 1.52507 0.50404 -0.241135 
-2.84574 5.49421 13.6855 -1.34888 -0.350553 5.07416 -4.25327 2.84188 -6.91455 -7.91561 3.45851 -5.20644 18.2524 -0.0719556 0.456795 -0.124573 0.0410751 1.77255 -0.367365 0.127011 0.909309 -0.793044 -0.688217 1.22112 0.406883 -0.202902 
-3.10274 6.53991 16.1642 -1.87077 -1.72801 2.37648 -2.54543 9.53504 -7.29799 -12.5749 1.01703 -1.71963 18.0611 -0.000904751 0.420059 0.22957 0.286958 0.834083 -0.519684 -0.4507 0.802531 0.427923 -1.72369 0.446065 -0.483326 -0.169101 
-2.63925 6.3803 15.2424 -0.13817 0.298918 2.7119 -6.5803 8.00477 -3.65746 -14.7524 3.57552 -6.1398 17.9307 0.150542 -0.00610256 -0.21481 0.283653 1.11091 -0.240762 -0.659462 -0.154106 0.00986319 -1.51823 0.0755733 -0.199369 -0.13852 
-2.3967 6.63538 15.6528 -1.19271 0.307676 3.98879 -5.99226 5.92606 -5.34182 -14.9008 3.98083 -6.89177 17.7931 0.17623 -0.181497 -0.46112 -0.00384164 1.22427 -0.616072 -0.999775 -0.456925 -0.404082 -0.164787 -0.556744 0.392933 -0.0909378 
-2.44604 5.41596 12.8671 -0.269642 4.18616 3.06419 -5.82716 3.87584 -7.84332 -14.3438 2.35447 -3.61722 17.6938 -0.129979 -0.107397 0.0564543 -1.26411 0.735929 -0.810082 0.277822 -0.652943 -1.37362 0.978355 -1.58373 1.99972 0.0083662 
-2.31819 6.11459 15.0463 -1.82424 2.44972 -0.880027 -7.92087 9.31488 -7.22547 -13.6032 -1.15617 -1.01626 17.7249 -0.565817 0.350178 -0.0346428 -1.11202 -0.456176 -1.22972 0.294715 -0.963209 -0.463495 1.78691 -1.91598 1.84618 0.0807436 
-3.3284 6.1037 15.828 -6.14298 2.90754 1.0959 -4.22688 3.04565 -9.58373 -10.5095 -1.7746 0.921064 18.0067 -1.00775 0.251912 0.483516 0.176717 -2.77177 -1.23267 0.350816 -2.25022 0.616965 2.30116 -1.81449 1.40932 0.185985 
-4.78461 8.0424 13.9992 -3.81617 -1.33389 -1.17565 -5.31882 1.52511 -6.78909 -7.88343 -3.53452 0.0699606 18.0403 -0.526246 -0.740169 -0.664197 1.21813 -3.50878 -1.26075 1.47503 -3.59489 0.338207 2.85395 -0.691496 1.26833 0.14313 
-6.2516 5.71162 15.8082 1.60991 -7.78086 -2.95135 -5.3741 -3.48036 -4.97669 -5.69792 -5.52881 2.88628 18.4659 0.444885 -1.8603 -1.38609 2.30205 -3.80449 -2.71964 1.38775 -1.54087 -0.723108 3.25474 0.63681 1.09943 0.072682 
-3.48782 2.60979 11.7352 0.389984 -9.75 -5.16017 0.0279016 -5.39655 -7.83795 -1.73921 -2.73655 4.34278 18.2109 1.32018 -2.7258 -1.84663 1.3701 -2.18106 -3.99665 1.82943 0.741285 -1.44374 2.82227 1.76917 1.48392 0.025111 
-1.75237 -0.481514 10.0295 3.2642 -11.9069 -10.51 0.038507 -1.19787 -12.6748 2.69214 1.01046 4.28181 18.2848 1.8772 -2.46901 -2.84893 0.376518 0.055587 -4.43213 0.340341 3.15409 -0.72171 1.73082 1.84621 0.751297 -0.135666 
-0.433346 -2.49005 7.65539 2.20717 -10.1762 -17.3795 1.12203 4.09029 -10.1587 2.03289 2.04169 6.79182 18.2564 1.74502 -1.63116 -3.55474 -0.032155 1.55434 -3.10769 -2.3725 3.2825 2.07356 1.48699 0.170963 -0.612416 -0.187346 
1.60715 -4.08349 3.60346 2.5839 -7.28982 -19.0023 -4.21946 7.54668 -7.42487 1.07013 1.31312 5.41824 17.7648 1.64197 -0.585383 -4.37871 -1.62319 2.91255 0.14878 -3.08504 1.07815 3.2158 3.20313 -1.32333 -2.53851 -0.24447 
3.55753 -3.74502 -2.82552 0.569358 -4.28684 -16.4525 -9.70559 6.64366 -0.0951262 6.50673 -2.03306 0.712482 17.5341 1.26266 0.100931 -4.07903 -2.25935 2.75839 3.15505 -2.71852 -1.31313 2.40686 4.67159 -1.07239 -3.45298 -0.297331 
4.46202 -2.78094 -6.62355 -4.03285 -0.288772 -10.2297 -9.9729 2.91619 -1.62765 16.4709 -3.5688 -5.37105 17.4236 0.611856 0.57869 -3.2891 -2.37687 1.0224 3.97655 -0.924633 -3.02813 2.48008 5.58357 0.693068 -2.77699 -0.32599 
4.4525 -2.63667 -7.62626 -5.78122 0.11522 -5.99062 -9.59386 -0.160128 -1.02301 17.6905 -0.879292 -5.07845 16.9404 0.764403 0.628586 -2.1987 -1.57796 -0.158173 2.85448 1.66707 -2.77038 0.710042 2.54787 1.83821 -0.349633 -0.34243 
4.21894 -1.74422 -10.4417 -6.12515 -4.37887 -4.35047 -8.89849 -4.1921 5.43946 23.3961 4.20158 -5.57125 16.4318 0.446024 0.77833 -1.24236 -0.775675 -0.480823 2.17444 3.03086 -1.68811 0.540634 -0.635464 1.82449 1.92299 -0.442014 
7.50109 -1.12045 -11.91 -6.27428 -3.03265 -5.11969 -1.90743 -3.65412 -0.0784678 15.7835 3.27283 -0.935582 16.3179 0.507853 0.210429 -0.192923 -1.57553 -0.0117455 1.21706 2.78193 -0.208636 -0.217289 -1.5747 1.11035 1.91907 -0.193166 
5.16785 0.352599 -10.6935 -7.66469 -1.11895 0.207066 1.3382 -3.77735 0.603251 14.247 3.4776 2.17249 15.5248 -0.658829 -0.600163 0.27616 -1.46799 0.889494 0.923181 2.13678 1.48054 -0.46028 -2.24708 0.12838 1.97342 -0.321095 
6.51731 -2.63293 -8.46497 -12.8891 -1.57347 -2.18407 -0.802566 -1.41068 0.30865 14.3915 5.03445 0.64504 16.428 -1.12329 -0.457426 -0.108363 -0.383483 1.1693 2.16601 0.449935 1.15525 -1.23161 -1.02389 -1.06372 0.566942 -0.236616 
1.41669 -3.98879 -10.7834 -10.1577 -0.660991 -1.20237 1.23296 2.08889 2.9445 12.8567 3.96266 3.50554 14.7712 -1.58367 0.57674 -0.96996 1.26635 0.137922 1.94886 0.465085 0.627471 -0.276524 -0.361296 -0.764496 1.0276 -0.421594 
3.76022 -1.23689 -12.4069 -6.94518 2.58489 6.41509 0.394867 -0.810963 -7.40716 11.3592 -2.28828 1.2326 15.5116 -2.94672 0.639866 -0.965572 3.09218 1.07266 1.5879 1.05556 0.418592 1.07409 -0.356777 -2.32852 0.981008 -0.716711 
-1.37194 2.53828 -13.5723 -4.30489 -2.50852 5.6518 3.06491 -0.939853 3.07853 13.9567 3.31648 7.0167 13.875 -2.44261 0.936663 0.340535 3.01263 1.96707 1.82673 1.41433 0.551854 1.00607 -1.9145 -2.96849 0.984007 -0.472309 
-6.82199 -2.69714 -11.8983 -0.354595 4.71361 2.32834 3.55927 2.19665 5.6121 12.0576 -6.28505 3.7945 13.2926 -2.4816 0.285505 1.22689 2.77959 2.64726 0.756637 1.87012 0.0263582 2.22271 -2.36035 -1.80277 1.13551 -0.461877 
-5.50526 1.42465 -9.33495 1.61016 8.11002 9.97464 6.72241 3.34436 1.4652 2.93498 -8.88139 7.14463 13.5192 -0.417525 0.0387712 1.37771 1.44643 2.58727 1.0533 1.61575 -0.476001 0.341676 -2.91759 -1.60622 -0.0628486 -0.0654762 
-6.58113 0.747452 -8.3911 3.99526 10.5119 8.03685 7.91674 -2.82128 4.51305 5.06829 -5.20318 6.84617 13.3802 1.27731 0.733205 0.659138 0.25193 0.397457 0.862999 2.13378 -0.551372 1.21678 -2.30081 0.831276 0.637283 -0.0115395 
-3.57999 1.00984 -8.43743 0.752319 7.52867 8.06405 8.96492 -0.810895 5.33644 2.86343 -5.25555 5.17663 13.5039 1.25084 -0.424626 -0.00876992 -0.202505 0.229609 0.747707 2.69377 0.766729 0.19778 -1.38053 1.02185 0.113876 -0.0945625 
-1.3981 1.17629 -9.05142 1.33398 6.99157 7.59863 13.1069 1.51741 9.76039 0.589341 -3.94159 7.96492 13.2426 1.24516 -1.14199 -0.915711 -0.430057 0.835439 1.28338 2.3373 1.81961 -2.53941 -2.13853 -0.255421 -0.125274 -0.113996 
-1.84257 -0.912898 -9.04864 1.92828 11.0182 13.9323 17.5962 5.00866 -0.169576 -1.72819 -4.40294 7.15463 13.1152 0.15084 -1.01544 -0.00573547 -0.275197 0.546613 0.0324502 1.38479 0.810769 -1.96062 -1.4899 -0.849736 -0.0627868 -0.158778 
-1.22404 -4.00114 -12.664 1.257 12.9443 11.5196 15.2876 3.36698 -5.43097 -3.32858 -6.90659 5.23079 13.0045 -0.789636 -0.976907 0.0613697 -1.3262 -0.850229 -0.758287 -0.426708 0.0829646 -1.5815 -0.285989 -0.760203 -0.779818 -0.148611 
-2.91282 -1.47867 -6.65979 -0.585175 7.28536 6.26581 14.7986 2.31817 3.12902 -2.62712 -8.02173 6.22975 12.829 -0.960137 -0.516469 -0.608708 -2.37641 -2.51099 -2.07706 -1.92126 -1.8544 1.49037 0.16802 -0.309268 -0.0104733 -0.164214 
-4.81115 -3.42536 -9.93899 -4.04028 4.60686 7.64044 12.3722 3.27748 0.203596 -0.391135 -5.93321 4.52827 12.6426 -0.995532 -0.31745 -0.276486 -1.95491 -2.81359 -1.43485 -1.4534 -1.21321 2.64198 1.29354 0.500338 0.681493 -0.172261 
-4.84969 -3.78313 -13.4547 -7.30512 2.63203 5.48658 9.44759 -4.21861 4.46499 -2.35681 -6.43597 7.45353 12.4751 -0.191433 -0.548021 -0.386473 0.413751 -0.572766 -0.254136 -0.546338 0.250204 1.39566 1.24752 1.20347 0.172988 -0.113111 
-5.23326 -4.43616 -10.649 -5.15756 1.20305 4.73498 10.6961 0.569299 7.11097 3.00396 -5.19778 8.02637 12.3202 0.0609078 0.114375 0.732341 1.85275 0.998729 -0.298572 0.940111 0.773249 0.80625 -0.249992 0.139205 -0.312126 -0.0627506 
-3.65893 -3.71337 -8.23714 2.04222 6.12344 6.44786 12.9049 4.92328 6.65365 1.91291 -2.37211 5.34564 12.4247 0.249421 0.503724 1.78159 3.11975 1.87992 0.158377 1.66743 1.71885 0.687648 0.647752 -0.414372 -1.27479 -0.0606151 
-5.10199 -2.88837 -8.88607 0.549812 7.8548 5.66694 15.3441 2.57278 3.14052 -3.77596 -7.26911 4.02158 12.3541 0.193284 0.891358 1.87132 2.69411 1.85838 -0.237996 -0.0214318 -0.0134053 1.16352 1.14994 -1.38333 -1.41204 0.0109157 
-3.66822 -2.03841 -5.42824 5.43996 8.70577 5.81249 15.4607 3.3739 9.88846 4.27191 -7.47216 3.08195 12.1551 0.312346 1.03069 1.7999 1.35906 0.288266 -1.16712 -0.578619 -0.514086 0.489643 1.90981 -1.75589 -1.02889 -0.0104437 
-4.2622 -0.816853 -2.69689 6.61414 9.20376 3.86268 9.311 1.27696 11.3111 7.57417 -9.5644 2.09801 12.5096 0.681949 0.261808 1.96732 1.60265 -0.822549 -1.67442 -2.3278 -1.58061 -0.219428 1.19917 -0.96527 -0.801472 -0.012661 
-2.5171 0.404313 -2.33223 5.80537 6.89029 1.51436 13.0284 3.00076 5.01655 5.78692 -10.0039 1.16299 12.2947 0.665044 0.464967 1.46016 1.1519 -1.07453 -1.20106 -2.0082 -1.78322 -1.43543 -1.00114 -0.212653 -0.402955 -0.00675335 
-2.26781 -2.80069 -0.597477 8.38034 4.6498 -0.556108 4.92127 -5.14369 4.47933 1.46237 -10.8296 0.973704 12.2209 0.486475 0.404803 0.731827 1.53991 -0.605001 -0.783241 -0.968266 -0.72318 -0.900644 -1.19302 1.60657 0.577319 -0.0604538 
-1.3402 1.27834 0.822872 10.3164 5.61009 2.0166 7.61461 -2.33188 6.12722 2.32212 -7.90283 1.62933 12.2656 0.0984846 0.283575 -0.352598 0.257117 -0.102783 0.147504 -0.78372 -0.169267 -0.426282 0.93834 1.81428 1.41275 0.00887413 
-2.41828 0.770145 -0.615308 12.0582 6.81886 -0.304639 7.17655 0.327379 6.25259 3.34145 -2.58207 4.75143 12.2218 -0.0989159 0.384339 -1.09629 -1.07109 0.478706 0.384813 0.953608 2.21314 0.309853 1.39703 2.16276 1.63048 0.00879364 
-1.94944 0.0367732 -4.0863 5.25202 5.29184 2.12615 7.98213 -0.581113 1.99851 9.53908 -5.05627 6.33787 12.3386 -0.296934 -0.362117 -1.07146 -1.21711 0.932991 0.0608012 0.416625 1.72169 0.717271 1.1859 1.71549 1.12004 -0.0264771 
-2.45777 -0.258206 -3.62436 5.55703 7.20245 1.31318 9.50554 5.04663 8.09295 4.83906 -1.43905 6.77185 12.2284 -0.162937 -0.163126 -0.377278 -0.692427 1.13202 0.301821 0.326447 1.16772 1.18765 0.628645 1.05297 0.281721 -0.0392478 
-2.80512 -0.0180657 -3.0299 7.48139 10.0833 1.51169 8.53323 3.91694 8.79339 7.50281 0.103103 6.21931 12.1299 -0.205872 0.0130462 0.270726 0.638308 1.24636 -0.10304 0.0129901 0.786643 1.42902 -0.140878 1.18609 -0.0789649 -0.0515828 
