-9.27326 -5.95014 -7.6722 2.68749 3.32094 0.078512 7.89472 -0.663481 12.3192 7.06242 2.128 10.5611 12.0179 0.473514 0.0935192 0.042507 -0.631514 -0.377611 -0.482011 0.653771 0.936365 -0.346395 0.536977 -1.18078 -2.24918 -0.0143274 
-7.74917 -5.49371 -6.23614 1.67055 0.465269 -4.08466 9.7991 0.940659 6.90246 6.14428 -3.20272 4.97229 11.9234 0.551982 0.159712 -0.0405848 -0.826886 -0.914815 -0.521059 -0.128039 0.550914 -0.495842 -0.189923 -0.682449 -2.37045 -0.0160686 
-7.66774 -5.71075 -8.1777 0.0383906 2.86072 -0.249954 10.2114 3.21627 13.2955 10.2064 -1.11057 2.10956 11.9936 0.560795 0.326191 -0.118661 -0.231481 0.165218 0.538045 -0.0514293 0.439471 -0.717486 -0.857612 -0.121215 -0.157668 -0.018891 
-7.31612 -5.27127 -7.62238 -0.122394 -1.02303 -2.36255 6.09619 0.151212 9.35176 4.54083 0.33503 2.9346 11.9498 0.426926 0.0268419 -0.379837 0.543878 0.317943 0.101152 -1.08631 -0.993687 0.229601 -0.187254 0.473686 1.57078 -0.0251092 
-6.68582 -4.4304 -7.57239 2.42655 4.89118 1.90768 9.48903 1.9286 7.50707 3.57609 -0.246957 10.7916 11.9103 0.173877 -0.0748308 -0.185584 0.937186 0.0868226 -0.223468 -0.777616 -1.0714 -0.569405 -0.860714 -0.0331757 1.64782 -0.0257885 
-6.1055 -5.99967 -8.43798 3.19585 1.03976 -4.65772 4.72875 -3.38394 10.9447 8.52315 -1.2661 8.48516 11.8395 -0.102019 -0.144394 -0.529366 1.0184 0.516308 0.553807 -0.037286 0.23752 -0.551148 -0.299224 -0.57951 -0.205165 0.0151188 
-7.40366 -5.7207 -8.69782 3.0652 2.26344 -0.219709 7.00702 -0.373154 9.65203 3.91165 -0.475881 7.57341 11.9198 -0.215986 0.0293036 0.000744867 0.171098 -0.074776 0.19505 0.663824 0.788992 -0.0739239 -0.682743 -0.582098 -1.69307 0.0405191 
-7.46729 -5.34808 -9.70649 4.65028 2.87238 1.47018 7.15076 2.48969 5.52354 2.87693 -2.44806 3.51787 12.0206 -0.221153 0.608159 0.524837 -0.337282 0.261679 1.78051 2.871 1.95193 -0.449807 -0.764235 -1.43635 -1.57369 0.0359646 
-7.08485 -4.60968 -6.93441 2.55483 3.60099 -0.181016 11.5971 2.93674 9.84803 2.98548 -2.56647 4.8099 12.0223 1.12437 1.82303 1.76876 1.09521 1.83009 0.972345 0.965432 0.135837 -0.854086 -1.00965 -1.67973 -2.05578 0.0600653 
-7.37067 -3.51439 -6.6955 1.76463 1.67938 4.22548 16.7887 4.72074 8.59766 5.16506 -7.40254 1.99845 11.968 2.66322 3.65425 3.86802 0.0727473 0.623983 0.27821 -2.6153 -0.964191 -1.5691 -2.60425 0.160139 -1.4467 0.425533 
-1.83014 2.47759 -1.3595 9.98407 12.0104 3.26436 7.0152 -0.809496 3.84455 -2.28069 -6.39731 -1.94579 12.2464 3.01672 4.31315 4.1705 -0.690823 -0.744516 -0.00526379 -4.68448 -1.51017 -2.97571 -4.10777 1.50949 -1.60196 0.714369 
3.22146 9.37951 6.84617 1.2994 1.78758 1.13854 -3.63475 -0.45815 0.679778 -7.51121 0.26806 -0.337785 14.0362 2.05131 3.77764 3.75857 -2.08473 -0.798916 -0.986903 -4.92402 -0.663722 -2.42371 -4.82371 2.80231 0.230414 0.900299 
2.70269 10.5091 7.14728 -0.666666 -0.175694 1.33613 -1.61351 -2.02466 -1.0716 -11.2152 1.14568 -2.0318 14.5601 0.109197 2.02669 2.18943 -2.64555 -1.4914 -0.65744 -2.47024 1.08119 -1.36913 -3.10129 1.65939 1.27136 0.806827 
0.61945 11.358 7.84398 -3.33366 3.77786 0.255077 -3.51705 2.00971 -1.06283 -14.4862 2.83753 3.19353 15.3127 -0.951339 0.700771 1.18348 -0.440155 -0.209937 -0.443239 -0.668769 1.66078 -0.00600624 -1.44303 -0.219124 0.243131 0.512803 
0.0168543 11.6217 9.08874 -0.927153 3.55826 0.418895 -5.39483 3.36254 -2.12978 -14.2996 0.614901 2.64537 15.6423 -0.687885 0.42689 1.17753 -0.330124 -0.335935 -0.191465 -0.729273 1.10313 -0.195309 0.804136 0.300575 -0.708214 0.419863 
-0.192311 12.327 11.7929 -0.771134 -1.12908 -0.61904 -5.08793 5.15217 1.17884 -13.1842 -0.562173 -1.46071 16.0591 -0.261835 -0.0633215 0.740999 0.113301 -0.937565 -0.0495481 0.0714581 0.0109386 -0.75626 1.85728 0.0646861 -1.09886 0.281591 
-0.330853 12.1591 11.0605 -3.59855 0.598099 0.815868 -4.47444 1.91974 -3.16898 -7.84556 4.3484 -3.24575 16.2862 -0.179122 -0.550475 0.669233 -0.446078 -0.987884 0.715291 0.548163 -0.337954 -1.06227 0.805071 0.809752 0.0421414 0.304732 
-0.51587 10.7728 10.5631 -1.43146 0.570112 -0.19115 -3.61996 2.78581 -4.32454 -8.42686 1.29421 0.64476 16.3987 -0.337152 -0.87788 0.698262 -0.410248 -0.00232134 0.507327 -0.0665445 -0.792921 -0.103665 0.337713 0.382109 0.0572994 0.371601 
-0.716974 9.64651 13.0498 -2.82738 -2.23075 3.7814 -3.388 2.85595 -4.68944 -12.6529 3.73547 1.80334 16.9962 -0.1296 -1.37025 1.19478 0.0714941 -0.95368 0.848875 -1.12439 -0.0209517 0.95741 -0.473227 -1.12198 0.495334 0.450761 
-1.68501 9.19391 14.2895 -3.20796 0.273736 0.434825 -5.96387 0.719459 1.42075 -9.09192 1.65484 -3.69876 17.5621 0.28848 -1.94956 1.25273 0.219923 -1.96717 0.839989 -1.34609 -0.569472 0.635719 0.205285 -1.02749 -0.174987 0.451756 
-0.394285 6.09723 15.1712 -2.35283 -4.02211 4.74726 -8.92442 2.84815 -1.25457 -9.87917 -1.44184 1.40268 17.9583 0.842814 -2.61025 0.335801 1.05423 -2.64805 -0.6059 -0.189246 -1.04301 -0.463547 0.971138 -0.559052 -0.274074 0.296662 
0.765186 2.79963 15.7661 -0.56912 -8.37004 3.52587 -7.5822 -0.0576556 -2.86337 -8.78732 -1.2546 -0.0298462 18.1765 1.59301 -3.31061 -1.02727 2.25649 -3.55942 -1.96066 1.11773 0.144365 -2.58242 0.719888 1.42639 -0.0476771 0.186088 
2.272 -0.207596 13.9905 1.12433 -11.1491 -0.793621 -3.52507 -1.97054 -4.86511 -7.94956 2.39493 -1.40149 18.1723 1.75765 -2.75833 -3.48303 3.43487 -2.17373 -4.2702 1.01802 0.986823 -1.76528 0.592285 2.72977 -0.44773 0.110083 
4.94689 -4.20671 9.74349 6.33592 -13.9598 -6.59804 -3.07488 3.85063 -9.68607 -6.45728 6.86842 -2.53506 18.3856 1.72672 -1.86854 -5.30606 2.81361 1.1516 -4.82321 -0.873234 1.68644 0.147183 1.60124 1.1345 -0.0840215 0.0706011 
6.30309 -4.19127 0.767278 11.369 -12.0959 -11.5418 -6.08796 5.82813 -6.66961 -8.08277 8.1455 0.416638 18.4041 1.58552 -0.64226 -5.72862 0.31972 3.56018 -2.34287 -3.1444 -0.0109169 1.94694 2.8664 0.183569 -0.685267 0.055526 
7.38323 -4.55125 -4.15262 8.37659 -2.13868 -15.2161 -10.6669 4.47522 -1.22521 -0.714505 1.54264 -1.35902 18.4136 1.32784 0.560378 -5.04042 -2.48549 4.71949 0.929477 -3.29498 -2.81649 2.15575 4.20255 0.629551 -1.57136 0.0622065 
8.98143 -3.24663 -7.7045 1.7026 0.741218 -8.19896 -15.4511 -2.33742 0.639168 3.51105 5.97566 -5.41585 18.4359 1.08044 0.956677 -3.18759 -4.27431 3.30066 3.84057 -1.99501 -3.96423 0.436405 3.82125 2.09789 -1.9415 0.0921848 
10.2469 -1.87714 -11.2227 -1.25835 3.21906 -3.62208 -14.8682 -6.14906 -2.5617 8.75857 11.1011 -7.47563 18.6807 0.65747 1.13153 -1.91546 -3.41006 0.593457 4.77218 0.0535526 -3.8991 -1.39914 1.6032 3.98081 -1.0183 0.110629 
10.2734 -0.744939 -11.6356 -5.18509 1.72856 1.86402 -13.9624 -8.6809 -3.81934 6.28696 13.8557 -6.23256 18.7315 0.233282 0.812185 -0.595377 -1.92438 -0.520206 3.37088 0.942512 -2.24581 -1.80264 0.171767 3.08672 -0.438105 0.055868 
10.0246 -0.144416 -11.7644 -5.22988 0.334933 3.61331 -11.1435 -11.8486 -5.99165 5.91352 17.5067 -6.04214 18.8189 0.00490317 0.365641 0.271357 -0.735618 -0.488818 1.82226 0.515624 -1.18598 -0.8678 -0.62385 1.54599 -0.251531 -0.0207172 
10.259 -0.0520687 -10.4106 -5.93354 -0.417749 5.03775 -12.6009 -10.7167 -6.65907 5.79241 18.2065 -8.32311 18.6462 -0.0433603 -0.129874 0.323444 0.613254 0.429034 -0.157859 -0.251955 -0.531399 -0.189702 0.240729 0.0760002 -0.774997 -0.0613022 
10.2787 -0.395375 -10.4785 -4.56221 1.84812 3.90238 -12.9709 -11.061 -5.48084 5.8866 16.6557 -7.688 18.6198 -0.0337507 -0.388598 0.610851 1.34909 1.12618 -1.61541 -1.32329 0.579139 1.15507 0.041272 -2.01526 -0.827981 -0.173772 
9.92959 -1.26883 -10.6613 -2.45265 3.11713 0.930193 -14.3085 -11.7317 -5.02326 7.50406 14.6612 -9.28461 18.5246 -0.23539 -0.564572 1.23191 1.96073 1.19221 -3.2718 -1.08157 1.75811 1.58559 -1.19507 -3.21305 0.00899296 -0.250161 
10.0206 -1.47903 -8.58474 -0.224883 4.1984 -2.40998 -16.9061 -8.44539 -1.03422 5.26406 9.20298 -9.70129 18.0109 -0.485301 -0.593591 2.53129 2.16947 -0.0118983 -4.28194 0.558739 2.82016 1.05119 -3.3658 -3.28621 1.37955 -0.319255 
9.21112 -2.3331 -5.19787 1.70146 4.36814 -8.16508 -16.041 -3.23402 -0.954415 0.128318 5.86759 -7.2715 17.6998 -0.9089 -0.414199 4.14501 2.37345 -2.44174 -3.70357 3.06186 3.35788 -0.881394 -4.44114 -2.05837 2.63063 -0.269873 
8.21139 -2.83119 -0.553762 4.20807 1.16312 -12.9597 -9.31088 -1.20905 -2.2593 -7.25451 4.62145 -1.79681 17.4359 -1.47931 -0.151094 5.04934 1.95597 -4.55836 -0.371833 4.49204 1.60228 -3.62284 -2.85283 -0.286851 2.32795 -0.0814623 
6.28967 -2.66374 6.0482 7.1981 -7.57392 -12.3128 -2.7968 1.43955 -8.81769 -8.44234 6.66013 -0.0837111 17.4627 -1.92852 0.540302 5.42068 0.754595 -4.83837 2.70913 4.28848 -0.336463 -3.77287 -1.03922 -0.523806 1.33311 0.0411472 
4.08474 -2.06918 11.0389 6.80666 -12.6224 -2.19528 -1.06805 -2.77076 -15.2168 -4.71479 7.37245 -1.65542 17.7221 -2.09257 1.27621 4.46292 -0.373947 -2.49467 4.36836 1.23276 -0.298633 -2.1581 0.147543 -1.81979 -0.274865 0.060602 
1.63184 -0.0126022 16.1092 4.17514 -12.931 -0.00163841 1.27993 -4.13548 -13.34 -6.33764 1.87306 -0.676654 17.7624 -1.81737 1.76779 3.26124 -1.11106 0.374685 3.98126 -1.71661 0.929806 0.206649 -0.861394 -2.3678 -1.3791 0.0202829 
0.0774422 2.22427 16.7304 3.84982 -8.6317 2.72652 -5.18545 0.0852996 -10.7886 -7.56915 -2.08395 -2.87467 17.589 -1.42781 1.84793 1.60509 -1.17049 2.59022 2.26709 -2.82882 2.18919 1.73918 -2.13502 -1.78679 -1.82473 -0.0328741 
-0.79353 4.02848 19.5087 3.12121 -7.69584 5.13261 -9.32115 4.66055 -9.99852 -11.3221 -0.450677 -6.36961 17.6306 -0.818769 1.36795 0.155439 -0.513375 3.4654 0.864264 -2.93707 2.29128 1.6583 -1.61251 -0.672193 -2.19351 -0.138464 
-1.84162 5.14993 17.3646 1.48119 -2.28885 6.57304 -9.91162 3.77716 -8.19167 -12.8976 -0.399616 -7.93259 17.6236 -0.278389 1.02015 -0.472737 -0.750519 3.12223 0.0938152 -1.36142 1.09758 0.878996 -0.591431 -0.221931 -0.8855 -0.247546 
-1.50247 5.36432 16.5692 2.79258 1.22462 2.39642 -11.0423 5.475 -6.34703 -11.7359 -2.33007 -9.11522 17.0528 -0.209022 0.991923 -1.19985 -0.549149 2.44008 -0.792485 -0.0937878 0.192195 0.540092 0.978431 -0.668569 -0.50617 -0.325953 
-0.960032 6.65712 15.8364 0.261537 2.51923 4.56369 -11.132 5.16599 -8.21941 -10.3194 -2.2539 -5.92936 16.6402 -0.53879 1.05479 -0.536577 -0.172884 1.32458 -1.33015 0.399447 0.684981 -0.00643559 1.25081 -1.16382 -0.354511 -0.257248 
-2.27943 8.23451 14.2736 0.985295 2.10051 2.17486 -9.17992 4.92711 -7.28419 -7.71909 -2.86638 -9.90207 16.4926 -0.943587 1.13402 -0.570189 -0.451028 0.567791 -0.540509 1.17965 0.597107 -1.06132 0.768897 -0.250511 -0.195939 -0.0535898 
-4.14709 8.98878 15.8296 1.52041 3.89613 0.0330896 -8.84559 7.47601 -7.75527 -8.65199 -5.95055 -9.31172 16.6175 -0.877624 0.774018 -0.372391 -0.765924 0.334963 -0.772095 1.37456 0.418682 -0.656328 0.907096 0.00675657 -0.0656868 0.0460213 
-4.62688 9.86859 13.7217 -0.0919976 3.37512 1.95917 -6.28724 7.30552 -11.8857 -8.72516 -1.73431 -8.40374 16.7962 -0.0121577 -0.0814384 0.250839 -1.83259 -1.41224 0.995701 0.611981 0.7796 -0.692861 0.669547 -0.225111 1.41482 0.0761999 
-4.17443 9.71017 14.2504 -3.02944 3.55674 0.811062 -5.70551 6.07019 -9.2003 -5.28089 -2.78615 -7.00696 16.7185 0.763666 -0.883491 0.403598 -1.80242 -2.70167 1.35698 0.859472 -0.679465 -1.03245 0.355241 -0.0444033 2.7135 -0.0106688 
-2.32655 7.46662 16.3173 -5.90272 -4.79101 6.76438 -7.69005 9.52801 -10.026 -6.05691 -5.57413 -3.98037 16.8231 0.823755 -2.06232 1.02228 -0.427383 -3.75719 -0.0807724 1.20584 -2.29819 -0.633978 1.17024 -1.5145 2.81617 0.00464191 
-1.47892 5.77231 16.5497 -4.58632 -5.52916 4.41541 -3.84683 2.96744 -13.8474 -8.20991 -4.25265 2.04409 16.5507 1.03906 -2.84227 0.680406 1.34111 -4.23083 -2.24619 1.52178 -3.32526 -1.17973 1.52895 -0.784397 2.42034 0.0781931 
-1.85585 1.52593 17.6834 -1.45047 -10.8679 -0.246862 -1.18736 -2.63407 -12.732 -1.40947 -8.57356 1.1516 16.9033 1.61436 -3.20489 -0.990947 2.69157 -2.37648 -5.18242 1.59183 -2.64958 -0.2879 2.22007 1.02806 1.02741 0.104122 
0.785535 -1.53081 16.9693 1.45001 -14.559 -6.91426 -1.34796 -4.47505 -13.7459 0.0401318 -5.20842 2.52873 17.0694 1.91609 -2.88097 -3.40072 2.66711 -0.467724 -4.70312 -0.571732 0.247661 1.79322 1.63268 0.744016 -0.298154 0.0746763 
4.61301 -4.90626 11.1528 4.53699 -12.1585 -13.4829 -0.980313 0.0013327 -11.5162 0.918415 0.0440388 0.914354 17.0844 1.94181 -2.17877 -5.28282 2.12579 2.07251 -3.41309 -2.55117 2.17732 3.50821 0.735896 0.447139 0.425663 -0.094483 
4.86709 -5.41645 2.81148 5.75552 -7.22247 -12.4822 -6.80902 2.88804 -5.48919 -1.21046 -4.84137 0.671944 16.8336 1.63753 -0.886204 -5.31704 0.0936085 3.44067 -0.675895 -2.89246 0.978368 3.78615 2.18264 -0.247413 -1.05976 -0.215812 
5.8124 -7.42511 -1.6517 7.02572 -4.17356 -14.5284 -11.2127 4.57097 0.680632 2.8953 -6.52139 4.20831 16.5488 1.19309 0.123227 -4.06392 -2.12682 3.81144 2.07644 -1.56011 -1.8097 1.6792 3.20532 -0.212376 -2.015 -0.238636 
8.37348 -4.70241 -3.2136 0.673685 -1.34808 -9.77099 -10.6941 -1.86803 -0.913578 9.96489 -3.16277 -4.41707 16.2581 0.648413 0.854805 -2.77265 -3.12842 2.03033 2.40106 0.410001 -4.35411 0.0644828 4.54376 3.11741 -2.58114 -0.270681 
8.82528 -4.64714 -6.15426 -3.55618 3.9615 -4.45628 -6.83836 -6.66914 -5.40802 11.3573 -1.85714 -6.61612 16.1789 0.143671 1.92979 -1.94211 -3.18366 0.638202 3.50921 1.90233 -3.67129 -2.58868 2.83771 2.24002 -1.0052 -0.211166 
6.60271 -2.5314 -8.8005 -4.59561 -1.13833 -5.51294 -6.94618 -13.2625 -2.12245 17.2773 8.41356 -6.82154 15.6651 -0.945255 1.66748 -1.77397 -1.86075 -0.515418 1.76441 2.01521 -2.16653 -0.886542 0.729173 2.80386 2.35424 -0.404654 
7.41614 1.13833 -8.56882 -6.25791 -1.08743 0.888669 -3.57501 -8.08827 -11.6583 13.4276 -1.10944 0.384537 15.7895 -0.570634 1.71548 -0.644152 -1.05789 -0.814712 1.30178 1.57581 0.751449 -0.356377 -1.16908 0.905926 2.63506 -0.285217 
4.35178 0.742242 -10.8762 -7.27919 -1.40071 -3.62142 -2.24969 -11.9911 -2.22113 12.5756 10.4827 3.85381 14.4295 -0.66686 0.49563 -0.329736 -1.2783 -0.37785 0.791404 1.64129 2.45477 0.121398 -0.677774 -0.512583 2.2343 -0.193653 
7.09758 2.29345 -8.33718 -7.50386 0.0191321 1.10688 -1.30754 -3.54757 -7.14056 7.8628 1.63792 1.22149 15.3706 -0.991832 0.473419 0.266529 0.0688846 0.557975 0.657282 2.78189 2.32514 1.9769 -0.842214 -0.359317 1.38378 -0.459383 
3.42769 -0.630817 -10.565 -10.3641 -3.58086 -1.66502 0.126552 -3.25897 -3.77434 16.6709 4.47697 3.93147 14.9062 -0.482172 0.712512 0.0496814 1.07391 1.05758 2.17597 3.00158 1.28565 2.34181 -1.98 -3.01193 1.38135 -0.468734 
2.91902 4.19195 -7.39176 -4.37101 2.79252 3.19688 9.14633 -0.828662 -0.997248 7.16895 0.0968399 7.26461 13.2542 -0.204374 0.098875 -0.677765 1.39069 1.03669 1.80113 3.94571 -0.457658 2.99702 -3.39899 -2.41589 0.856651 -0.520846 
4.0302 3.35555 -11.1005 -3.47609 2.50051 6.21344 7.53128 -6.92232 6.41626 3.02253 -3.8064 7.73899 13.1441 -0.732789 -0.940359 0.018029 1.31541 1.1517 1.83042 2.18876 0.158553 2.23451 -4.15549 -2.50532 -0.995498 -0.410882 
5.77446 0.794643 -11.4583 -3.99443 2.1619 6.17332 14.7186 -4.00418 2.74923 -2.30797 -6.29986 3.60098 13.6475 -2.358 -2.58258 0.302338 0.391344 -0.111458 -0.937707 0.40867 0.898249 1.3191 -2.04882 -1.49499 -1.18387 -0.239086 
-1.66397 -3.63396 -8.4416 -3.97536 2.49297 5.99888 8.28422 -0.878441 5.52498 0.631841 -4.85131 0.785787 12.6552 -3.31087 -2.41128 1.23664 -0.032624 -0.4119 -1.35204 0.991771 2.72814 0.109774 -0.880199 0.135234 0.109448 -0.3164 
-6.02392 -5.22617 -7.20951 -2.16465 2.23901 -1.38438 10.8132 0.640645 6.0439 -1.87983 -6.85565 4.82187 12.3032 -3.24105 -1.7329 0.428368 0.245788 -0.383774 -0.73184 0.0306245 1.39637 0.540152 1.09048 1.45823 1.49367 -0.363108 
-6.62499 -5.69042 -7.04168 -4.5541 0.402455 3.23207 14.4429 4.39596 5.3178 -1.59253 -2.85234 7.67579 12.2342 -1.30706 -0.449751 -0.783608 0.0586292 0.340366 1.09164 1.76184 -0.0959808 0.475255 1.4226 1.38393 2.29469 -0.0942235 
-7.95029 -6.84165 -10.0164 -2.47612 1.28829 3.89752 11.7924 0.340459 5.55359 4.25662 -0.00821543 7.62434 12.0424 -0.142386 0.204209 -0.698114 -0.590229 0.181625 2.08445 1.06909 -1.01642 -0.457233 2.83048 1.37745 1.73368 0.0539764 
-7.23609 -5.07497 -10.9562 -3.52648 4.67016 8.81614 16.6038 -1.20825 8.14642 4.6766 -1.35538 10.858 12.3145 0.291476 0.596302 -0.270899 -0.213048 0.125557 0.696125 -0.0141976 -0.81049 0.834454 1.36408 -0.473405 -0.434487 0.0407356 
-6.4303 -4.51285 -8.74282 -5.6296 1.01328 6.24583 15.0782 -1.63936 2.34343 9.13798 -0.716877 11.8992 12.533 0.543378 0.601223 0.134862 -0.182174 0.0681181 -0.757972 -0.669509 -0.0747522 0.684586 -0.462498 -1.62185 -0.97819 0.00940514 
-5.9276 -3.87331 -9.03296 -4.0426 1.16774 5.53854 12.729 1.33342 11.0951 2.78721 -4.86503 3.36594 12.1926 0.233875 -0.179151 0.0627954 0.236092 -0.399604 -1.58705 -1.87938 0.00993271 0.545039 -0.361139 -0.802308 -1.63661 -0.0886465 
-5.88764 -4.43637 -10.3037 -3.12893 3.38009 1.74646 10.3823 -1.30414 7.50215 2.88883 -6.36263 6.47943 12.1504 -0.0824878 -0.66455 -0.899068 0.377363 0.637991 -0.54187 -1.71448 0.390309 1.44843 -1.76811 -1.13607 -1.13884 -0.0712317 
-6.33804 -6.00897 -9.86179 -3.59635 1.48874 3.13057 9.55482 -1.3262 8.29225 5.99548 -2.54405 5.38485 12.0625 -0.189101 -0.364089 -0.29062 0.596102 0.341589 0.0125098 0.0357617 0.924077 0.303977 -0.731795 0.308894 0.972727 -0.0327685 
-6.63752 -6.76777 -12.8237 -3.96591 4.04274 4.74046 8.09286 1.642 10.987 -1.30668 -7.55772 5.19549 12.2419 -0.585893 -0.209954 0.542429 0.46834 0.179865 1.07965 1.69911 1.98909 0.480464 -0.283436 1.12414 0.542955 -0.00370445 
-6.49817 -4.52805 -9.22604 -0.643598 2.54436 4.10409 14.0525 4.48074 10.8726 1.226 -2.72302 8.87155 11.983 -0.308391 0.617183 1.06222 0.527029 0.080999 0.257989 1.77095 2.25435 1.94496 0.624204 0.147655 -0.548831 0.0274246 
-8.73704 -6.2266 -7.90943 -2.26361 3.7516 6.65795 16.629 5.73784 8.61429 3.8564 -0.65244 7.45086 12.1716 0.400589 1.08637 1.87989 1.74492 0.823068 -0.275739 1.04766 0.79193 1.25396 2.04383 0.0956357 -2.30642 0.00419006 
-6.83023 -3.19364 -7.00784 -1.81236 2.0393 3.46177 14.1415 7.89765 19.2034 6.53496 -5.25842 1.51301 12.2348 0.958901 0.622825 0.915652 2.06073 2.0825 -1.06218 -1.03106 0.748009 0.246757 0.529881 -1.3141 -3.05745 -0.00491495 
-4.46854 -2.00311 -4.53339 5.34305 8.41061 3.68293 13.2867 3.89319 13.0914 6.25798 -5.81185 -2.65735 12.1369 1.46338 0.743957 0.350218 2.07598 1.63243 -1.36114 -1.67223 -0.543531 -1.06765 -0.265284 -2.33551 -2.38686 -0.0261853 
-3.83791 -3.52567 -6.3358 5.85673 10.6274 0.280685 10.5684 9.14311 9.86783 2.67461 -6.71379 -1.36161 11.9758 0.745759 -0.064158 0.184884 0.98842 0.837629 -0.350928 -1.25791 -0.697616 -1.42816 -0.50669 -0.650998 -1.39582 0.010416 
-2.91632 -2.3408 -6.49436 4.28175 7.61971 1.44277 10.0544 2.39746 7.94381 4.46015 -11.6023 -3.04612 12.1702 0.316481 -0.115151 0.700196 -0.2383 -0.347236 0.0345107 -1.52412 -1.17028 -0.16554 -0.0568161 -0.0783179 -0.0680889 0.0425202 
-3.87755 -3.34558 -5.10293 3.66039 6.6229 2.82721 9.46807 5.15744 14.6364 4.90043 -5.61819 -5.27168 12.2703 0.223696 0.67596 1.09972 -0.531548 -1.07189 0.720054 -1.04639 -1.92468 0.277865 0.306934 0.781932 0.32691 0.0533132 
-2.86632 -2.66891 -1.64884 5.24972 8.67665 2.58222 6.21625 0.0346452 9.87944 4.86099 -6.75124 -1.04276 12.2023 0.021695 0.833645 1.41525 0.248757 -0.772589 -0.0257587 -0.38151 -0.996707 -0.288214 -0.694188 0.907753 1.69979 0.0206607 
-2.74443 0.0181784 -3.25995 2.71501 4.73943 3.31123 7.25551 0.701111 10.2893 4.00886 -5.22965 -0.728737 12.2263 0.0498221 0.979671 1.08359 0.542418 -0.782694 -0.502075 0.260704 -1.14233 -1.31234 -1.03569 -0.378573 2.11302 0.0143529 
-3.3744 0.145546 -0.339607 5.99823 4.6985 1.07196 9.25315 -0.357914 8.67628 1.435 -7.25778 3.18137 12.2954 -0.164613 0.575628 0.553881 0.478024 -0.799724 -0.525977 0.807143 -0.184414 -0.401938 -0.942585 -0.304122 1.23584 0.0255442 
