-5.78696 -3.12598 -3.08387 2.15852 3.62559 -1.72143 9.30584 -2.46243 1.14132 3.98897 -6.16741 -1.13706 12.0274 0.124032 0.232946 -0.223514 0.113156 -1.08618 -0.129383 -0.939861 1.66112 0.768107 -1.03466 0.471316 0.488786 0.0486238 
-5.10925 -1.7001 -3.48869 3.25657 1.23932 -1.18613 5.5395 0.345842 2.75424 -0.435807 -3.37558 -0.238318 12.036 -0.0995876 0.246715 -0.432085 -0.951337 -1.31087 -0.931363 -0.867802 1.8188 0.841196 -0.350347 -0.409239 0.709487 0.17179 
-5.50565 -2.67419 -3.99903 2.17528 -0.612179 -2.636 6.4897 4.43903 4.1754 1.02804 -5.20674 0.857507 12.2662 -0.182332 -0.0813882 -0.475506 -1.2593 -0.576096 -0.429251 0.183895 1.76257 1.69225 -0.202988 -0.315022 0.637971 0.163077 
-6.42555 -2.1183 -4.78671 -2.60654 -0.809855 -5.92096 6.3749 3.18086 3.83026 3.71771 -8.69394 1.4131 12.767 -0.0745237 -0.549316 -0.410452 -1.55126 0.978105 1.92563 2.08396 0.903232 1.22106 1.4831 0.510441 -0.0675932 0.0689818 
-6.04046 -3.32382 -4.81239 -1.20644 1.7697 -1.50027 9.80762 4.93292 9.06457 0.897278 -5.08334 1.22709 12.4773 0.430078 -0.539429 -0.70367 -0.444461 0.623975 1.4568 0.873489 -0.203181 0.244453 1.99836 1.76145 -0.27412 -0.0653079 
-5.21446 -4.12186 -5.13427 -2.80888 4.9389 7.87414 14.3003 4.61506 6.41496 7.04508 -0.885078 -0.761076 12.2754 0.287202 -0.247462 -0.126142 0.577192 0.9974 1.76545 -0.142152 -0.785838 -0.426388 1.46686 1.56692 0.435114 -0.132233 
-3.9608 -4.36955 -7.3436 0.0541439 -0.366681 -2.24953 6.89443 2.70603 4.10532 9.35614 -0.303913 0.573997 12.1855 -0.153832 0.371683 1.11444 1.1058 -0.444902 -1.11595 -1.63702 0.395241 -0.341148 1.10142 0.103438 1.32127 -0.0632357 
-6.02937 -2.83274 -4.15182 -0.35088 5.24533 3.28091 7.12073 0.365118 4.17795 6.82258 -3.24904 3.91522 12.2517 -0.71933 0.164982 1.38092 2.10065 -0.424661 -2.66495 -2.87661 0.600907 -0.275142 0.0575545 -0.0350823 1.7076 0.0536228 
-6.40217 -2.10996 0.268579 3.09353 -0.608028 -4.78342 5.21231 9.03409 8.47734 6.51564 -3.38417 5.49528 12.173 0.921287 1.6995 1.92849 1.508 0.0723345 0.29976 -0.0157398 -0.383929 -1.12478 -1.36931 -0.768003 0.17985 0.0735003 
-7.59043 -4.42674 -2.03577 6.17466 2.93627 -4.18365 0.758331 4.45556 2.85324 8.7531 0.479639 5.31631 12.5497 3.8744 2.99545 0.435956 -0.944414 -0.928337 0.563672 0.7068 -0.446865 -2.76505 -2.83046 -0.151184 -0.990267 0.4531 
1.42616 4.92493 1.24081 4.33135 1.14952 2.98154 9.99693 -1.25884 -0.856222 1.54431 -6.00827 0.772701 12.404 5.14808 3.60817 -0.928283 -3.16574 -0.805415 1.73333 1.27347 -0.82544 -3.96706 -3.63559 0.726727 -1.03702 0.767854 
9.42849 8.62704 -2.45815 -5.69186 -0.275126 2.21678 8.26242 3.27726 -4.98051 -4.84404 -2.69291 1.32517 14.4017 4.75585 3.14787 -0.798048 -4.09421 -1.89518 1.14713 0.892823 -0.405145 -1.98823 -2.64899 1.02841 -0.916613 0.872548 
10.8288 9.404 -4.16164 -6.80193 -3.0294 0.683025 7.82761 5.49605 -7.44109 -4.86376 1.83574 2.30576 15.0863 1.97374 0.780922 -0.408226 -2.45692 -2.36303 -0.0149431 -1.01446 -1.00985 0.361068 -0.0641123 1.3837 -0.353759 0.787299 
11.4875 9.07309 -3.32478 -8.72974 -4.45015 2.70127 6.30711 -0.947604 -3.79549 -1.2878 1.6997 -0.0332904 15.5713 0.182413 -0.191455 1.11242 0.272202 -2.17852 0.933161 -1.176 -2.5489 1.24547 1.67067 0.217394 -0.310281 0.247009 
10.2654 8.60652 -0.367002 -6.4343 -8.57813 2.66458 5.90229 -4.19564 0.356609 -0.554369 -1.28606 -0.316862 15.7557 -0.21684 -0.983456 1.35355 2.02218 -0.763724 1.09842 -0.779425 -3.18895 1.02564 1.49367 -1.07498 0.345914 -0.0821853 
10.6223 8.06851 1.20661 -4.51467 -8.39338 5.89181 3.34509 -4.62142 -2.65201 1.35461 -0.045038 1.08508 15.3021 -0.291453 -1.48004 0.879732 2.21697 1.0683 1.30968 -0.527021 -2.29049 0.332526 0.354615 -1.22235 0.555255 -0.23373 
10.1772 4.98901 0.340434 1.20141 -4.87641 4.57988 5.41149 -8.61182 -2.88461 1.28338 -2.66678 3.47615 14.81 -0.084133 -1.19656 0.460566 0.83635 1.07842 1.68757 -0.59007 -1.59035 -0.491502 0.229214 -0.0612032 0.416754 -0.110104 
10.0743 3.48164 0.720158 -1.46277 -0.959493 8.29203 3.9174 -10.1919 -0.512256 -0.433602 -3.72169 0.846481 14.8755 -0.0984679 -0.453177 0.372385 -0.414762 -0.0314895 0.739267 -1.0969 -0.353892 0.800344 -0.403722 0.159242 -0.0195746 0.17541 
10.1187 4.91713 2.17905 -3.7785 -6.90296 9.90231 2.66578 -9.36215 -3.17078 1.48581 0.246246 1.88621 15.4184 0.261957 0.500542 0.387639 -2.18187 -1.32873 0.561122 -1.91181 1.63694 1.24626 -0.887638 1.11141 -0.577459 0.419036 
10.1592 5.83856 2.14922 -4.09852 -7.53755 6.92693 -0.766571 -6.01571 1.49279 -0.765219 -0.705343 1.78218 15.8749 0.580515 0.67138 -0.281374 -2.21416 -1.84228 -0.227888 -1.44281 3.05288 1.88661 -2.14262 1.33138 -0.562863 0.527354 
11.4445 6.31326 1.5641 -8.39005 -8.23105 8.06803 -1.80556 -2.51522 2.34417 -2.989 1.38208 0.121006 16.4055 0.717669 0.375871 -1.35564 -2.22172 -0.664747 -0.121325 -0.163965 3.27265 2.34263 -3.34796 0.530709 -1.01609 0.554381 
12.314 6.14047 -0.379233 -10.2278 -9.50682 8.06973 -1.06097 1.64901 6.16333 -8.90928 2.36731 -1.08523 17.0188 0.591435 -0.126835 -2.0943 -2.1126 -0.13771 1.50233 0.497106 2.3909 0.832193 -3.34286 0.0491011 -0.211827 0.528855 
12.6296 6.64553 -3.33491 -11.8225 -9.24206 8.72429 1.99315 3.16873 6.20713 -11.182 1.36347 -1.76054 17.6184 0.202566 -1.02462 -2.27848 -1.27794 1.63196 2.17415 0.154654 0.125279 -0.802682 -2.18913 -0.057279 1.90936 0.480182 
12.5238 5.03825 -5.87278 -12.9453 -7.7206 14.1104 -0.180398 3.09682 3.72228 -13.3831 -0.450531 1.66382 17.9127 -0.281902 -1.89378 -1.8077 -0.125011 3.18163 2.04722 -0.807949 -2.27821 -2.36379 1.69977 -0.454934 2.35103 0.361634 
12.3524 1.74126 -7.08154 -13.421 -0.964383 15.9184 -1.47257 -2.61273 -0.448715 -11.6978 2.5046 8.2933 18.3594 -0.91214 -2.48485 -0.667441 2.08391 2.91976 1.00477 -2.44529 -2.86204 -1.67277 4.85666 -1.13954 0.854891 0.166452 
11.043 -0.876309 -7.54444 -10.0536 2.26246 14.7087 -3.36785 -6.85132 -2.32769 -0.152526 -0.477929 5.64302 18.4564 -1.57994 -2.31052 1.13592 3.31004 1.97334 -1.48487 -2.9932 -1.42949 -0.119719 5.75427 -2.0404 -1.89691 0.0462318 
8.80932 -2.82146 -5.83628 -2.84877 0.365211 13.449 -8.63956 -6.16738 0.868251 6.48608 -4.32052 0.524318 18.1788 -2.36595 -1.19657 2.63439 3.76683 0.787309 -3.29349 -2.58472 0.942159 1.32736 3.82737 -3.33002 -3.64902 -0.0266445 
6.3957 -4.233 -0.815829 -1.6812 1.48132 7.92082 -11.5629 -2.27331 2.4652 6.2964 -7.23997 -3.93625 18.2342 -2.80613 0.571442 3.14282 3.11038 1.33702 -5.04491 -0.798124 2.3931 1.11185 0.206177 -2.96197 -2.56383 -0.0668942 
2.84636 -2.56324 2.7261 1.2269 3.36273 2.84497 -10.2986 -0.190943 3.79166 4.21462 -10.7645 -5.16215 18.3373 -3.53613 2.86665 2.64399 1.66204 3.35999 -5.68803 1.94806 2.09755 -0.694346 -1.75389 -1.33318 -0.799421 0.089024 
-0.00613499 1.85179 3.88845 3.46047 7.44879 -5.21383 -6.52893 2.12593 1.76985 2.01409 -12.0658 -4.33291 18.0427 -4.28242 3.51146 -0.226773 0.774979 3.7606 -4.01009 5.174 2.98345 -0.927297 -1.67124 2.04288 0.61162 0.305452 
-5.67042 8.46938 5.03154 2.89057 14.1814 -8.42384 -1.41625 2.12073 -2.2558 -0.142222 -8.57349 -3.27446 18.7196 -4.50906 2.21041 -2.24206 -0.841632 2.04096 -2.52238 4.9597 2.00421 -1.05077 -1.16964 4.4516 2.27539 0.566477 
-10.758 7.80797 -3.10241 1.36186 14.875 -6.4952 9.86589 11.4881 0.85245 0.118621 1.87893 -1.822 19.5703 -4.27779 -0.475479 -3.25934 -2.59348 0.387695 0.258185 3.24212 0.805118 -0.156165 0.43292 4.42129 2.29618 0.681369 
-14.323 5.51074 -4.98878 -1.93195 9.85445 -9.12626 6.30246 5.14902 -1.00347 -0.68583 4.52118 4.95935 20.4059 -3.18236 -2.42172 -2.74326 -2.4013 -0.585277 1.27213 1.61939 0.609004 0.255501 0.805611 2.26698 1.11569 0.4283 
-17.0688 0.953721 -7.39806 -7.09565 11.5508 -3.57169 5.82231 4.63738 0.362857 4.45049 3.49328 3.03111 20.6064 -2.2304 -1.90171 -0.225184 -1.72803 -0.540422 0.317534 -0.219407 -1.03034 -0.505448 -0.670948 -0.92219 0.0511078 0.182049 
-18.4268 -0.212108 -6.53695 -4.88719 12.9172 -3.52495 8.70249 8.59111 -0.733498 1.7199 1.95425 -0.122536 20.3431 -1.30813 -0.411995 1.22726 -0.651957 0.409787 1.09343 0.558421 0.0257998 1.0716 -1.0363 -1.80061 -0.815293 0.0328592 
-19.8581 1.16086 -3.45425 -5.80066 10.6415 -7.70819 7.56884 4.61538 -1.80977 -4.43898 -1.44856 0.974483 20.5119 -0.346063 0.66929 2.05047 -0.0877465 -0.200722 0.948618 -0.401191 -0.835651 0.762524 -1.86216 -0.309893 -0.626353 0.00957756 
-19.469 3.34719 -0.824396 -5.83923 12.358 -1.59084 8.2213 5.28902 5.44086 -1.42258 -2.01094 1.91119 20.6174 0.248368 0.671996 1.96526 -0.735487 -1.05615 -0.105406 -2.7693 -1.9453 0.740188 0.182157 1.59905 1.19072 -0.138546 
-18.278 2.52052 -0.0019697 -7.05836 10.8267 0.204345 4.05695 2.11017 1.0883 -3.28905 3.92641 -1.11752 20.5171 1.35955 1.3823 2.80716 -0.380663 -1.62165 1.29108 -2.00461 -1.98021 -0.0273628 1.34456 1.43006 -0.249846 -0.414193 
-17.975 2.46804 1.56322 -7.93577 7.54381 -8.00825 -3.38806 0.117239 1.5184 2.05572 7.26203 6.87706 19.6478 3.79162 1.35244 3.11692 1.80104 -2.65428 -1.06879 -1.90074 -2.05198 -1.89554 -1.19135 -0.00483732 -0.109152 -0.714818 
-13.8074 8.51193 9.38776 -6.6557 4.94036 1.9559 3.35047 -2.6998 0.0146414 0.544689 1.06525 -2.75768 18.9258 5.58614 -0.0144968 3.45168 3.38914 -3.97169 -1.5151 -1.25818 -1.22042 -0.772961 -3.30179 -2.26688 0.0545836 -0.656539 
-2.74621 7.11371 10.0654 2.96463 2.02978 -7.81055 -0.929146 -2.56588 -3.50002 -9.2962 -0.604551 2.18551 17.839 5.7214 -1.78483 2.23614 3.58981 -3.52788 -1.14992 -0.949314 -0.444966 -1.14267 -4.3132 -1.63842 -0.712523 -0.313454 
2.03824 0.1252 13.0053 4.43712 -6.27471 -7.47 -3.46342 -2.65036 -0.267295 -14.122 -3.47472 1.50117 18.1388 4.02302 -3.17656 0.184815 2.53598 -2.54367 -2.70175 -2.21387 0.425024 -0.780212 -2.821 0.713476 0.70877 -0.0275705 
2.70918 -2.26273 10.9351 4.46686 -4.48807 -9.04491 -4.72769 -2.13231 -4.05399 -12.1769 1.33992 1.18502 18.474 1.55485 -2.53086 -0.537539 0.568127 -1.11272 -0.546579 -2.09176 0.561233 -0.257405 -0.0283425 1.2771 -0.000479031 0.165051 
3.58003 -2.68264 9.87696 5.2731 -4.51908 -10.9357 -5.81962 -0.791466 -3.60943 -12.1199 3.6604 1.28642 18.4705 0.853498 -1.00268 -1.7582 1.80497 -0.629012 0.586633 -1.61619 0.377964 -0.0850991 1.36112 0.763391 -0.433996 -0.129424 
4.25713 -4.13666 8.94185 5.38727 -4.41163 -8.81061 -10.2098 -0.689163 -3.11598 -10.439 2.21339 2.29049 18.4984 0.25592 0.378551 -3.24302 3.47503 -0.245609 0.394179 -0.381866 0.678295 0.975311 2.42031 -2.23526 -0.756219 -0.574294 
5.53176 -3.95121 5.21097 13.0018 -9.45799 -4.65398 -8.80328 -1.48212 -1.1618 -8.18541 -0.0945041 -1.22155 17.4795 1.33386 -0.065148 -3.83834 2.26506 0.0622694 0.70974 0.492102 -1.38546 0.690219 4.44495 -2.4894 -0.522141 -0.457683 
3.01292 0.264312 -2.94699 17.9777 -3.24666 -10.2149 -5.14518 1.60449 -0.401257 -2.04264 -7.95894 -1.3421 16.098 1.99145 -0.43361 -3.79277 0.864268 -1.09894 2.07365 0.412212 -3.0346 1.60116 3.65266 0.077899 -0.951794 -0.0647017 
10.8714 -5.20887 -3.3703 10.3032 -4.79022 -6.68484 -5.89144 -8.86559 -1.5157 5.90665 -3.70044 0.492006 17.3823 2.00689 -0.558908 -2.49885 -2.50603 -1.36344 4.48624 -1.09186 -3.26675 1.12657 1.81995 3.4335 -0.953382 0.398909 
11.5445 -5.67588 -5.73136 11.0579 -12.2402 2.57305 -9.60469 -12.1704 5.06679 0.778284 4.40586 -3.32526 18.2235 1.76575 -0.666286 -0.923875 -4.37647 -1.9609 6.49865 -1.79855 -2.52427 -0.190849 0.375332 5.67759 -1.21571 0.651613 
11.3004 -3.77565 -5.89109 3.93149 -11.7784 11.3832 -12.0328 -10.9284 1.737 -0.496109 10.8906 -4.99688 18.4113 0.242964 0.493397 -0.471232 -4.11148 -0.64298 5.10314 -0.911629 0.0928025 -1.49198 0.320139 4.04331 -0.833171 0.389999 
11.6272 -3.78373 -6.30597 -0.71878 -9.55706 13.2444 -11.0672 -9.98544 -2.98185 3.0354 13.1335 -4.67622 18.8416 0.399046 0.157993 0.0928264 -4.11766 1.02218 2.20279 0.15848 0.695452 -2.2784 1.58998 2.36648 -0.284608 0.243787 
12.0449 -3.68796 -5.43915 -4.36583 -9.3467 13.4952 -9.7183 -9.49407 -4.95129 6.37879 12.1523 -2.99837 19.0232 0.419825 -0.204434 0.579893 -2.24431 0.797787 -0.546655 0.487361 0.66781 -0.491549 1.43921 1.01535 -0.247941 0.127308 
13.1675 -4.92976 -5.49319 -5.38175 -8.34517 12.531 -9.96956 -9.41032 -2.98109 5.29076 15.6074 -5.74755 19.1365 0.286239 -0.26528 0.886937 -0.490987 0.560093 -1.95249 -0.192051 1.05133 1.06243 0.522279 0.560198 -1.02913 -0.0622711 
12.6294 -4.2248 -3.39802 -4.95859 -8.39544 9.00662 -10.1449 -7.87693 -0.721126 5.57228 14.7304 -5.70092 18.9004 0.0259913 -0.269343 1.16161 1.07945 0.909447 -3.425 -0.236428 1.59998 1.48656 -0.693119 -0.0533945 -1.79279 -0.280352 
12.7662 -4.84171 -2.89185 -2.87733 -7.23223 5.72618 -11.8142 -5.53738 0.215236 6.05005 14.6455 -8.47062 18.5917 -0.454214 -0.0789115 1.36312 2.50565 1.77072 -4.74217 -0.879377 2.79553 0.945922 -1.18562 -2.00127 -1.261 -0.443757 
12.3755 -5.0787 -0.931771 -0.220799 -5.35593 -0.227386 -9.97812 -3.43066 0.883331 2.53354 12.3663 -10.6008 17.8939 -0.788745 0.00123034 1.49118 3.42627 1.49914 -5.31588 -0.876243 3.51063 0.592814 -2.5365 -2.53579 -0.722312 -0.447353 
11.0234 -4.89737 0.0892673 4.77763 -1.01131 -6.56279 -14.4498 2.34418 0.946298 0.88201 6.7831 -9.6026 17.4209 -1.47318 0.48874 2.31083 3.53306 0.227918 -5.44433 0.0236899 3.8761 -0.756161 -3.34264 -2.4105 0.976984 -0.336333 
9.55707 -4.19082 2.56733 8.34529 -4.01019 -11.4283 -13.2083 5.73545 1.87741 -4.52622 5.98258 -8.74648 17.249 -2.01289 0.651443 3.60855 2.26706 -1.19219 -3.52308 0.713316 2.64682 -2.2909 -2.61897 -1.81455 1.97638 -0.162987 
6.80951 -2.84195 6.91275 10.5049 -6.76551 -15.895 -10.0807 9.26006 -4.06261 -7.13325 5.78481 -4.51284 17.2324 -2.31811 0.949652 4.49291 0.230566 -2.1472 -0.802784 1.90608 0.0680274 -3.27282 -1.56815 -1.04198 1.53519 -0.0733677 
4.41801 -2.8492 13.6992 8.25085 -8.43979 -13.1767 -8.59611 6.34552 -8.06672 -6.55369 3.79267 -3.26375 17.1732 -2.34525 1.1704 4.50193 -1.49266 -1.34793 1.36067 1.14264 -1.22793 -3.56818 -0.405499 -1.40868 0.717123 -0.00624676 
2.00234 -0.819921 16.9879 5.97767 -9.53252 -9.70251 -7.22551 2.37929 -10.4457 -5.94502 2.66814 -4.66802 17.092 -1.87134 1.50222 3.29912 -1.8085 0.416503 2.94729 0.23651 -1.57533 -2.3069 -0.703321 -2.44962 0.231253 -0.0894997 
0.234406 0.65016 20.0394 3.1456 -9.36634 -7.72118 -8.92265 3.03619 -12.7719 -7.14783 0.497511 -5.08328 17.288 -1.54169 1.8544 0.863038 -1.72423 2.62218 2.40787 -0.24869 -1.39463 -1.6546 -0.596708 -2.35075 1.66694 -0.444479 
-0.455365 2.91946 20.2383 4.01505 -4.21972 -3.88629 -8.73486 3.03808 -13.2445 -10.3528 -4.81573 -2.44681 16.7276 -0.71253 1.78482 -0.0252254 -1.75393 3.54759 1.59295 -0.53997 0.0619724 -0.805455 -0.293291 -2.1614 1.67395 -0.477735 
-2.0616 4.55311 16.3892 0.611018 2.01473 -4.04544 -9.08489 -0.957021 -14.9403 -7.33335 -4.21916 3.96033 15.133 -0.433678 0.874603 -3.06002 -0.954492 2.84537 0.842497 1.37543 -1.99386 0.858622 0.901891 -1.57019 0.537606 -1.01596 
-0.412307 6.15272 18.6869 -1.52471 2.51489 -3.57563 -9.84424 4.68575 -13.3888 -7.31872 -5.78054 -0.820082 15.7808 -1.07574 -1.51731 -5.62886 -0.432676 2.33804 1.3976 3.42522 -1.43884 2.66744 2.99162 0.57345 -0.563106 -1.13123 
-1.95551 3.40654 5.51504 1.14302 1.49322 -3.66403 -1.4908 -7.75694 -8.40667 -4.15541 -6.87104 -3.20862 12.6816 -1.59499 -2.70809 -5.53336 0.536457 0.706635 0.533944 3.87801 -0.109663 5.55454 3.96515 1.16816 -0.372641 -0.895962 
-5.88713 -4.09382 -2.46895 1.58567 7.73126 2.91103 4.59422 -0.756175 -3.17413 3.01635 -0.622536 -1.67787 12.2971 -1.78041 -2.55688 -4.83693 0.637928 0.643158 0.544747 3.61591 0.418291 5.10012 3.74152 1.24246 0.809355 -0.672764 
-7.29914 -3.86405 -0.699702 1.73811 2.93972 -4.61905 3.08595 1.21563 7.72507 7.32487 -0.95734 2.52602 12.395 -0.896327 -0.774947 -0.892634 -0.0574131 0.568066 0.670999 2.15238 2.31461 2.66811 2.47068 0.607639 1.27135 0.00470314 
-6.64256 -2.99637 -2.39041 1.36739 5.00743 -0.374383 5.94693 2.29092 4.04591 5.64876 -2.52511 0.359377 12.5603 0.187411 0.805656 0.418213 -0.369567 -0.177925 -0.27526 0.773441 -0.443452 -1.30618 0.267715 -0.309457 1.08524 0.0906857 
-6.05943 -1.01692 1.0126 0.965096 5.69546 1.33367 8.59473 2.29255 1.32388 6.8818 -2.88156 2.12949 12.5735 -0.0507833 0.531841 -0.0484677 -0.807989 0.866564 0.285589 -0.0671045 -0.518563 -2.62831 -0.797539 0.173735 0.892362 0.155629 
-5.56993 -1.48911 -1.23403 0.12435 5.46376 -1.44163 5.70703 -3.5119 -6.50445 4.57646 -1.20771 3.94658 12.6613 -0.265741 0.260353 -0.650058 -0.458291 0.193369 0.0503085 -1.02947 0.0624155 -0.664585 -0.299102 0.664303 0.776893 0.103696 
-8.08937 -1.95848 -1.52023 -1.68031 7.04438 -2.65748 2.87037 1.52422 -0.141316 3.87332 -0.747366 5.19422 13.1226 0.310816 0.328725 -0.0522987 0.0120228 -0.0169086 -0.361025 -1.82446 -0.00347154 0.0585062 0.367006 0.494122 -1.01278 0.216004 
-6.9563 -1.22383 -4.37428 0.398637 5.29981 1.87274 3.66175 2.98716 1.45559 5.65748 -0.270694 2.71147 12.8042 0.58296 -0.083503 -0.409452 0.420658 -1.20561 0.156068 -0.821804 0.664499 1.16553 -0.0112425 -0.676397 -1.82252 0.0737497 
-3.81217 0.494068 2.32123 0.888066 5.69289 -2.12863 0.495093 -0.974336 -2.3636 8.17631 -0.87946 -2.31685 13.5821 0.810304 -0.164908 -0.491732 0.289646 -1.28019 0.700662 -0.550765 0.3139 1.58847 -0.188344 -0.399718 -1.31944 -0.0783321 
-4.79373 -3.13289 -5.20202 0.94345 0.111437 -0.925711 2.78566 1.05988 0.434332 2.36875 -4.52365 -1.4105 12.8003 -0.0853598 -0.247192 -0.130984 -0.744945 -0.868999 -0.549834 -0.801554 0.478265 1.41413 -1.51338 -0.607371 -0.366008 -0.0405603 
-5.11913 -1.82848 -3.56502 -0.50449 3.23764 2.24506 0.554595 4.05737 8.31166 4.57597 -0.619478 0.657999 12.7329 -0.829322 -0.317447 -0.684614 0.180031 -0.588143 0.0226642 -1.20054 0.300396 0.681351 -2.33661 0.0955062 1.17638 -0.109305 
-6.72962 -1.29851 -2.08608 -2.62981 2.18245 -3.06328 -0.375772 2.86264 3.1886 -0.109247 -3.43754 -0.605987 13.026 -0.336451 0.270237 0.717074 0.0587522 -0.381241 -0.512017 0.472977 0.572825 -0.699148 -1.93829 0.528144 0.770673 0.00283508 
-6.99084 -2.01036 -2.65981 3.57485 1.71667 -0.946529 -3.92689 -0.373735 -0.333985 -2.26773 -0.944983 3.16279 12.9227 -0.132161 -0.174364 0.116964 0.833345 0.131922 0.091771 1.99639 0.622561 -1.30566 -0.313669 0.152027 0.702269 -0.0739339 
-5.54013 -1.69077 -2.06925 -0.802459 -1.03429 -1.89 7.39129 6.13955 1.26142 -3.90086 -1.72018 1.19047 12.7196 0.288164 -0.256234 -0.508793 1.22164 0.360541 0.744731 1.73063 -0.449985 -0.357791 1.77035 0.26397 0.259587 -0.181804 
-6.37468 -2.50417 -2.98861 2.74856 5.50561 2.11727 6.65301 5.53171 2.74697 4.90343 -0.718025 3.27112 12.5164 0.152755 -0.540888 -0.853545 -0.0841206 0.319629 0.617588 1.52925 -1.35668 0.750246 1.02262 -0.674612 0.506634 -0.160087 
-5.59688 -2.33277 -4.46564 3.89152 2.09068 -0.871527 2.98741 -2.34001 -0.140828 5.15693 -2.23117 0.637786 12.3201 -0.0192833 -0.511183 -0.36813 1.21575 0.964228 0.636712 -0.429378 -1.74611 1.7918 1.24553 0.0833985 0.759674 -0.126403 
-6.19869 -4.3938 -5.72934 0.807259 1.75234 1.63218 5.9213 -2.91734 4.11837 -1.68351 -4.06254 5.97231 12.322 0.0875302 -0.290266 -0.631122 0.178666 -0.043485 -0.104537 -0.556743 -0.291035 1.08547 -0.477932 -0.181877 0.336148 -0.0899938 
-5.72454 -3.30188 -2.53954 6.24696 5.66349 1.53611 5.61025 1.63351 9.53474 5.62023 0.369076 3.63824 12.1848 -0.178981 -0.196231 -0.676287 0.295434 0.888229 0.461937 0.878856 1.72449 0.799316 0.386292 0.744822 0.313865 -0.045336 
-5.8732 -3.47095 -7.10727 2.46417 3.50178 0.390774 2.55787 2.08978 3.33653 2.28212 -2.92753 3.45163 12.1342 -0.0859333 0.400705 -0.551868 -0.265915 0.306142 0.229487 0.938904 1.43979 0.213025 1.85713 1.22386 -0.254882 -0.0678926 
-6.65453 -3.77535 -7.15811 4.54023 5.6571 2.05886 9.06341 3.77889 4.24667 5.10558 0.925437 3.46745 12.1874 0.108756 0.350982 0.279942 -0.828318 -0.406981 0.251087 0.921987 0.278817 -0.181524 0.960459 0.3801 -0.789729 -0.0338546 
-6.16337 -2.15353 -6.1794 0.33105 3.28624 2.51823 8.88924 3.20894 7.82753 7.85947 1.77857 4.78329 11.9813 0.329389 0.410022 1.65614 0.00472231 -0.14516 0.234303 0.698434 -0.055439 0.822514 1.32317 0.467919 -1.32994 -0.0179903 
-5.03568 -2.20568 -1.60377 3.17193 3.73635 1.72781 7.0545 2.46802 6.38163 7.63385 -0.0834792 -0.976237 12.0919 0.436539 0.308719 1.56843 0.0104279 -0.339138 -0.145251 -0.585257 -0.336267 0.282401 0.483093 -0.387988 -1.46469 -0.00802336 
