-5.1065 -3.54284 -2.57485 1.09773 -1.34958 -2.21598 2.90428 -0.164393 5.98233 6.66953 -5.07337 7.82737 12.0037 -0.338519 -0.187531 -0.5972 -0.619068 -0.345437 -0.599825 0.14503 0.282224 -0.183493 -1.58772 -0.326167 -0.299898 0.0387453 
-5.63635 -4.1931 -2.35295 2.47921 -2.94582 -5.43926 2.40281 1.89651 9.03765 5.71749 -2.32466 3.35645 12.2391 -0.0108385 -0.0800303 -0.909267 -1.2355 0.368468 0.329946 0.246874 0.656057 -0.249368 -2.45328 -0.476356 -0.971656 0.0495305 
-6.53417 -4.15537 -5.67181 -2.68834 -2.27864 -3.60346 3.88017 0.216276 3.53721 -0.793076 -8.07857 8.56334 12.0797 -0.0867096 0.0605569 -0.439003 -0.662661 0.325895 1.3678 0.818792 0.784263 -1.39949 -2.2846 0.304838 0.415586 0.0515652 
-4.44686 -3.63673 -5.57271 -3.18671 0.957294 0.127491 3.65071 2.92556 5.95805 -1.86559 -5.95255 2.60111 12.2133 -0.202666 0.277896 -0.224347 -0.32404 0.858246 2.19778 0.670134 0.764408 -1.66717 -0.160309 1.49893 1.93958 0.00324335 
-6.1348 -3.51824 -3.15999 0.617386 -1.67166 1.83963 6.3743 3.2424 0.524662 -0.961921 -1.73523 10.283 12.2744 0.0376377 0.178618 0.597218 1.01972 0.514301 0.910976 0.599987 1.04991 -0.636266 1.19502 2.6514 0.602632 0.00363026 
-6.84937 -3.12218 -4.7306 -0.793858 1.04192 2.82808 4.50641 4.20549 2.20809 5.00037 1.99835 12.1945 12.158 -0.0971397 -0.218903 0.320406 0.678065 0.0334993 -0.20794 -0.239172 -0.401549 -0.820064 0.866682 0.477212 -0.107389 -0.0509577 
-5.14473 -3.51955 -3.10677 1.21386 0.250548 -0.398873 6.45225 4.82585 2.23086 1.74906 1.20299 6.77979 12.1256 0.202472 0.319597 0.345352 -0.385886 0.338418 -0.906213 -0.866845 -1.20243 -0.361548 -0.368488 -1.31137 -2.089 -0.00883675 
-5.42759 -4.73059 -3.99729 -0.0946183 0.163686 0.207045 2.41587 0.126086 1.00463 1.11233 -5.03561 3.81576 12.033 0.888597 1.2653 1.33793 0.625773 1.26825 0.5773 -0.346196 -1.76952 0.316588 -1.01592 -1.2153 -2.37194 0.0359383 
-5.83333 -1.11605 -1.79988 -1.66167 0.459547 -1.38091 3.08534 -0.730046 -0.681348 -0.860341 -4.77511 4.02737 12.2927 2.15334 3.56874 2.14493 0.531597 1.11077 1.43765 0.373509 -2.30632 -1.61388 -1.2174 0.142616 -0.755999 0.1996 
-2.06209 2.00257 1.30562 3.77277 7.27868 6.2056 4.45889 -1.86418 5.24714 1.22547 -1.0891 1.71107 12.2541 2.87594 4.07142 2.43765 1.60878 0.756081 0.414691 0.740449 -1.35865 -2.22405 -1.86639 0.356282 -0.748977 0.318483 
3.93923 10.9576 4.9664 1.93815 2.24692 3.79011 7.29829 -5.71062 -7.9598 -4.3945 -0.0571814 4.05213 13.013 2.52838 2.94464 1.97105 1.20601 0.241011 0.444272 0.516416 -1.0833 -2.91886 -2.34778 -1.12369 -0.807526 0.274446 
4.06583 9.5897 4.80781 6.14936 3.05041 -0.305016 4.01165 -4.17687 -6.47639 -6.45254 -5.61316 0.0584893 13.2652 0.510699 1.3923 1.24094 0.36683 0.292753 -0.591579 -0.66574 -0.476608 -2.76094 -2.45004 -2.07331 0.0404908 0.180619 
3.7446 9.81358 6.30429 3.18007 3.77874 4.09575 5.89104 -4.99022 -9.4139 -8.76026 -8.13151 0.816032 13.1594 -1.2629 -0.459488 0.713408 0.698464 1.24703 0.102305 -1.00162 0.472456 0.534735 -1.70025 -1.04508 0.985903 -0.073106 
0.588719 9.53608 6.84139 4.98596 7.97654 3.09488 1.83381 -4.60742 -7.83049 -8.84186 -7.41849 3.53157 13.084 -1.165 -2.2584 -2.7406 -1.35411 2.98554 -0.157524 -1.14782 -0.199495 1.29448 2.40534 -0.292062 2.74375 0.30061 
-0.636711 8.68693 7.51666 6.01217 6.01901 2.60169 3.3791 -3.13307 -4.60907 -11.7011 -4.37989 7.24511 12.7381 -0.572859 -2.71464 -5.21526 -1.29743 3.22333 -1.82774 -1.2718 0.0409861 2.4289 5.58134 -0.435616 2.14203 0.738362 
0.431502 -1.13898 -9.50135 -2.03726 16.858 -0.345607 -0.471503 -6.10293 -2.40641 7.04457 -8.94928 10.5627 14.9789 0.937178 -0.658039 -3.467 -0.651319 1.50049 -2.50322 -1.55275 -1.67475 1.218 4.88946 -0.168169 0.723966 0.727347 
0.958917 1.57793 -11.6006 0.204525 15.4547 -3.32269 0.684677 -4.03754 0.0185634 11.2032 -9.5442 8.0106 15.9037 2.11417 0.630539 -0.908399 0.201303 0.0850998 -2.44495 -2.40791 -1.51234 -1.14032 1.94487 1.82811 -1.74282 0.679531 
4.4768 9.80039 -0.934968 4.63318 10.7612 -6.45902 -4.58275 -12.5289 -4.05433 4.15329 -5.67718 6.76866 15.1379 2.52986 1.56914 2.37402 1.67475 -2.58652 -1.07641 -2.70103 0.0594965 -2.29077 -3.29616 4.93504 -3.87616 0.353594 
7.91148 6.36994 -1.30853 3.68346 9.49291 -6.56634 -6.60482 -7.48177 -9.48669 -0.531147 3.12459 0.428037 16.0563 2.31637 -0.200883 1.26983 0.920259 -2.44868 0.338185 -2.97983 0.882475 -2.31558 -3.71642 5.63671 -4.09598 0.376014 
9.60451 4.3107 -2.7773 4.59701 6.90625 -4.10585 -10.3319 -4.08333 -9.10766 -3.56903 9.39151 -5.02681 16.6706 1.13747 -1.4898 -1.06888 -0.00500526 -1.84044 1.33015 -1.80062 1.76737 -0.58658 -2.29316 4.74803 -3.26486 0.519449 
9.97692 3.31836 -4.33029 4.8239 5.13873 -2.80836 -11.3399 -3.84796 -9.03269 -3.5177 11.105 -6.57154 17.0175 0.271978 -0.701682 -0.920788 -0.244385 -1.48041 1.04626 -0.828732 -0.0283093 0.630311 -0.816863 2.6732 -1.49169 0.328374 
9.13144 3.87718 -4.76848 4.03793 3.73608 -1.68725 -11.2183 -5.50899 -7.21423 -5.81925 14.0727 -6.05583 17.2546 -0.150072 -0.328736 -0.667616 -0.579301 -1.22197 0.637081 -0.0955921 -0.448812 0.504539 0.0668195 1.78587 -0.570832 0.231408 
9.50791 3.07829 -4.91688 2.74107 3.67597 -2.54434 -10.3053 -6.91049 -7.28185 -3.49035 14.15 -6.51589 17.4062 -0.191326 -0.175503 -0.588336 -0.690839 -1.06468 0.255141 0.0321277 0.000655985 0.0620309 1.23719 1.43231 -0.773942 0.204931 
9.08866 2.78706 -5.82209 2.74192 1.52777 -1.05246 -11.3272 -4.79612 -7.46038 -3.24861 16.7984 -7.9088 17.6333 -0.0567483 -0.520671 -0.53063 -0.730021 -1.3242 0.237726 -0.0222872 0.367845 0.441974 1.95463 0.650863 -1.10453 0.233918 
9.04168 2.98591 -6.74517 2.01771 0.919508 -1.85005 -11.1248 -4.20111 -8.59946 1.38295 16.9037 -9.51477 17.8527 -0.190239 -0.622708 -0.321184 -0.98279 -1.64692 0.193145 -0.0587477 0.892665 1.34924 2.35567 -0.25128 -0.928295 0.328935 
9.08081 1.32002 -6.50748 0.749508 -1.50672 -0.845763 -10.92 -5.02445 -4.34556 1.51722 15.9502 -10.0791 18.2009 -0.140479 -1.03085 -0.21149 -1.40757 -1.57784 -0.154726 0.0814666 1.36573 1.84593 2.825 -1.4239 -0.679708 0.448563 
8.56064 0.698268 -6.1801 -1.17667 -3.04138 -1.68197 -10.8026 -2.333 -2.09307 5.90508 13.3177 -10.0722 18.7671 0.157045 -1.66605 -0.289696 -1.41075 -1.33083 -0.184556 0.686825 1.83775 2.32741 2.28355 -2.01136 -0.824857 0.48145 
8.62678 -1.22338 -7.16207 -2.69874 -4.38098 -1.91013 -11.0809 1.09845 -1.48393 8.61533 11.4719 -11.0286 19.419 0.0568008 -1.7003 -0.650426 -0.731715 -0.456884 -0.11761 1.7474 1.59254 1.42652 1.54646 -2.4492 -0.858079 0.358119 
10.0539 -4.07265 -7.86636 -3.31191 -4.29752 -2.24064 -7.6102 1.92621 1.6068 9.25165 9.08605 -13.1643 19.6509 -0.0344442 -1.73108 -0.953645 -0.265572 0.350058 0.533947 2.29338 0.914494 0.938485 0.12868 -2.59924 -1.31595 0.214552 
8.61817 -4.796 -8.91648 -1.84145 -3.16307 -1.15448 -3.77919 0.808634 0.937086 7.57625 5.81998 -12.8234 19.5495 -0.240523 -1.28402 -0.83095 -0.150587 0.940492 0.679281 3.30509 -0.164357 0.939726 -1.04615 -3.06599 -0.94491 0.107151 
8.39272 -6.17084 -10.0711 -2.93318 -1.90005 0.609942 -2.98659 2.38438 1.38885 7.06802 3.14745 -15.7546 19.7745 -0.363869 -0.735117 -0.759602 -0.400619 1.18203 0.627981 2.9255 -0.400661 0.702398 -1.79249 -2.87185 -0.518158 0.0924311 
8.25477 -6.59441 -10.2144 -3.64105 -0.877262 0.0609846 3.13269 0.0475849 3.32368 4.47638 -0.888768 -14.458 19.8929 -0.0115 -0.6829 -0.358963 -0.601966 0.940127 0.294456 2.16893 -0.432492 1.22717 -1.78306 -2.30456 -0.386642 0.0882427 
8.41628 -6.84902 -11.0154 -4.41521 0.469738 0.291532 3.56137 0.30343 3.9255 1.83914 -1.91884 -14.9378 19.9414 0.0583748 -0.53312 0.0582881 -0.292111 0.576589 0.117667 1.03327 0.169881 0.879614 -1.64845 -1.70282 0.206917 0.0199438 
8.54889 -7.8714 -10.2392 -4.11026 0.352678 0.47701 3.79147 -0.313353 5.8046 1.2754 -3.16966 -15.165 19.9073 -0.130764 -0.178901 -0.00942678 0.612965 -0.191435 0.151384 -0.398685 1.08196 0.591552 -1.17825 -1.43862 0.743539 -0.00945358 
8.53753 -8.19794 -9.76732 -4.15912 0.367932 0.990267 1.85037 3.41425 4.54646 0.426265 -4.2262 -14.3665 19.8671 -0.306206 0.0358181 0.422137 0.878948 -0.865003 -0.122174 -1.08311 2.04741 0.0228669 -0.809827 -1.5689 1.48674 -0.0357746 
7.54032 -6.81446 -10.8856 -0.704264 -1.78354 0.468537 1.99477 3.90196 5.97096 -0.708405 -6.92821 -11.026 19.8828 -0.477391 0.20036 1.02934 0.663621 -1.06131 -1.05958 -0.82103 2.12884 -0.171746 -0.87504 -1.11912 1.8494 -0.0686941 
7.38953 -7.19841 -8.58148 -1.72347 -2.78717 -0.315099 -0.955809 8.43282 3.95665 -1.21809 -7.88406 -9.57359 19.7748 -0.588655 0.173478 1.78685 0.700466 -1.58215 -1.50779 -0.573673 1.6059 -0.520177 -0.325841 -0.435847 2.15018 -0.101727 
6.73594 -7.36937 -5.68539 -2.00998 -3.37634 -4.16821 1.08941 7.82155 5.24077 -2.27762 -6.93635 -8.31444 19.61 -0.622826 0.434449 2.31515 0.494226 -1.59986 -2.34073 -0.508551 1.5002 -0.892432 -0.487839 1.02578 2.53053 -0.155829 
5.99645 -7.05309 -3.43317 -0.00393581 -6.7464 -4.23032 -0.565315 9.48398 2.31066 -0.418331 -6.40136 -4.97133 19.4948 -1.01679 1.48938 1.99275 0.86871 -2.08242 -2.37869 -0.427263 0.487873 -0.720108 -0.873458 2.60856 3.08732 -0.173599 
5.12273 -4.71487 -1.884 0.907101 -7.80322 -9.27752 -0.743237 10.8774 2.33179 -3.54748 -2.54064 -0.674439 19.2436 -1.14198 2.1129 2.29235 0.337265 -2.6986 -1.42025 -0.790708 -0.952793 -1.12512 -0.285826 3.24802 2.64599 -0.171512 
3.11218 -1.07874 -0.518452 1.16154 -10.9858 -9.65387 -2.1758 9.34426 1.8106 -4.95045 2.96086 2.043 19.0899 -0.726844 1.86578 3.39409 -0.491185 -2.59108 -0.0729784 -0.856023 -2.58357 -1.29179 -0.486298 3.45684 1.67249 -0.245036 
2.46817 0.207938 4.31901 -0.906394 -14.7496 -8.55766 -2.05889 3.12744 -0.13481 -1.44069 4.62265 1.40833 18.9549 -0.304561 1.1583 4.28943 -0.899832 -1.44182 1.68656 -0.872282 -3.82418 -1.65373 -0.862225 2.07706 0.506467 -0.319605 
3.68951 -0.185588 10.4358 -1.55311 -16.2286 -4.95514 -4.1876 0.441097 -2.91496 -3.90321 7.30119 2.34973 18.414 -0.198925 0.754824 4.51865 -1.00638 0.573389 2.06555 -1.08536 -3.48035 -1.46886 -2.11995 0.461754 -0.304667 -0.318383 
3.31126 0.63008 14.0861 -2.23473 -12.3909 -3.1941 -4.09875 -3.79191 -3.57407 -8.38222 5.67449 1.70453 17.9836 -0.796803 1.36905 3.61699 -0.427724 2.4551 1.33127 -1.65361 -1.92716 -1.10275 -3.11063 -0.384045 -0.328185 -0.265661 
1.696 2.48431 17.1913 -3.20617 -9.29823 -2.00791 -6.58268 -4.59781 -3.81405 -12.0794 4.74372 0.371563 17.9837 -1.24196 1.8696 2.2838 -0.413064 2.75088 0.854457 -1.12713 -0.593123 -0.826191 -2.49817 -0.588483 -0.531372 -0.168508 
-0.519097 5.71822 19.0262 -2.21849 -5.93932 -3.37493 -9.12938 -3.98891 -5.19904 -12.9057 3.98117 0.756487 17.8417 -1.09079 1.85113 0.9531 -0.347503 2.28603 0.661554 -0.625081 1.01303 -1.19918 -0.957988 0.105077 -0.610545 -0.13362 
-0.605125 6.61835 19.3847 -3.62655 -5.70004 -0.592441 -7.30795 -2.42602 -6.23343 -14.1323 5.20544 0.166894 17.6424 -0.582703 1.51534 0.331583 -0.166402 1.96667 0.594334 0.205035 1.76866 -1.34606 -0.367752 0.14557 -0.454328 -0.227839 
-0.992105 7.81871 17.7548 -3.76206 -2.75989 -0.594065 -6.86152 0.187353 -8.3603 -12.1457 5.96901 -1.24586 17.4861 -0.378543 1.21275 -0.230478 0.163444 1.83439 1.00976 0.420614 1.93425 -1.75797 0.0914429 -0.00750523 -0.565068 -0.28352 
-0.981008 9.01076 19.4849 -3.26639 -1.05461 -0.426673 -6.69144 2.15736 -8.96372 -14.2982 4.47764 -0.898906 17.0223 -0.827227 1.56786 -0.57535 0.363418 2.12177 0.577121 0.106983 1.79348 -1.36748 0.269059 -0.924238 -0.761575 -0.242873 
-2.22387 10.5858 17.8237 -1.58135 0.909936 1.591 -7.33456 3.39063 -12.6238 -12.3656 4.30754 -1.53595 16.7342 -0.20504 0.621802 -1.02603 0.533099 2.20869 0.453146 0.199406 0.343701 0.0580337 1.53385 -2.11248 -1.19364 -0.456807 
-4.12537 13.0741 16.4735 -2.89982 3.0739 1.20064 -6.53652 4.93974 -10.9391 -12.6771 1.41499 -3.49593 16.804 0.360168 -0.221013 -1.27147 1.09917 1.65312 0.206469 -0.302282 -0.558369 0.559583 2.12626 -2.22941 -0.949412 -0.617813 
-0.445121 8.89604 14.1304 -1.27985 6.21933 0.858009 -5.94195 0.514673 -7.08245 -5.28703 -3.06206 -5.91554 15.3112 0.819892 -0.81543 -1.3265 1.04614 0.613208 -0.118989 0.0501296 -1.20696 1.4028 1.24 -1.0589 0.416568 -0.736642 
-0.0695419 8.75056 14.9742 2.07872 4.55632 0.972167 -8.89916 0.803495 -8.93646 -7.20617 -2.98462 -3.45617 14.6447 0.14422 -1.12969 -1.32164 1.13835 0.135012 -0.208904 -0.481711 -0.478903 0.368372 0.421173 -0.761884 0.389505 -0.586249 
-0.152331 8.6704 11.9409 1.1601 3.23477 1.11028 -5.90259 -0.576055 -6.61105 -8.90102 1.21285 0.527009 14.1306 -0.600483 -0.785651 -1.62091 0.110044 -0.834084 -0.961158 0.223485 -0.649181 0.833666 0.284929 -1.30338 0.387733 -0.512419 
-3.55067 7.53848 10.9601 1.57195 5.24124 0.0299768 -8.96475 3.09059 -9.33292 -8.76425 -4.53189 -4.76968 14.4631 -0.994541 -2.36354 -3.47918 -0.656824 -1.20302 0.00678164 1.3277 -1.00497 1.84741 1.54107 -1.57988 0.924415 -0.602583 
-1.70697 5.57382 8.0329 -0.476243 1.70645 -3.47669 -4.79173 -3.87478 -2.7159 -3.08334 -8.80535 -3.32012 12.84 -1.31603 -2.91239 -4.19834 -0.0533544 -0.801915 0.790456 1.92175 -0.797676 3.38998 3.39372 -0.934899 2.16028 -0.661877 
-4.26493 -1.51884 -0.467711 -0.387224 -0.694632 3.29956 -2.81609 -2.57198 -1.64696 -2.40968 -5.87492 3.08947 12.2771 -0.871128 -2.79572 -3.81505 0.447423 -0.679675 0.88802 3.69757 -0.0405201 3.86825 3.78576 0.706318 3.63514 -0.575166 
-6.37535 -1.36289 -3.33694 1.87292 2.19313 3.42777 0.631814 -1.73315 6.49585 4.89029 -2.79013 7.39883 11.9142 -1.85308 -2.45476 -1.15401 0.185241 -1.74612 0.911923 4.7387 -0.00523071 1.82756 2.44642 0.285227 1.7806 0.225447 
-5.57212 -2.97177 -2.43025 2.63449 1.59952 1.01785 6.81132 1.81717 5.40246 6.17773 -4.00791 8.04654 12.0501 -2.30427 -1.66502 1.79567 0.330682 -2.97306 -1.06363 4.79014 -1.803 0.265429 2.21524 -1.52993 -1.07912 0.791895 
-10.3188 -5.97354 3.2441 -1.06089 -8.17125 2.22378 14.088 -6.09551 2.89717 4.85505 -8.31272 3.10433 14.0807 -0.890723 -0.888795 0.655015 -0.621295 -1.4833 0.375301 2.05477 -0.439505 -0.862693 -0.12144 -0.904355 -1.49669 0.339808 
-13.8146 -7.53864 5.2201 2.73309 -10.3777 -1.4166 14.4065 -9.40581 1.47952 8.68414 -10.7633 -0.158899 15.1534 -0.0430093 -0.141324 -0.956224 -0.267348 1.02612 0.58629 -0.252507 0.573345 0.493702 -0.0844392 0.783706 -0.321943 -0.190635 
-6.70774 -3.52343 -3.88703 -1.28286 0.765262 6.5215 7.10808 1.68082 4.14386 3.02988 -3.93422 4.01808 12.0616 1.2046 0.693305 -2.1648 0.0503844 2.30218 0.153946 -1.96948 2.45616 1.25941 0.275836 2.03619 1.1616 -0.721243 
-7.59268 -4.90344 -3.6458 1.40873 2.26187 1.80044 9.03877 0.795736 7.24763 6.66811 -2.27863 5.97995 12.1065 1.07015 0.797512 -2.05537 -0.427442 1.41578 -0.772363 -1.73343 2.53624 2.04386 0.0833788 3.08121 2.36561 -0.624315 
-7.4067 -3.82461 -3.14695 -0.14679 -2.98016 1.385 6.92453 1.08453 6.31019 7.24224 -2.37408 5.84292 11.9979 -0.450273 -0.234169 0.913052 0.147974 -1.86106 -0.456733 1.05221 -0.00942476 1.37039 1.45707 1.11288 0.501041 0.157403 
-8.11432 -3.40049 -5.42678 0.0278435 -1.42612 -2.71016 5.83111 3.57355 10.6157 6.99486 3.8627 10.7568 12.0636 -0.151134 0.0481798 1.10017 -0.400701 -2.00902 0.682932 0.745682 -0.450258 -0.803155 0.357375 -0.0732661 -0.231657 0.133188 
-8.69829 -5.44575 1.56872 0.147453 -6.69604 6.49314 13.9729 0.24479 9.31178 10.1519 -1.44047 4.13488 12.8701 0.166732 0.107959 0.159113 -0.347397 -0.219484 0.0661324 0.0151293 -0.389046 -1.1877 -0.876281 -0.501065 -0.401397 0.030684 
-7.70256 -3.85197 -0.502767 -0.741898 -5.9253 2.66103 9.24297 -1.03568 1.73106 7.00018 -3.11176 5.67569 12.3364 0.484317 0.154652 -0.434598 -0.182242 1.0787 0.702585 -0.799265 0.158864 -0.435723 -1.42208 -0.841771 -0.350375 -0.0936247 
-6.77892 -3.05907 -4.81339 -1.49891 -1.82799 -0.969937 5.29424 1.44392 4.81401 2.85818 -1.39217 6.37647 12.015 0.471601 0.7213 -1.22389 0.532785 3.48428 -0.527352 -2.14363 1.02145 -0.899358 -1.77709 0.613168 1.49233 -0.203187 
-6.65242 -3.82057 -4.40871 -0.0601854 1.53335 4.5343 6.17413 3.7683 10.6859 3.53128 -0.370302 7.88409 12.023 0.115983 0.116741 -0.20322 0.555572 2.13457 0.550174 -1.03525 0.407716 0.0656342 -1.08505 0.399241 -0.13329 -0.0532744 
-6.86535 -1.85496 -2.59778 2.47052 6.99605 2.91974 4.78923 2.95004 0.337557 3.00087 0.254639 10.4923 12.0108 -0.0394862 -0.196844 0.0512894 -0.375161 0.311929 0.946528 -0.643945 -0.873922 -0.640704 -0.134706 -0.725373 -0.789648 0.0233033 
-7.07943 -3.87033 -2.62667 0.0512509 0.335531 3.46706 4.31924 0.249833 4.29746 1.50359 -1.93896 2.95131 12.0721 -0.201252 -0.351575 0.12231 -0.54034 0.400687 0.807446 0.00896975 0.124104 -0.0010534 0.787896 -0.832575 -0.734897 0.0698855 
-6.76285 -4.01841 -5.44796 -3.43043 0.330568 4.29632 3.00196 -1.16646 4.80472 3.19849 -4.23471 4.89462 12.107 -0.10735 -0.162039 0.244081 -0.89384 -0.0726785 1.18497 1.78206 1.58732 2.53368 2.88975 0.805945 -0.17309 0.1185 
-7.70993 -4.49671 -2.37207 0.188591 6.86953 7.88324 7.11262 6.44708 8.44708 7.37195 -2.2885 7.00845 12.3244 0.230321 0.1711 0.382077 0.54427 0.211618 0.596646 1.01419 0.532513 2.40254 2.87309 0.790878 0.979667 0.120634 
-7.08685 -2.35196 -1.50467 -2.06735 3.36566 6.6365 12.3028 7.78801 10.9311 14.5155 4.45914 7.59829 12.4772 0.801237 0.526323 0.772901 1.22401 -0.197003 0.155482 0.427446 -0.147897 0.861963 1.14533 -0.377026 -0.753352 0.0214584 
-5.76582 -3.84806 -2.68793 2.09106 -0.123925 5.2802 4.73973 -1.56483 13.247 10.2105 -2.33149 6.49781 12.4902 1.39005 0.947897 -0.0104703 -0.265394 -0.562214 0.0305132 -0.766977 -0.758919 -0.150676 -1.11339 -0.664625 -0.482134 -0.0462937 
-3.72872 -1.71113 -1.42552 1.7384 2.84228 6.37525 6.32563 2.10001 6.7146 7.50586 -6.09834 1.38318 12.1314 1.26233 0.831904 -0.169471 -0.708012 0.635305 0.594608 -1.05464 0.247825 -0.570332 -2.3312 -0.758544 0.142163 -0.0647084 
-2.43875 -0.0776416 -2.464 -3.04125 4.32015 8.16643 6.26633 5.49648 9.80197 5.30981 -0.332887 7.70534 12.2658 0.79441 0.917431 -0.0590598 -1.50443 1.0366 0.756363 0.299389 1.75191 -0.380261 -1.19975 0.976267 0.873722 -0.0314312 
