-7.27344 -1.51335 -6.70299 3.5644 5.58673 3.86664 8.22917 0.158518 6.3033 0.780366 -4.65836 2.60503 12.4576 0.233488 -0.190969 0.436368 -0.0559127 -0.955861 -1.16702 -1.324 -0.104523 0.336948 1.59616 2.32799 0.220935 -0.0656318 
-6.67989 -1.37326 -4.68779 5.71052 4.80017 0.706617 6.3723 -1.52391 11.4799 8.59939 1.80133 2.85751 12.1502 0.494233 0.0729109 0.281471 -0.448698 -0.708446 -1.17544 -0.761139 0.366521 -0.478322 1.12278 1.9406 1.12268 -0.0811028 
-6.40278 -2.53823 -5.52876 2.21177 1.2007 -0.388465 2.53758 0.477116 5.39974 4.85166 3.75175 3.58347 12.2831 0.195122 -0.265418 0.0361806 -1.09669 -1.31273 -1.38876 -0.508117 0.559297 -1.26972 0.597673 0.613007 0.69552 -0.0395103 
-5.23761 -0.636348 -5.88276 1.99722 4.23751 0.116969 7.26926 1.83182 4.36348 4.35863 0.839601 7.7292 12.1393 0.0787125 -0.0857073 -0.91797 -0.96722 -0.889481 -0.19087 0.0138405 0.533411 -0.628792 -0.794321 -1.16286 0.976648 0.0213549 
-7.01897 -3.2089 -5.92461 -0.0623875 -0.695576 -2.78236 5.2401 1.27714 3.51294 5.88911 -1.11246 3.64679 12.2655 0.0728948 -0.067025 -0.81008 -0.138313 0.282281 1.0055 0.435524 -0.19986 0.272241 -0.77158 -1.31525 0.41822 0.00982704 
-5.97823 -1.46647 -9.07971 2.01151 1.3009 0.949216 5.09024 0.743134 9.27935 4.10906 -1.58085 7.70909 12.2658 -0.106075 -0.167158 -0.65621 0.648419 0.524338 0.884175 -0.379354 -0.898576 0.130212 -0.152787 0.123146 -1.09077 0.0237022 
-5.668 -2.4583 -7.98068 1.51306 4.08041 4.2229 5.80471 0.0221601 4.303 1.11854 -1.61427 5.68463 12.269 0.151158 0.0523079 -0.248545 0.883438 0.595297 0.831743 0.765615 0.206898 0.639174 -0.912182 0.35707 -1.28155 -0.0287595 
-6.44347 -1.84744 -8.13577 4.4516 4.47121 1.03521 5.09019 -2.03357 4.6195 5.97998 1.70624 1.25644 12.2561 0.200072 0.0193738 0.577116 0.916784 -0.24269 0.161903 1.26604 0.112091 -0.252558 0.0855363 0.826315 -2.71683 -0.0329948 
-6.03056 -2.75687 -7.6393 3.13476 0.695755 1.33335 9.0682 3.69998 9.03874 0.392741 -0.970656 0.465358 12.1266 2.4853 1.84102 0.948022 0.305121 -0.38827 -0.539898 -0.357252 -1.63116 -1.95503 0.310856 1.5354 -0.591774 0.125577 
-4.79659 -1.22031 -6.36482 5.78458 1.77978 3.20351 9.7887 -0.535321 5.6487 4.89964 2.22891 -3.26543 12.172 4.39346 2.92084 1.2142 -0.79927 -0.0816692 -0.14975 -2.02999 -3.01219 -3.56288 -0.777947 1.94519 1.07836 0.477374 
5.93505 6.43322 -4.12605 2.37218 3.48477 0.439263 1.66919 -8.88278 -5.98677 3.21299 5.80138 4.98669 12.9389 4.55859 3.19623 1.57679 -1.10114 0.0184074 -1.14804 -3.58996 -3.56819 -4.24823 0.444445 2.22008 1.22578 0.711516 
9.54103 8.16174 -3.82141 0.836536 2.66835 0.733508 -1.36025 -10.8031 -5.68215 0.680115 8.04617 4.38756 14.2368 3.40136 1.9254 1.06849 -1.11614 -0.141856 -1.19287 -4.35717 -2.04436 -1.91418 1.29304 1.12144 -0.385494 0.734072 
9.59358 8.53327 -1.02706 0.103069 0.343506 -3.17187 -3.3071 -9.00708 -6.53699 4.72473 7.22111 2.76777 14.6518 1.19516 -0.558848 0.130796 0.369082 -0.451206 -0.624376 -2.81699 -0.759563 1.68456 2.38417 -0.27818 -2.49226 0.566494 
10.381 7.35666 -2.57188 1.33843 2.64113 -0.955287 -9.50902 -10.695 -3.64707 10.609 7.12625 -4.08344 14.9859 0.666593 -2.04283 -0.226124 2.26306 -0.951105 -1.0596 -1.6513 -0.962004 3.50773 1.90444 -1.84813 -1.44781 0.382899 
11.4909 4.04152 -4.09683 3.96664 1.24236 -1.83822 -8.34135 -12.7347 1.41848 10.1694 4.87044 -3.23913 15.3968 0.553145 -2.79343 -0.887653 3.66518 -1.07262 -2.04022 -0.653935 0.0539946 3.07579 0.357208 -2.61658 -0.192108 0.262288 
11.9253 0.193468 -3.41714 10.22 -2.5366 -5.2313 -7.09961 -13.7494 7.87875 7.47996 -0.0191449 0.151982 15.7788 -1.07216 -1.96734 -0.0442208 4.04247 0.684125 -2.28561 0.822001 1.84588 1.4711 -3.5435 -3.90593 1.83076 -0.144899 
11.5871 -1.85227 -5.04269 13.9881 -2.43075 -11.2349 -7.78148 -7.20992 3.07905 8.07528 -2.28909 -0.310481 15.5668 -2.70521 -1.07297 0.262918 1.55194 0.843366 -2.02188 1.57438 2.4167 -0.943161 -4.5251 -1.47111 2.53556 0.152783 
4.97206 0.46684 -2.32005 16.54 7.89831 -7.68498 -5.67895 -4.22795 2.87813 -6.06144 -8.82363 3.60604 14.1764 -1.60879 -0.794093 0.633565 -1.25081 -0.714942 -0.545267 1.12681 2.1778 -0.521588 -2.18822 -0.364914 1.68122 0.518767 
1.44149 -1.46003 -3.33078 8.56633 0.241735 -10.7208 -1.17977 -5.41184 -0.79701 -5.68537 1.91715 7.71162 16.9618 0.240707 -1.52423 1.04316 -3.12364 -3.00121 1.26712 -0.888498 2.71006 1.30863 0.122305 0.811402 -0.235647 0.951109 
8.9542 -3.97312 -1.10527 6.67689 -7.44755 -8.2147 -4.76642 -3.75939 7.20884 3.41921 -3.94684 4.54701 17.6751 2.06184 -2.36417 0.34028 -3.88952 -4.37651 1.35599 -2.46614 4.46154 1.08827 2.98631 1.47228 -2.45987 1.15888 
10.7996 -7.25342 -0.434285 3.30148 -9.76389 -4.63445 -12.6802 6.10609 7.45686 3.94648 -0.670478 -1.9592 18.573 1.76126 -1.71396 -0.144501 -2.63274 -2.2919 2.66964 -3.09311 5.9938 0.355162 1.90188 0.0797048 -3.56285 0.65844 
10.6022 -8.45731 -2.0669 -0.275137 -8.98143 -3.94818 -12.2594 12.3208 4.19254 4.05416 -0.168423 -3.85792 19.1652 -0.0521806 -1.0086 -0.767012 -1.87306 -0.105713 1.77354 -0.876027 4.53835 -1.43511 -0.557021 0.933727 -2.24028 0.440214 
9.42378 -7.78771 -3.57247 -1.12137 -10.4508 0.49415 -12.8988 16.517 2.48695 3.50656 0.426472 -5.90015 19.509 -0.476277 -0.374971 -0.790801 -0.760022 0.396295 0.727938 1.28552 1.6151 -1.1113 -1.35688 0.525933 -0.978881 0.204059 
9.38119 -8.74899 -3.37123 -0.476976 -7.63264 -1.91129 -9.03727 13.7269 2.51823 0.854067 0.173323 -4.68393 19.4082 -0.644479 0.103245 -0.316165 -0.0430357 0.426703 0.0532924 1.21369 0.0352345 -0.212266 -1.81492 0.710433 -0.234796 0.0449339 
9.0287 -8.98244 -3.73612 -0.397707 -8.4568 -2.01321 -7.8637 13.4786 2.73753 -1.23788 1.78831 -6.4406 19.4718 -0.738847 0.468909 0.167604 -0.306229 0.59685 -1.08176 1.35641 -0.686661 -0.0233637 -1.60423 0.727549 0.686643 -0.0224001 
7.57736 -7.34372 -3.5659 -0.852147 -7.84492 -2.42804 -8.70854 14.0162 3.00592 -2.64824 2.70282 -4.76167 19.4085 -0.8058 0.833428 0.613191 -0.703837 -0.333773 -0.52071 0.465754 -0.176585 -0.104249 -0.965753 0.80517 1.05482 -0.00505161 
6.63147 -6.1458 -2.63712 -2.46493 -7.36044 -4.65625 -6.28113 12.9391 2.12628 -2.76342 2.79947 -2.42806 19.3968 -0.509067 0.836766 1.26977 -1.06299 -0.464334 -0.530514 0.511832 -0.666836 0.0125072 -0.510745 0.72043 1.45299 -0.0221434 
6.55081 -6.00016 -0.854782 -2.96255 -9.84969 -3.19332 -7.49979 13.1137 2.30261 -3.21193 3.6936 -1.41609 19.4204 -0.323476 0.719722 1.58595 -0.950919 -0.745809 -0.380968 0.60962 -1.3195 0.103605 -0.339478 0.640895 1.18139 -0.0363733 
6.99664 -5.47039 1.25716 -4.65747 -9.77608 -4.28314 -5.90891 10.5956 3.15172 -3.50976 4.89507 -0.848448 19.3551 -0.23405 0.615522 1.60594 -0.413927 -0.693693 0.0262722 0.293719 -1.61905 0.0934028 -0.675339 0.791519 0.607392 -0.0922537 
5.77739 -4.08282 2.41668 -4.51047 -10.3661 -4.51944 -5.84654 8.59044 3.01123 -3.97246 4.85949 0.355453 19.2475 -0.271679 0.616974 1.12507 0.00397663 -0.323429 0.192955 0.464219 -2.01778 0.110333 -0.883625 0.472282 0.605206 -0.133704 
5.84793 -4.02687 3.75684 -3.7606 -10.5707 -3.86183 -5.63916 7.10545 2.23898 -5.75984 6.17411 -0.276879 19.022 -0.0379472 0.258993 0.537374 0.366383 -0.335654 0.713265 0.0663276 -1.27682 -0.169133 -0.812392 0.326222 0.293649 -0.133235 
5.76677 -3.63705 3.52072 -3.3911 -11.0695 -2.4392 -5.31358 4.76991 3.31064 -6.50501 5.41549 1.32415 18.9185 0.269536 -0.148013 -0.00887876 0.212065 -0.104708 0.613334 0.149043 -0.362458 -0.0152836 -0.492614 -0.0594863 0.00365787 -0.0902884 
6.81221 -4.39831 3.39202 -3.38524 -11.1027 -1.75693 -5.84376 6.1218 2.15636 -6.30545 6.24818 0.135445 18.8535 0.321356 -0.437324 -0.616426 -0.0324906 0.0282991 0.399246 0.546192 0.755997 -0.124372 0.241977 -0.84081 -0.229547 -0.0178614 
6.64293 -4.63716 2.5547 -3.63783 -10.6237 -2.50522 -4.99902 7.26997 2.97613 -6.16273 4.52503 0.16758 18.8803 0.131933 -0.590995 -1.2097 -0.0268391 0.380167 0.308225 1.22173 1.62717 -0.0220965 0.688589 -1.64964 -0.923808 0.030864 
7.01663 -5.71343 1.15772 -3.7997 -10.6521 -1.83259 -3.06547 9.6354 1.78438 -4.7211 2.41529 -0.846328 18.9518 0.234062 -0.790395 -1.75329 0.455954 0.910104 0.183016 1.49099 1.82773 0.145387 0.772686 -2.255 -1.17404 0.0106113 
6.32423 -5.93446 -1.41062 -3.31807 -9.39398 -0.860241 -0.594054 11.149 3.38614 -3.85424 -0.916264 -2.804 19.0236 0.57545 -1.10725 -1.88556 1.08056 1.74467 0.444929 0.471028 1.47209 0.329126 0.738896 -2.19342 -1.69502 -0.037167 
8.14187 -7.70163 -3.39175 -1.26535 -7.16699 -1.66434 -0.591269 13.321 2.67828 -3.59626 -2.30615 -4.24898 18.8349 0.854924 -1.08585 -1.99377 1.2748 2.4164 1.12421 -1.35052 0.364604 0.660404 0.634787 -1.14343 -2.49167 -0.114763 
8.95756 -9.17932 -4.59835 0.497794 -3.64289 -0.364702 -3.88098 12.7877 4.17481 -3.03067 -4.08137 -6.60618 18.7529 1.11276 -0.276 -2.33027 0.71191 2.3612 2.51951 -2.71737 -1.32164 -0.0817821 1.53083 0.669691 -2.48849 -0.21884 
9.97458 -9.52024 -7.21727 0.666383 -1.44565 3.54068 -8.17458 10.6391 4.69207 -1.95895 -1.71929 -11.4036 18.5133 0.767493 1.21322 -2.07793 -0.369381 1.97445 2.80161 -1.26458 -3.58567 -0.725814 1.75373 3.00117 -1.70423 -0.413421 
10.9717 -6.40516 -11.1492 -0.724385 -0.448664 9.13481 -10.3893 5.88168 1.97034 2.98127 2.13876 -11.6691 18.0902 -0.0668555 2.2591 -0.250769 1.19904 0.527852 2.06336 2.85933 -6.90322 -3.24226 0.903212 3.47735 1.2404 -0.792228 
10.9723 -3.02263 -10.506 -2.50116 1.10814 7.59397 -3.66001 -1.15443 0.151444 2.16643 9.58965 -10.2386 17.0991 -0.979811 2.24794 1.33785 3.00799 0.112219 1.03405 5.16289 -8.3957 -4.21537 0.0477904 2.49823 3.85943 -0.861332 
8.12444 -1.13262 -4.20785 8.07677 -2.28052 7.92547 8.15836 -15.8317 -9.7662 -0.577299 7.65091 -0.986651 15.4989 -1.29878 1.24344 2.27134 3.39601 0.29943 0.37367 4.76063 -6.89111 -3.72515 -1.04921 0.965272 4.35947 -0.680017 
6.49916 -0.916791 -3.99872 11.3058 0.0313711 9.31562 8.36604 -20.4827 -10.5165 0.0592871 8.01581 2.55233 15.5023 -0.979139 0.36004 1.49609 2.58713 0.72239 0.39368 2.41475 -4.13443 -2.49077 -0.821178 -0.144987 2.91423 -0.316071 
6.71434 -1.24089 -3.04612 9.35217 1.58687 10.1423 7.40088 -18.9097 -11.3214 -1.21121 7.75204 3.73274 15.4885 -0.134055 -0.17748 0.148912 0.0117523 0.984875 0.484867 -0.54885 -0.414188 -0.20015 -0.426872 0.231952 0.429399 0.0194921 
6.78162 -1.1683 -3.60637 9.79679 2.78639 8.45393 8.79245 -20.2876 -11.5248 -1.6225 8.81415 1.97281 15.524 0.644767 -0.233286 -1.17919 -2.85226 -0.132076 0.836579 -1.63127 3.51622 1.43362 -0.494656 1.00644 -1.98631 0.2539 
7.31293 -1.89427 -3.65946 8.89003 1.26634 10.7806 5.20091 -18.0002 -10.2628 -1.87076 8.4115 1.4501 15.5855 1.08524 -0.654032 -3.07035 -4.4867 -0.233491 1.79749 -3.84069 5.35191 3.78866 0.127794 0.814249 -3.92564 0.827225 
9.4237 -1.75653 -9.58799 -2.72444 -0.468744 13.1794 1.30966 -3.35643 -3.87773 -2.08422 12.7183 -6.23792 16.7233 0.719927 -1.27642 -3.43977 -4.3937 0.304678 1.83352 -4.75963 5.47647 5.23869 0.534284 -0.913142 -4.4904 1.11884 
10.8195 -4.21693 -15.407 -6.8207 2.04699 16.7671 -8.06116 -0.615761 3.79834 -0.341383 9.87122 -11.7901 19.025 -0.138929 -1.55689 -2.49156 -2.38935 0.54488 0.654259 -3.72663 3.93905 4.8694 0.283105 -2.7094 -3.89084 1.02952 
8.62798 -6.38907 -14.9314 -4.31633 3.91946 14.6283 -8.37468 -1.59744 7.63808 0.284227 3.51858 -13.8591 19.3985 -1.06053 -1.22053 -0.420886 0.622932 0.557034 -1.19306 -1.1299 0.74388 3.31493 -0.542426 -3.74133 -1.78846 0.535508 
7.01614 -7.36246 -13.4455 -2.26079 1.79664 13.3275 -8.59008 0.815539 8.32629 -1.63946 -0.535645 -14.1935 19.3955 -1.56597 -0.315693 0.913576 1.78895 -0.545537 -2.70399 1.48033 0.633613 1.55797 -1.31694 -3.16596 0.184942 0.0198833 
6.02271 -6.28642 -12.6732 -1.88974 2.4416 8.93385 -4.07537 -0.35268 10.4329 -4.14731 -0.78495 -13.9785 19.2156 -1.39667 0.324871 1.22079 1.55866 -1.02713 -2.74468 1.83811 1.21307 0.458916 -1.08755 -2.53101 1.25942 -0.0476925 
4.29225 -5.84673 -11.9683 0.910757 0.0582309 6.09434 -2.80916 1.92992 10.1908 -4.71033 -3.80683 -10.8057 19.2158 -1.49938 1.28997 1.40571 1.57711 -0.899083 -2.74727 2.01401 1.4105 -0.618939 -0.247812 -2.51618 2.48447 -0.0871 
3.00659 -5.52258 -9.56611 1.8912 -0.346977 4.52146 -2.07458 3.91072 9.00042 -3.61811 -7.50087 -9.25591 19.2498 -1.38578 1.95054 1.91935 1.3208 -0.593166 -2.24451 1.67598 1.82091 -1.88738 0.457072 -2.65545 3.63029 -0.206908 
1.02729 -1.29454 -7.97054 3.7343 -1.30449 1.7973 0.479582 5.73632 5.94786 -3.14312 -9.75859 -4.13246 18.9429 -0.371407 2.48163 2.78373 0.698307 0.0453447 -2.1798 1.61559 1.23485 -1.76753 0.99925 -1.94682 3.61759 -0.60449 
0.726295 1.19017 -5.07529 3.30251 0.15713 -0.140188 2.66015 6.84868 3.11752 -2.64556 -11.0863 0.836352 18.3175 -0.637472 3.21607 1.6173 0.672818 2.00907 -2.20713 3.74351 -0.0369947 -1.92774 0.517013 0.492397 3.99472 -0.687059 
3.57536 3.20503 -0.295047 3.69664 0.0329008 -2.47384 2.90141 6.63518 4.29458 -0.200361 -11.7482 2.23615 16.6596 -2.62643 2.7218 0.615853 0.586317 4.44738 -1.73909 4.32275 -0.644345 -1.43755 1.04552 2.56069 2.20854 -0.0485607 
-1.4548 8.30797 -5.31737 5.27412 9.02969 -4.37861 15.4321 3.27631 0.188344 -2.50442 -4.04408 7.53339 16.9562 -4.63128 1.51001 -1.06023 -0.516705 4.11827 -1.67805 2.16298 -1.90566 0.531412 2.36596 2.6134 0.521705 0.650263 
-11.0143 8.75554 -4.77024 5.68008 16.4961 -4.77892 15.7073 4.30078 0.224674 2.01393 -0.476245 3.56174 19.3807 -5.13548 0.227522 -2.58244 -2.37166 2.1273 -0.987787 0.890787 -2.09458 1.48123 1.63988 1.20633 -0.218766 1.05921 
-15.1353 5.96494 -8.13887 -0.272738 12.5169 -7.37791 7.0721 -1.5124 7.80953 8.07711 -3.65528 2.78208 20.2082 -3.54204 -1.01056 -1.69377 -2.89324 -0.547913 -0.891913 -1.84853 -2.59244 0.449117 0.462907 -0.769372 -2.00639 0.745756 
-15.2618 5.51415 -11.7965 -5.38824 8.92581 -5.91313 11.5353 -1.44337 7.89012 2.70826 -5.91094 3.51797 20.3296 -1.41233 -1.11624 -1.32851 -3.16451 -1.81015 -0.912486 -1.61167 -3.01109 -1.94481 -0.747238 -0.130648 -0.76561 0.147207 
-17.0413 4.87587 -10.2731 -3.65791 10.0753 -8.27107 8.27543 -6.81381 -1.39879 -0.537049 -5.17359 -2.47669 20.2105 -0.530565 0.22282 0.358909 -2.16253 -0.375843 -0.0106578 -0.133871 -1.31591 -3.52788 -1.71735 0.990566 -0.0952506 -0.0139482 
-17.123 3.71886 -10.3457 -8.44987 8.66618 -8.89477 7.04733 -8.10399 -4.89521 2.58482 -0.370331 2.36308 20.1156 -0.146825 0.910455 1.07678 -1.63864 -0.402203 0.533608 0.174076 1.26957 -1.42284 -0.108254 0.500507 -0.139577 -0.0548204 
-16.8575 7.97668 -7.06975 -9.55456 10.7675 -5.94038 8.64675 -4.76165 -3.43721 -0.447915 -1.47276 2.88327 20.2455 -0.144609 0.890569 1.09356 -1.52533 -0.279726 1.92255 0.796409 2.30689 1.62977 0.9186 -0.528999 -0.969872 0.0178871 
-16.0878 8.51601 -8.01431 -10.6331 6.56871 -4.41043 12.22 3.87842 1.79515 2.12242 -5.25882 0.140107 20.038 -0.516941 -0.147259 1.05945 0.244958 -0.509014 1.46012 -0.408153 1.32391 2.54735 2.09253 0.781025 -1.3329 -0.00814629 
-18.2819 6.93014 -5.97097 -10.193 9.72538 -0.9005 9.67111 -1.27058 3.40487 4.28716 -5.37434 -6.21456 20.3387 -0.515882 -1.24642 0.204231 0.115947 -1.17682 0.432711 -2.09275 -1.49548 0.16529 2.42822 0.497226 -0.0879171 -0.0484447 
-18.9955 3.50584 -5.59781 -6.90588 6.64215 -4.11412 4.49438 -3.22997 4.42049 10.68 5.48558 0.247504 20.0283 -0.0264687 -0.473324 1.16425 0.46871 -0.509425 1.0351 -0.993508 -1.00301 -1.44231 -0.0380166 0.163369 0.308999 -0.0903381 
-17.9831 4.24964 -7.25684 -10.8384 4.84662 -3.92498 2.04581 -8.68486 -3.92343 7.4144 -4.35883 2.38999 20.0082 0.910004 0.116851 1.15564 -0.504386 -0.924228 0.114575 -0.243002 0.620455 -1.29695 -0.819264 -0.276476 0.597966 -0.274959 
-16.3695 7.48964 -1.55012 -7.96681 6.46097 2.27729 11.0652 2.5705 -1.75226 0.368714 -4.94973 -2.61717 19.7516 1.96152 1.73483 2.77579 0.879761 0.283639 0.16505 0.205254 0.553206 -0.473227 -1.53296 -1.39323 -0.953708 -0.535283 
-15.0449 5.52249 -2.21662 -12.1844 5.19483 -3.52333 5.17071 -1.06854 0.0064683 5.34646 -1.53906 -1.79239 19.1023 3.90971 1.87644 3.88277 3.09203 -0.806098 -1.95921 -0.495383 -0.852758 0.738957 -1.0845 0.224514 0.260665 -0.855175 
-10.657 11.5435 5.761 -1.83408 7.88623 -3.48969 3.9582 -4.2721 0.0894024 4.04912 -2.89043 -2.42985 17.8048 5.34348 -0.3349 4.4269 2.55363 -2.75395 -1.85943 -2.56165 -1.90696 -0.90043 -2.35647 1.10461 1.36858 -0.791567 
-1.29084 11.6049 8.50146 1.55534 0.103497 -10.8376 3.12237 -9.52735 -1.14948 0.151687 -4.26591 3.59965 16.7057 5.01249 -1.77426 4.89306 2.17857 -3.78424 0.713133 -2.35582 0.107549 -1.46774 -4.79462 1.97567 0.767289 -0.390707 
3.4709 2.77394 15.2253 -2.06852 -4.76309 -3.36274 -0.718916 -2.73488 -5.67644 -8.81624 1.93676 1.52971 16.9921 3.07866 -3.23217 3.03406 -0.17637 -3.18986 1.61124 -2.74047 1.24829 -0.764038 -4.66263 3.07839 -0.375741 0.057177 
2.95364 1.03597 17.5165 -1.17433 -7.40168 -0.0211442 -4.2698 -1.29941 -4.4493 -12.194 5.92568 0.0642772 17.5551 0.679446 -2.26707 2.02152 -0.306062 -1.17645 2.32413 -2.33615 1.82234 -0.171255 -3.38047 2.69767 -1.30621 0.208225 
2.61407 0.667176 16.4238 -1.35109 -4.31049 -0.841704 -6.04807 -2.14461 -2.08088 -13.0912 7.40572 -2.54087 17.666 -0.217095 -0.111564 0.287525 0.526519 -0.328244 1.0815 -0.943929 0.261073 0.07926 -1.72481 1.00315 -0.13745 -0.00174103 
2.53481 1.32291 18.0098 -0.333684 -6.00504 -0.4774 -5.89378 -0.710798 -3.80353 -14.6132 6.48796 -0.896126 17.4099 -0.00129666 0.417626 0.00717888 0.328974 0.120418 0.870192 -0.323809 -0.0227145 -0.546546 -0.550663 0.121523 -0.119279 -0.19224 
2.59484 2.07265 16.4163 0.143745 -7.10263 2.27288 -4.62657 -1.72382 -5.60302 -16.2307 6.67139 1.32266 17.056 0.0864596 0.502286 0.276707 -0.11005 0.111907 0.559404 -0.0177312 0.694094 -1.30533 0.400831 -0.918112 0.112559 -0.182379 
2.95678 2.42136 17.5562 -0.276885 -5.40352 2.77252 -6.5996 -1.62337 -5.42096 -13.3775 6.90046 -2.46388 16.8989 -0.142386 0.867942 0.191327 -0.571003 0.248483 0.128309 -0.148934 1.14246 -1.32529 1.29232 -1.53373 -0.178187 -0.0990297 
2.83538 2.62938 18.0342 -1.92974 -4.05171 0.330352 -5.78382 1.78215 -7.7988 -11.7049 2.60891 -1.19419 17.0096 -0.397884 0.955143 0.850518 -0.697008 0.318868 -0.868997 -0.0794669 1.21857 -1.28846 1.3626 -1.41481 -0.149205 -0.0262281 
1.7026 5.38426 18.1575 -2.15195 -6.28808 1.13541 -6.05983 3.24851 -9.3321 -10.4145 0.85055 -0.528636 16.9379 -0.730447 0.80116 1.11109 -1.5575 0.311697 -0.966996 0.522447 0.735863 -1.34027 1.4854 -1.91496 0.41509 0.106342 
1.23251 5.36692 20.3682 -2.40376 -5.06601 -1.25355 -5.29379 1.93309 -10.0897 -10.8993 2.62229 -0.390985 16.9053 -0.932909 0.87377 0.911631 -1.43509 -0.143517 -0.770011 0.672641 -0.199931 -0.64465 1.25908 -1.14728 -0.162532 0.126496 
0.105977 5.05839 21.9446 -7.82739 -3.33789 -1.2705 -4.23237 1.98047 -10.9769 -6.35334 -2.68105 -0.790035 17.4827 -0.476035 0.0507634 0.398513 -1.31475 0.242892 -0.392464 0.347942 0.349618 -0.880982 1.01097 -0.800426 -0.367694 0.0860844 
-1.03085 7.16116 20.6988 -6.26748 -6.24439 -2.31674 -3.33434 1.41652 -10.1997 -7.44005 -1.36171 -1.87615 17.3697 -0.137426 -0.256121 -0.0360077 -0.751617 0.304049 0.160367 -0.989439 1.21114 -0.86256 1.05941 -0.843017 -0.434937 0.0250731 
0.454107 4.74096 19.9848 -6.79385 -4.48443 -0.295313 -5.29984 5.25489 -13.682 -7.08924 -1.15958 -1.62452 17.1362 0.162493 -0.354121 -0.712621 0.150382 0.891114 0.102068 -1.96475 1.27485 -0.636768 0.980661 0.309327 -0.332694 -0.0671835 
0.371313 4.24504 21.168 -6.67862 -2.97249 -0.939307 -9.70725 6.35156 -13.05 -5.23423 -2.35353 -2.14842 17.204 0.12209 -0.309124 -0.272827 0.362034 1.10468 -0.422492 -1.62601 1.30563 -0.208932 2.10364 -0.998157 -0.0990075 -0.0974802 
0.21736 4.74585 18.1469 -6.86991 -0.51827 -1.44888 -10.8697 5.88718 -12.7356 -2.55294 -0.638506 -2.31737 17.2297 -0.566972 0.221983 -0.832447 1.24911 0.647788 -1.0323 0.808298 -1.44687 0.221245 2.9114 -0.961919 0.760039 -0.236744 
-0.302029 5.6131 20.2536 -4.41928 -2.70406 -3.85242 -8.67947 7.62853 -11.7176 0.810016 -6.61304 -2.02477 16.8355 -0.418903 0.277524 -1.2604 0.395561 0.95349 -0.448366 1.24333 -2.25968 0.213727 1.5209 -1.0325 1.70671 -0.378777 
-2.04408 5.16684 16.2798 -1.67798 -1.3797 -4.00027 -1.77224 -2.61796 -13.242 4.44563 -3.83942 2.11384 16.1367 -0.0857562 0.544027 -0.522626 -0.938733 0.82119 0.272347 0.350227 -1.88645 0.190381 1.61022 -0.53383 1.16281 -0.291507 
-0.592483 5.42216 15.7996 -7.29678 2.22567 -1.90545 -8.03932 -0.694289 -11.7281 -1.12903 -5.91556 4.16953 15.8566 -0.321108 -0.603672 -0.552959 -0.584049 0.957793 0.971295 -0.327243 -1.87397 0.535376 1.83423 0.857352 1.40661 -0.253291 
-0.0661945 7.56145 17.7608 -10.1248 1.12281 -1.06064 -9.43863 0.616345 -11.7784 6.46769 -3.65639 0.399541 16.2616 0.456672 -0.0698752 -1.31688 1.28818 -0.319846 0.0814181 0.146832 -0.629627 1.42214 0.00420191 0.311676 0.447108 -0.537069 
-2.89651 1.39743 16.7483 -3.1161 0.833648 -0.46576 -6.48249 -3.35846 -9.77251 8.97015 -2.41779 5.86544 15.5066 -0.0494576 -0.649091 -0.757345 2.23679 -0.884357 -0.575906 1.68068 -0.792136 0.389215 -0.590796 0.0532746 0.11859 -0.272962 
1.39129 6.82983 9.221 2.67257 -2.28292 -4.31302 -1.8165 -4.43401 -7.10911 -0.582951 -4.02992 3.50143 13.6263 -0.30868 -0.591598 -1.56721 2.23512 0.0506193 -0.354937 1.74681 -1.30296 0.311153 -2.40467 -0.802691 0.049482 -0.427667 
-1.56851 2.54252 16.2827 -2.5115 -0.493242 -3.15879 -3.44701 -2.12979 -12.1167 -0.557688 -5.46243 3.21153 15.8094 0.242812 0.15008 -2.70501 1.31367 2.14859 1.64759 1.43574 -0.894084 0.808483 -2.82822 -1.32422 -1.24887 -0.490389 
-2.27359 4.03092 10.1575 0.748478 2.03936 -1.48881 -2.22232 -6.51279 -9.05056 -0.791732 -6.14753 1.9739 13.9719 0.0630811 -0.365433 -1.32979 0.279866 2.00108 1.75103 1.04269 -0.99543 0.901429 -0.848745 -0.225953 -0.0944585 -0.272524 
0.149988 3.54728 2.75504 4.4143 9.41547 6.36009 0.89913 -6.78949 -4.75937 -5.06658 -7.98011 0.38483 12.8819 -0.228082 -0.311995 -3.68935 0.264109 1.35439 0.485855 1.20878 -0.369641 1.38739 0.195402 0.542651 0.805173 -0.609908 
0.847448 4.50028 9.33591 0.609001 2.76811 -0.31729 1.22389 -7.08131 -6.28061 -2.57223 -3.90085 4.44249 13.7275 -1.32189 -1.30757 -3.24021 -0.991013 0.188897 -1.6094 0.023053 0.989524 2.03371 2.28241 0.92103 1.37204 -0.209541 
-4.26945 0.747866 -1.7532 -1.12122 5.91432 -1.31527 0.873809 -3.69374 -6.56469 1.30957 -3.87251 6.0031 12.8821 -2.1406 -2.07408 -2.87394 -1.8176 -0.698853 -1.0985 0.231797 1.70632 1.82794 2.13788 0.758787 1.46359 -0.0997429 
-6.67334 -1.1072 -3.78946 -1.43883 4.73441 -5.69811 -2.09439 -3.11305 2.02065 7.43222 -3.59618 6.02497 12.9241 -1.80651 -2.3691 -3.39426 -0.596957 -0.583734 -0.440505 1.13176 1.41045 2.67521 1.41974 0.0257923 0.0644701 -0.189257 
-6.79259 -4.01935 -5.05195 -3.64981 4.93805 3.558 3.71725 -0.242009 0.229693 0.620615 -4.33851 6.91153 12.7849 -0.567905 -1.056 -0.485349 0.686115 -2.33705 -0.0192658 2.23729 1.02413 2.5533 0.989501 0.850643 -0.707649 -0.0842212 
-6.9235 -4.9616 -5.98604 -1.11149 0.337576 -4.95645 5.46096 -1.75492 3.69827 4.87096 -3.53889 4.31063 12.8298 0.209989 -0.516047 0.547088 1.71422 -1.67516 0.756459 1.30926 0.513327 0.890331 0.0888322 2.12081 -0.101568 -0.112551 
-6.98389 -2.60492 -3.08166 2.14568 -3.57251 -1.78243 8.28257 0.747844 5.363 7.5377 0.352061 3.32203 12.5081 0.643298 0.76735 1.30349 2.37286 -0.212336 0.382913 0.424994 -0.658601 0.535474 1.67454 2.04418 -0.0423677 -0.106913 
-5.52775 -4.39466 -2.03917 4.23451 0.613891 0.754397 2.16926 -1.04134 3.90565 4.41784 4.66257 7.31188 12.4997 0.474381 0.565958 0.343008 0.955244 1.35775 2.90546 0.748334 -0.461577 -0.226309 -0.195717 0.154617 0.14571 -0.126569 
-4.27398 -0.466076 -0.507938 5.54149 3.73821 2.61714 7.48807 -3.89181 2.80337 9.21986 1.78166 5.19907 12.4154 -0.145417 -0.347344 -0.342234 1.33843 1.85238 1.74911 0.635316 -0.139692 0.0711183 -1.93775 -2.16385 0.55363 -0.0560306 
-5.90656 -3.20123 -5.55786 1.96682 3.47096 7.37108 9.59988 -1.74298 3.84654 3.05129 -3.4806 4.10066 12.2433 -0.0278721 0.0841832 -0.686538 1.17972 1.48545 1.11025 0.84703 0.716994 0.776039 -2.02862 -1.75539 0.828922 -0.105067 
-7.52158 -4.93835 -3.03348 9.97168 4.26085 3.65475 7.74384 0.400206 5.74815 -1.46779 -6.39561 7.69579 12.3561 0.389441 0.520135 -0.745534 -0.211765 1.08622 0.604949 -0.316979 0.627334 1.92544 -0.691862 0.735063 0.845979 -0.0734837 
-4.04331 -1.7376 -4.20909 7.91802 7.77984 5.78686 6.27652 0.397625 6.31346 -0.381411 -0.0257183 10.2081 12.004 0.134708 0.780247 0.713883 -0.0492782 0.904122 0.973066 0.869178 0.209804 1.52761 1.79909 -0.209117 -1.18796 0.0732295 
-3.2584 1.40279 -4.90999 1.50707 7.01486 6.43399 7.56486 -1.82544 11.1971 7.47691 3.72953 6.37523 12.1676 -0.0727374 0.552116 0.269919 -1.53938 -0.373487 0.942046 1.77777 -0.655674 -0.754369 2.77574 -0.96527 -2.81039 0.14522 
-7.3646 -2.47056 -1.05019 5.95274 6.61456 10.8468 14.0353 0.418862 8.7601 7.57439 -9.58876 -1.17885 12.7037 -0.483737 -0.380327 -0.23405 -0.737229 -1.69713 -1.66728 0.732296 0.432936 -1.11093 0.906258 -1.38499 -3.00698 0.110966 
-6.22462 -1.81129 -3.26334 3.25744 2.97605 5.83502 12.7533 -2.88878 0.752985 8.43302 -6.44044 -0.66266 12.7324 -0.164621 -0.651044 -0.585001 0.0316859 -1.04037 -1.94278 -0.206135 1.31028 -1.10391 -1.69036 0.34511 0.337542 -0.0516905 
-4.97889 -2.0322 -6.20266 3.35669 1.31358 -2.25007 7.34377 3.09397 5.98087 3.67182 -1.86569 -1.30783 12.2764 0.4672 0.298512 -1.15214 -0.874543 -1.55293 -2.67725 -2.1606 1.17524 0.941399 -0.149733 3.1645 1.50605 -0.190538 
-5.27436 -2.07161 -5.25876 2.96352 4.46351 3.26852 9.87992 3.38841 7.06718 0.976375 1.59354 8.12742 12.1228 0.0916926 0.311125 -0.471015 -0.469062 -1.29471 -1.31886 -1.88436 1.2153 2.34432 1.11243 2.13969 0.850222 -0.157372 
-5.50373 -0.847845 -5.81316 1.72698 -1.89379 -1.25621 4.66894 3.15646 10.31 10.554 2.21676 1.95636 12.0558 -0.127905 0.359248 0.02246 -0.449596 -1.27721 -0.253702 -1.05606 -0.010696 1.19011 2.33421 0.878812 0.0357307 -0.0508222 
