-7.7851 1.44524 -10.8338 0.546257 5.00909 -3.02079 6.76249 4.32703 8.99604 11.5904 -0.348897 5.12024 11.8721 0.746878 0.336856 -0.0602736 -0.0650707 0.0251804 -0.0315203 -0.761457 -0.56775 -2.20711 -1.81503 -0.287352 -1.04041 -0.0265869 
-5.97591 2.17753 -11.2452 0.879892 6.04382 -1.62844 8.10163 1.22459 4.64051 9.11153 -3.38193 0.518455 11.7232 0.702386 0.342174 -0.117858 -0.0737584 0.0964478 0.281782 -0.797694 -0.367913 -2.74239 -2.93669 -0.443659 -1.44086 -0.00946083 
-4.9553 2.76338 -10.9294 0.0540853 4.61762 -3.87456 2.28563 3.0395 0.138236 3.75473 -0.26914 2.21907 11.8135 0.535291 0.0950359 -0.172421 -0.182064 -0.105478 0.323113 0.418933 0.390057 -1.42849 -1.85127 0.323955 -1.04314 -0.02638 
-5.68807 2.49704 -11.3753 0.42355 5.68706 -1.18499 5.01245 3.13123 -0.286986 0.824835 -2.60707 -0.633471 11.854 -0.278441 -0.025084 0.128497 -0.267158 -1.02182 0.424801 1.88759 2.41318 0.3377 -0.636348 0.192996 0.27705 0.0865869 
-5.25256 1.76066 -11.6309 -0.135893 4.66008 -1.62695 10.4017 5.32399 4.31733 6.47746 0.883449 0.480486 11.6748 -0.3881 -0.315868 0.751951 0.424562 0.202421 1.40265 2.78309 0.478389 -0.334529 0.456013 -0.654642 0.561593 0.049661 
-7.21948 2.55347 -10.252 -0.360908 0.913502 -0.628243 13.4815 12.1483 4.23946 4.56842 -2.99325 2.773 12.2255 -0.276908 -0.127229 1.33981 0.507343 0.610875 0.420497 1.45641 -0.941641 -1.03412 0.887883 -0.21124 1.6149 0.0165518 
-6.13009 1.15582 -7.73129 2.56912 8.01651 2.86033 11.9666 0.922933 -3.79764 4.163 -3.34926 3.3238 11.8761 -0.166747 -0.282649 0.717393 0.485579 -0.0853909 -0.418322 -0.344949 -1.48249 -0.51302 0.794376 -0.995064 -0.0527374 0.0214309 
-6.63384 2.16332 -6.62602 1.60776 7.06322 -1.32614 11.5121 0.623557 -1.40009 6.42148 -1.54692 6.01936 11.8361 0.690463 0.325643 0.60597 1.17006 0.748084 -0.502749 -1.55655 -2.87561 -0.636233 0.660944 -1.60654 -2.04583 -0.0541526 
-6.37911 0.542492 -9.85692 1.30767 1.15827 -3.36961 9.66172 3.67391 4.572 9.52281 -4.81503 -1.40638 11.9766 1.76941 1.9271 2.41837 1.14171 0.434754 -0.410245 -3.25407 -2.37921 -1.28993 -2.47304 -1.89432 -2.11697 0.226063 
-3.64266 4.48835 -6.15936 6.12011 8.08304 -0.0270214 6.8512 -3.60529 -3.12652 5.19324 -10.2931 -5.09105 11.9045 2.38679 2.60724 4.84841 -0.311442 0.701692 0.809367 -4.39471 -2.75016 -2.6211 -3.80402 -0.929934 -1.45435 0.634373 
1.22136 9.62879 4.12723 6.02152 9.68037 0.159541 -1.97332 -8.85871 -9.38409 -7.58809 -8.44778 -1.70585 12.9722 2.06214 2.43167 7.01563 -2.20548 0.533273 1.60349 -5.1733 -1.20626 -2.37836 -4.18594 1.3185 0.982489 1.09049 
1.49989 10.6564 10.624 -2.30638 6.31063 0.95612 -4.64396 -6.86095 -7.52757 -4.04314 -4.38022 -1.10264 14.5102 1.11448 1.48663 5.67724 -2.80254 -1.75043 0.949728 -4.22295 2.14259 1.19781 -2.37426 2.88132 1.56915 1.1503 
1.36032 9.61685 16.8296 -5.50649 4.71083 4.15629 -10.4572 -0.729531 -5.11925 -6.78871 -1.17896 1.51186 16.1262 0.0103281 0.104641 2.97556 -1.29216 -1.51605 0.87853 -1.72061 3.5096 2.8263 -0.0252315 2.31247 0.948674 0.89081 
1.86028 11.9275 15.8757 -2.12859 1.81565 2.72325 -10.0216 3.04308 0.730119 -7.07778 0.479138 1.14583 16.079 -0.430109 0.0459841 1.54446 0.513064 -0.412395 0.569255 -0.218297 2.2784 2.88147 -0.502145 0.81942 0.803783 0.582577 
1.09281 9.51644 16.3792 -0.528167 4.34763 3.66863 -7.88757 3.73728 0.618556 -6.19693 0.684891 1.91329 16.6419 -1.0855 0.0940233 1.1908 0.648812 0.0517607 0.530553 1.21853 0.947209 1.37881 -0.740667 -0.0108472 1.00454 0.507287 
-0.516899 10.9365 18.5714 -2.23022 4.43026 4.04623 -7.02026 2.29763 4.01088 -6.84976 -1.21504 2.71556 17.1653 -1.58775 -0.355988 1.6496 -0.227415 0.452478 0.85033 0.932747 -0.261694 -0.355427 -0.95961 -0.06226 1.4327 0.682129 
-2.87861 10.5825 21.4357 -2.21161 3.66233 6.14756 -5.86525 4.37924 0.134421 -10.6061 -0.386104 5.74971 18.1195 -1.05653 -0.452284 0.848709 -0.216841 -0.180665 0.695656 0.310817 -0.431371 -1.13295 -1.86316 0.408295 1.31649 0.612647 
-4.09275 9.61452 21.5954 -2.42394 4.42069 5.73543 -6.36903 1.41363 -0.804948 -9.67126 0.703336 6.3911 18.7508 -0.239962 -1.39352 -0.627637 1.289 -0.419748 -0.572565 0.716173 -1.3967 -1.45011 -1.77738 -0.109662 0.725593 0.364514 
-2.40193 7.916 19.1107 -1.51551 3.44909 6.30231 -6.6591 2.02243 -2.63829 -14.102 1.76718 6.65795 18.9123 0.70939 -2.16908 -1.84016 2.83153 -2.49457 -1.07884 0.296066 -2.87402 -0.131145 -1.47381 -0.914329 -0.214678 0.22635 
-1.95505 5.30213 16.5957 3.86671 2.43814 1.10603 -3.04247 -3.50744 -1.85332 -13.9887 -2.83999 5.8894 18.5914 1.23404 -2.75412 -2.24248 3.32312 -4.31263 -1.46321 -0.184229 -2.33178 -0.0181551 -0.667064 -0.964733 -1.04151 0.226899 
-0.400511 1.89327 14.7347 8.80071 -7.81922 3.06807 -6.0482 -7.53032 0.00287887 -15.8164 -3.18609 4.92717 19.3309 1.39712 -3.19503 -2.48057 2.43705 -4.77 -2.08942 -0.661897 -0.9939 0.365462 0.985308 -0.551375 -1.63264 0.373465 
1.07676 -1.14472 12.5711 9.03355 -11.5083 0.0364821 -7.59563 -5.46888 -2.21631 -12.1494 -1.6437 2.04891 19.676 1.54043 -3.19881 -2.55827 0.369129 -2.89099 -2.07978 -0.98093 1.18038 0.781881 1.58584 0.774694 -1.80575 0.439286 
3.06776 -4.83571 8.7202 8.08632 -13.4277 -3.61003 -7.69201 -1.96635 -0.629484 -10.0951 -1.58784 0.414999 20.2374 1.47125 -2.65251 -2.8882 -1.12979 0.376219 -2.41128 -0.847534 2.26338 1.247 2.75724 0.436006 -1.73506 0.23851 
4.01295 -7.32742 6.81163 6.06956 -9.21256 -5.95384 -7.12521 -0.387538 2.37227 -8.92015 0.234357 -0.883264 20.3346 1.3739 -1.72606 -3.13833 -1.58239 2.01391 -1.27658 -1.07526 1.16528 2.08934 2.98281 0.703375 -1.83302 0.0503139 
5.48764 -8.27793 3.17347 4.63375 -7.086 -5.99317 -10.5211 1.24593 3.94358 -3.64481 -1.94508 -2.28203 20.1942 1.29467 -0.593561 -3.12964 -1.7281 2.26882 0.25916 -1.19858 -0.466503 1.31278 3.61233 1.3807 -1.82416 -0.112756 
6.73632 -8.0539 -0.347223 2.8479 -4.60959 -5.15485 -11.5574 -1.24863 5.94385 -0.460483 2.0518 -5.76768 19.9491 1.17269 0.356417 -2.91769 -1.85244 1.44602 1.30603 -0.657404 -1.65605 0.277346 3.66536 2.07016 -1.32814 -0.126127 
8.17945 -7.44028 -3.34856 1.05665 -4.38506 -2.71373 -11.4688 -3.86832 4.14863 3.73668 4.40696 -6.2636 19.8663 0.906414 0.617614 -1.95163 -2.04108 0.845053 1.7573 0.236636 -2.01291 -0.533362 2.39937 3.19136 -0.848254 -0.0553837 
8.53051 -5.96416 -4.51579 -1.40408 -3.33292 -1.0634 -9.93837 -6.11067 3.65647 5.71592 7.40916 -5.53318 19.8679 0.470453 0.634283 -1.12976 -1.90953 0.517163 1.62063 0.390378 -1.38864 -1.20609 1.82447 2.42121 0.0543444 0.0256676 
9.12261 -6.23473 -4.50042 -3.44566 -3.49907 0.747624 -10.1474 -6.38759 2.42046 5.26386 11.333 -6.64056 19.9579 0.0247079 0.297301 -0.305168 -1.5657 0.819207 0.750858 0.337213 -1.04109 -0.688786 0.971616 1.86824 -0.341611 0.065205 
8.617 -5.48526 -5.42009 -4.4486 -2.46677 1.21761 -10.2662 -6.93221 0.777471 7.8983 10.6948 -5.30748 20.0317 -0.298721 0.0181771 0.064749 -0.571138 0.618257 -0.133658 -0.262585 -0.364525 -0.462592 0.737498 0.560847 -0.653393 0.0506002 
8.25974 -6.19323 -4.42225 -5.2496 -0.722104 -0.0999448 -9.61881 -8.66301 2.1442 7.50357 12.1053 -8.0845 20.1105 -0.535909 -0.00802259 0.602408 0.514427 0.158977 -1.03355 -0.536778 0.531017 0.10074 -0.0538551 -0.467287 -0.596719 0.00699482 
7.46834 -5.89403 -4.23113 -3.35779 -1.63012 -1.30791 -11.5156 -6.79559 1.48164 8.28355 9.82723 -8.07817 20.0446 -0.669334 -0.261384 1.38958 1.41878 -0.554974 -1.83711 -0.8651 1.84771 0.34405 -1.36923 -1.33644 -0.148945 -0.0130346 
7.0174 -6.07046 -2.08286 -1.41893 -3.12251 -3.15737 -12.2066 -3.80082 2.57207 4.80196 9.43038 -8.23881 19.9864 -0.97541 -0.211946 2.10753 1.98467 -1.19261 -2.35552 -0.683761 3.0568 -0.0794883 -2.51268 -1.99889 1.18506 0.0141165 
5.8915 -6.85357 0.35814 0.729981 -4.04144 -6.43922 -13.2978 -0.124736 2.28379 2.40297 5.3501 -5.97505 20.0286 -1.32524 -0.28334 2.98324 1.87122 -1.41267 -2.07692 0.470998 3.0558 -0.83633 -3.66931 -1.45233 1.61406 0.0835756 
4.17111 -6.77319 3.82074 2.62984 -5.47952 -9.3119 -12.1465 3.28559 1.34568 -2.11951 4.34946 -3.21077 20.1891 -1.50152 -0.281992 3.45919 1.58375 -1.43558 -1.00794 1.29204 2.17008 -2.08716 -3.73955 -0.966468 1.62122 0.139755 
2.26526 -6.95936 7.73329 3.97391 -7.51497 -8.61523 -9.19065 4.94019 -2.08682 -6.60228 5.10602 -2.52188 20.3612 -1.34092 -0.00889549 3.77223 0.804968 -1.24885 0.972642 1.97979 0.432438 -2.50475 -3.426 -0.0869317 0.619588 0.125556 
1.3229 -7.42752 11.5255 4.87786 -8.56366 -7.10905 -7.79999 4.5171 -5.67844 -9.39317 4.72007 -1.85932 20.5189 -1.04507 0.381913 3.41639 -0.0535267 -0.735605 2.37657 1.58143 -0.954799 -2.32744 -2.07248 -0.315615 -0.403149 0.0422783 
0.611026 -6.57088 15.3669 3.63081 -8.74362 -2.67743 -5.5721 1.4217 -6.7279 -11.0902 4.73013 -3.55284 20.4915 -0.720672 0.949376 2.52291 -0.377544 -0.0849363 2.94837 1.08062 -1.63325 -1.26522 -1.12618 -0.877211 -0.765587 -0.0854059 
-0.227123 -5.05787 17.0859 2.53376 -8.54322 -0.397938 -6.04865 0.270838 -7.97099 -10.238 2.95933 -4.71103 20.3353 -0.554089 1.46797 1.72962 -0.54427 0.523754 2.4922 0.859362 -1.30839 0.0488045 -1.08161 -1.06189 -0.70434 -0.20849 
-0.563087 -3.3973 17.5676 3.25824 -7.94987 2.77106 -4.66324 -1.10293 -7.26664 -11.8108 1.60034 -4.92396 20.0259 -0.457914 1.7548 1.13355 -0.473853 0.787867 1.57767 0.55925 -0.328268 0.608185 -0.84097 -1.30974 -0.314944 -0.297527 
-0.860485 -1.67447 19.0732 2.3428 -6.34176 2.6277 -3.95761 -0.762528 -5.16504 -14.441 0.975541 -4.69546 19.7092 -0.281667 1.77342 0.962158 -0.24888 1.017 0.990532 0.375308 -0.185357 1.28379 -1.19643 -0.423338 0.081963 -0.324003 
-1.36186 0.511441 20.041 1.35703 -5.90501 3.69808 -3.82137 0.297042 -5.08995 -13.1935 -0.826663 -5.13535 19.3169 -0.0913134 1.40236 0.695078 -0.208865 1.19696 0.126406 0.0578765 0.0163058 1.29068 -0.485889 0.0390857 0.561364 -0.290238 
-1.23607 1.85485 20.66 2.23996 -4.48066 4.09122 -4.59304 -1.35593 -2.64038 -15.5287 2.05614 -4.19553 19.0698 0.125955 0.895213 0.293272 -0.0459069 0.707321 0.113075 -0.233191 0.141811 1.00376 0.392547 0.211516 0.748475 -0.233771 
-0.831862 1.84983 20.2496 2.26533 -2.8956 2.67133 -4.05614 -0.724699 -2.07555 -13.6963 1.25547 -2.3671 18.8944 0.435991 0.256429 -0.267994 -0.0370927 0.181487 0.196181 -0.600315 0.217115 0.650343 0.566443 -0.00342579 0.788168 -0.158303 
-0.495709 2.1324 20.4353 1.65911 -4.30986 3.70645 -5.00618 0.457397 -1.65342 -12.2268 0.992054 -2.3372 18.7516 0.205241 0.301907 -0.425416 -0.123331 -0.659135 -0.682069 -0.292605 0.0142101 0.714382 1.18084 -1.01989 0.9355 -0.0772366 
0.447913 1.65481 18.8134 1.46199 -5.08298 4.87136 -6.61637 0.475954 -2.33171 -12.0123 -0.31175 -2.12367 18.6845 0.428828 -0.189821 -0.449568 0.302092 -1.27412 -1.41913 -0.217534 -0.267797 1.08808 0.391241 -0.751059 0.600434 -0.0333523 
-0.84975 3.46189 19.2511 2.02498 -6.68265 -0.419142 -4.77595 -1.88521 1.05961 -10.4665 -2.25973 0.360259 18.7886 0.902847 -0.965558 -0.908359 1.06652 -1.18445 -2.3822 -0.223981 -0.178022 1.14306 0.237499 -0.226649 0.88476 -0.0261942 
1.4893 0.235976 18.5939 3.59286 -8.07981 -2.36153 -5.25893 -0.892382 2.00834 -12.6203 -0.873937 -0.713665 18.7092 1.47688 -1.60777 -1.65414 1.7398 -1.02738 -2.80147 -0.814926 0.145212 0.914082 0.814521 0.365 1.04162 -0.0690308 
3.49783 -1.98597 16.0032 5.92625 -8.73369 -4.58809 -6.80481 0.251455 1.89187 -10.7353 0.139901 1.3816 18.6083 1.9195 -1.9563 -3.00654 1.6748 -0.224686 -2.30263 -2.07078 0.487143 0.790176 1.27628 0.591488 1.07277 -0.0978664 
5.65854 -3.6601 12.1666 8.21036 -9.19436 -7.0515 -9.67658 0.133681 1.82257 -7.80526 0.313437 2.57375 18.4295 1.69962 -1.43252 -3.80068 0.730923 0.746819 -1.72066 -1.31283 0.010163 2.17905 2.02415 -0.0493031 0.6225 -0.168391 
6.66312 -4.37158 7.43199 8.09025 -7.24881 -9.58732 -12.921 0.0374768 5.10337 -6.49263 0.104029 4.08038 18.4391 1.46281 -0.808954 -4.1857 -0.447326 1.41183 -0.54497 -0.787646 -0.235996 2.74422 2.87535 0.116561 -0.88471 -0.195703 
8.40476 -5.73381 3.8761 6.16548 -5.08816 -8.46524 -8.76495 -0.734578 11.2978 -4.62084 -1.10252 1.04944 17.9518 1.26559 -0.162204 -4.35239 -1.43931 1.61304 0.897216 0.328749 -0.662072 1.79336 4.20465 0.467133 -1.44015 -0.138503 
9.43876 -4.99388 -0.78003 4.71206 -3.72762 -6.60607 -11.1989 -0.494396 10.8753 2.04921 1.43068 -2.2798 17.8686 1.30898 0.10207 -3.9574 -2.40067 1.34958 1.93196 1.61253 -1.8016 -0.171637 5.11697 0.956606 -1.45258 -0.0234644 
10.5987 -4.15996 -5.48932 2.70292 -2.88976 -4.05604 -8.89392 -2.91075 7.90337 8.94709 1.98577 -1.4469 18.0222 1.20883 0.461757 -3.38341 -3.11872 0.533589 2.76204 2.72757 -2.77432 -2.62201 4.67379 1.48252 -0.349289 0.0780596 
12.1111 -4.64815 -7.67231 -2.18183 -1.60011 -2.1321 -4.7939 -7.88245 5.94242 12.3083 3.34291 -1.93437 18.2865 1.07773 0.541419 -2.75634 -3.3883 0.191582 3.52582 4.01749 -2.66822 -3.59848 2.76472 1.0397 0.224459 -0.0150311 
13.1127 -3.59789 -9.59481 -5.9812 -3.48397 3.10795 1.67042 -10.9121 0.654223 13.6186 5.35398 -0.869717 18.1331 0.430025 0.698166 -1.38412 -2.9953 -0.298287 3.77592 4.32365 -2.25566 -3.25766 1.05981 0.459172 0.317337 -0.265274 
13.5704 -2.56783 -12.509 -7.88738 -2.47261 7.44102 3.60645 -9.83478 -3.4925 13.5371 4.94506 -1.44609 17.738 -0.531596 2.02557 -0.67675 -1.55107 0.0849604 2.39061 3.2742 -0.788714 -3.32197 -0.5316 -0.594285 -0.0141529 -0.671772 
12.0191 -1.7093 -9.99156 -9.42079 -3.94495 10.037 8.52418 -13.2129 -3.66748 13.6317 3.48056 -0.10435 16.9701 -1.29732 3.4401 -0.442706 -0.193201 1.1502 -0.968566 2.07776 2.72888 -1.85498 -2.58285 -1.55812 -0.0289084 -1.02634 
9.99991 4.5354 -10.8577 -8.21737 -0.944818 6.35642 8.15025 -10.6756 -8.5066 9.6437 1.3082 -2.38782 15.5092 -1.50309 3.36875 -0.247425 -0.315521 1.045 -2.07158 0.911905 3.04221 -1.34432 -3.4701 -2.16408 0.396285 -0.921122 
8.41136 10.051 -12.634 -6.78221 1.50314 -1.19258 9.78731 3.1527 -6.11364 2.65101 -0.618181 -0.543396 14.1158 -1.43448 1.75361 -1.00467 -0.574169 0.414013 -2.09335 0.407239 3.53646 -1.00075 -2.71287 -1.40879 1.38023 -0.59455 
7.85882 8.39576 -12.4249 -10.7843 0.0283527 2.69792 7.53441 -2.80654 -8.99102 1.67695 -3.82598 0.754857 14.5595 -2.94308 -1.49303 -0.294925 0.276745 0.238925 -1.22805 0.0701689 1.9925 1.46577 -0.892411 0.791922 2.43731 -0.555245 
5.9173 5.12858 -14.2313 -11.0082 -2.36147 1.39951 10.8683 0.534846 -8.42899 4.05075 -0.996311 5.22548 14.4722 -4.04989 -3.17026 0.950083 1.7957 -0.0794196 -1.25484 -0.685152 1.24273 2.60941 0.199573 1.93106 2.33608 -0.535359 
-3.46847 -0.468526 -11.5337 -4.72066 2.18211 -1.0799 7.9606 0.595776 -0.0200531 4.48178 5.45687 6.9143 12.5548 -4.13796 -2.15475 1.28551 3.01606 0.226165 -2.29526 -1.09979 1.65618 3.88148 1.55516 1.24987 0.822505 -0.622872 
-6.17445 -1.36819 -8.32921 -0.835534 0.0291624 -5.57786 6.14845 7.66518 2.44793 2.24646 4.3957 8.05728 12.4414 -2.95089 -0.907519 1.15483 2.11846 1.06203 -1.18856 -1.27979 1.45454 2.15979 -0.289559 -0.942593 -0.664066 -0.420304 
-6.7851 0.870381 -8.94839 -0.790293 -0.0361357 -5.2897 4.39537 1.9092 4.97791 10.3549 -0.272628 3.45148 12.4606 -0.963791 0.0233681 0.26739 1.16806 0.770117 0.439761 0.418456 1.0183 0.563108 -0.667567 -2.54098 -1.63796 -0.0844877 
-7.17881 -0.0784707 -9.74977 -2.38104 4.05778 -2.4384 6.25197 7.15082 -0.12903 -0.33362 -2.84452 3.63655 12.4178 -0.353525 -0.228197 -0.0205786 0.818523 0.968128 1.70506 1.102 -0.312616 0.430505 1.39922 -1.61917 -1.78892 -0.0941142 
-7.78525 -0.996544 -9.48643 1.8924 4.01839 -0.450822 10.0011 5.94445 4.08397 2.43398 -3.62789 0.934852 12.1442 -0.054652 -0.509666 0.123887 0.111588 0.195887 1.20809 1.11168 0.378483 0.401228 2.27211 0.206872 -0.169897 -0.117495 
-7.442 -1.57571 -8.16308 1.91573 2.84254 0.527997 8.8556 4.08448 5.04742 13.203 -2.02253 0.370967 12.1291 0.366113 0.394113 0.222989 -0.160909 0.0860154 0.472967 0.0871447 0.256778 -0.193693 2.05392 -0.0604073 -0.66614 -0.107075 
-6.92676 -0.929328 -9.1223 -2.38074 1.55092 -0.732455 8.65197 5.33479 4.39583 14.9471 0.350738 4.23479 12.0174 0.267768 0.497476 -0.203039 -1.07002 0.874061 0.693196 -0.253973 -0.423357 -2.32783 -0.852776 -0.650993 -0.406813 -0.0227178 
-5.77749 1.85849 -8.81689 -1.04901 5.72159 0.0672462 7.36227 8.73954 -1.25342 3.67938 -5.13587 -1.34412 11.9458 0.138173 0.60531 -0.150989 -0.4112 0.664365 1.11531 0.750565 0.298709 -1.89269 -3.97025 -2.99014 -0.430166 -0.00666113 
-7.27866 -0.22626 -10.1747 -1.97531 6.94917 3.24553 9.47793 1.50014 -4.40477 2.93192 -5.32619 -0.241673 12.1222 -0.00574579 0.279408 -0.569864 0.0177804 0.797934 0.760413 1.27903 -0.313724 -0.980097 -2.07872 -2.10767 0.0686057 0.00716229 
-6.57519 1.09931 -8.39182 -0.342984 3.46524 4.11557 12.1954 7.49535 -0.015737 -0.640606 -14.1348 0.458367 12.0434 -0.0155676 -0.324126 -0.864493 0.257863 0.0557347 0.286811 0.451958 -1.03842 -0.142243 0.561379 0.440275 0.411828 -0.0385631 
-6.55664 0.847302 -12.1842 -2.64485 6.66877 1.04545 12.6305 4.38827 -1.1235 6.71355 -5.68816 3.67657 12.0045 -0.0382896 -0.543753 -1.25415 -0.372186 -0.082241 -0.295304 -0.136053 -0.424124 0.951641 1.43534 1.04707 0.287422 -0.0690352 
-6.21633 -0.298927 -12.1346 0.575072 6.14047 2.60134 8.04575 2.10336 -3.60527 4.59545 -2.75351 -1.2441 11.8118 0.0127232 -0.513284 -0.737049 -0.296728 0.141194 -0.410981 -0.818281 -1.51908 0.847972 2.39851 2.54069 1.07022 -0.0340659 
-7.64954 -2.24591 -14.574 -4.29527 5.20035 2.52612 10.8725 2.07551 2.1482 7.49061 -5.78148 2.04667 11.8928 -0.120796 0.376443 0.817076 -0.0156426 -0.358104 0.0741727 -0.38827 -1.25664 0.636323 0.953182 0.403755 0.459059 0.0107473 
-5.96512 0.0794964 -10.8821 -1.00142 4.90542 1.32032 8.98306 1.05634 2.58827 10.9634 -1.38463 6.62441 11.9289 0.08144 0.40144 0.82892 0.088632 0.146493 0.162657 0.940713 0.139908 0.528491 0.116451 0.125922 0.48316 0.0237451 
-7.28623 2.54031 -8.72504 -1.93482 5.49577 2.05682 10.2205 -1.37142 -1.03866 8.29548 -4.35383 2.03762 11.9997 -0.0674917 0.381561 0.391413 0.128609 0.508662 0.0142466 0.420984 1.00862 0.173941 -0.351179 0.611661 -0.823989 0.0343924 
-5.99079 -0.684834 -10.9145 -0.161992 6.72523 3.64928 13.0753 4.52636 0.630619 4.77528 -2.83773 1.17623 11.8771 -0.251209 -0.204787 -0.704245 -0.352749 0.153692 0.164093 0.216919 0.949507 -0.758354 -1.25779 -0.129344 -1.53192 0.0312301 
-7.97416 0.0440598 -12.6008 -4.07193 6.83376 1.43288 10.9313 5.3836 3.99673 8.82879 -1.99662 0.650815 12.0906 0.198716 -0.311511 -0.997476 0.142537 0.182683 -0.0884144 -0.0814175 0.606068 -0.220756 -0.795776 0.225529 -0.546848 0.0126817 
-6.8772 0.303684 -12.4655 -1.69661 5.00489 2.45276 9.71227 2.42637 -3.72119 4.40785 -3.20995 -0.341797 12.0395 0.230417 0.382505 -1.2982 -0.618303 -0.267944 0.0173544 -0.621874 -0.535392 -0.212785 -0.342455 -0.18928 0.405793 -0.0376306 
-5.84944 0.488491 -12.9369 -0.45483 7.26935 2.21301 11.495 2.70892 0.0334688 4.50031 -3.04007 0.0623903 11.9819 0.427775 -0.341395 -0.697529 0.214686 0.408016 0.258494 -0.487391 -1.34048 -1.02874 -0.76397 1.37934 0.73697 -0.031096 
-5.90106 1.00547 -17.2374 -5.06206 5.16771 3.34599 9.6841 3.18674 1.54833 5.22724 -3.26241 3.49941 11.7433 0.227302 -0.550016 0.110957 -0.306182 1.02234 0.383894 -0.832283 -1.32351 0.0733516 -0.539302 0.905095 0.820071 1.67847e-05 
-6.32336 -2.01381 -13.7024 -1.31578 8.79243 2.27873 8.50844 -1.69901 -3.78174 4.59925 4.92633 2.41506 12.0833 -0.0409781 -0.505927 0.575562 -0.0517996 1.51238 0.995453 -0.399435 -0.361839 -0.0534842 0.419308 -0.546308 0.185739 -0.00905638 
-5.50374 -1.19525 -11.528 -2.79705 9.35507 4.33937 7.04412 -1.98721 -1.44683 1.66187 -2.66767 2.58222 11.9889 -0.0633505 -0.281949 0.943567 0.590089 1.90849 1.111 0.457671 0.578564 0.447596 1.00849 -1.66084 -0.506485 -0.0128512 
-6.253 -0.940783 -12.9139 -1.84633 12.7376 6.69358 10.8178 3.4867 1.26363 8.37953 -6.06898 1.44968 11.8138 -0.0608534 0.240052 0.0191164 -0.0110404 1.12728 1.11839 0.839235 1.58453 1.28012 1.42782 -2.53919 -0.306332 -0.0713998 
