-8.05116 1.77911 -7.0632 1.50846 1.19211 3.4836 12.2396 -0.570908 5.76342 3.30666 2.76007 4.68555 11.9041 -0.0167521 -0.112468 0.349172 0.0210747 1.01074 -0.688954 -1.16636 2.21174 -1.88646 -0.780655 -0.331584 -1.05886 -0.0244077 
-9.11394 0.764522 -7.27712 0.675849 4.60057 3.55109 8.63725 0.100954 -0.670547 1.68753 0.928321 -0.36139 11.7769 0.0571672 -0.184439 -0.0777176 -0.523332 0.520124 -0.878055 0.210689 2.35175 -0.733246 -1.06513 -1.31607 -0.243395 -0.0185154 
-7.60353 1.72407 -5.21038 2.03014 4.54158 0.00509048 8.20903 10.1519 -0.451917 0.212945 2.01802 1.91472 11.8456 0.160524 0.010282 -0.377581 -0.801103 -0.773766 -1.22434 -1.23661 0.445751 0.475403 -0.540221 -0.791599 0.623619 -0.00444355 
-7.98914 0.884438 -8.3782 -1.36904 2.11799 0.832582 15.3084 5.82642 5.20486 -0.472122 -3.44924 4.85399 11.8407 0.068706 0.192265 -0.269947 -0.866966 -1.4714 -1.04695 -0.434639 -1.07392 2.22285 1.23136 0.0382016 0.704485 0.0436174 
-7.81094 1.77056 -8.40056 -1.47461 -1.43543 -1.27886 2.72101 -1.20488 5.20273 1.68538 0.990857 5.19595 11.8499 -0.197996 0.157283 -0.215367 -1.1967 -1.56529 -0.163762 -0.0738039 -1.84621 2.25568 2.76597 0.581031 -0.15208 -0.00461531 
-8.6667 1.7026 -7.03176 -1.90661 0.232078 -1.04168 9.20807 0.409762 7.61639 7.1081 1.63291 1.52042 11.9928 0.0401416 0.454702 0.638667 -0.0414556 -0.275856 -0.881065 -0.706539 0.0623814 -0.942485 1.0718 1.53904 -0.777253 -0.0345423 
-8.25473 2.1014 -6.96043 -3.68456 -2.34194 0.123413 10.8902 3.62915 9.6207 10.2527 2.3821 2.8211 11.7465 -0.144195 0.159345 0.570171 0.982413 1.17729 0.141391 1.87387 1.99864 0.156197 -0.813988 0.0752444 -1.20921 -0.0255147 
-7.56654 2.99253 -5.90493 -0.471341 1.19196 -4.27388 7.69112 3.72131 -1.71655 0.603206 3.55035 2.15514 11.7197 1.43272 1.27804 0.794228 1.55609 0.56067 -0.227087 -1.38367 -1.91266 -2.23118 -2.87147 -1.6114 -1.94657 0.0400999 
-9.082 1.92233 -6.11312 2.71982 3.97106 1.0442 12.8488 7.13252 10.6502 0.867883 0.40836 -1.16747 11.8589 3.17553 1.48526 1.59836 1.29455 0.354173 0.400353 -4.18561 -4.63809 -3.1625 -2.77932 -0.0907729 -1.07207 0.389506 
-1.08946 8.18233 -3.48428 2.67165 -0.121073 -2.63751 1.3104 -10.9052 -4.05426 -2.55684 -5.43721 -6.21815 12.1371 3.97693 1.92788 2.17168 0.726186 -0.456881 0.722833 -5.06955 -5.55628 -2.19692 -0.560144 1.25332 0.836801 0.564922 
4.38437 6.93281 -0.178944 1.21669 0.085444 1.30699 -6.8475 -12.248 -5.02295 -2.06387 6.42202 1.64739 13.4853 3.67235 1.78209 2.25684 -0.349089 -1.24126 0.0977277 -3.47855 -4.4471 -3.39652 0.354553 2.61522 2.59111 0.65087 
5.58492 10.1267 1.98636 3.91116 0.850361 -0.79111 -7.80845 -14.3698 -4.86457 -0.731637 6.81011 4.93172 13.7311 2.02816 0.44256 1.72318 -0.66399 -0.608244 -0.0621317 -0.54196 -0.695882 -0.0742092 0.704021 2.94502 2.72731 0.695039 
5.94254 9.86058 2.43575 0.354621 -2.72097 0.609635 0.015471 -13.3707 -5.92725 1.72805 7.36077 6.21315 14.3163 1.07674 -0.462184 1.20873 -0.150878 -1.13696 -0.244308 0.621419 -0.0219798 1.04154 -0.391312 0.642339 0.504883 0.588476 
8.27225 8.93124 3.82425 -0.217271 -1.75909 -2.59949 -4.83089 -13.8233 -3.97316 -0.932693 8.81851 5.13552 15.1968 0.703442 -2.34925 1.1169 0.0560272 -1.60496 1.81893 -0.668377 0.0476481 2.15324 -1.30536 0.533097 -1.43318 0.718822 
8.42442 5.21962 4.94577 2.52651 -4.29463 0.989642 -5.22919 -12.6312 -0.260972 -3.9199 8.62951 4.06991 15.6949 0.695718 -3.25187 0.650894 1.84773 -1.53216 2.02633 -2.53215 0.496318 2.65801 -1.98242 -0.150726 -1.38894 0.675602 
7.86119 0.700943 6.31584 3.10535 -6.38759 8.11355 -8.52801 -14.5013 3.06847 -4.43446 8.84122 -1.16256 16.6359 0.728952 -3.77847 -0.352914 3.31118 -1.70727 0.149663 -0.280745 0.874289 1.18989 0.162704 -1.35405 -1.36781 0.582086 
9.62666 -2.28361 4.44442 7.93198 -8.06753 5.38478 -10.7967 -10.5501 3.842 -6.43315 6.59579 2.41749 16.9747 0.78021 -2.8594 -1.52932 3.96268 -0.608945 -2.6194 0.677082 1.27452 -0.808872 1.97564 -2.18781 -0.9501 0.440083 
11.3159 -6.20951 2.31036 13.6359 -8.40897 -4.04874 -3.45085 -10.4924 -0.0751832 1.13745 3.0651 -0.877304 17.4673 0.34439 -1.56033 -1.94793 3.71896 0.462427 -3.64264 1.21876 0.750313 -1.51108 1.71748 -2.34756 0.515407 0.251673 
10.5981 -5.62215 -0.698092 17.0746 -6.32867 -6.02621 -4.38236 -8.26302 -2.73351 3.17236 0.578508 -0.82322 17.4796 -0.247549 -0.964996 -0.800379 1.38407 0.495151 -1.35478 0.321841 -0.391726 -0.555932 0.887773 -1.40254 0.6575 0.231724 
9.09741 -5.43145 -0.852572 17.1288 -4.94489 -4.39416 -5.6414 -11.8933 -1.19918 -0.649794 0.112054 3.03483 17.6419 -0.306366 -1.03812 0.598505 -1.78013 -0.441683 1.89871 -2.57963 -0.0651648 1.5417 -0.68829 0.132646 1.33708 0.334487 
9.49816 -7.49762 2.02399 13.1058 -7.32382 -1.21642 -8.09224 -11.8083 1.62434 -1.10067 1.05962 3.74892 18.0461 0.385513 -2.02416 1.49686 -4.58255 -1.21955 2.81277 -3.22053 0.997111 2.95725 -0.577071 1.57673 0.695351 0.564449 
10.334 -10.4624 3.94184 6.71961 -10.1198 3.03993 -14.4941 -9.04562 5.45438 -0.167489 3.48777 3.52205 18.8565 0.735429 -2.03176 0.629861 -5.12816 -1.39469 2.90653 -2.95386 2.93615 2.35823 0.804757 1.62201 -0.617077 0.593213 
11.9074 -13.2275 4.38901 -0.633524 -9.83894 4.32058 -16.0587 -4.70131 8.72598 0.0458481 6.77432 2.40992 19.6945 0.238515 -1.08008 -1.03022 -4.0699 -0.349712 2.29352 -1.41432 3.76251 0.766723 1.41476 1.28193 -1.59072 0.486975 
11.5699 -12.7253 1.11422 -1.64231 -10.6608 7.37002 -16.4275 -0.766038 7.04114 2.80074 5.36475 0.618941 19.7837 -0.084129 -0.402027 -1.95031 -2.47307 0.585089 1.68326 0.321093 3.45567 -0.485845 1.44671 0.916676 -2.60642 0.334397 
10.0728 -11.7666 -1.7133 -3.06271 -8.80189 8.08616 -14.1971 2.8645 4.66457 4.48904 6.53081 -2.7531 20.0173 -0.338468 -0.128843 -1.97335 -1.11223 1.07979 0.844868 1.08271 2.72523 -1.49545 1.42172 0.510652 -2.9527 0.224702 
10.8307 -13.203 -2.75854 -4.43112 -7.71288 9.57344 -13.8194 4.44983 5.05586 4.84449 8.19291 -6.92853 20.3671 -0.161631 -0.492342 -0.824641 -1.24273 1.57101 -0.10786 1.19776 2.21488 -1.22623 0.931425 0.366634 -2.67447 0.202604 
10.5847 -13.6329 -3.54134 -4.80028 -5.91393 7.44321 -11.9492 6.31693 2.24136 6.13258 7.91351 -8.57984 20.5263 -0.0442103 -0.56491 -0.130498 -0.925735 1.35624 -0.8925 0.688397 1.85716 -0.997903 0.711997 -0.686259 -1.47923 0.108617 
10.5058 -14.2539 -2.09496 -6.98719 -4.24968 7.1522 -11.5627 8.58214 2.12158 6.63609 6.50658 -9.84004 20.5423 -0.237906 -0.335875 0.472149 -0.761014 1.36278 -1.79646 0.564267 1.60067 -0.793728 0.703888 -1.54193 -0.265284 0.0164248 
10.0141 -14.0657 -2.69758 -6.41335 -3.75228 4.83428 -11.8835 10.0841 1.1422 7.15322 3.94268 -8.69351 20.4728 -0.292333 -0.304627 0.835734 -0.637357 1.29114 -2.38577 0.282722 0.888157 0.158307 0.229515 -1.72677 0.290981 -0.0108137 
9.92642 -14.6659 -0.819675 -7.42965 -1.97981 1.8956 -11.0309 10.5696 1.6368 7.85361 2.46867 -8.19811 20.4759 -0.345239 -0.00102577 0.746508 -0.0782321 1.0269 -2.88923 0.366234 0.12421 0.838826 -0.385791 -1.62354 0.892623 -0.0454996 
9.41271 -14.95 -0.000314474 -7.76583 -0.593184 -1.85734 -10.8015 9.76399 3.27529 6.6714 1.2986 -7.9459 20.5054 -0.361598 0.231451 0.961743 0.220538 0.562651 -2.36088 0.0950911 -0.126819 1.16057 -0.721533 -1.0733 1.07552 -0.0737125 
9.08037 -13.8168 0.288948 -6.70211 -0.694746 -3.94814 -10.2725 9.36327 5.24916 4.94805 -0.289066 -5.75073 20.2985 -0.437855 0.572981 0.727876 0.864873 -0.159914 -1.5964 -0.0474178 -0.413027 1.19854 -0.914127 -0.879389 1.39607 -0.111065 
8.62918 -13.333 1.55682 -5.67443 -1.58156 -4.04826 -11.7872 10.0532 5.13888 4.99834 -0.0449245 -4.53962 20.193 -0.542571 1.00328 0.137765 1.24798 -0.573332 -1.03061 0.560377 -1.00834 1.27675 -1.00905 -0.92442 1.32538 -0.145769 
8.12891 -12.6095 2.04113 -4.15099 -2.28519 -4.99093 -10.7751 8.35984 6.69771 4.11951 -1.25651 -2.92089 20.0768 -0.635257 1.03483 -0.228491 1.00725 -0.474012 -0.537927 1.12466 -1.00304 0.911398 -0.470349 -1.2226 1.00105 -0.118 
7.17559 -10.5372 -0.187581 -2.80149 -2.66462 -6.48902 -7.7483 5.22402 8.93477 2.0404 -2.83978 -2.73394 19.8874 -0.347617 0.71832 -0.387518 0.391241 -0.275859 -0.0943899 1.52353 -0.692819 0.665046 -0.373824 -1.22039 0.323034 -0.0982391 
6.63088 -10.0406 0.018696 -3.10233 -2.52327 -5.4174 -6.66867 6.76265 7.90821 4.07527 -5.00464 -1.64832 19.8613 -0.0375166 0.181551 -0.331059 -0.399495 0.160224 0.463014 1.3986 0.318337 -0.0355102 -0.133258 -1.0223 -0.449786 -0.057494 
7.64011 -11.0258 0.630453 -4.24255 -2.84181 -4.30697 -6.22278 7.3877 7.85886 3.15134 -4.27279 -3.56073 19.8096 0.196257 -0.300325 -0.194047 -0.782931 0.543926 0.848873 1.19079 1.05057 -0.655184 -0.180189 -0.716001 -1.05055 -0.038727 
7.70906 -11.4575 -0.0231761 -5.42793 -1.39547 -3.76688 -4.54485 8.86968 7.05811 2.89775 -5.65148 -4.75642 19.8283 0.0603006 0.0388067 -0.81318 -0.32195 1.02087 0.919209 1.37863 0.662614 -1.071 -0.448773 -0.884977 -0.901547 -0.0942085 
7.61778 -11.3304 -1.13688 -5.55335 -0.508889 -3.06991 -2.85626 9.42335 6.0839 1.72821 -6.09636 -6.43263 19.7103 -0.0935672 0.262809 -0.987921 0.206291 1.38672 1.05918 1.36013 -0.106074 -1.65624 -0.14795 -0.976391 -0.0420681 -0.140498 
6.94355 -9.69425 -3.16354 -4.05668 1.4146 -1.43989 -1.45877 9.0579 3.44071 2.54297 -8.51774 -4.72011 19.4399 0.201348 -0.0544209 -0.727133 0.588289 1.24757 1.41753 0.666782 -0.837439 -2.13012 -0.116429 -0.135266 0.260727 -0.1604 
7.55503 -10.5934 -2.73897 -3.89672 2.68677 -0.174592 -0.965154 6.76322 1.38636 2.58898 -7.72162 -3.78923 19.3013 0.490732 -0.17736 -0.613937 0.57068 1.0658 1.68394 -0.209396 -1.14845 -2.39503 0.280169 0.827688 -0.0475512 -0.143493 
8.74718 -12.0981 -2.8578 -3.3148 3.24456 1.87312 -2.15649 6.01255 -1.24373 1.88522 -5.51518 -4.77449 19.2308 0.814826 -0.18745 -0.4177 0.0783311 0.97328 1.43185 -0.466001 -1.43378 -2.37624 0.425812 2.00832 -0.489636 -0.14259 
9.16963 -11.0153 -4.35943 -3.07089 3.90513 3.69328 -3.55438 5.20377 -3.54901 3.45793 -3.4592 -6.6432 19.0974 0.56721 1.05424 -1.15072 0.490865 0.681062 1.12475 0.388805 -2.48911 -1.53326 -0.472634 3.56858 -0.664686 -0.214238 
10.2104 -10.4206 -4.44181 -4.07795 5.67182 3.78543 -2.49416 2.66872 -5.97282 4.23755 -0.607341 -5.74131 18.8289 -0.366843 3.029 -2.34554 1.81588 -0.0970687 0.437701 2.43072 -4.12802 0.117131 -2.08446 4.6314 -0.347284 -0.377998 
9.65948 -6.161 -7.70058 -1.06082 4.87846 4.49299 1.14771 -4.01039 -3.9154 -0.950357 7.66736 -6.62925 18.431 -0.255623 2.7248 -1.09232 1.86193 -0.368836 -0.228057 3.2564 -3.00856 -0.99002 -1.70158 3.60964 0.464309 -0.577996 
6.66804 0.619777 -12.9149 4.75955 2.27256 3.66177 7.64606 -10.0205 -0.47487 -6.33293 12.0786 -6.51788 17.674 -0.151596 2.04911 0.261298 1.80269 -0.787797 -0.357381 2.89251 -1.35889 -1.84584 -0.893867 1.80372 0.886841 -0.660178 
9.66268 -2.91147 -5.58448 1.82 3.76059 2.61483 7.65753 -3.49443 -11.2481 0.235253 8.24605 -3.93336 16.7849 0.15418 0.719684 1.2745 0.628294 -0.591111 -0.33957 1.80041 0.513311 -2.46783 0.675035 -0.753162 1.49619 -0.522985 
9.4508 -1.79976 -4.19337 3.49509 2.29177 2.9376 8.71348 -4.38372 -11.5357 -0.82459 8.12192 -2.65505 16.3511 0.6492 -0.40956 1.36638 -0.951754 -0.212251 0.19478 0.482024 1.16915 -2.34983 1.30147 -1.19249 1.08895 -0.184518 
9.039 -1.35281 -5.68884 2.71287 1.91329 3.15723 9.61604 -4.26222 -10.7241 -0.32935 5.87988 -1.07971 16.4775 0.23094 0.0971497 -0.624014 -1.15262 -0.26675 1.0076 -0.257256 0.239988 -0.137446 -0.0021667 -0.380784 0.423409 0.180238 
10.2259 -2.20735 -6.03081 -0.445657 2.13495 4.36447 9.07693 -3.79086 -12.486 0.456721 7.29922 -2.49994 16.905 0.604076 -0.655973 -0.863907 -1.92208 0.193516 1.48498 -1.02995 0.177227 0.25045 -0.115773 -0.0995227 0.0826999 0.41438 
10.4298 -2.22193 -7.78583 -1.97274 2.50525 6.93938 6.18953 -2.59092 -11.4602 -0.416236 6.75348 -1.89387 17.4091 0.588265 -1.17471 -0.474192 -1.99204 0.734312 1.3981 -1.74201 0.319694 0.428436 -0.179719 -0.0695845 -0.452523 0.48301 
11.7758 -4.64507 -7.46441 -3.7725 2.96337 8.47144 5.27697 -4.33323 -9.91544 -1.36001 7.18751 -1.83447 17.9572 0.24762 -1.35708 -0.159263 -1.48199 1.09004 1.00049 -2.00672 0.704852 0.587687 0.259892 -0.744631 -0.691719 0.436504 
11.2054 -6.00752 -7.343 -5.5839 5.17064 8.09425 2.80595 -2.39256 -9.86725 -0.319578 5.58781 -3.67507 18.3665 -0.201063 -1.21989 0.301808 -1.25349 1.65762 -0.423875 -1.20379 0.809653 0.540278 1.0098 -1.42899 -0.74019 0.308434 
11.0762 -7.09996 -7.04853 -6.05002 6.25244 8.78949 0.735116 -0.365779 -10.344 1.70785 4.1589 -5.06794 18.6088 -0.771751 -0.597591 0.391967 -0.54504 1.47015 -1.30764 -0.830858 1.41377 0.640843 1.30632 -2.14787 -0.683819 0.136958 
9.7743 -7.09395 -6.48473 -7.10141 9.1488 4.66098 2.44149 -0.526382 -8.54448 3.09885 1.12283 -3.97809 18.6254 -0.824484 -0.125236 0.704579 0.10668 1.03443 -1.9031 -0.387957 1.95839 0.630364 1.57012 -2.95981 -0.0126841 -0.0375326 
8.63254 -7.0898 -5.93372 -5.73894 8.32507 3.64987 1.30491 1.80254 -7.37261 3.46237 -1.31934 -5.10205 18.5125 -1.04649 0.758961 0.638683 1.03508 0.32471 -2.44537 -0.0668077 2.41551 1.08789 1.22083 -3.6041 0.654752 -0.181895 
8.3048 -6.63878 -4.37752 -5.20603 9.30648 1.14856 0.581274 6.31521 -8.20114 6.65378 -6.47214 -3.72143 18.227 -1.18515 1.79778 0.756037 1.4009 -0.0504249 -2.72876 0.547651 2.83067 0.767791 1.35448 -3.87224 0.857007 -0.28936 
6.57849 -3.53274 -4.90872 -1.82232 7.79715 -1.68116 1.33119 8.29095 -5.07626 6.03456 -10.0641 -1.92251 17.8986 -1.12899 2.81394 1.22166 0.915706 1.00149 -3.18556 1.33176 2.5742 1.09258 0.17985 -3.0153 1.2195 -0.436364 
4.87557 0.116411 -3.21704 -2.05523 9.16063 -6.31731 5.16661 10.3827 -5.8537 8.58517 -13.866 -1.28282 17.4856 -1.6957 4.04492 1.68212 0.7722 0.792361 -1.62242 1.99233 0.646346 1.82973 -1.92346 -1.31464 1.40728 -0.574795 
4.70223 3.60232 -0.40566 -2.73581 13.4054 -8.54501 5.67104 12.6398 -3.08342 3.39592 -12.6989 -0.223844 16.7014 -3.265 4.09398 0.889243 1.49143 -0.0761071 -0.183393 1.16061 0.478604 2.60534 -1.9761 0.887605 0.65734 -0.289084 
0.764419 10.0183 1.78156 -0.888283 10.4641 -3.53164 8.37298 7.37254 -0.0488963 -1.64421 -11.7279 2.46562 15.9516 -5.01801 3.1437 0.0386949 1.60121 -1.55364 0.747713 -0.836307 -0.76833 2.40301 -1.53517 2.05936 0.0460121 0.273402 
-7.69094 11.9862 -2.9618 5.05134 6.76486 -3.99096 5.53106 12.1891 5.04802 1.26875 -6.6951 -0.510032 17.2202 -5.49335 1.76032 -0.889109 0.115754 -2.46869 1.88293 -0.980763 -0.846637 0.904404 -0.73149 3.80782 0.893111 0.765026 
-14.0179 11.643 -1.74549 2.05721 4.71273 -4.85577 1.05506 6.76644 2.09564 1.9729 -6.57108 -0.90967 18.5932 -4.63051 -0.765818 -1.1432 -1.25899 -1.6745 1.09076 -1.18903 -0.426958 0.472742 1.01209 3.63175 0.666703 0.949414 
-15.3734 11.5916 -3.08769 -3.62979 3.93769 1.5317 4.42618 8.70963 0.366339 -2.07008 3.76173 5.92935 19.2057 -2.73138 -1.45782 -0.557687 -2.61017 -0.53653 2.09953 -0.00808592 -1.04118 -0.00931648 0.750424 2.65799 0.175816 0.630407 
-18.5469 6.38652 -3.87152 -2.84265 3.50522 -0.839198 2.98025 6.97747 4.65565 5.08564 1.20243 2.57944 19.7059 -1.65855 -1.5479 -0.792191 -1.52897 0.200143 2.85185 0.93508 -0.947272 0.58289 0.318079 1.45028 0.0349135 0.264786 
-19.0833 7.32535 -4.68722 -5.54958 4.68597 4.49839 4.52804 6.87767 3.72143 3.4645 2.70812 -1.37551 19.8159 -1.49737 -1.17367 0.563467 -0.303786 -0.352541 3.03126 0.343428 -1.41651 0.791565 0.961359 -1.95949 -1.47187 0.120175 
-20.4557 6.03658 -4.90668 -4.62772 5.33931 7.92013 5.67954 2.94606 3.33254 0.795998 1.20711 2.91733 19.6121 -1.43767 -0.824213 1.29818 -0.563258 0.157601 3.11844 0.283264 -1.41992 -0.087148 -0.0267643 -1.21549 0.0739535 0.116977 
-21.9058 5.89819 0.247228 -4.25618 1.25794 12.3083 4.79367 3.64277 4.98572 4.88153 -6.03806 -1.59895 19.8535 -1.46356 -0.995593 1.2164 -0.986552 -0.600416 0.50925 -0.393998 -0.105857 -1.10988 0.281901 -0.669929 0.000989276 0.244309 
-24.324 2.97903 0.152157 -6.30564 6.00723 10.848 4.26375 1.49531 3.58777 4.2433 -0.501914 3.06093 20.272 -1.08547 -0.722044 0.920634 -1.11901 -0.181081 -0.884302 -0.626476 -0.806757 -1.65283 -1.66645 -0.233267 0.00898683 0.190162 
-24.467 3.87616 -1.13463 -9.64338 1.34992 5.5807 3.26594 7.07376 -1.95557 3.15036 0.212986 -1.44236 20.7075 -0.655783 -0.497465 -0.0907552 -1.07776 0.850171 -0.884614 0.620206 -0.654974 -1.48746 -2.53441 1.05734 0.201142 -0.022628 
-24.6024 3.43737 0.387425 -7.52916 4.38791 6.86244 3.31103 -2.80322 -1.46098 -6.67066 -3.08475 2.88397 20.1359 0.0150387 0.0300394 0.200884 0.672164 0.204898 -0.248677 1.18999 -0.429697 -0.0799727 -0.191703 -0.343769 -0.647524 -0.313088 
-25.0455 3.1817 -0.324182 -9.03321 6.31846 9.87805 8.37107 2.51717 0.0728202 -2.33356 0.540077 -0.50476 19.8084 1.49548 1.24619 1.31332 2.14458 0.355503 -0.674016 0.399313 -0.980867 0.605258 1.0003 -1.35223 -0.609491 -0.501382 
-23.9595 3.47646 0.751355 -3.24991 4.54745 7.45595 7.66111 1.62512 2.17371 6.02675 -2.3843 -0.645494 19.1561 3.55731 2.52027 2.27697 1.96969 -1.35052 -3.01885 -1.68267 0.108653 -0.505455 1.39593 -0.413772 0.204492 -0.475286 
-17.3111 10.0876 5.24999 -1.06009 3.04766 1.91387 3.08746 -0.0447445 -0.746632 1.80315 -6.89838 -2.72508 18.6905 5.10069 2.03057 2.54638 2.43349 -2.44489 -3.63787 -3.79476 -1.37775 -0.4719 -1.65107 -0.198037 1.78119 -0.554745 
-10.6831 12.5858 8.98521 -1.66728 -0.729275 -4.24974 -2.46053 -0.978997 -3.57854 -1.75938 -1.43438 5.01659 18.3184 5.15992 0.473708 2.0807 1.95989 -2.18552 -2.80481 -3.27024 -0.958797 -1.51097 -2.52957 0.407168 2.23341 -0.516358 
-6.18029 8.7799 8.29079 2.34294 -3.26762 -2.45846 -5.54192 -3.06954 0.589444 -6.69584 -0.92507 5.57013 17.4535 3.7653 -1.86831 1.12259 1.8854 -1.88303 -1.18707 -1.52294 -0.882876 0.0909339 -1.50193 0.858294 1.33533 -0.389038 
-3.72529 6.49883 9.63445 4.84805 -3.2225 -4.38195 -4.37542 -1.65647 -6.04916 -2.3716 -3.33512 6.37394 17.1928 2.53806 -2.74496 0.753776 1.15448 -0.900531 0.111388 -0.246979 0.309743 0.523924 -0.361883 -0.799372 -0.519044 -0.234865 
-1.9635 3.78951 10.5383 5.10926 -5.12086 -3.95537 -3.56981 -4.12039 0.943348 -5.4004 -1.65654 3.27288 17.3081 1.70659 -2.20139 1.0601 0.12541 -0.237018 0.418431 0.14957 0.797294 0.527227 -0.651783 -0.486614 -0.885976 -0.0177616 
-0.101228 1.35616 11.6303 2.72197 -4.30531 -2.94434 -4.68148 1.09514 -1.13587 -4.21651 -5.06551 3.56999 17.2168 1.24495 -1.84501 1.55281 -0.511348 -0.00642061 0.742942 -0.422832 0.438938 1.25128 -1.38535 0.296004 -0.488778 0.0585642 
0.540611 0.344285 12.5934 4.03302 -3.9113 -1.0851 -4.64104 -0.458873 0.768937 -9.0323 -2.49294 2.54222 17.3527 0.951479 -1.42343 1.58621 -0.361858 -0.0763373 1.04633 -1.07221 0.955011 -0.79917 -0.490011 -0.0989672 0.506396 0.046048 
1.2474 -1.0036 16.371 2.82943 -3.85938 -2.10237 -5.95396 -1.29254 0.294431 -7.48239 -1.43689 4.29538 17.4633 0.647187 -1.04153 1.53861 -0.16384 -0.308 0.815277 -0.884856 -0.0476034 -0.61269 -0.692411 0.44063 0.562177 0.0536629 
2.11958 -2.14775 16.0991 3.24625 -5.72551 0.855299 -8.2946 1.84851 -3.76765 -6.21751 -3.96568 5.44217 17.4151 0.592862 -0.436454 0.841402 -0.244021 -0.239308 0.305062 -0.457853 0.123531 -0.866626 0.0976214 -0.121674 0.702937 -0.0985453 
2.34522 -2.60549 17.5705 2.29616 -4.9382 0.161841 -7.27898 -0.296566 -1.93103 -9.08596 -2.12599 4.93091 17.4539 0.429902 0.504263 -0.370977 0.0404528 0.524445 -0.441729 0.0582193 0.0891294 -0.429887 -0.088204 -0.142901 0.579932 -0.273587 
2.95601 -1.03704 16.2006 3.07955 -4.56843 -0.6919 -6.26779 -0.339204 -2.45146 -7.74241 -2.75677 5.73914 16.8647 0.192504 1.0984 -0.282452 -0.275559 1.05208 -1.0691 0.489528 -0.405018 0.0864142 0.050483 0.42552 0.287886 -0.31178 
2.97869 0.962359 14.4653 3.11504 -1.8157 -3.53742 -6.67626 0.246963 -2.5131 -7.16096 -2.75586 7.04655 16.3706 -0.215797 1.48575 0.322701 -0.0331614 0.742699 -1.00149 0.581981 -0.164689 -0.352921 -0.0914517 0.60469 -0.217331 -0.346858 
2.76537 1.56032 16.2394 1.45901 -2.02638 -2.64059 -6.14832 -0.448347 -3.04455 -6.92759 -1.52314 5.82377 16.3978 -0.492701 2.24624 0.841129 0.361786 0.511528 -0.250786 0.355758 -0.60631 -0.233939 0.0504523 0.13228 -0.332346 -0.437881 
1.36156 3.52456 19.1646 2.94062 -2.49573 -3.87127 -4.42881 -1.06544 -3.39909 -9.95062 0.280652 3.80194 15.953 -0.0598156 2.18479 0.427153 -0.563552 -0.988829 0.162447 0.985915 -0.226321 0.241601 0.241311 -0.776761 -0.34893 -0.471446 
1.30107 8.91304 18.0566 4.97569 -1.67077 -1.7789 -5.61273 -2.71455 -3.17816 -6.09532 -3.61362 5.69972 14.8841 0.0107916 2.58323 -1.46822 0.494098 -0.0081923 0.0543615 1.30025 -1.09764 0.540581 1.17371 -1.33294 -0.404125 -0.733511 
3.41176 8.20993 15.6925 -1.46106 -6.93765 -3.15603 -2.01449 0.248462 -1.23829 -6.37055 -5.59442 5.36393 14.7703 0.377017 2.32179 -3.10823 0.357181 1.09831 -0.199982 1.58952 -1.97644 0.99201 2.15954 -0.75839 -0.935348 -0.739546 
1.79422 12.1338 10.6344 6.13035 0.153616 -2.72641 -0.854217 -6.59349 -1.42204 -2.8491 -5.25028 3.02215 13.3217 0.226223 1.3462 -2.50464 -0.330111 0.640999 -0.908595 1.5351 -1.49871 0.754075 0.69304 -0.0643814 -1.46327 -0.487545 
3.00007 13.5231 7.33458 4.1492 2.08363 -4.39743 1.13954 -9.00817 0.682897 -0.776047 -2.69297 0.463983 13.0365 -0.665224 0.404034 -2.24558 1.00314 1.42558 0.00629087 0.852561 -1.5067 0.119943 0.380049 0.0875071 -1.45711 -0.441756 
2.63803 12.9875 9.71238 0.520004 -2.97641 -5.70117 0.485773 -5.57976 -0.368382 -5.42737 -5.38626 0.833339 13.3132 -0.588149 -0.373518 -1.18364 0.442803 -0.377469 -1.62112 -0.440538 -0.228924 -1.15363 -0.850517 0.595654 -0.944581 -0.144292 
-0.336267 9.80325 4.92558 6.35981 1.75526 -1.63719 1.57832 -7.7919 -1.1654 -3.18117 -5.0889 -0.827231 12.5657 -0.671694 -0.720495 -0.916263 0.516788 -0.58679 -1.84246 -1.35369 0.359545 -2.4786 -1.17989 0.237887 -0.0230614 -0.0333198 
0.521643 12.1261 5.92068 7.23906 -1.56954 -12.2121 -3.2763 -8.34625 -6.26607 -5.89912 -1.07405 -1.05514 12.8356 -0.123074 -0.728522 -1.27151 0.173736 -0.359497 -1.09756 -0.563799 -0.0445392 -1.80868 -0.400381 0.340401 0.463212 -0.0750345 
0.699793 10.3513 4.64912 3.37361 -1.55375 -10.3543 -3.74787 -5.82721 -8.76127 -6.43961 -3.65963 1.29292 13.1087 0.158802 -0.356661 -0.975243 -1.41558 -1.5758 -0.571644 -0.414471 -0.281896 -1.30419 -0.0456713 0.0172521 0.286581 0.00679598 
1.50464 9.07081 3.49305 2.88178 -3.11939 -6.83044 0.329874 -6.78481 -5.61386 -5.80005 -4.39888 2.08933 12.6665 -0.361955 -0.871966 -1.63992 -1.08581 -0.0400412 1.30671 0.795812 -1.20966 -0.787866 0.285573 -0.568165 -0.610308 -0.110205 
-0.0337543 9.54761 1.26318 1.46056 -5.34882 -7.18625 -2.29712 -9.9821 -8.01247 -3.45906 -3.34022 -0.96656 12.6842 -0.721393 -0.507309 -1.17786 -3.73602e-05 0.183357 0.770834 0.792512 -1.09592 -0.0445144 0.696678 -0.543025 -1.9037 -0.228562 
-0.921359 8.16816 -0.58593 2.76651 0.127788 -7.26258 -0.0226116 -12.3171 -10.5798 -5.96153 -4.07458 -2.97694 12.4968 -1.34079 -0.180801 -0.580674 -0.116266 0.890375 0.73317 0.893927 0.941614 0.938688 -0.288956 -1.13204 -2.00031 -0.119106 
-1.69417 8.26611 0.7993 3.43106 -2.26056 -6.28404 0.390932 -8.54068 -6.50087 -2.87548 -6.53691 -5.69246 12.0508 -1.29744 -0.712824 -0.464431 0.490676 1.53233 1.83739 2.61426 2.31262 2.10004 -0.863354 -0.726621 -0.878344 -0.135115 
-4.36913 8.80755 0.821626 1.3152 -0.211647 -3.6157 3.45548 -2.79745 -1.67622 -7.53662 -8.46072 -5.54929 12.3877 -1.31767 -1.37921 -0.888672 0.0242483 1.12455 2.62686 2.6283 2.32361 2.05541 0.414059 1.10309 1.08778 -0.124504 
-4.79708 5.66379 -1.76275 4.6396 2.48253 0.177285 9.03512 -3.17886 -1.96406 -6.98829 -4.78026 -4.0721 12.0632 -1.42312 -1.85308 -1.70042 -0.314448 1.06103 2.83439 2.55276 2.4627 1.85159 0.795188 2.70481 2.88871 -0.0684158 
-5.95825 2.57326 -3.74827 2.28348 3.379 2.64107 8.79677 -3.37996 -2.57117 -1.83484 0.562517 1.65177 11.8681 -1.22983 -1.65239 -2.00192 -0.565183 -0.0159303 1.48184 0.405109 2.2195 2.77497 2.27174 4.15381 2.66739 -0.0819831 
-8.01521 2.11785 -5.41785 1.37468 1.24925 4.75951 10.4841 4.06407 3.20456 -1.75043 2.47554 5.15058 11.9685 -1.28957 -1.21343 -1.95256 -0.689017 -0.148855 -0.0583467 -0.39968 2.40099 2.76485 1.48877 2.53059 2.11893 0.0286033 
-8.90919 2.31858 -7.36044 0.121743 0.325337 1.50237 4.75655 4.67858 9.61432 1.20316 8.68044 3.17632 12.0251 -0.672794 -0.319835 -1.87471 -1.08346 -1.06605 -2.54934 -1.15822 0.926521 2.56769 1.0398 1.5385 1.36639 0.116198 
-9.76948 -0.276025 -9.71946 2.27538 3.26508 0.454899 9.05683 4.79682 5.76744 -1.06344 3.81373 5.76029 12.1277 -1.42905 1.37354 -2.16583 -0.116265 -0.791579 -2.97486 1.1262 -1.33983 1.85858 0.476766 0.541428 -0.163054 0.709214 
-8.44508 2.17103 -10.971 -3.58416 -2.95917 -7.95332 3.71929 0.886268 8.98584 3.02065 7.5859 8.17884 12.3695 -0.91918 1.25032 -0.471333 0.308821 -0.705267 -1.54062 2.19426 -1.90264 0.0346267 -1.51967 -1.67082 -0.429529 0.454572 
-15.3925 9.05934 -14.4417 2.64631 -1.06639 -5.38693 16.6337 -0.738932 12.8117 -0.27535 5.72994 1.83405 15.3424 -0.127682 0.573331 1.28909 -0.187871 -0.813186 -0.00499146 0.561645 -0.359061 -0.428937 -0.128886 -0.921871 -0.834122 -0.00637751 
-10.6936 3.90248 -7.35596 1.48038 -1.03526 -3.27979 11.9394 -2.06673 6.26532 -6.78923 -0.63177 2.99179 12.6906 0.553169 -1.03409 1.77446 -0.120778 -0.206591 1.03347 0.879241 0.689935 -0.648058 0.979256 -1.77534 -0.205675 -0.398111 
-9.28364 1.7249 -5.08154 -1.19625 -1.7628 -1.90682 7.75499 4.47801 4.98302 3.19707 3.31321 4.1832 11.9352 1.65516 -1.91416 1.3176 -0.84976 -0.171379 0.562801 -1.42274 1.08841 -0.422164 2.17735 -0.78656 0.466243 -0.758463 
-8.73366 0.66778 -6.77876 -2.26677 -3.64392 -4.52603 12.5548 1.72747 9.6599 6.18072 -0.0824169 5.97589 12.0826 0.562341 -0.801754 0.0641287 0.343857 1.10478 0.832487 0.163116 0.885119 -0.328376 2.33057 -0.276641 -1.06658 -0.157873 
-8.09666 1.10588 -8.14235 0.271091 -0.618953 -1.94981 9.21229 2.80604 9.00361 4.12644 1.52247 2.67322 11.8541 0.597771 0.233656 0.111161 1.57298 1.69201 0.103089 -1.13135 -1.33081 -1.04481 -0.293773 -0.646506 -1.28974 -0.022462 
-8.47537 0.203221 -5.50491 2.466 3.91671 0.904133 12.0264 3.19486 2.61314 4.39896 -1.1196 -1.58611 11.9418 0.629217 0.693494 0.621189 1.71693 1.66576 -0.131751 -2.72345 -1.49902 -1.84764 -0.863062 0.0440183 -1.00786 -0.0339448 
-6.42394 3.12546 -5.16266 4.30227 2.91693 -4.10646 2.3625 -2.90974 3.28233 2.61909 0.599272 1.51548 11.8933 0.539688 0.69614 0.630163 0.989862 0.607199 -0.932389 -2.33634 -1.75361 -1.07734 -0.479457 -0.0127516 0.0786115 0.00297194 
