-6.73354 -2.42025 -9.83917 1.07537 5.50097 -2.88931 6.39355 9.37881 5.75871 8.73809 -3.96184 1.03322 11.7409 -1.09778 0.312096 0.441274 -0.912002 0.631051 0.860806 0.92383 -0.438198 0.0564929 -0.33319 0.219736 1.38761 0.24126 
-9.0067 -1.45515 -8.2665 0.0723357 9.1797 -1.71142 7.17951 4.30445 6.05647 12.5052 2.96905 7.3167 12.0415 -0.727058 -0.159114 0.575113 -0.730841 0.730743 0.868233 1.23666 -0.127356 0.928999 -0.0195747 -0.468204 0.975722 0.124345 
-11.0859 -1.34232 -8.41914 -2.98313 6.81687 0.82578 10.6197 9.725 5.89229 5.18857 -6.3286 4.82954 12.7969 -0.10388 -0.28462 0.491329 -0.304647 0.385321 0.49871 0.883594 -0.170581 1.306 0.0882633 -0.775573 -0.413748 -0.00406418 
-8.19267 -3.75479 -7.67362 -0.549593 8.49674 -0.405685 10.4638 8.56893 10.3369 10.415 -5.11947 4.01367 11.8346 0.748636 -0.40953 0.153474 0.723468 -0.281376 0.0955078 0.389566 -0.554494 0.206657 -0.917432 -2.36129 -1.89767 -0.16908 
-7.65996 -2.69354 -7.67897 -0.136906 7.76906 -1.04863 9.16939 6.39367 10.1485 10.2245 -3.79544 0.615994 11.824 0.781671 -0.173549 -0.615018 0.739716 -0.201498 -0.406477 -0.432813 -1.19658 -0.143267 1.26479 0.725718 -1.09773 -0.204377 
-6.97647 -2.82719 -7.86922 2.26657 7.29672 -0.296679 9.8525 3.19765 4.96164 5.40008 -10.104 -0.064867 11.6825 0.263798 0.41843 -0.561559 0.319197 -0.350454 -0.596552 -1.4848 -0.961761 -1.98602 0.607003 1.12341 -0.996007 -0.0146991 
-7.7856 -2.67387 -11.3964 -0.692626 6.40939 -1.26111 8.76128 6.42776 7.86359 14.02 -0.207747 1.38017 11.851 -0.0568162 0.326524 -0.262757 0.185182 0.039997 -0.356268 -0.650113 -0.271471 -2.82147 0.00493153 0.75306 1.46534 -0.0448262 
-6.81086 -1.67247 -8.62269 1.32425 7.4243 -3.28221 3.2438 3.74308 1.54927 11.5523 -1.29625 -1.34845 11.7476 -0.0749863 0.459191 0.366275 -0.233139 1.02242 -0.017476 -0.780402 -0.597458 -2.11399 -0.741127 0.873203 1.35416 -0.0124527 
-8.02684 -1.63828 -8.61602 1.26016 7.90525 -1.3372 9.22318 4.7636 -2.25265 7.17309 -4.43401 8.5845 11.5673 1.33621 1.79682 2.82909 0.217705 0.603517 -0.050153 -1.4238 -1.84923 -2.78032 -4.19584 -2.4996 -0.350624 0.176073 
-7.23078 -1.04903 -7.42805 0.124479 11.6609 -0.346011 5.71954 1.04244 -0.550164 5.11788 -3.62486 3.10377 11.7621 2.04774 2.49827 5.52653 -1.20123 -0.608244 0.909074 -3.48618 -1.84699 -1.95887 -4.54113 -1.59718 -0.4474 0.866588 
-0.8946 5.99852 2.15173 0.995788 7.30867 -2.97997 0.404412 -1.46805 -4.98829 -3.74203 -11.5415 -2.59906 12.7241 2.47984 3.33785 6.70205 -2.25663 -1.4596 0.28151 -5.17713 -0.749829 -1.22104 -3.22005 -0.965936 -1.13458 1.20885 
-0.138274 7.0005 13.6261 -4.54969 4.68137 2.08455 -9.7777 -2.37606 -6.87725 -5.69583 -5.72841 2.00633 15.5021 1.53524 3.03623 5.7914 -1.36119 -2.35641 -0.376201 -3.40864 1.00162 -1.60176 -1.21542 0.585182 0.826771 1.12449 
0.826108 11.0262 14.3672 -7.68591 4.09702 -1.14493 -8.91384 2.7237 -5.19432 -3.52029 -8.21191 3.46029 15.7416 0.0708117 1.27526 3.3644 -1.49017 -1.41296 0.662243 -0.973443 0.467431 -0.170748 -0.058737 2.697 1.60383 0.939861 
-0.414948 11.6183 15.4212 -2.34062 1.4847 -3.14454 -6.66452 3.95468 -8.45594 -1.07008 -2.36372 4.20794 15.8758 -0.728859 0.641272 1.44535 -0.263458 0.0181069 0.381046 0.876916 0.0391248 0.635636 -1.41567 2.4461 -0.162787 0.666464 
-0.402205 10.0659 18.0761 -7.55958 1.84222 2.94579 -6.01939 -2.29626 -5.05269 -6.34859 0.261188 4.31931 17.2366 -1.01069 -0.447831 1.38392 -0.59612 0.863957 1.33402 0.164418 -0.121893 0.313957 -1.91323 2.11314 -0.424505 0.828766 
-3.16842 10.687 18.9983 -5.93015 5.89931 1.94442 -6.84034 0.329543 -3.76989 -11.3601 2.26553 0.762889 18.0869 -0.50354 -0.116718 -0.200078 0.0165402 1.38956 0.410082 0.299722 0.167493 -0.109236 -2.46686 1.60081 -1.32003 0.49348 
-2.85062 9.25269 19.4982 -8.87175 6.2095 2.98069 -8.00384 3.9268 -5.96756 -7.94143 0.0391407 3.06029 18.7799 -0.326799 0.449344 -1.53828 1.76945 1.36787 -1.02448 0.684355 0.913236 -1.484 -2.17012 1.31692 -1.70641 0.093981 
-1.70844 11.4413 13.7098 -1.60183 6.24886 -1.11157 -4.17369 1.68061 -8.54469 -12.608 5.75133 -1.76269 17.5716 0.0131407 -0.0330977 -1.06086 1.78515 0.276061 -0.651228 0.469741 -0.09437 -1.88323 -1.07914 0.235636 -0.789115 -0.00126553 
-2.76619 11.9355 13.029 -0.876488 8.50679 -0.648604 -3.93095 1.59438 -10.0853 -16.5752 5.10289 -2.94996 17.9641 0.322929 -0.930518 -0.319439 1.82405 -1.36366 -0.76427 0.301395 -0.0758574 -0.887478 -1.01907 -0.596378 -0.716556 0.013702 
-3.14493 9.18011 16.9287 -1.00201 6.13097 0.502924 -6.52808 1.0239 -11.1272 -12.4389 0.911831 -0.17756 18.4884 0.825892 -2.16154 0.386959 1.10868 -4.00994 0.377828 -0.847854 -0.0373994 0.808176 0.342008 -1.8746 -0.0297154 0.250162 
-0.517732 5.7307 16.2916 -0.051405 -0.549877 -1.64791 -5.31966 3.87587 -9.1137 -13.1213 -0.523 -1.31505 18.3899 1.81763 -2.94009 -0.88139 1.51782 -5.33419 -0.661406 -0.191745 -0.740146 1.72803 1.18521 -1.32737 -0.128812 0.166212 
1.2968 3.73601 14.0133 3.52901 -9.27253 1.27722 -7.7186 0.352867 -4.98959 -12.6249 -0.808711 -2.72872 18.6095 2.46966 -3.20156 -2.98793 2.03697 -4.67869 -1.55653 0.566711 -1.15532 1.88644 1.30299 0.194621 -1.10358 0.10453 
4.10112 -0.0428851 10.0798 4.44709 -10.4624 -4.34278 -4.29441 -1.77083 -4.51389 -10.5562 -0.673705 -2.31844 18.7347 2.30968 -2.90714 -4.13747 1.81685 -2.4034 -1.15065 0.18545 -2.38281 2.73379 2.04024 1.25504 -1.9056 0.11957 
6.89396 -3.94087 5.09494 6.93358 -12.3062 -5.93227 -4.20715 -1.92937 -3.99491 -7.2065 1.96029 -5.19378 18.8387 2.00283 -2.11624 -4.68077 0.666398 -0.0138504 -0.155271 -0.405259 -2.9837 3.53114 3.0745 1.41922 -2.61637 0.0687864 
8.23209 -4.96657 0.0634241 7.33056 -11.05 -3.79643 -6.14814 -6.89704 4.05789 -5.62932 4.3677 -9.61054 18.8732 1.497 -0.87802 -4.30326 -0.52275 1.0906 2.22123 -2.10588 -2.90786 3.54818 3.49396 1.00931 -1.90156 0.0313385 
9.24544 -4.38335 -4.38239 5.41926 -9.04797 0.227689 -8.81803 -12.0025 8.38024 0.28422 3.7667 -12.1645 18.8842 1.08132 -0.00135832 -3.14709 -1.72983 1.34502 3.54321 -2.59861 -2.15814 1.93722 2.66496 1.1483 0.0269513 0.0298662 
10.4104 -4.21175 -6.69789 2.5905 -6.63856 3.68339 -12.5184 -11.2735 7.03944 3.16827 3.46963 -8.34087 18.8686 0.779376 0.252765 -1.94255 -2.20315 1.17091 3.03195 -1.57797 -0.855992 -0.885698 1.66957 1.78926 1.81569 0.0615513 
11.2114 -4.32508 -7.25988 0.654454 -7.78686 8.04389 -14.0151 -10.5318 4.20041 1.7195 8.15082 -5.69387 18.9903 0.431585 0.102322 -0.733089 -2.10246 0.919536 1.9309 -0.94951 0.764821 -2.57804 0.745262 1.75193 2.3073 0.0635149 
11.146 -3.73188 -8.21056 -1.3028 -5.82605 7.45522 -11.4395 -11.9124 1.71932 2.00089 11.1219 -3.76739 19.1279 -0.106788 0.0123702 0.0587101 -1.4008 0.715861 0.700843 -0.358391 0.931146 -1.8441 0.225591 1.39188 0.93453 0.0504303 
11.0356 -4.11168 -7.2915 -3.14637 -4.85655 7.99626 -14.105 -7.85902 -1.84991 4.59422 8.70018 -2.91475 19.0722 -0.365575 -0.363485 0.483581 -0.347071 0.824533 -0.0676198 -1.28946 1.11418 -0.34873 0.452294 0.206213 -0.737363 0.0480646 
9.96435 -4.25659 -6.38853 -2.51309 -4.52441 7.21142 -14.2654 -7.95419 0.844114 2.85887 10.1543 -5.05777 19.0799 -0.51904 -0.746203 1.35368 0.571833 0.540676 -0.765079 -1.79881 1.36907 1.33006 0.161693 -1.22853 -1.51688 0.0285004 
9.97436 -5.88014 -5.75299 -0.475759 -4.31501 7.82769 -19.0494 -6.94 2.89436 3.55198 9.66568 -8.73549 19.2546 -0.706587 -0.905852 1.99642 1.46553 -0.0326914 -1.58477 -0.9826 0.950727 2.19765 -0.660793 -1.54302 -2.12904 0.0444546 
9.08137 -6.57866 -2.2114 0.221052 -3.39344 3.7141 -17.9613 -5.52652 5.99748 3.33048 4.49655 -8.44142 19.1791 -1.06369 -0.839573 3.09449 1.56654 -1.14637 -1.74004 0.470113 1.49018 0.67134 -1.2598 -1.80002 -1.48518 0.0932482 
7.94411 -7.4799 0.602026 2.81421 -5.58549 1.82108 -17.1701 -4.31922 6.56167 1.05445 3.81395 -11.8681 19.2448 -1.53109 -0.563772 4.33305 1.14153 -1.96666 -1.59082 2.992 0.978206 -0.81896 -2.71973 -0.85226 -0.152784 0.193074 
5.66101 -7.65458 5.9064 3.67463 -9.62104 1.51451 -12.8545 -1.81369 2.36716 -2.19136 4.08011 -10.9174 19.551 -1.58361 -0.0901607 4.84369 0.688738 -2.48667 -0.0331758 3.79623 0.863513 -2.2145 -3.65922 0.259395 1.19083 0.245923 
4.02907 -8.16104 11.8533 3.50509 -11.0345 0.97337 -6.64288 -3.90538 0.61472 -7.28574 5.6126 -8.26143 20.0341 -1.3273 0.272615 4.83808 0.0240499 -1.72855 1.03409 3.23758 0.93717 -2.31349 -3.21016 -0.578764 2.72918 0.204306 
3.12083 -6.68889 16.3814 3.3193 -13.1023 3.97208 -4.24376 -1.41587 -2.10157 -10.7955 4.8942 -4.29061 20.0141 -0.871774 0.812864 3.70157 -0.347437 -0.296946 1.71108 1.58244 0.848191 -1.16401 -2.40447 -1.47032 2.62822 0.0459614 
2.5777 -6.59967 19.555 3.11212 -12.4876 5.76273 -5.28751 0.167725 -2.77141 -10.6943 0.513095 -1.53563 20.0348 -0.76791 1.36753 1.97553 -0.126445 0.73024 1.91338 -0.00068655 1.2974 -0.307967 -1.57908 -1.78741 1.71682 -0.130592 
2.02783 -4.37094 20.5634 2.13393 -10.3792 7.67525 -5.61999 0.390714 -1.75982 -12.5095 -0.721731 -1.13918 19.7805 -0.803234 1.8101 0.570905 0.311653 1.31333 1.55949 -0.226152 0.913643 0.503241 -1.45807 -1.45192 0.925928 -0.242591 
0.736028 -2.48239 19.64 3.46555 -8.74485 8.6887 -5.9582 1.67832 -1.09599 -14.3242 -0.516465 -1.25305 19.4979 -0.897597 2.02539 -0.568691 0.723162 1.57846 1.22611 0.0330791 0.726688 0.621052 -1.55675 -0.486571 0.535042 -0.299433 
0.0255003 0.302952 19.1934 4.70085 -8.40707 10.3065 -5.03918 2.39704 -0.42307 -16.271 -1.8506 0.197738 19.0696 -0.809627 1.55123 -0.696709 0.598998 1.53495 0.2949 0.698687 0.954844 0.369347 -1.2313 -0.66931 0.792016 -0.26072 
-0.909115 1.19033 17.3965 5.44447 -5.58141 10.5776 -5.41252 2.798 -0.334519 -16.5973 -1.35532 0.47112 18.8931 -0.390956 0.661838 -0.121152 0.0772602 1.0943 -0.0624027 0.382573 1.01878 0.107301 -0.428207 -0.42474 0.391985 -0.163851 
-1.19774 1.54885 18.2016 4.13946 -4.28616 8.20528 -2.3994 4.6051 -0.293815 -17.5294 -3.64885 1.95881 18.7793 0.0209634 -0.284801 0.247393 -0.165264 0.32734 -0.583823 0.27689 -0.0649388 0.567238 0.132736 0.262361 -0.0842674 0.0102224 
-0.607131 0.203851 19.5301 4.13255 -5.33383 9.42732 -5.36522 5.66818 -0.624111 -15.836 -1.74104 -0.17366 18.8238 0.502859 -1.09136 0.454186 -0.203924 -1.15152 -0.750059 0.407049 -1.09474 0.725397 0.582652 0.449215 -0.385891 0.164939 
-0.0206747 -0.627809 19.3636 4.53049 -6.89416 7.96259 -3.67837 0.63726 2.55791 -15.9879 -0.345938 0.0987909 19.1553 0.879963 -1.80551 -0.0801569 0.33264 -1.94163 -1.0079 0.109912 -1.99132 0.491554 1.21062 1.14215 -0.950197 0.243441 
1.01665 -3.17812 19.0865 4.22934 -10.035 6.94869 -2.73778 -0.691761 1.8666 -14.4548 -0.760708 -0.528322 19.5298 1.17522 -2.04105 -1.23993 0.815364 -1.84599 -2.48539 0.518702 -1.60946 -0.0287298 1.38521 1.01041 -0.410854 0.18459 
2.39019 -5.7877 18.0226 5.75426 -11.6437 4.4051 -3.16356 -2.17155 0.918599 -12.1669 1.57172 -2.61484 19.6435 1.42789 -1.85999 -3.09905 1.47395 -0.76539 -2.93754 -1.00271 -0.933083 -0.504981 2.70887 1.1015 -0.378737 0.00212154 
4.06355 -7.42144 14.0009 7.59748 -12.189 -1.22089 -3.02912 -0.974709 0.0518979 -10.8205 2.3522 -0.871113 19.5027 1.62682 -0.979388 -4.12449 1.01844 0.352978 -2.52905 -2.10328 -1.12293 0.107389 3.58494 0.952925 -0.424872 -0.156413 
5.59533 -7.8061 6.41112 10.2162 -9.64412 -2.64032 -8.54628 -3.88668 0.940359 -4.26069 3.60509 -1.6235 19.1795 1.79984 -0.246133 -4.31538 -0.644374 1.44164 -0.771862 -2.79872 -1.77939 1.34856 4.34117 0.259544 -0.646522 -0.249102 
7.5482 -7.06586 4.26978 7.09059 -9.26991 -2.17385 -10.5628 -5.44887 2.39266 -0.483143 2.98723 -3.14835 18.9797 2.03561 2.03292 -4.78064 -2.87433 3.43051 0.599158 -1.54757 -1.86163 1.35679 4.78836 -0.613114 -0.647113 -0.502658 
9.64705 -7.19616 1.31131 2.78584 -5.89506 1.02227 -13.3903 -8.8314 6.49102 4.37031 2.55192 -4.70883 18.6595 2.09699 3.73437 -4.52166 -3.87628 2.84773 1.12763 1.78861 -0.733066 -1.47791 3.25365 0.65243 0.70219 -0.584104 
12.2157 2.4382 -7.35239 -3.05898 3.08904 -0.056393 -8.34496 -7.8105 4.06052 8.80586 -0.186788 -2.56401 17.2494 1.3922 4.04382 -4.21182 -3.20034 1.70244 0.828439 3.93373 -0.443452 -3.9196 2.36483 1.72198 1.96617 -0.520178 
13.7465 6.11372 -10.3861 -4.09044 -1.58496 1.93911 -0.712166 -6.3712 -7.28314 7.36304 8.45425 1.59528 17.1241 0.681425 2.7916 -2.61967 -2.45933 -0.414334 0.398618 5.50362 0.172209 -5.87939 0.770333 2.36912 2.06756 -0.297748 
12.4595 6.49828 -10.9406 -5.47295 -2.91278 1.50993 2.76674 -8.89623 -10.3183 9.84462 8.64594 3.53043 17.1465 0.10517 0.571522 -0.464814 -1.99179 -2.04048 0.417874 4.90234 -0.429076 -4.54819 -0.440154 1.757 1.32362 -0.0237162 
12.9323 4.73179 -9.99295 -8.30381 -4.96582 2.2322 8.57191 -7.42749 -15.7166 7.70259 9.98116 2.58175 17.2222 -0.295941 0.652683 0.270638 -1.50111 -0.884583 -0.873818 3.94184 -0.757482 -1.30852 -1.56139 -1.6692 1.34211 -0.259805 
13.1487 5.98678 -9.87304 -10.9113 -5.42293 1.88643 11.5247 -9.42773 -14.4637 6.43531 7.83477 3.56084 17.0818 -0.942226 1.18802 1.23449 0.274509 1.30781 -1.68086 0.436979 0.549275 0.973306 -2.54597 -3.67789 0.654855 -0.755215 
11.9222 9.63289 -9.56671 -8.87683 -4.7528 -2.61824 14.618 -9.89286 -11.753 1.26076 0.513842 8.29064 15.8575 -2.14704 1.55773 1.98101 2.09517 2.15455 -3.30772 -2.4397 0.722192 2.4718 -2.63846 -4.66307 -0.315458 -1.02749 
8.25337 9.98781 -4.98126 -3.8139 3.51979 -4.46917 1.92857 -4.91717 -7.43352 0.335687 -5.00984 3.95026 14.0528 -2.5998 0.478637 1.56864 1.6018 1.15902 -4.06562 -4.63505 -0.394217 1.31399 -1.84396 -5.39845 -1.89748 -0.902137 
4.64479 10.5199 -2.53379 -1.37665 1.33557 -11.1286 1.17147 -6.07181 -6.87267 -2.43987 -6.91186 0.809752 13.5992 -2.11912 -0.825625 0.649671 0.879003 -0.256827 -2.50184 -3.32445 -0.853213 -0.536161 -0.790367 -2.95225 -3.16333 -0.568253 
3.78839 7.93643 -5.54628 -6.65235 -2.67201 -14.1865 -4.92723 -13.3093 -10.334 -0.934161 -15.4446 -2.18609 13.7002 -0.937727 -0.895792 -0.967059 -0.840152 -1.2209 -0.527891 1.06231 -0.0672608 -0.837551 -2.01027 -2.39754 -1.33696 -0.204568 
3.55911 6.53045 -6.03585 -3.06259 -2.94103 -10.2688 1.42369 -9.96284 -12.9836 -2.05615 -9.03002 -4.45782 13.1925 0.121431 -0.826699 -1.62253 -1.48746 -0.427311 0.941642 1.76445 1.73045 -0.0713998 -0.821687 -0.727585 1.61236 -0.0767506 
4.10757 7.5036 -8.06553 -7.17169 -0.446404 -7.53854 7.11401 -3.30796 -8.56582 -9.90752 -15.9385 -0.100757 13.2333 -0.958232 -1.51248 -1.14898 -0.519691 0.701903 1.16671 2.27054 3.47186 3.20093 2.31224 3.81156 3.4146 -0.270249 
5.09236 6.60287 -9.38679 -8.55426 -1.91379 -9.74438 3.97311 -2.42025 -8.11375 -2.06163 -10.3028 7.82886 13.4489 -2.59372 -2.28492 -0.850549 0.0405714 1.43139 1.68464 0.353866 1.76106 4.6762 4.47391 3.05925 1.71682 -0.360574 
-1.76939 0.337819 -9.6157 -6.50496 0.323885 -8.61515 5.15078 0.27866 3.23578 10.6298 4.2496 8.74357 12.2207 -3.98614 -2.07424 -0.969319 2.9169 1.62003 2.44606 0.189425 1.60528 4.78047 3.42895 3.90704 -1.37168 -0.163928 
-6.47103 -1.31126 -9.51351 -3.19309 3.83079 -1.30728 4.17464 -2.95086 4.4966 10.0448 -3.82782 -0.295886 11.8959 -4.34102 -0.666707 -1.34739 4.04962 1.2784 2.444 1.36185 1.5663 3.51748 -0.348588 2.60119 -2.49797 0.297012 
-10.0414 1.08946 -12.8488 4.7322 4.78144 0.473213 7.96037 4.98373 9.03134 1.18403 0.35919 -2.89678 13.1902 -1.86773 -0.471027 -0.906146 2.24536 0.857486 1.46474 1.13211 0.818106 -0.056674 -1.46315 -0.282227 -0.225493 0.237785 
-12.4767 2.89352 -14.5072 6.07524 2.24943 -2.06856 9.37758 3.05872 6.57586 0.918317 4.64833 1.15919 14.4493 0.148828 -0.794155 -0.169195 -0.00734357 1.83009 0.247365 0.925047 1.52494 -0.686842 0.356142 0.514898 1.69864 -0.13174 
-8.10519 -4.11971 -11.6496 0.0876474 5.40199 -0.910792 8.20988 1.3644 1.91278 7.87729 -1.3996 6.88856 12.133 0.941739 -1.19138 1.08171 -0.926365 1.69108 -0.350932 0.791347 0.00716589 -0.62925 2.53719 -0.942593 1.02741 -0.525143 
-6.69501 -2.67745 -10.9591 -0.907534 12.6709 0.621546 8.67512 6.48351 4.62167 8.47883 -0.373933 3.30463 11.7658 0.681202 -1.21231 1.21362 -1.40698 1.69055 0.176675 0.944635 1.04718 0.648848 1.51184 -2.02988 -0.800681 -0.557623 
-8.22359 -2.08196 -9.21431 3.59176 8.02607 -2.6265 12.2683 3.30717 6.86218 10.0897 -1.84264 1.16757 11.9062 -0.0768405 0.196945 0.448294 0.65016 0.655564 -0.015059 0.971325 1.06303 0.0112034 -1.0118 -0.714415 -1.00063 -0.0877003 
-9.01151 -4.1869 -9.65677 -2.71173 9.39013 -0.32733 12.0715 7.32326 7.3454 7.3713 -5.27955 0.0162828 11.7746 0.0627125 0.0479508 0.0677773 0.738333 -1.12982 -0.600701 -0.0610276 0.325828 -0.604118 -1.08859 -0.855534 0.574473 -0.0235261 
-7.33115 -2.38026 -10.0593 4.24055 10.3202 -0.511649 11.3683 6.2597 0.606939 3.37206 -2.51887 3.52961 11.6901 0.412621 -0.163504 -0.406712 0.439072 -0.71495 -0.0319266 -1.13148 0.838382 -0.660131 0.444385 0.168551 1.4316 -0.0480814 
-6.82767 -2.28855 -10.1977 2.45974 5.87479 -3.43938 8.82 6.63638 4.72871 6.3947 -4.31349 4.99598 11.7562 0.425396 0.170395 -0.280335 0.396949 -0.88296 0.0768168 -1.52473 -0.396344 -0.421668 0.615666 0.652986 0.751941 -0.0208698 
-7.2524 -3.84866 -10.9774 3.20139 6.20899 -1.23011 8.2367 7.84251 4.86987 12.7999 -1.48292 5.83573 11.6749 -0.29219 -0.310008 0.029059 -0.896897 0.0244259 0.287761 -0.000814247 0.00654112 0.31577 0.689815 0.919968 0.100702 -0.00719528 
-6.9239 -2.60073 -10.5994 -0.207406 7.03094 0.415984 6.0137 4.55013 3.10559 5.73569 -2.5326 2.62292 11.6778 -0.677178 -0.418172 0.438271 -0.865489 0.631446 0.703786 1.36139 1.05789 -0.641227 -0.343167 1.18257 0.489504 0.0155571 
-8.74398 -3.77421 -9.71314 1.08963 9.86428 -1.00053 12.7674 7.33553 2.99735 7.15063 1.19053 5.21964 11.6933 -0.598667 -0.130399 0.21452 -1.59528 0.339546 -0.106114 1.15399 0.393218 0.317421 0.43579 1.61421 0.676575 0.0202909 
-9.46777 -4.41663 -8.6385 -0.811828 7.20437 -0.0352451 13.3616 12.1793 2.45884 7.50352 0.262636 7.75154 11.8248 -0.248984 0.336387 0.44036 0.0687501 0.292892 -1.19724 0.560077 1.19417 0.4527 0.898263 0.0504374 -0.449718 0.002946 
-8.9738 -3.5927 -10.8852 -4.4728 7.82 -1.53506 10.3327 5.994 6.78036 14.095 5.19054 6.6543 11.7029 0.265632 0.714475 0.648163 0.351334 -0.608141 -1.93636 -2.05114 -0.987882 1.02352 0.908355 -0.147824 -2.15549 0.0124535 
-8.05391 -1.00955 -7.81152 2.91756 9.51754 -5.30294 10.0314 11.1917 3.47759 6.75484 -4.28041 -0.342996 11.6877 0.290294 0.233474 0.0538763 -0.0337612 -0.719144 -2.17899 -1.52091 -1.83431 1.68151 0.574185 0.697552 -1.29784 0.0178802 
-8.12275 -1.90538 -6.88581 0.98161 5.66699 -8.04847 4.17678 2.88993 7.60556 12.0667 2.72293 -1.51056 11.8241 0.000811005 0.271465 0.139962 0.324154 -0.870235 -0.134771 0.202487 -0.839096 0.402483 -0.403139 -0.468722 -0.299515 0.0453597 
-8.44183 -4.09292 -10.3688 -3.70784 4.68516 -7.67351 8.83502 4.55984 10.4538 11.3886 4.98419 5.34477 11.8536 0.057036 0.295126 -0.793129 -1.24897 -1.25369 0.64641 0.663651 -0.927482 -0.503589 0.460762 0.665091 0.80185 0.0413995 
-8.77579 -0.693686 -8.90677 0.460668 5.88501 -1.02364 11.9433 5.11447 5.30467 9.76242 -1.78538 2.31284 11.8468 0.0702766 -0.0486109 -0.702011 -0.43809 0.52612 1.32867 2.91452 2.47379 -1.26238 -1.09089 -1.5828 0.263791 -0.0539456 
-7.44221 -0.139765 -10.7667 -3.06682 3.14009 -5.5833 9.4664 5.44206 2.11009 10.2108 1.2992 1.75456 11.8834 0.0845917 -0.34955 -0.0946378 0.236697 1.1955 0.902004 2.56877 3.02192 -0.981565 -1.0936 -1.82286 -0.819187 -0.0935447 
-8.27118 -4.12501 -10.1969 -1.52935 9.07012 -2.4502 18.4337 14.8178 5.46553 7.20118 -3.34854 1.60351 11.5395 0.0180262 -1.08479 -0.201058 -0.244256 1.23002 0.0279967 2.1948 2.87824 0.367718 -0.813212 -0.777407 -0.156972 -0.0958483 
