-5.3608 -3.35726 -5.45672 -0.0465255 2.02027 1.51273 4.56421 -7.96994 -1.05735 3.8324 1.05306 4.45369 11.5439 -0.127672 -0.247042 -0.11768 0.129708 -0.0383799 0.30697 0.24119 2.76236 1.92181 -1.6039 -1.334 -1.1815 -0.060535 
-6.53 -5.24389 -8.61996 -1.49699 0.3432 4.7676 5.62469 -3.50325 1.03566 -0.276124 -0.573469 -1.54815 11.4746 -0.250898 -0.365026 -0.0165737 0.00579858 -0.026709 -0.131865 1.72706 2.42805 1.55213 -1.02117 -1.52798 -1.18448 -0.0866145 
-5.41456 -3.64915 -4.46349 1.32725 2.6669 1.42014 5.23993 3.60851 7.50523 -2.13285 -4.8037 1.5471 11.2759 -0.256155 -0.324026 0.127541 0.432927 0.0241025 -0.311906 1.11411 2.61527 1.32742 -0.870751 -0.425952 -0.781628 -0.0694336 
-6.58841 -5.03644 -6.0362 -0.704421 1.56341 0.899697 12.8617 -1.61893 2.422 1.70917 -3.65844 -0.0154061 11.2448 -0.0593039 -0.306946 0.461681 0.582705 0.310293 -0.745394 0.104508 0.0378031 -0.0783844 -0.618575 0.176356 0.295293 -0.01261 
-6.61237 -5.08111 -6.11089 1.72182 1.53068 1.88715 6.51629 4.16425 4.88656 -1.514 0.465787 -0.220824 11.3116 -0.0465389 -0.506179 -0.208569 -0.0430806 -0.22216 -0.246351 -0.494162 -1.15754 -1.53083 -0.516121 0.64529 0.229529 0.0179917 
-6.22761 -6.06263 -5.48785 1.21925 2.46278 0.807128 5.50905 -3.5921 1.95307 -3.67842 -2.32643 0.812276 11.3937 0.084724 -0.539241 -0.0741249 -0.509026 -0.495255 -0.610642 -1.37623 0.0978365 -0.66167 -0.498852 0.763314 1.24145 0.000676441 
-5.82765 -5.66695 -5.78051 0.150014 1.10642 0.234666 6.44543 -1.1926 0.0855565 -2.01966 -2.24325 2.28091 11.2914 -0.0696485 -0.863136 -0.149931 -1.09794 -0.335274 -0.749708 -0.598748 -0.670003 -0.601698 1.02525 0.672451 0.561636 -0.0113018 
-6.55715 -7.43972 -6.57201 -2.46365 -0.700738 -1.32727 6.01598 1.54867 1.51415 -0.53226 1.51265 4.94097 11.2583 2.15931 1.83197 0.435006 -0.990173 -0.249723 0.0799913 0.18083 0.646075 -0.323829 0.513208 0.146519 -0.101225 0.150544 
-6.79585 -8.70825 -6.31847 -1.92645 1.43606 -0.794193 3.26909 -1.75615 2.09753 2.03915 1.9085 0.523011 11.3228 3.94171 3.37613 1.38908 -0.14649 -0.38749 1.21907 1.59482 0.806184 0.291865 -0.384143 -1.17757 0.0549321 0.468686 
5.05305 4.61789 -3.04385 -2.69339 1.04934 1.72151 8.00137 -0.0799509 -0.672062 -3.14179 -3.66971 1.1851 12.1307 4.9555 4.15531 1.49794 0.325924 -1.24142 1.20349 2.40221 1.66732 1.57166 0.117829 -1.77598 -0.643929 0.790152 
8.07579 5.18491 -0.599185 -0.467565 -1.70607 4.80563 13.4268 3.65263 2.63799 -2.63561 -5.5399 4.4335 13.1987 4.3182 2.50407 0.950595 -0.324846 -2.72694 0.708492 2.16035 2.48507 2.74627 0.728174 -0.994778 -0.757926 1.0694 
10.7845 6.39022 -1.94195 -1.56347 -5.33679 1.89028 12.9481 7.18086 9.1022 2.39426 -3.64303 -0.233924 14.2711 1.54238 -0.412958 0.208887 -0.156619 -3.76829 0.612933 0.180824 0.812593 2.00136 1.88151 0.645982 -1.36117 0.992069 
11.9294 2.92593 -2.11644 -4.11564 -9.00558 2.66389 11.5974 7.03881 10.9417 2.91199 -3.07873 -2.55711 15.5996 0.234564 -0.0883166 -0.636512 0.56943 -2.99057 0.0476166 -1.6728 -1.21178 0.974732 1.2424 0.908273 -1.49118 0.699683 
10.8381 3.68259 -1.24078 -1.65244 -14.1423 5.85705 9.82018 2.28993 5.18284 3.49198 -1.67039 -2.12546 15.8906 -0.393852 -0.281983 0.439581 1.57841 -1.51648 0.169851 -2.27347 -2.44509 -0.474875 -0.0878065 0.743252 0.0369676 0.26214 
9.2218 6.09715 -4.13233 2.42407 -12.2561 3.06032 6.62682 0.0392128 9.47133 3.02753 -1.98486 -2.07663 15.8873 -0.702398 -0.328361 0.906348 2.9276 0.275321 0.609922 -2.70836 -2.49707 -0.59574 -0.888897 0.528947 -0.0717297 -0.166169 
10.1691 3.3947 1.2639 3.05872 -11.2939 2.54131 4.06611 -1.54479 7.46304 1.89746 -0.473711 -0.289323 15.4379 -0.910388 -0.778056 0.913005 2.72822 1.93458 1.2691 -1.28842 -1.16081 0.498646 -1.64753 -1.08948 -1.29566 -0.214441 
8.75198 1.42807 1.16295 8.16677 -9.05318 7.37137 0.932682 -3.52917 6.82295 -0.735234 -1.03233 -3.83382 14.9951 -0.798385 -1.08098 0.95509 1.95112 1.45195 2.50721 0.0138243 -0.137968 0.481123 -2.02447 -2.17576 -2.26427 -0.102658 
6.5211 2.12685 0.676602 9.11732 -6.07093 10.0471 6.22517 -1.72993 9.00026 -2.86428 -7.59403 -7.72517 15.2645 -0.439073 -0.740445 0.042825 1.15224 0.983973 2.08813 1.17449 0.656737 0.491058 -1.17295 -3.29367 -2.31253 0.0462108 
7.05387 1.32617 0.936775 9.15038 -7.60791 11.8435 5.61641 -0.558059 11.1083 -4.71394 -9.30347 -9.68005 15.4607 0.57678 -0.956285 0.449684 -0.249932 0.57035 0.460893 1.49682 1.13309 -0.1716 -0.21303 -3.46625 -1.17723 0.108879 
8.82277 -0.256578 1.59111 8.3281 -7.0967 10.7459 7.59667 0.253338 7.77564 -1.97793 -12.8065 -8.92884 15.4362 1.15886 -0.657859 -0.316954 -0.920226 0.0648941 -0.767636 0.109228 -0.18407 -1.69671 1.10628 -1.00212 1.10482 0.0367077 
10.485 -2.16164 2.95412 7.31172 -5.68854 9.32642 7.73102 1.14464 6.57726 -2.24356 -15.7573 -9.11812 15.4536 1.16607 0.512266 -1.53367 -1.59744 -0.22618 -2.41847 -0.882263 -0.435059 -3.04063 1.50416 1.50937 2.487 0.163189 
10.5998 0.581464 -1.91684 5.43551 -6.70614 7.46741 5.714 -3.50163 2.78224 1.43193 -9.37769 -2.48203 15.4516 1.04289 1.82444 -2.50607 -3.01251 -1.10256 -2.8081 -1.96039 0.574318 -2.00019 -0.362882 3.68804 2.32828 0.46948 
11.9957 3.46848 -4.9776 2.60948 -8.93409 1.39036 2.14643 -0.855873 -1.59813 1.10192 -3.471 -0.468449 16.269 0.822453 2.41298 -2.78016 -3.91816 -1.13043 -1.32878 -2.05904 1.51747 -1.2221 -2.30724 4.02664 2.08867 0.611853 
13.2819 6.05055 -6.97336 -4.38332 -10.9867 0.673401 0.586996 4.12518 1.86236 -5.46508 -0.509428 -1.61227 17.3759 0.739477 1.50615 -1.84202 -3.4716 -0.475539 0.310821 -0.984316 1.79701 -1.51151 -2.93832 2.57154 0.952763 0.528609 
13.2563 7.16872 -8.41844 -7.36965 -9.20041 6.0795 -0.000649929 4.91858 0.926688 -10.3313 -0.0582728 0.890338 17.5508 0.59795 -0.159223 -1.32605 -0.943543 0.51611 1.3078 -0.0560791 -0.682028 -2.0845 -0.473596 2.15418 0.925894 0.220795 
13.6669 6.2621 -9.40652 -6.9329 -8.95067 6.67694 1.86597 2.59622 -6.03774 -7.54307 1.77364 1.60239 17.4538 0.144435 -1.98341 -0.147215 1.46621 1.47887 0.872816 -0.821676 -3.50047 -2.15178 3.10968 1.95986 1.10382 -0.0312391 
14.7929 2.56659 -10.3912 -0.833448 -7.37156 4.9276 1.22655 -3.50153 -8.0706 -0.22706 6.15835 2.55369 17.334 -0.484995 -2.54014 1.25922 2.06462 2.71978 -1.40584 -2.12534 -3.51245 -0.767547 5.15958 1.1421 -0.211108 -0.128596 
13.2357 -1.56543 -6.72303 -0.320385 -4.50679 5.61343 -4.13499 -9.16711 -4.3979 5.03121 6.18155 3.07513 17.3281 -2.24727 -0.257285 2.4287 0.342466 5.40196 -2.73636 -3.37674 -0.710523 1.1418 4.64919 0.156007 -2.33254 -0.212164 
11.0469 -1.6182 -3.4641 -0.352814 2.17656 -0.417933 -7.62688 -6.76203 -3.73097 9.17948 3.44828 -0.901571 16.9706 -5.72451 2.80674 4.18568 -1.4598 7.02682 -1.87169 -4.4113 3.96558 1.65604 0.657707 -1.13621 -3.68755 0.385114 
4.30355 7.06807 -0.726596 -5.46089 13.2851 -4.33208 -10.591 0.673847 -2.49854 10.9996 3.90871 -8.33269 16.5746 -7.7465 3.84379 1.82355 -2.68266 4.852 -1.13593 -2.77338 6.43429 0.81557 -2.66406 -2.12867 -1.79196 0.649719 
-9.36354 12.2836 7.53892 -5.5622 18.8666 0.54189 -17.6019 11.4059 -0.74007 0.0772857 1.61373 -10.1802 19.6363 -8.21397 2.4943 -0.510839 -2.58292 1.61029 0.962981 -0.799952 5.37738 0.992526 -3.78763 -2.35825 0.0791338 0.750603 
-15.2916 10.7026 -3.10678 -11.129 11.4082 -0.546105 -13.0144 13.9204 -1.8155 -3.73797 -3.54451 -1.24538 19.2438 -6.08112 0.231414 -1.39979 -0.434681 -1.92251 1.38635 1.28457 1.39872 -0.0512266 -2.81186 -1.17899 3.00658 0.480556 
-20.2254 9.036 -4.82821 -10.4334 11.1665 2.50398 -10.415 13.5016 0.890138 -2.3899 -4.61634 -4.04955 19.389 -3.08714 -0.824774 -1.52064 1.47576 -2.06646 0.642928 2.73583 -0.77888 0.529182 -0.424365 -0.302326 2.77164 -0.0631165 
-20.6711 9.84892 -1.54201 -5.19871 7.52257 1.61865 -7.76168 6.61958 -3.56978 -1.82614 1.12882 3.63492 19.101 -1.45617 -0.185914 1.47152 1.897 -1.01944 1.58557 1.71555 -1.55363 0.230521 -0.00659909 1.49111 0.161709 0.153185 
-22.1095 8.58656 -0.846659 -1.14853 10.4771 2.67415 -6.54913 11.1619 2.78298 -3.00045 -2.23457 1.2379 19.3921 -0.686723 -0.261807 1.40481 0.0489971 -1.03552 0.523104 0.116285 -1.90145 -0.800091 0.70851 1.6275 0.00404237 0.195209 
-21.6304 9.9978 2.26005 -6.28638 6.65561 7.29667 -6.36953 7.3221 -1.60931 -3.46569 2.72015 -3.08056 20.0082 -0.456995 -1.18909 0.705959 -0.792113 -0.430565 0.516843 0.219631 -1.6103 -0.741673 1.61228 0.491605 -0.937281 0.163286 
-23.1794 7.65252 0.294822 -9.64455 6.42237 2.2805 -10.5296 3.64312 -4.09055 1.97243 2.72549 -0.6716 19.9115 0.127277 -1.32525 1.67877 -0.114051 -0.771208 -0.0639715 0.68367 -2.49759 -1.90597 0.392302 0.361167 1.5316 -0.0348681 
-22.4212 4.37047 1.41705 -4.91127 7.39713 4.39969 -4.67328 2.32746 -3.84138 3.7488 1.10682 -0.0967293 19.6578 0.114119 -1.42551 1.92802 1.36818 0.236578 -0.245741 1.87236 -0.378415 0.207212 0.300656 -0.931171 1.85616 -0.164597 
-21.0777 4.77397 7.96868 -2.40634 6.25034 3.80278 -3.97891 1.17125 -5.63082 -4.64619 0.377934 7.40399 19.393 0.544338 -1.14556 1.41211 0.628115 -0.444673 1.1931 4.38073 1.51315 2.32368 -0.714363 -0.655082 1.67301 -0.263552 
-22.1106 4.30951 8.0632 -3.06461 7.92452 5.30682 -0.283087 6.66596 0.196887 1.3469 -0.761926 2.16246 19.4445 1.82097 -0.295979 1.4984 1.07749 0.640191 0.453948 2.69634 0.27902 0.282171 -1.86701 0.510763 0.593965 -0.537463 
-20.613 1.95519 4.03227 -7.4273 3.93531 7.79243 9.17893 9.0396 5.5087 -0.39844 0.384456 6.56386 18.7004 5.42546 -0.097044 1.12202 2.38719 -1.59935 -2.30028 0.188606 -1.09796 -2.20807 -1.98097 0.547671 -1.10247 -0.886642 
-13.5487 4.29996 10.8772 2.98669 11.7556 4.67461 2.22948 -0.211613 -8.00029 -7.71015 3.65737 3.29316 17.3168 7.90959 -0.928315 2.18649 2.95241 -4.27691 -4.61701 -2.38051 -2.6003 -3.88445 -3.51123 0.953477 -0.575746 -0.742801 
1.76865 4.29352 12.1718 6.50396 -3.66193 -7.38251 -4.29216 -0.879777 -12.5726 -10.0225 0.90664 1.32629 16.0236 7.37029 -0.992609 2.38241 2.10195 -4.68736 -4.58514 -4.36416 -1.57026 -3.20531 -2.94167 0.635258 -1.01564 -0.387653 
6.2465 -1.50123 14.9259 4.73181 -9.66142 -10.1908 -5.45011 -1.37584 -10.1847 -11.3972 3.74437 1.90252 17.0688 4.31183 -0.929534 0.406941 -0.362208 -3.81322 -2.57853 -2.7243 0.172622 1.33614 0.302564 -0.72045 -0.132149 -0.196225 
6.34088 -0.107258 13.92 2.20987 -8.79296 -7.70057 -8.80206 1.7704 -9.42564 -13.2633 3.51725 2.181 16.8861 -0.33342 -2.15517 0.376464 2.11082 1.58048 0.85915 -1.20519 -1.38692 4.81697 2.30113 -2.11095 0.128272 -0.123711 
5.72433 1.85269 12.0378 3.32269 -4.74498 -8.05902 -9.13709 -0.673591 -2.89306 -4.57696 -1.25018 2.20506 15.9044 -1.2059 -1.9907 -1.38949 2.41097 3.50724 3.21929 0.983649 -1.30388 4.94118 1.74367 -4.28503 0.340059 -0.511012 
0.362638 -8.15928 15.4981 17.7626 1.78226 -4.15265 -8.47464 -8.16552 7.86643 -1.92698 -7.15082 1.81637 15.9873 -0.183963 -1.79935 -2.42108 1.04437 2.68432 2.22262 0.699902 -1.30418 4.10801 0.989027 -4.13275 1.04513 -0.261709 
3.20613 -7.42873 7.18941 9.01029 2.58715 4.13172 -0.695576 -2.92726 5.87517 -8.34699 -12.3467 3.78512 14.9632 1.76604 -0.124017 -3.1355 -0.825677 0.754596 -0.251269 -0.950547 -0.598388 1.07642 0.954031 -0.742016 0.687348 0.19176 
6.68016 -4.46331 4.2388 4.58793 0.962597 -2.68284 -9.5233 -3.62367 6.73031 -6.4331 -11.5982 6.61664 16.0482 3.64045 2.59329 -3.86356 -4.26124 -2.00112 0.0978145 -2.74419 -0.95433 -1.18934 2.52453 2.80185 0.161161 0.494506 
11.3958 -0.615384 1.99001 5.78165 -0.562171 -10.0503 -13.3655 -5.93645 3.05708 2.44625 -2.73656 3.24167 16.8328 3.00655 2.20889 -2.4405 -3.14259 -2.46437 0.832136 -2.89726 -1.9283 -1.99239 4.17012 5.29285 -0.83843 0.582391 
14.4701 1.40049 -1.21998 -1.92924 -6.64866 3.42741 -15.8606 -11.4326 3.32879 5.29906 2.05332 2.89391 17.525 1.62434 0.905285 -1.60928 -2.38604 -1.55694 2.81853 0.501252 -0.533977 -3.73687 3.58793 4.36612 -0.855499 0.159199 
14.3439 0.683835 -2.28368 -3.44405 -5.92906 5.23727 -12.0132 -8.66429 -2.38603 6.63753 7.29174 1.45434 17.1367 0.41026 -0.34161 -0.672885 -2.08436 -0.237596 1.96941 2.3386 0.919393 -3.41912 1.47924 2.87453 -0.438389 -0.0775133 
13.3278 -0.586495 -1.67073 -2.72939 -4.13867 3.76602 -7.69318 -4.92963 -9.2325 9.4109 5.21821 3.23281 16.6922 0.0174265 -0.668724 0.182509 -0.511482 1.08376 -2.00576 2.73187 1.99582 -2.30673 0.14131 2.9939 -1.36137 -0.143824 
14.0182 -1.32994 -1.14904 -4.24009 -3.00514 -0.37253 -5.75622 -4.59096 -7.75789 7.78651 10.0537 0.880274 16.8616 0.445621 -0.409032 -0.174332 0.165428 1.58618 -3.07529 0.733209 1.34725 -0.182952 -0.39936 2.75089 -1.64547 -0.0142361 
14.7201 -0.936241 -0.874754 -4.08863 -2.69183 -3.79651 -5.32977 -3.49013 -5.51895 5.43111 15.6418 -3.62589 16.9434 0.447068 -0.0513601 -0.630886 0.738342 2.12818 -3.17172 -1.46169 0.672178 1.78576 -1.34681 2.06821 -1.34948 0.0344664 
15.8759 -1.18645 -3.55333 -1.93729 1.27843 -6.35789 -9.52889 -2.64777 -5.15757 6.63062 15.8344 -3.34368 16.9399 -0.00544596 -0.18978 0.087915 1.46519 1.71976 -2.6919 -2.57482 0.800899 1.57049 -0.815792 -1.10328 -0.871356 -0.0701477 
14.6343 -0.915039 -3.62302 -0.189083 4.36045 -9.09991 -13.1153 -2.54034 -1.60386 3.25478 12.6689 -1.40263 16.8254 -0.700235 -0.287994 1.45231 1.6524 1.22058 -2.78252 -2.48649 0.741533 1.30782 -0.919141 -3.72627 -0.385542 -0.184798 
14.0339 -2.28944 0.664668 1.13606 2.0675 -11.1803 -14.7376 -1.06136 -1.86301 4.79572 6.02374 -4.58814 16.5699 -1.45426 -0.168537 3.57735 1.43196 -0.469909 -2.59353 -0.482118 0.945854 -0.583403 -1.78836 -3.54279 -0.673285 -0.289816 
12.1399 -1.82472 4.27781 2.6367 3.01651 -15.2979 -15.1579 -0.575672 -0.627148 1.75286 1.91579 -4.93137 16.2044 -2.01704 0.339151 5.23728 0.887976 -1.94051 -1.38096 1.7194 0.222537 -3.30474 -1.80659 -1.83058 -0.798163 -0.326563 
9.85178 -1.5743 10.383 3.80964 -0.399143 -16.2266 -10.9182 1.09917 -8.56294 -1.56021 3.49701 -4.94573 15.8013 -2.43152 1.03873 5.14793 -0.0382917 -1.96563 0.387841 3.50611 -0.914801 -5.48078 -1.61298 0.0419202 -0.0480593 -0.298426 
6.64016 0.423148 17.7042 2.91401 -4.10878 -13.4816 -6.42802 -2.50792 -14.7776 -2.60022 4.77937 -5.21464 15.5769 -2.44219 1.30534 4.4475 -0.99996 -1.41071 1.43593 3.30846 -1.5612 -5.42043 0.13008 0.197479 -0.410857 -0.227205 
4.62616 1.78026 19.6911 0.805951 -4.19803 -10.1493 -1.57193 -4.66924 -22.1917 -1.09262 4.80155 -4.6868 15.3916 -2.26624 1.3409 3.08406 0.144534 -0.659983 2.5209 2.36522 -2.00424 -2.26171 0.870514 0.482688 0.585365 -0.328304 
2.54177 3.02469 21.8613 -0.861257 -2.13762 -11.1569 -3.28874 -5.49746 -20.9149 2.16946 2.25091 -7.11512 15.2733 -1.94457 0.465779 1.06107 1.14399 0.448635 3.10549 1.63116 -0.668301 -0.189472 0.380745 0.016793 0.758348 -0.430623 
0.569797 3.82944 23.7248 6.41994 -4.68464 -4.78445 -0.661715 -7.42728 -16.8028 0.407518 7.17467 -1.06867 14.3116 -1.28552 -0.156295 -2.85366 2.17837 1.50457 1.64923 1.28263 0.453231 3.71824 -0.358394 -2.18318 0.782403 -0.823005 
-1.05452 1.72745 20.9927 5.82695 -1.6223 -0.636578 1.27265 -4.4704 -18.4194 -1.44656 3.67678 -3.23197 13.9637 -1.55193 -1.53908 -7.00558 0.763965 2.11915 1.05622 2.29913 1.85982 6.49105 -0.925841 -3.11748 -0.0421506 -1.02542 
-0.00328541 1.64741 5.8571 8.35369 3.06717 -7.16329 2.56053 -2.91661 -4.84829 -1.07658 -6.82729 -2.71636 11.9313 -1.50555 -2.16922 -8.60259 -1.79462 2.51284 0.61259 2.35788 2.55942 7.57352 0.241267 -3.26081 -0.309584 -0.840817 
-4.93136 -3.57968 -4.23281 1.99169 4.58222 -4.68635 6.59579 1.5463 5.56305 -1.7177 -6.33553 -6.50203 11.3363 -1.41864 -2.07319 -6.78501 -2.11702 1.59435 0.396205 0.759563 1.33548 4.80819 0.799585 -0.444358 2.06667 -0.581809 
-5.01952 -4.3631 -6.67539 -0.635539 4.7773 0.303387 8.46613 2.36146 9.07355 1.74942 -4.12321 -0.981557 11.4212 -1.19621 -1.19968 -2.58675 -1.69309 0.454043 1.43357 -0.86968 -0.858935 -0.206477 0.596445 2.58837 3.14088 -0.132861 
-5.63963 -5.63325 -6.66609 -0.263559 5.49439 -2.38889 2.11767 -0.432062 -1.33934 1.13836 0.102949 6.23398 11.3097 -0.221183 -0.0980973 0.0908202 -0.770519 -1.11661 0.82329 -0.43238 -1.62437 -1.74658 0.29341 2.12001 3.39518 -0.008389 
-5.6302 -3.32423 -5.85998 1.01586 4.8813 -1.14419 0.451198 -6.22211 -2.42948 0.477617 2.89533 6.62002 11.2803 -0.303854 -0.148093 0.470491 -0.386697 -1.10178 -0.0466729 -0.395831 -0.934963 -0.573032 0.130993 1.54831 1.16273 -0.0141291 
-5.73194 -4.58961 -4.18641 -2.6866 -1.05282 0.153893 8.44136 -2.28375 2.58169 0.385256 0.755269 6.67309 11.3648 -0.0610506 -0.0772661 -0.248932 -0.504821 -0.831652 0.518996 0.841555 0.706021 1.96237 0.991376 -0.101876 -1.02123 0.0211094 
-6.49263 -5.62539 -5.56277 -1.3575 2.54199 -1.20137 3.32513 -1.38751 4.24787 2.78094 3.29219 4.61253 11.323 -0.197335 0.0615714 -0.262357 0.107132 0.018778 1.0676 1.27851 2.42799 1.16531 0.203489 0.373991 -1.05278 0.0338061 
-5.51367 -4.869 -8.05936 -1.60098 2.50579 0.23468 4.88848 0.680741 5.13385 4.94358 -0.60486 2.13156 11.3939 0.0352554 0.498415 -0.215244 0.728871 0.296722 -0.271615 0.0778974 0.942653 -0.490563 -0.0577189 0.622811 -0.803519 0.0333902 
-6.72601 -2.87667 -5.23529 1.00871 3.19589 4.15343 8.62017 4.4356 2.12097 -0.784098 5.44536 3.62687 11.4348 -0.0472095 0.511324 0.366929 0.466717 -0.344906 0.0965454 0.731433 0.961456 -0.350502 0.768238 0.0231429 -0.382252 0.0116414 
-5.43897 -3.47189 -5.42637 -0.225354 0.103845 -3.88158 6.18333 -0.482043 1.19233 1.87918 2.79274 3.14832 11.4759 -0.136981 -0.110005 0.407421 0.946833 0.532885 -0.329483 -1.51719 -0.616032 0.261136 0.574814 1.02567 0.291601 0.00225172 
-6.76603 -3.76732 -5.04462 0.288268 2.01843 1.33949 6.33487 4.00117 4.46612 8.15433 1.7091 2.19289 11.3402 0.0744299 0.153666 0.387399 -0.482731 -0.0845903 -0.767555 -1.41037 -1.63768 0.750088 1.08066 0.339585 0.0684372 0.0305993 
-6.17856 -4.9737 -6.11758 3.4934 5.75894 -0.00576639 -1.55482 -2.1822 5.26695 3.34844 6.39164 4.30656 11.4524 -0.00762882 0.00347768 0.299971 -1.41345 0.455292 1.06845 0.529739 1.10923 0.900465 -0.795275 -0.81151 0.214023 -0.00421629 
-5.98406 -1.35744 -2.95269 -3.26432 -0.0546122 -1.62225 5.4374 -2.90274 3.8341 3.8846 5.34383 3.38993 11.5995 0.0414499 -0.467808 0.0298492 -1.32397 0.135277 0.483864 2.44994 1.70393 0.256927 -1.93836 -2.49799 0.316244 -0.00984869 
-5.8681 -4.65944 -4.97248 -5.51629 3.41682 2.94153 9.28076 8.51608 6.01067 0.0376709 -3.08217 3.61991 11.3252 -0.175773 -0.787026 -0.369615 -0.928703 0.176215 0.653713 2.63664 1.54929 -0.163427 -0.749206 -2.32021 0.0377021 -0.0206853 
-6.71401 -6.26349 -5.46793 -1.82673 3.86587 2.28516 13.1668 7.17165 5.3789 0.117897 -6.04392 4.11743 11.3546 -0.0273277 -1.13632 -0.925281 0.538466 0.923943 1.0704 0.0395393 0.722393 0.459174 -0.355603 0.175676 0.211491 -0.0615808 
-6.69245 -6.4558 -6.70804 -1.86891 4.67977 1.30909 7.76369 0.527077 3.67741 1.48576 0.484441 4.13132 11.4715 0.216017 0.076072 -0.454454 0.903625 -0.415467 -0.744261 -1.72665 -2.14075 0.498456 0.863875 1.06124 -1.35436 9.43184e-05 
-5.70852 -6.14083 -6.71131 -2.39568 3.93363 4.54595 6.39363 4.70372 7.2966 1.38254 4.4389 4.19168 11.2185 0.201308 0.50672 -0.0633542 0.24541 -0.767794 -0.250596 -2.0809 -1.99589 0.112104 0.271612 -0.798194 -2.85984 0.00793085 
-5.29076 -4.34041 -6.62306 -0.713692 1.30561 -1.91017 4.03407 -0.953716 7.5441 3.72472 -3.0174 -3.18902 11.3937 0.131796 0.301539 0.609823 0.561653 -0.64259 -1.91264 -0.980115 -1.48181 0.315887 -0.551876 -1.6755 -1.51753 -0.0394789 
-6.40832 -4.78759 -5.82719 -1.17729 1.71398 2.64181 4.62707 -2.06741 4.00607 0.356474 -8.28397 -6.5216 11.4331 -0.0520721 0.429361 0.370601 -0.216728 -0.897036 -2.27086 -1.3883 -1.66272 -0.88693 -1.09502 -1.77154 -0.226963 -0.0243328 
-5.68357 -5.62473 -4.10099 0.330155 2.57664 -7.30205 3.7464 -3.49643 6.90211 -0.760589 -1.53161 1.90032 11.1667 -0.0327597 0.341281 0.0715286 -0.939907 -0.788641 -1.11588 -1.39074 -0.30407 -0.954544 -1.33556 -0.11663 1.44362 -0.0589667 
-5.77248 -3.35187 -6.11934 -4.00125 -1.18707 -4.11243 -0.404053 -2.33851 3.18295 -1.8499 -5.16169 0.512204 11.2103 0.118279 0.51443 -0.260266 -0.997932 -0.95658 -1.03189 -1.42127 0.0615713 -0.536542 -0.550207 0.261447 1.26795 -0.0402039 
