-6.32691 -4.49068 -7.58148 -1.24614 1.98711 2.81812 7.86067 -1.60886 1.71592 0.271221 -0.826188 9.48664 11.2997 -0.206662 -0.308498 0.156879 -1.14304 -1.20145 -1.07034 0.998785 2.36615 0.895997 0.426398 -0.0730381 -1.10088 0.045534 
-7.8596 -8.73249 -10.4733 -5.4451 -1.02127 0.729275 11.8607 4.09714 3.94085 3.0269 -0.58407 6.37509 11.3442 -0.202285 -0.119262 0.497729 -1.01526 -0.989833 -0.23583 0.0608434 1.51416 1.025 1.46337 0.415362 -1.56108 0.0664142 
-6.59387 -3.91226 -5.3512 -4.86187 -2.51597 -1.48918 10.8546 7.36889 5.08344 1.02537 -1.31244 5.53804 11.5051 -0.0309612 0.457242 0.458205 -0.0140065 -0.0804974 -0.498455 -0.411584 0.846274 0.531137 1.56363 0.836448 -0.219997 0.0419183 
-7.20485 -5.3762 -6.20798 -4.51459 -0.710519 3.79262 6.66794 1.47307 5.15718 7.21099 1.49375 3.65555 11.529 0.44709 1.14158 0.564981 1.75907 1.3817 0.270371 -1.35402 -1.02597 -1.03545 -0.583195 0.176624 0.240719 -0.0561382 
-6.80909 -3.88262 -7.4231 -1.78143 1.42925 -1.20583 8.39914 3.93454 3.76344 5.99733 2.31714 9.74642 11.4168 0.301839 0.145694 0.223893 0.982534 0.793103 -0.345399 -0.564913 -2.61563 -0.89469 -1.15477 -0.574549 -0.406828 -0.0258722 
-5.51654 -3.03943 -6.6124 1.81005 3.91464 1.93946 6.31832 0.684478 -0.57639 -2.37505 -1.51574 5.47449 11.1076 0.377798 0.386648 1.2334 1.03051 0.408835 0.587087 1.15744 -1.75513 0.586259 -2.89076 -0.721669 0.626159 0.0480137 
-5.92883 -4.35217 -4.02952 -3.11152 -0.863027 -2.28959 8.20481 -5.31495 3.47678 0.0445302 -2.68044 2.59443 11.5864 1.40403 1.45905 2.4524 1.13513 -0.0456364 1.7215 -0.101833 -1.87982 0.679302 -1.59387 -0.423698 -0.566749 0.138047 
-5.75599 -3.20818 -1.73779 1.303 2.47979 7.26994 12.5523 -2.67784 8.23181 -4.26639 0.384193 10.3623 11.6843 3.05201 3.05019 2.7895 1.58502 0.27258 -0.182526 -1.36273 -1.10545 -0.931967 0.201786 0.761039 0.0920651 0.353385 
0.33077 3.49703 2.40162 4.14775 1.91848 4.73644 4.77298 -3.78338 2.75585 -1.02633 -0.751312 4.46875 11.8187 4.34183 3.30792 1.52301 1.33779 1.43713 0.0777639 -2.67684 -1.25342 -3.75634 0.517402 1.10223 0.118752 0.433097 
6.6137 8.28694 4.11953 6.10554 3.88678 -2.48619 1.22056 -5.60857 -4.87576 -0.830694 1.32489 4.99765 12.7584 4.15918 1.06378 0.0361286 0.00691912 0.952737 -0.948727 -3.23957 -1.73439 -4.9378 1.70306 1.06284 -2.02779 0.612987 
9.59549 6.43989 0.656869 1.17616 5.61914 2.97729 0.486494 -10.1167 -8.75112 0.913692 2.36039 5.87054 13.2149 2.45916 -1.02714 -1.54082 -0.465275 0.797878 0.515687 -2.63169 -1.22905 -2.86252 1.56432 1.29036 -1.53809 0.679162 
10.4075 0.639314 -0.684772 2.82338 5.39315 3.40588 -1.50229 -8.18314 -10.7037 3.2789 4.14255 -0.477489 14.0512 1.10409 -2.19671 -1.25696 0.313964 -0.764938 1.58297 -3.0023 -1.18887 0.99197 1.39029 -0.957696 -0.750382 0.620454 
10.7297 2.18515 -2.90034 3.46246 5.15469 4.36884 -7.02405 -8.64134 -8.64276 4.74048 4.29168 -0.484138 14.5681 0.190893 -2.11761 -0.183335 2.34501 -2.19372 -1.02484 -2.9143 -0.196354 4.3258 0.285833 -2.77577 0.491673 0.588244 
11.5671 -0.569245 -0.38664 6.53222 0.294313 4.73286 -10.0356 -12.2906 0.0299139 4.20738 -4.42924 4.42308 15.184 -1.07954 -0.769371 0.212836 2.97516 -0.941594 -2.55735 -2.04304 0.773306 5.94951 -0.508445 -3.09452 2.2357 0.0809282 
9.97019 -3.5439 -0.408871 11.0468 -2.80006 -2.81042 -9.81831 -9.04472 7.51107 1.87862 -7.23256 5.87862 15.5897 -1.97933 -0.758579 0.750945 2.015 1.61513 -0.2059 0.975332 1.6052 3.99785 -1.16074 -2.75654 0.85857 -0.504381 
5.38956 -0.343015 -0.866327 13.907 4.66256 -5.79124 -10.3204 -4.11492 10.9669 2.1676 -5.56793 7.51965 13.9451 -2.65959 -1.87924 -0.0382428 -0.544426 2.15984 2.48898 0.778814 2.89851 2.31425 -0.840187 -0.226926 0.411827 -0.150536 
3.92176 -1.72086 1.09423 9.85006 11.0462 8.60139 -2.00503 -4.70319 5.87799 -0.043336 -8.92168 2.26043 12.6657 -0.701488 -1.46811 0.293842 -2.18659 -0.216057 2.45362 -0.179096 3.21741 1.24161 0.0388931 0.319519 0.460619 0.446032 
1.29332 -10.877 -1.3294 4.40846 4.17038 11.4719 -10.0482 0.0312366 12.4177 0.967422 -4.71931 8.29131 15.8933 1.2847 -1.96102 -0.518891 -2.74824 -4.78433 1.63671 -2.95516 4.49588 -0.070803 0.562182 0.958569 -1.46637 1.30306 
8.51087 -5.61746 1.29188 4.86315 -3.63425 0.826159 -10.8499 4.96927 12.9937 2.67317 -6.05928 7.79588 16.8457 1.34847 -1.12952 -1.50931 -1.99912 -5.25372 -0.287697 -4.66409 5.11132 -0.387506 0.454453 2.17612 -3.86023 1.51969 
9.51853 -8.19983 -3.5596 2.65929 -11.9188 6.27995 -20.6738 13.5282 7.05502 3.62026 -2.20629 -2.57994 18.3704 1.09539 -0.181641 -1.04528 -1.59368 -2.65929 -0.443848 -2.02649 3.87266 -2.69527 0.190707 1.50653 -5.44722 0.837601 
6.5515 -8.70701 -5.33724 0.729056 -7.17776 9.75886 -20.0127 14.1049 6.6218 0.902511 0.702427 -11.6051 19.0256 -0.148936 -0.98884 -1.32719 -1.97872 0.167396 -0.00315484 0.198041 1.95371 -2.43458 -0.0704952 1.07724 -4.34532 0.462544 
7.74998 -10.2404 -3.24124 -1.49289 -7.35431 4.78627 -15.5992 14.8267 2.12732 2.80629 -0.567524 -9.24429 18.9914 0.0741901 0.127876 -0.877701 -1.38618 1.61568 -1.99003 3.05423 0.0476096 -1.18862 -0.43644 -0.208586 -1.42888 0.0128544 
8.65046 -9.54137 -5.50325 -2.95438 -5.07954 1.55723 -12.3969 14.0886 3.28462 2.72768 -1.49247 -10.5985 18.8479 0.58133 0.729522 -1.00873 -1.02591 0.452059 -2.1422 2.61078 0.113215 -1.19688 -0.620333 -0.721336 0.068264 -0.164056 
8.83999 -7.14327 -7.8651 -2.4299 -4.88953 0.430598 -9.2105 13.7745 2.78052 0.525474 -2.15177 -10.2276 18.5235 0.196671 1.06981 -0.97971 -0.395267 -0.380523 -1.15947 1.70261 -0.207302 -0.554054 -1.47751 -0.702174 0.150397 -0.189407 
8.91314 -6.60797 -8.06896 -3.93198 -6.14986 1.22571 -10.1532 15.1971 0.310816 -1.05875 -2.11213 -10.7721 18.4393 -0.216348 1.08483 0.201206 -0.228989 -1.23223 -1.13867 1.81076 -2.2093 0.540774 -1.92793 -0.238635 0.801957 -0.212521 
8.602 -6.35804 -6.85693 -2.98043 -8.72176 -0.845305 -8.20808 13.2359 0.843949 -2.68805 -3.76856 -8.40551 18.2487 -0.511741 1.06745 1.48907 -0.150322 -1.51622 -1.80517 1.90594 -3.89557 1.36426 -1.49409 0.880118 1.24693 -0.215863 
7.68772 -4.50985 -5.00131 -3.82407 -9.32456 -3.49818 -3.84432 3.31134 6.95678 -5.30519 -1.87725 -7.4998 17.9227 -0.476118 1.18454 2.50141 -0.13553 -1.27095 -2.52602 2.54925 -4.90249 1.40568 -0.589 2.06035 1.68134 -0.2465 
6.894 -2.85509 -1.95357 -3.23546 -10.8833 -6.23332 -2.83522 0.239483 6.27885 -4.82178 2.13138 -5.62911 17.7024 -0.311241 1.07187 2.99316 -0.485047 -1.21778 -2.23499 1.74809 -3.95284 0.309292 -0.115705 2.73652 1.71383 -0.199102 
7.38654 -2.43673 1.98641 -4.48211 -11.4239 -8.71037 -0.0933332 -2.81711 4.62176 -2.93689 5.23964 -3.75363 17.4799 -0.0830652 0.62831 3.18477 -0.641935 -1.38654 -1.52801 0.73223 -2.28587 -1.04112 0.846298 1.56699 2.09092 -0.0804991 
7.19638 -2.03528 4.61498 -5.07664 -13.761 -9.41415 -1.34313 -3.464 3.55792 -4.45073 6.35558 -1.70945 17.4746 0.0151793 0.324744 2.6164 -0.653153 -1.20148 -1.13734 -0.0828596 -1.12673 -1.5836 1.12357 0.500787 2.141 0.000864983 
7.1212 -1.77821 7.63829 -6.11315 -14.8184 -9.54783 -0.929219 -6.26626 3.11167 -1.25923 3.84561 0.994962 17.6342 -0.093938 0.530073 1.84531 -1.08434 -0.867317 -0.389054 -0.533962 -0.367792 -1.61508 0.883387 -0.210356 2.09571 0.0671087 
7.10257 -1.56064 8.3025 -5.68571 -15.1934 -11.5013 -2.83158 -3.66961 -0.884082 -0.0427462 5.33232 2.70159 17.6296 0.0454086 0.356668 0.593022 -0.831658 -0.226668 0.072198 -0.375777 0.692395 -1.22747 0.257882 0.122158 1.25047 0.0822248 
6.96376 -0.0236837 9.36918 -9.59928 -15.0442 -9.61207 -2.01892 -4.55327 -1.23266 -0.723945 4.69948 4.51942 17.7379 0.050358 0.100886 -1.00606 -0.501508 0.160598 0.617399 -0.205699 2.01104 -0.194076 -1.24773 0.319942 -0.569188 0.0729408 
7.50214 -1.1292 6.71465 -7.49187 -14.7814 -9.02104 -2.67717 -0.858522 -0.407238 -3.42896 6.53943 2.78065 17.8338 0.27896 -0.423077 -2.07333 0.0715171 1.32455 2.27059 0.320579 2.30156 0.392417 -1.34691 -0.838319 -1.90437 -0.0277761 
7.1732 -1.48949 3.4019 -7.71761 -14.2214 -7.70095 -2.03492 2.38339 1.90287 -5.80475 4.84177 -1.89051 17.8968 0.290246 -1.00468 -2.76679 1.20562 2.50373 2.828 -0.903393 3.23807 0.604553 -1.29237 -2.05002 -2.67282 -0.112476 
8.39265 -2.94312 0.91947 -6.26896 -8.98207 -1.10391 -1.22069 4.36987 -0.489763 -4.23689 1.06959 -3.61527 17.4113 0.386327 -0.830901 -2.74164 0.856359 3.6459 2.97132 -1.76788 2.52974 0.678104 -0.62723 -2.9589 -2.61641 -0.144103 
7.96974 -4.1401 -1.5672 -4.18266 -5.42523 0.569345 -7.26413 9.0229 1.83136 -6.78181 -2.81568 -5.64673 17.3868 0.626015 -0.61333 -2.3307 0.568198 4.16012 2.23891 -2.20377 1.83753 1.1009 -0.0694039 -1.93082 -2.20559 -0.101719 
9.03551 -3.9584 -4.509 -4.97755 -0.950005 1.70043 -8.90195 8.47044 3.01903 -6.07658 -4.42633 -8.42328 17.3683 0.87334 -0.187106 -2.18142 0.323014 2.51212 1.59121 -1.57511 0.149063 0.648577 0.906563 0.437515 -2.53628 -0.0615091 
9.98185 -4.04851 -5.53737 -5.52232 2.56315 2.09141 -9.21314 9.52077 5.65299 -5.23193 -2.06438 -10.5144 17.4097 1.21705 0.556986 -1.80553 0.0625773 0.660415 1.58015 1.01631 -1.62814 -1.709 2.17331 2.98025 -1.46196 -0.157723 
11.7533 -3.92444 -8.00253 -3.98406 -0.415688 6.09108 -8.12174 4.86626 0.842309 -0.479015 2.88151 -13.8628 17.0923 0.725678 1.08576 -0.69198 1.68344 -1.41961 1.01792 2.60415 -3.02499 -2.22547 2.65957 3.25447 0.902476 -0.431005 
12.6961 -1.37215 -8.84809 -4.36652 -2.39031 6.27478 -2.5727 2.68429 -5.62526 1.28596 8.43163 -10.2368 16.7362 -0.487909 1.85083 1.48957 4.96822 -2.37118 -0.102575 2.50064 -4.8693 -1.83278 2.07504 0.853042 2.47468 -0.605164 
11.3068 0.132226 -6.31354 2.86177 -5.57131 4.69833 0.798581 -3.23625 -2.46922 3.96232 6.59801 -4.04974 15.55 -1.23391 1.664 2.89264 5.73463 -1.56348 -0.866989 1.90371 -4.79644 0.253902 0.631522 -1.50307 3.52269 -0.565333 
7.76556 3.1773 1.06599 15.8959 -6.71496 2.27492 -1.1701 -10.7745 -1.85514 2.9226 0.342575 -3.04756 15.155 -1.20789 0.830403 2.64373 4.75797 -0.500828 -0.533315 0.767292 -3.55134 0.863927 0.0192253 -2.5116 1.96549 -0.379424 
8.04902 2.12083 1.50364 14.5579 -6.07075 3.75607 0.695493 -12.3865 0.226762 1.86028 -0.589295 0.156004 15.0563 -0.649301 0.195376 1.26253 -0.380859 -0.147471 -0.181326 0.352177 0.337146 0.924478 -0.368194 -0.719891 -0.769629 0.0185143 
8.28552 1.78557 0.461958 13.5753 -4.64473 4.07934 1.31531 -10.4973 -2.65361 2.43311 -0.5327 -2.51217 15.0859 0.815839 -0.75079 -2.35154 -4.70266 -0.273938 1.23509 0.46473 2.09317 0.52147 0.447742 1.81918 -1.61088 0.337294 
7.80029 1.80497 0.301146 2.11777 -7.34378 2.88949 1.31676 -1.68912 2.55241 2.36609 3.4362 -8.16558 15.6771 1.25046 -1.27622 -3.51947 -5.47621 1.36865 1.6826 -0.471392 2.36655 0.0038358 0.118732 3.17221 -2.70392 0.537088 
11.9691 -0.418724 -10.0905 -1.39736 -7.44814 8.88366 0.842911 -5.65732 -0.41061 4.9084 7.42573 -6.94119 16.531 1.10734 -1.292 -3.49197 -4.25479 2.27316 1.47829 -0.924429 2.27796 -0.369981 -0.396987 3.30336 -2.8002 0.519027 
12.4595 -3.15814 -10.8175 -5.33684 2.17421 9.76691 -1.42527 -2.97376 -0.875558 1.21629 11.2925 -11.1491 17.0192 0.865282 -1.48288 -2.37367 -1.39889 3.46456 0.297744 -0.985635 1.9927 -1.5012 -0.0928184 2.26723 -2.85659 0.354046 
11.4926 -2.1929 -11.4386 -3.97132 1.96208 8.03205 -1.93582 1.53481 -2.78953 1.02307 12.0559 -15.0214 17.0101 0.283012 -1.7334 0.244879 0.0614936 3.02119 -1.81565 -0.56579 2.64522 -0.737654 0.569368 -0.00292835 -2.24712 0.149198 
12.365 -4.72235 -10.8931 -3.58968 5.27389 4.80401 -2.22205 4.67833 -3.76413 3.84466 12.4573 -18.4084 17.2078 -0.0461824 -1.98471 1.31739 0.922787 0.891923 -2.04023 -0.0214263 1.58035 -0.0618381 1.87034 -2.53954 0.0729151 0.0847914 
13.4315 -8.3036 -8.82825 -1.96347 6.10799 2.28689 -1.58765 3.74273 -2.6546 6.44105 6.82872 -14.5471 17.1827 -0.411224 -1.84488 1.48923 1.36435 0.501152 -1.89606 0.203683 0.875857 0.435366 2.51631 -4.07588 1.78764 0.0433367 
11.2592 -10.0263 -5.53567 -1.72683 4.56087 2.43834 -1.70649 3.82404 -1.25222 7.85899 1.20845 -11.0217 17.3568 -0.671589 0.288253 0.467794 1.69752 0.190698 -0.98931 0.569528 0.928777 1.11888 1.49409 -5.12253 3.56127 -0.234134 
9.98939 -8.7653 -6.67115 1.919 4.82436 -0.265397 -1.17519 6.34125 -1.86866 11.5975 -2.69907 -9.77662 17.1523 -0.724962 2.70729 0.310978 1.45436 0.954416 -0.641144 0.884121 1.15763 0.981474 0.561259 -4.79686 4.4541 -0.612291 
10.728 -3.05024 -9.63273 2.9567 6.8692 1.1336 0.419363 8.02296 1.43731 8.73689 -8.39151 -2.98732 16.0524 -2.78656 4.43957 0.842859 1.83754 3.21206 -1.18727 3.2246 0.534931 0.49142 -0.423238 -2.20117 4.49709 -0.472801 
10.0722 1.74482 -5.22483 2.96658 9.7259 -0.266466 1.77003 7.43142 0.908006 8.8084 -12.3556 3.70622 14.7734 -5.8539 5.26572 2.02319 0.598982 3.84221 -1.6496 3.68347 -0.00121217 0.320115 -1.97346 0.0413414 3.34403 0.204172 
-2.71501 6.91644 -2.04454 6.9371 18.1704 -3.49749 12.9439 5.95362 -0.183449 7.13733 -4.96911 4.7224 16.1822 -7.19054 4.36265 1.23829 -0.706569 2.29525 -2.76126 2.39344 -1.46452 -0.72265 -2.84652 -0.275414 -0.590553 0.939647 
-12.5586 12.58 -0.349308 2.92371 18.3848 -6.19784 10.9799 7.36986 0.542302 2.52996 -4.20357 3.08869 18.1082 -6.48244 3.09184 0.267938 -2.17565 -0.376977 -3.19504 -0.0659111 -1.59042 -1.10118 -2.48781 -0.843441 -2.7706 1.33514 
-13.9093 13.3454 -5.87902 -0.554713 14.016 -9.70703 7.78163 0.731163 -1.99309 -2.35648 -13.8446 -5.63132 19.0832 -4.01496 1.41579 -0.890874 -2.77773 -1.93571 -0.673317 -2.54568 -1.56894 -0.86811 -0.137313 -1.13042 -1.78145 0.932689 
-16.7429 13.9895 -1.9679 -4.16575 9.91822 -13.1369 4.02161 2.09054 -3.69307 1.11624 -12.1351 -4.96994 19.9986 -2.61896 0.0897612 -0.727602 -1.57081 -2.41803 1.73738 -1.97612 -0.599611 -0.266088 1.03284 0.772473 0.900214 0.385395 
-20.6977 13.2906 -5.68961 -3.4068 12.7251 -3.39454 3.69466 0.748563 -2.40631 7.15762 -6.65549 -0.155525 19.9005 -2.47237 -0.384649 -0.383586 -0.780423 -1.60929 3.41852 -1.73116 0.780372 0.388597 1.12193 3.19404 3.63439 0.13587 
-22.2591 13.0562 -4.08202 -3.50427 6.94008 -0.6672 3.14276 4.3631 -0.581527 2.93712 -3.93576 4.85186 19.6265 -1.08485 -0.315434 -0.638924 0.178161 -0.435488 3.521 -0.987576 0.0399723 0.531696 -0.169628 2.15168 2.83485 -0.0129318 
-23.513 11.8889 -6.73989 -4.78757 7.45857 1.1507 -0.434745 3.49674 -1.60587 2.34276 -1.97404 7.62971 19.9486 -0.427279 -1.11262 0.489744 -0.751268 -0.718091 0.912499 -0.674098 0.675644 0.262496 -0.579895 -0.0717938 1.10476 -0.0311188 
-20.7594 13.1132 -4.63738 -2.58456 10.374 2.19549 1.14843 0.916309 -1.43481 2.67553 -3.71739 5.31172 19.9099 0.00767746 -1.55613 1.08822 -1.03222 0.217737 0.304958 0.124516 0.124605 1.06406 1.609 -0.873898 -0.130818 -0.0738886 
-23.5839 7.69899 -2.96321 -7.623 7.41767 -0.263393 1.32134 5.85018 -0.66719 4.38893 -7.12364 5.13834 19.6032 0.242908 -1.39107 2.34409 -0.373266 -0.666136 -0.00638637 0.604125 0.45682 1.13063 0.184183 0.501781 0.198726 -0.172635 
-22.1853 7.37047 -0.529257 -7.24767 8.04921 1.56463 2.8873 3.80941 4.26943 9.95904 -5.73044 5.44346 19.4298 -0.113254 -1.2416 2.04961 0.100188 -0.87019 0.227663 0.291234 1.0344 0.28722 -1.32353 2.45739 0.379467 -0.1836 
-21.5855 7.8049 2.92651 -4.32234 5.29031 1.4342 1.71644 4.33429 1.19515 -0.378086 1.54139 8.55747 19.3255 0.796911 -0.337376 1.35486 0.759672 -0.369329 1.60608 -0.000949764 -0.317978 -0.491945 -2.1397 2.62293 0.0691593 -0.198002 
-22.3249 6.85225 2.66583 -3.73395 7.08678 2.48501 2.40705 6.84627 -0.92988 -1.5586 4.23704 5.49949 19.1307 0.285578 -1.26822 0.173634 0.0228828 -0.300547 1.31833 -0.103528 -1.3706 -1.09987 0.324085 2.01799 -1.53319 -0.297534 
-19.5295 6.27122 2.21353 -5.5815 6.05224 7.30683 1.55671 2.74186 -0.527258 -0.550737 1.00727 5.45612 18.7627 0.875918 -0.613551 1.50592 0.220205 0.0213416 1.49592 -0.168464 -2.35586 0.0783605 2.60412 -0.722877 -2.2892 -0.381235 
-21.7854 1.79622 0.6954 -6.50368 6.16552 5.21995 2.44953 -2.24739 -0.368697 11.6658 4.62655 -0.67183 18.2235 2.90976 1.10065 3.6456 2.49348 -1.7329 -1.81922 -0.958394 -2.32845 -0.359854 -0.405968 -1.3488 -0.93256 -0.444896 
-17.4757 7.26516 11.4413 -1.83645 5.85765 7.5463 0.852883 -2.89818 1.30636 6.03031 -2.26775 0.197115 17.8729 4.56502 1.64405 3.87021 3.70107 -2.729 -3.93713 -0.595838 -0.613208 -2.19055 -4.42661 -0.883129 0.824959 -0.575683 
-8.80304 11.8585 16.2799 6.86093 -1.48041 -6.73082 -2.033 -1.97598 -3.64596 -6.87896 -0.869437 3.46619 17.3512 5.47498 1.72015 3.74161 2.56262 -2.13791 -3.49204 -1.17759 -0.334184 -3.37368 -6.28664 -0.355074 2.00256 -0.619194 
-3.19561 9.46032 13.7723 6.24157 -3.76981 -6.40342 0.818789 -0.459887 -9.84138 -13.4114 -0.660379 7.5119 16.3205 4.23654 -0.304821 1.48066 0.798087 -0.869237 -2.59864 -1.25888 -0.536701 -2.87205 -3.22171 0.489345 0.634213 -0.609569 
-1.5505 9.29942 18.238 2.2704 0.289689 -5.26541 -3.42138 -5.13745 -11.6632 -10.0466 2.04749 5.68357 15.9038 2.3866 -1.26031 1.29859 -1.03064 0.0721142 0.373059 -0.728413 -0.695932 -0.652867 0.0310389 0.585141 -1.34476 -0.474681 
0.0807114 7.02061 17.8656 4.44925 0.62641 -6.1796 -4.74732 -4.00095 -9.04527 -8.49445 -1.2795 2.25949 15.5488 1.4773 -0.968748 1.3331 -0.778097 0.393459 0.258326 -0.752812 -0.141899 0.574276 1.37192 -0.0808819 -2.30616 -0.2947 
1.49179 6.77681 20.7263 2.60388 -3.31795 -4.97743 -2.89202 -3.68511 -7.30835 -9.18226 2.36583 -0.631396 15.3636 1.43378 -0.901704 -0.179087 -0.551404 -0.308241 0.574395 0.957553 0.561041 0.515655 0.429368 0.150379 -1.44286 -0.278469 
2.66975 5.87788 19.1937 2.18434 0.0013032 -5.25578 -3.20995 -1.89555 -9.14744 -6.98396 -1.22395 -0.861416 15.1171 1.16867 -0.766641 0.0113092 -0.736433 -0.523678 1.29086 0.651559 0.388424 -0.45994 0.518979 1.08843 -0.914089 -0.210507 
4.32388 5.36226 16.6785 0.645836 -0.938961 -2.85534 0.597707 -3.38494 -9.03386 -8.65497 2.77162 0.0297422 14.7273 0.824987 -0.520147 -0.265704 -0.418719 -0.687481 1.11303 -0.0924622 0.842032 -0.65364 0.504197 0.432397 -0.498645 -0.171617 
4.50802 3.89469 19.946 1.74611 -3.18148 -0.786367 -3.23438 -2.20891 -10.4822 -6.1632 3.95975 -2.64152 14.8144 0.218469 -0.0815618 0.309839 0.27757 -1.69011 0.31353 0.146203 0.470238 -0.20402 0.421521 0.267807 -0.325929 -0.141997 
4.6976 5.16768 19.0216 0.729405 -5.16397 -1.64699 -3.34211 0.681731 -9.90916 -7.07166 1.93596 -2.23457 14.6568 -0.058891 0.0837231 -0.0777777 1.21626 -0.263079 -0.603478 -0.614208 -0.163496 -0.176891 0.347981 -0.350857 0.187016 -0.202589 
3.57524 5.56736 19.5713 3.53041 -6.33673 -4.29231 -0.509032 -1.5777 -9.72988 -5.66801 0.53291 -1.35891 14.4423 0.0632819 0.0547053 -1.04063 1.69467 1.41745 -1.05074 -0.88754 -1.43001 -0.157465 0.105855 0.734659 0.704541 -0.291317 
4.49581 4.94454 16.4769 5.83498 -0.676733 -4.11976 -3.83601 -4.51803 -10.2945 -7.16266 2.73076 0.323514 13.9004 0.156802 -0.11723 -0.876628 1.41486 1.70241 -0.08272 -0.635126 -2.51525 -0.591446 0.221152 1.11243 1.09828 -0.289124 
4.92532 4.27978 16.0151 7.66666 1.66217 -4.80369 -7.42514 -6.7591 -11.0769 -5.58842 7.23565 -0.397857 13.736 0.336243 0.169423 -0.981941 0.90348 0.159286 0.628788 0.431841 -1.5506 -0.40968 -0.642185 0.812179 1.0953 -0.25679 
4.80657 5.22532 16.4165 5.73559 -0.651352 -1.80489 -3.05969 -9.30383 -12.1929 -6.00569 4.14672 2.77629 13.5643 -0.152112 0.367056 -0.453433 0.325355 0.0138919 -0.186165 0.410779 -0.130081 0.401262 0.887594 -0.546634 -0.297784 -0.136038 
5.10108 6.27409 14.6918 8.0975 -5.55299 -2.3058 1.26202 -6.93778 -10.8291 -9.45742 3.88582 2.8912 13.3263 -0.522583 0.263526 -1.21256 -0.180005 0.215383 0.0133236 1.24631 0.278249 1.9996 0.533718 -0.891454 -0.557951 -0.205262 
3.64737 5.78267 14.8714 7.24633 3.0003 -6.29954 -6.12569 -5.07909 -8.41207 -0.790191 1.6725 -2.80994 13.425 -0.748873 -0.415359 -0.375867 -0.107273 -0.0696474 0.822084 0.458235 0.0708189 0.838222 1.23324 0.491142 -1.15059 -0.0807201 
2.892 5.31873 10.7249 6.01126 0.913253 -2.48975 0.339406 -7.48023 -2.96928 -5.52758 4.01549 -0.394501 12.7794 -0.690274 -0.312408 -0.327382 -0.913456 0.735992 0.489906 -0.0295562 -0.401249 0.108071 0.329613 -0.901472 -1.3369 -0.103609 
2.16675 3.6262 16.5207 6.24234 -4.23271 2.3975 -0.307209 -8.67851 -11.9317 -1.80442 6.5376 -1.33379 13.4342 -1.03123 -0.780155 -3.30007 -1.77704 -0.514643 0.207547 0.904868 -1.37882 0.528704 -1.19245 -1.93488 0.0452315 -0.367293 
2.39002 5.79028 12.2303 4.03222 1.74348 -4.20479 -1.79501 -7.14431 -8.52892 -7.30224 -3.05408 -4.53139 12.8037 -1.81763 -1.798 -5.17496 -2.07449 0.579853 0.610867 1.4115 0.871376 1.96051 0.40212 -2.43628 0.346255 -0.473265 
-1.25778 1.64612 -2.38164 -0.649353 0.0119715 -4.40428 -0.534145 -12.1411 -2.98873 -5.86513 -4.46714 -0.515334 11.5764 -2.4396 -2.65927 -5.907 -1.55976 1.44414 0.653378 2.135 1.89221 4.17068 1.1524 -1.51084 1.20033 -0.551345 
-4.4839 -2.68124 -5.69879 -0.915323 1.69018 3.96547 7.51039 -1.39204 2.3618 -1.48663 -2.66355 0.927551 11.342 -2.69826 -3.20521 -3.60119 -0.100841 0.324312 0.844162 2.12181 2.56362 2.86136 2.26338 1.92729 2.78128 -0.294231 
-6.59429 -5.43441 -4.0498 0.917318 3.01465 1.57926 5.71511 -2.0936 3.47638 1.04977 -1.21186 1.93839 11.4084 -1.39493 -2.00987 -0.797104 0.268832 0.0529671 0.349364 1.14274 2.77888 1.57625 1.44623 2.44428 1.94558 -0.0574198 
-8.433 -6.69548 -4.94155 2.74467 1.8637 -2.97576 5.68943 0.650034 2.54534 0.557216 4.95473 8.14815 11.4166 -0.102994 -0.285764 -0.113508 -0.0513813 -0.184642 -0.952717 0.153133 0.152007 0.149107 -0.0868325 0.514675 1.85958 -0.0304693 
-6.25785 -6.39612 -6.74579 -1.13519 0.190044 0.81315 6.09004 0.73224 4.80076 0.344094 3.94515 5.60225 11.252 -0.0553752 -0.0976597 -1.1836 -1.73304 -0.709789 -0.285659 1.26547 1.16887 1.38423 0.0816841 -0.696772 0.0893783 -0.00309477 
-5.16709 -3.62921 -4.91834 -0.145975 2.17927 -0.415054 8.08858 -2.04493 2.44514 -1.56795 -2.66867 8.39353 11.2678 0.0105444 -0.347095 -1.65532 -1.31696 -1.20177 0.332584 1.69726 1.08947 2.25938 0.770972 -1.54726 -1.21727 0.00715418 
-8.50412 -7.45585 -9.97941 -6.30256 -0.692082 -1.12938 10.8429 5.09823 10.4476 2.52078 -0.884018 2.26259 11.4673 -0.277665 -0.0870749 -1.13848 -0.644954 -1.19804 0.282242 0.392917 -0.176856 0.253214 -0.256937 -1.64893 -0.469114 0.0174376 
-7.25715 -7.9011 -11.6013 -1.25643 -3.70406 -0.341568 11.7993 3.91437 11.0188 3.32374 -0.367007 3.73165 11.3447 -0.180851 -0.220267 -0.407537 -0.494656 0.459581 1.04401 -1.29018 -1.04422 0.220364 1.21147 0.16029 -0.622344 0.0318436 
-6.60115 -4.69555 -9.09669 -3.80473 -2.85848 2.18762 6.19926 -3.13169 1.77999 -3.38644 -5.45034 5.58763 11.3007 0.403183 0.226525 1.18337 0.587943 0.884962 0.664674 -2.12749 -1.97632 -1.07769 -0.0632108 0.66583 1.43129 0.00941238 
-7.02283 -6.11069 -7.39739 -3.86816 5.56037 3.14648 3.95951 -3.15108 7.88078 7.44298 0.41594 3.61929 11.5103 0.344625 0.561076 1.40074 0.142261 1.29034 0.0630835 -1.08152 -1.75306 -0.380985 0.819176 0.864423 0.948273 0.0410067 
-6.60537 -7.21843 -6.16451 -2.05698 -0.899492 0.449964 4.12534 -1.25065 6.62819 0.145101 2.05366 9.47522 11.4316 0.375365 0.0956336 0.171441 0.325417 0.362633 -0.838395 -0.0143842 -0.267627 -0.0165418 1.34194 0.794151 0.0974726 0.00442839 
-5.53191 -3.83428 -6.0637 -1.41901 1.76816 0.842677 7.42866 -5.79143 6.6898 5.65385 0.203107 6.52922 11.4843 0.118637 0.0235035 -0.202482 0.11854 0.0644894 -0.0981781 0.622154 0.784683 -1.37515 -0.653027 -1.03274 -0.736578 -0.0477733 
-5.46978 -5.35559 -8.90633 -3.40222 0.850792 -0.852458 4.39277 -3.14965 2.29277 4.21785 -1.37317 4.62003 11.3359 -0.125986 0.688438 0.0164955 -0.471794 0.828625 0.0811756 0.0613838 0.374705 -0.668049 -0.382221 -1.80005 -2.21341 -0.0342314 
-6.99744 -6.92459 -7.03889 -2.60284 5.00768 3.3068 6.93656 1.72183 3.17274 2.14147 -3.03436 2.364 11.3193 -0.375372 0.190889 0.322622 -0.286837 0.174157 0.75826 -0.172776 1.33477 0.743352 -1.10046 -0.212576 -1.05124 -0.00991631 
-6.50253 -2.23108 -5.59444 -3.82403 1.62387 -0.376218 4.6783 -3.13375 5.04648 -0.00981557 -5.32786 0.490797 11.3429 -0.412865 0.0593453 0.522339 0.434903 0.212487 1.18162 1.6761 0.500934 1.06005 -0.793562 0.029377 0.104371 0.0698372 
-6.8924 -4.44209 -6.10654 -2.64229 2.25241 4.39586 6.42201 0.874499 9.0297 2.26541 1.11757 3.33765 11.4312 0.00656147 -0.14502 -0.590705 0.586563 0.0125948 0.146401 1.98832 0.5713 0.279904 -0.17237 0.624294 0.308561 0.0548678 
-7.58663 -6.30011 -6.76081 -1.20798 3.29086 4.51111 13.0305 -0.221312 4.66453 0.188069 -3.30225 4.65506 11.6291 0.0629707 -0.794127 -1.09323 0.735621 0.721132 0.114199 2.23275 1.47593 -0.483296 0.129625 0.676106 0.115477 0.0234541 
-6.42258 -5.61517 -9.40923 -0.978046 4.23716 1.59514 12.702 3.12211 4.76323 1.18068 -0.925694 1.82467 11.4505 0.210367 -0.166124 -0.92538 0.355843 0.49158 -0.851742 1.22316 0.783863 -0.843423 -0.117686 -0.170997 -0.585634 -0.0139882 
