-7.55717 2.0051 -4.89806 3.06981 3.88197 2.8169 5.28176 2.57226 2.28963 1.00957 -3.3976 6.65409 11.8329 0.149343 0.0967023 0.139489 -0.330281 0.278958 -0.620189 2.60454 0.7677 1.06956 1.52167 0.429775 -0.756876 0.0226791 
-5.84882 3.40765 -3.1154 3.8707 1.76158 -0.789821 13.9376 5.17598 4.57222 9.35519 0.355054 3.71287 11.8765 -0.289909 0.0677915 -0.36486 -0.892668 0.62534 -0.32787 2.43605 0.281848 0.420404 1.04784 1.83987 -0.400308 0.0141401 
-7.66464 1.78734 -5.09194 1.01796 6.33695 1.51932 13.9766 5.10889 6.49611 4.44508 -3.12505 4.34032 11.9245 -0.374571 -0.249153 -0.190427 -0.666402 -0.266117 -0.600492 0.175828 -0.649101 0.144913 0.0396531 0.409895 -0.687991 -0.00686388 
-8.95299 2.45294 -6.62541 -0.367606 5.78118 1.82634 13.1146 2.71318 2.2884 4.53099 5.66547 5.80943 11.8578 -0.237966 -0.309798 -0.570412 0.467398 0.276699 0.861645 -1.42018 -1.5493 0.654988 -1.1863 -1.14484 -0.214736 -0.0182108 
-7.87794 1.23669 -4.09519 1.85695 0.541587 -1.49364 6.57238 0.558156 4.1561 3.61993 -4.00333 2.16585 11.808 1.2001 1.58493 1.5059 2.21076 1.13976 1.18875 -1.89228 -1.68971 -0.776844 -1.82253 -2.0849 -1.02703 0.0753438 
-6.932 2.13398 -6.46584 5.7882 6.04276 5.02488 10.5388 -0.295145 9.01716 3.83627 -4.92999 3.72642 11.8438 2.61851 3.03802 3.17929 1.8048 1.1548 0.00426589 -2.62217 -1.31279 -0.314659 -1.44617 -1.67442 -0.64847 0.276902 
-2.67463 9.8715 2.35778 8.99384 11.9049 5.86379 5.80309 -1.83548 -0.752491 -4.3202 -8.25181 0.246685 12.3083 2.57551 3.53197 3.26856 1.29126 0.325669 -1.08964 -1.13157 -1.11708 -1.13906 -1.15081 1.60956 1.3718 0.277417 
1.53792 13.3256 6.04455 5.08797 5.8735 -1.83104 0.388408 -2.65397 3.1694 1.27022 -0.582376 3.52666 12.9922 1.57382 1.56582 1.48795 1.13619 0.462441 -2.9232 -1.17692 -0.696924 -2.05038 -0.0450532 1.58275 0.852452 0.24816 
0.76464 13.3007 5.99241 8.66337 2.25456 -3.51389 5.98974 -3.84782 1.3847 -0.851104 1.87064 9.12473 12.6208 -0.809231 -3.18532 -3.14261 0.00515127 1.29842 -1.81632 0.753302 0.978383 -1.47177 1.84937 -0.733165 0.895036 0.899527 
-0.782559 8.24844 -0.843422 11.6344 13.1802 -4.90226 4.56086 -2.7736 -2.30332 1.87646 -2.07745 3.54965 12.9283 -1.38154 -4.31592 -4.49188 0.052166 2.72335 -0.544212 0.923272 1.19768 -3.10045 0.477926 -3.20818 0.6072 1.10784 
-5.56055 -3.51651 -9.9113 5.74639 14.7437 -1.68217 7.48338 3.11625 -5.37496 4.62354 -11.1701 4.71037 16.8379 -0.0653906 -0.910009 -1.95474 -0.65296 0.52801 -2.11928 -0.961378 0.337186 -2.65775 0.718392 -2.34557 -0.159567 0.821893 
-2.2072 0.154663 -8.46298 6.80729 13.2457 -5.46796 4.25795 -0.147601 -8.95303 0.922527 -10.1029 8.76984 16.4229 1.43856 2.81791 0.79487 -1.58382 -2.15582 -2.90639 -0.713638 -1.11969 -1.2298 -0.236465 -0.316749 0.304705 0.404718 
1.15001 12.7976 0.0284734 7.81212 4.86185 -13.8274 1.3343 -3.47489 -8.57921 3.21782 -5.84449 5.7168 14.983 2.80675 4.28705 2.36206 -0.31178 -1.92354 -3.30757 -2.57803 -1.96948 -0.483924 0.492924 1.2661 -0.238182 -0.179216 
3.05498 14.181 -1.83896 2.6824 7.34201 -13.3616 4.06721 -5.07648 -6.85021 1.39699 -6.324 4.56996 15.8793 2.44823 1.18747 1.0398 0.133422 -1.45655 -2.04422 -2.23238 -0.702154 0.734706 -0.190679 1.57412 -0.432924 0.161319 
5.84212 10.9056 -1.41299 6.24993 8.07784 -14.2732 -5.31142 -4.26671 -8.84599 6.85093 -6.72906 5.6194 16.2136 1.9065 -2.25675 -0.521591 0.970035 -1.33597 0.0971148 -1.48441 -0.128789 0.137707 -0.298984 1.19292 0.373104 0.461496 
7.68789 7.03799 -2.54324 8.25549 4.35495 -15.4662 -3.58108 -3.26246 -5.14611 -1.84742 -1.79002 6.65392 16.6142 1.61713 -2.7658 -0.555725 2.21809 -2.82977 0.909747 -0.919262 -0.605144 -0.395563 0.550963 1.57996 -0.108519 0.354413 
8.36607 5.08533 -2.22734 9.87575 -0.324487 -12.2895 -2.2636 -5.02584 -8.74272 3.34511 -2.14689 6.54034 16.923 1.09632 -2.30794 -0.155597 0.713183 -2.85334 2.02509 -0.116342 -1.27939 0.127892 -0.15829 2.41735 -1.51482 0.348103 
9.87867 3.26211 -4.2104 11.9599 -2.60568 -9.80466 -2.05301 -7.72263 -8.87966 5.90472 -0.715275 3.5669 17.2966 0.792078 -1.9617 0.462572 -0.388695 -2.00114 2.92715 -1.70562 -1.15044 -0.149558 0.875618 2.14997 -2.36354 0.336977 
10.2283 1.25383 -1.35739 7.96362 -2.70854 -6.97851 -6.65716 -8.43357 -6.33976 2.18341 4.82034 -0.411207 17.6129 0.635244 -2.16428 1.0233 -1.51531 -1.0136 2.48573 -2.35556 -0.416425 0.89693 -0.44454 1.96428 -1.92051 0.35584 
10.7171 -0.854761 -0.665355 7.26808 -4.45873 -3.48596 -9.91241 -7.31081 -7.09538 3.11152 5.47623 -1.68798 17.9542 0.33699 -2.33908 1.49118 -2.66673 -0.396947 1.94577 -2.30061 0.786928 1.20749 -0.542788 1.30699 -1.35598 0.359745 
11.1231 -3.67763 1.11663 4.64511 -4.46595 -3.02026 -10.1117 -7.31387 -5.15021 2.51901 4.57876 -0.434771 18.3735 0.326489 -2.28439 0.686225 -2.87416 0.0368301 1.20965 -1.12035 1.78556 1.03697 0.768506 -0.267061 -0.652941 0.330854 
11.1163 -5.96758 2.00849 0.28555 -3.71171 -2.05496 -11.8288 -4.34784 -3.43699 3.02298 5.94045 -3.20122 18.7151 0.154541 -1.90417 0.0716307 -3.03254 0.293651 0.879835 -0.2815 2.48872 1.82816 0.701088 -0.466512 -0.783933 0.273791 
11.6612 -7.61169 0.736816 -2.91589 -2.8979 -1.64577 -11.3007 -0.987257 -2.98412 6.07021 3.25293 -2.91929 18.8867 -0.0447113 -1.56851 -0.476753 -2.61509 0.157094 0.866957 0.282174 3.14457 1.9217 0.810456 -0.261345 -1.21676 0.278299 
11.2208 -8.40857 -0.117296 -4.11411 -3.7745 0.225975 -10.7254 1.96949 0.962378 4.84136 3.80659 -4.36539 19.0665 -0.183218 -1.60987 -0.65219 -2.2814 -0.0691908 0.965349 0.913442 2.95477 1.8339 0.661868 -0.483566 -1.17799 0.347595 
10.8472 -10.2997 -0.204241 -6.2305 -3.64909 0.174061 -9.25253 5.25029 2.2586 5.6621 4.33896 -5.93651 19.5892 -0.456208 -1.3479 -1.09564 -1.75626 -0.46897 1.74287 1.2147 2.13928 1.58272 0.2918 -0.567627 -1.66634 0.395795 
10.6072 -12.6729 -0.781931 -9.46414 -3.68207 1.86187 -8.28568 7.30722 3.11113 6.53638 2.9796 -7.58255 20.1018 -0.422973 -1.46025 -1.03531 -1.46259 0.0291925 2.09032 1.46273 0.476815 1.08516 0.0584383 -0.819338 -1.72307 0.364068 
9.68699 -12.219 -4.40907 -9.02217 -5.28897 6.25062 -6.44708 7.04028 3.85511 6.6817 0.828286 -9.64242 20.348 -0.240713 -1.37582 -0.914082 -0.759754 0.393105 2.50197 1.39599 -0.870571 0.695026 -0.275552 -0.856423 -1.62595 0.261615 
9.68603 -14.7501 -3.19144 -10.0312 -2.8086 7.63929 -4.81445 3.45857 5.58992 4.62375 1.46524 -11.1278 20.5075 -0.0839892 -0.948347 -0.998031 0.0901922 0.649481 2.16873 1.58953 -1.76351 0.643807 -0.740517 -0.51974 -1.0705 0.164983 
10.1042 -16.1402 -3.5699 -9.74572 -2.1203 9.79519 -4.00818 2.82176 4.49433 5.24065 0.814027 -12.2936 20.6945 0.0302288 -0.706159 -0.885482 0.203563 0.893187 1.27983 1.55569 -1.83135 0.421356 -0.75884 -0.564234 -0.279341 0.117289 
9.97858 -15.4541 -6.19167 -8.6514 -2.019 10.9332 -1.55747 0.598922 6.01055 3.55431 0.388025 -11.6094 20.7535 0.0853583 -0.31066 -1.10886 0.113521 0.915929 0.530393 1.43215 -1.2651 0.403684 -0.784665 -0.695323 -0.254652 0.0675154 
9.69185 -15.3978 -7.33636 -8.69427 -1.21783 11.0028 -0.297096 -0.686623 5.75157 3.42222 -1.45428 -10.7983 20.8115 0.0544803 -0.000429726 -1.09718 0.286896 0.800071 0.110846 0.837941 -0.441481 0.803387 -1.14971 -0.360283 -0.445742 0.00908127 
10.319 -16.6746 -6.85252 -9.98936 1.31981 9.68746 0.490739 -1.11276 6.97972 1.60964 -0.877228 -13.1487 20.7865 0.134066 -0.265936 -0.321694 0.256071 0.512258 -0.430353 0.212391 0.48759 0.460298 -0.710448 -0.657616 -0.457717 -0.0360342 
10.2064 -15.5321 -8.72537 -7.64226 0.210656 10.9723 -0.842573 1.4702 8.02668 0.464441 -0.354763 -13.7527 20.7233 -0.00223699 -0.297905 0.419084 0.321614 0.108737 -1.0789 -0.0836688 0.982472 0.707332 -0.909576 -0.558411 -0.445925 -0.077458 
10.3916 -16.7167 -7.10564 -7.89706 -0.171951 8.79671 -0.222773 1.95846 7.17449 1.48096 -3.44981 -12.4208 20.6174 -0.264225 -0.190507 0.879737 0.791601 -0.937519 -1.20172 -0.60532 1.47411 0.576267 -0.900239 -0.664482 -0.0649433 -0.0998594 
9.64436 -16.8663 -5.11438 -8.13235 0.0717316 6.05363 -0.358685 2.69013 9.19085 -1.06132 -2.96004 -13.3919 20.5088 -0.296633 -0.236727 1.74924 0.386803 -0.879044 -1.9642 -1.07428 2.17869 0.329799 -0.634079 -0.923772 0.846749 -0.112916 
9.27892 -16.96 -4.25933 -5.78631 -3.29832 6.13821 -2.77781 5.64782 9.27897 -2.12867 -2.897 -13.6538 20.3945 -0.251763 0.124689 2.00729 0.300474 -1.22927 -2.01803 -1.45353 2.90364 0.131323 -0.744279 -0.92462 2.04849 -0.131809 
9.27962 -16.594 -1.40232 -6.76362 -2.62138 2.48056 -4.93643 10.5189 8.62343 -0.901135 -5.25003 -8.90244 20.2702 -0.204973 0.605375 2.26389 -0.0719912 -1.86968 -1.56041 -1.13315 3.0881 -1.40253 0.076542 -0.753236 3.263 -0.170563 
9.31518 -16.2294 1.0748 -7.07906 -4.97174 0.493094 -5.20155 12.5622 8.11481 -2.32053 -6.92792 -4.42306 20.0776 -0.556939 1.39146 2.56523 -0.0908627 -2.4994 -1.63727 -0.245938 1.63775 -2.31766 0.236664 0.57461 3.62115 -0.199651 
8.60136 -14.2048 3.53802 -7.84593 -8.43997 1.07412 -4.81258 14.6734 2.76029 -0.582684 -4.71076 -1.69229 19.8144 -1.10912 2.36424 2.81861 0.199851 -3.05246 -0.904069 0.528231 -0.84061 -3.43146 0.0946102 2.11061 2.91555 -0.219764 
6.83335 -11.1973 6.09664 -5.69946 -12.886 -1.34493 -4.06943 11.7593 0.622263 -1.10458 -0.293585 0.846845 19.6241 -1.41642 3.16316 2.55533 1.31219 -2.97031 -0.533194 0.394578 -2.83122 -3.63409 -0.674953 2.98603 1.85835 -0.245143 
4.97493 -7.28887 10.1798 -6.45416 -13.9265 -1.12078 -2.86134 6.71736 -4.7876 -1.03606 1.98587 3.04038 19.3981 -1.31284 3.32354 1.99122 2.30015 -2.18514 0.100103 -0.609134 -3.94816 -2.50033 -2.21389 2.36735 1.59477 -0.308734 
4.04632 -3.87154 10.5306 -1.21399 -17.08 -1.07543 -4.20428 2.38418 -6.28171 -5.4686 4.65392 2.50235 19.0601 -0.806913 3.21851 0.77262 2.66091 -1.13706 0.740538 -0.840846 -3.77918 -0.426088 -3.45558 1.69952 0.615963 -0.482187 
3.43066 -1.24996 11.2772 1.41211 -17.2687 1.43988 -7.79082 -0.379783 -6.2894 -9.47013 4.65222 5.45381 18.5528 -0.662661 3.27612 -0.183409 1.78781 0.798531 -0.0987667 0.00531931 -2.52355 0.743024 -3.1334 1.47856 -0.715428 -0.608443 
3.57091 1.87577 9.41107 3.67197 -16.9002 1.07743 -5.80891 -3.588 -0.75728 -14.1655 6.87084 2.71994 17.6359 -0.869041 3.16538 -0.448436 -0.0346516 3.14763 -0.674792 0.89215 -1.32969 0.957847 -1.64882 0.688023 -0.886918 -0.601771 
1.89932 6.2181 9.82252 0.0419116 -10.0237 -2.69104 -2.03242 -2.9143 -3.8347 -12.3546 8.27023 -0.645558 17.068 -1.29697 3.00715 -0.0769637 -0.99406 3.11362 -0.0134552 1.57482 -1.27024 0.141284 -0.270307 0.768328 -1.18396 -0.41154 
0.466784 8.22132 9.01571 -0.702155 -4.96431 -2.38393 -2.62273 -2.997 -2.71982 -12.2704 6.28503 1.11745 16.7936 -1.05485 2.4706 0.126392 -1.5432 3.43761 -0.503496 1.06088 -0.479188 -0.745693 0.88569 -0.447969 0.117056 -0.318879 
-1.50212 10.613 11.09 -1.37113 -7.66857 3.10328 -1.50983 -7.02647 -4.60171 -11.7692 8.78676 0.335263 16.9162 -0.509427 1.73833 -0.0414309 -0.89905 2.13058 0.119277 -0.0424049 -0.19294 -0.35754 0.718846 -1.16892 0.924367 -0.27666 
-0.00258923 12.0313 9.40927 -3.3375 -0.889788 -4.33721 -0.765795 -3.92786 -4.10224 -10.0297 4.37273 2.81481 16.1173 -0.457036 1.07197 -0.299629 -0.351138 1.27241 -0.25367 -0.209757 0.105602 -0.644966 1.07911 -1.41589 -0.320918 -0.147858 
-0.413123 13.0048 9.41858 -3.13567 -1.40807 -1.11802 -3.17291 -3.41357 -4.93119 -9.88075 3.38179 3.1276 16.0228 -0.34024 0.114077 0.0698701 -0.368163 0.78686 -0.501405 -0.704744 1.28383 -0.839872 0.590724 -1.86708 -0.316336 -0.0166998 
-2.3629 12.3853 8.35329 -1.57558 -1.73249 -1.54163 -2.83997 -4.27544 -5.77991 -7.81909 1.90808 -1.88331 16.501 -0.339078 -0.533797 0.46917 0.143465 -0.252756 0.909056 -1.56416 0.997378 -1.44576 0.635236 -0.692782 -0.812959 0.107209 
-2.02317 11.0064 11.9674 -4.09291 -3.31291 -0.801528 -3.99647 -0.433523 -7.96223 -9.92087 0.683686 1.10264 16.6409 0.276953 -1.04767 0.20214 0.619195 -0.443897 0.0457954 -0.859262 0.973141 -1.66921 0.226344 0.101073 -1.12401 -0.0353828 
-0.892958 10.3615 10.4807 -2.14155 -1.20115 0.0498276 -8.17483 -0.430989 -9.81555 -6.8335 2.25787 -0.237509 16.3444 0.371132 -0.855036 0.332508 1.09923 -1.68139 0.0806552 -0.710988 0.730634 -0.508976 -0.926577 0.868352 -0.879281 -0.100945 
0.236673 8.77833 9.36556 0.243296 -3.89323 -1.68477 -4.80179 -0.470093 -11.2594 -9.24182 3.71225 -3.31537 15.9242 0.00322313 -1.10042 0.357142 1.4247 -1.77017 -0.0110496 -0.144842 -0.0851104 0.138565 -0.561997 0.952338 -1.88761 -0.0355326 
-1.63716 9.22413 11.3167 1.75246 -9.8493 -0.696734 -5.99225 -0.603986 -6.67619 -12.7915 4.73555 -4.07071 16.3546 -0.83621 -1.38821 1.84082 0.269919 -2.04465 0.941111 -0.276149 -0.109969 0.282918 -1.18304 1.5379 -1.742 0.311875 
-1.63495 6.07297 13.3351 1.08357 -7.83968 -0.483495 -5.81197 -0.772577 -8.83908 -9.75186 4.20654 -6.41883 16.4581 -1.68454 -0.5664 2.25364 -0.874022 -0.635239 1.77276 -0.84634 -0.54592 -0.174736 -0.355714 1.85738 -1.08368 0.487674 
-4.1382 4.77314 17.7001 -1.21209 -9.45118 4.15474 -9.05049 -0.82959 -9.61113 -12.4937 9.70024 -7.39578 17.6368 -1.88013 -0.291874 1.2216 -1.32729 1.37856 1.04771 -1.58502 -2.17455 -1.26054 0.936743 1.50388 -1.24589 0.297141 
-6.93553 8.17183 17.4421 -2.64454 -7.26848 4.75331 -7.50437 -3.08689 -10.6656 -11.1693 10.5168 -7.07124 17.7215 -1.18452 0.650984 -0.629955 -0.0141923 3.06282 -0.980048 -1.72942 -2.45897 0.548756 1.77676 -1.54799 -0.906415 -0.395358 
-8.38754 6.71533 15.3712 -3.01993 -3.24208 1.9234 -13.0711 -10.3196 -12.0656 -7.39906 9.09983 -9.97393 17.2086 0.0826213 0.705896 -2.58772 0.643054 4.0728 -2.86343 -0.873955 -1.03089 -0.563886 1.6838 -3.05286 0.313458 -1.04246 
-5.43289 8.35679 11.3497 1.91653 4.36986 -4.26806 -12.4488 -8.32244 -4.86806 -3.41538 -3.23321 -9.66182 14.6954 0.390883 -0.146102 -4.31928 0.720357 2.76971 -1.66533 1.3917 0.146497 -0.166329 1.95803 -4.5318 1.74271 -1.30203 
-4.47641 8.21014 7.80768 -0.277353 5.09366 -5.65174 -10.9481 -3.36628 -15.3294 -7.95163 1.31097 -4.5332 13.9376 0.32212 -0.356515 -4.4799 1.04179 0.897742 -0.387993 4.07415 1.43767 1.11687 1.64791 -2.87986 2.6818 -1.18915 
-6.93668 6.69391 -0.372516 -0.414045 2.4122 0.214252 -1.60742 -5.83105 -9.86541 -1.10288 -8.24773 -1.07807 12.8469 -0.553552 -1.64729 -3.75354 0.47197 -0.683742 1.04556 4.90744 1.78105 3.03369 2.40151 -0.482712 2.27337 -0.719333 
-6.02504 5.7642 -1.16713 3.35432 2.22545 -2.25772 1.87896 -4.3769 -3.98259 -0.315736 -2.79218 -0.856808 12.1871 -0.720748 -2.0752 -2.79114 0.909658 -0.868029 0.599468 4.16309 1.26298 5.39443 2.93148 -0.0437977 0.945249 -0.508164 
-7.42633 1.3433 -2.93056 2.46054 2.38525 -0.737257 5.67493 1.08812 4.62702 4.77424 -3.5952 -0.133159 11.9739 -0.326537 -1.7695 -1.45332 -0.146512 0.0476764 0.238983 2.95272 2.25424 4.60154 1.44968 2.18648 1.59295 -0.250252 
-7.83533 0.509449 -4.86898 2.83364 0.766993 -2.17864 6.22622 -0.510967 4.3966 3.76722 -1.23429 -0.279408 11.8332 -0.522156 -1.36515 -1.70542 -1.16466 0.221893 2.2205 1.71596 1.85592 2.24674 0.0976771 0.753608 1.6343 -0.048581 
-7.66422 0.473767 -5.78821 -0.886264 3.37981 1.36963 10.9826 3.50716 8.95267 4.10405 1.90573 6.59799 11.7725 -0.602723 0.213617 -1.11947 -0.814607 0.937155 1.99841 0.203018 0.572635 0.469295 -0.648384 -0.590975 0.879057 0.227256 
-8.51688 -0.626813 -8.26542 -0.795591 2.83763 7.79133 7.80493 3.69317 5.08829 0.507745 -1.77461 3.94912 12.0449 -0.829218 0.710153 -0.413151 -0.361524 1.46575 1.3521 -1.19799 -1.11428 0.391031 -0.621613 -0.600809 -0.00695882 0.376597 
-10.0992 2.97952 -6.82968 0.202122 6.0357 4.26981 5.90067 1.84923 6.62765 3.16206 -6.27991 2.14786 13.0044 -0.637269 0.804677 -0.04238 0.646174 0.367257 -0.875931 -1.45671 -1.18202 -0.152908 -0.425074 -0.448543 0.0136543 0.245556 
-10.7639 2.80734 -6.414 0.481829 6.76782 3.13175 2.7772 -5.25339 7.51427 1.13016 -0.145511 1.91086 13.1003 -0.28214 0.583346 0.233902 0.552652 -0.564916 -1.99037 0.501143 -0.542465 0.566246 0.995498 1.14444 0.135341 0.0812782 
-9.72703 2.78008 -6.92582 1.7059 3.25101 -0.680243 6.21287 2.07035 6.97514 1.66747 -1.15153 7.68539 12.4726 0.370524 -0.313607 -0.236056 -0.16178 -0.987999 -0.503656 0.807474 -0.548642 0.277747 1.31517 1.82959 0.501561 -0.17714 
-10.1136 2.38964 -7.04784 1.21578 1.4054 0.314503 10.1545 0.870287 7.74578 6.23253 1.38339 1.85706 12.7172 0.448377 -0.793789 0.00578194 0.0525776 -0.558553 0.267787 1.56682 0.852552 -0.11742 1.12819 0.738777 0.257381 -0.23395 
-8.5717 1.62033 -7.69304 -0.973754 3.77692 3.16015 6.24937 -3.95582 7.90063 7.18674 2.10358 4.68257 12.3102 0.156791 -1.57146 -0.994637 -0.919977 0.404392 0.408159 0.0701416 0.156389 -0.504618 -0.00898819 0.973736 -0.151545 -0.158368 
-9.09973 -0.581732 -6.00148 2.08454 3.7121 2.55049 10.5931 2.02246 6.46442 4.01149 1.92082 4.69918 12.0117 -0.0623116 -1.08912 -0.449958 0.0922695 1.77903 1.28281 0.71176 0.978218 -0.391813 -0.598081 -0.247175 1.18448 -0.174335 
-9.45004 -3.59156 -12.4222 -3.32837 4.11962 0.242558 6.34433 2.27621 5.09273 2.73305 3.44844 5.50661 12.0335 0.140551 -0.824702 -0.324385 0.466366 0.817374 0.303548 1.67236 1.76292 0.255891 0.0591455 -0.313134 1.77759 -0.0905633 
-9.98604 -0.450008 -6.93306 2.85444 10.1292 8.18735 13.6659 2.64536 7.19066 5.46896 -0.52491 7.36742 11.9839 0.0688047 0.198121 0.141441 0.919938 1.3506 -0.975337 0.788282 0.608307 0.917215 1.31541 -2.17245 1.08697 0.0972565 
-7.42579 -2.56904 -8.84918 0.973127 4.65524 1.85946 13.0748 4.54735 8.81697 6.75373 1.76077 12.2364 11.8714 -0.100084 0.269668 0.777812 2.01364 1.75466 -1.64681 0.0883115 -0.584891 0.219434 2.29675 -2.98547 0.369673 0.327119 
-9.76783 -0.102384 -7.08078 4.53349 10.1973 -3.13465 11.1692 3.92842 9.18838 8.5782 -8.09761 6.76916 12.5791 -0.0765547 0.00118809 0.0426478 0.519741 0.325016 -1.98936 -2.51684 -1.82805 -1.44735 0.226505 -1.6013 0.0902022 0.257976 
-10.0596 -2.41703 -8.45927 5.90031 12.8589 -2.33048 8.0342 -1.28977 5.19104 12.6622 -7.69254 7.65411 13.3715 0.000123978 0.846286 0.966379 -0.380607 -0.755683 -0.00827663 -1.70547 -1.5637 -1.95086 -1.20477 -0.546296 0.0535431 0.0767535 
-9.05192 -0.520075 -6.91478 2.98955 7.65245 0.335504 3.60195 -3.57633 1.76685 3.64727 -3.80476 10.1096 12.5237 0.767547 0.885389 0.842776 -1.48437 -2.97491 0.140411 -1.43858 -0.361171 -1.00821 -2.16404 1.82633 0.508403 -0.244974 
-7.78312 1.87124 -4.10028 -0.157939 2.14923 0.083003 8.33109 0.481229 2.77341 3.19534 -3.11713 10.8339 12.2828 0.575034 1.02013 0.578377 -0.980948 -2.58998 -0.050492 0.0845789 1.58693 0.643225 -2.155 1.15682 -0.338226 -0.324562 
-7.06831 2.18043 -5.04639 0.140777 0.677577 -3.63934 3.82791 1.23707 5.35616 2.49142 -1.25368 7.72129 11.8986 0.135837 0.316896 -0.15749 0.143871 -0.726481 -0.254057 0.949736 1.93859 1.35304 -0.309454 0.117473 -0.958166 -0.114645 
-8.1762 1.33335 -6.50158 2.41996 3.39644 -0.595518 8.34412 4.23817 6.61251 2.46511 -3.18397 7.15712 12.0612 -0.189403 -0.192285 -0.625777 0.743497 0.521328 0.168678 0.454226 1.0515 0.893456 -0.148678 -0.206397 -0.79177 -0.0280512 
