-6.01244 -5.04274 -6.47417 3.32211 2.86803 0.560065 5.15141 1.88796 10.5784 6.57776 -3.9397 2.46974 12.1764 -0.0710819 0.780532 -0.184344 -0.525426 0.722657 0.192293 0.430934 0.871642 -0.96134 0.00823917 -0.430534 0.174027 0.0557568 
-4.97997 -3.07817 -6.46769 2.96064 6.75022 -1.67943 3.46262 0.740906 5.69131 2.5375 -7.90425 3.85678 12.1851 -0.216246 1.29533 -0.0334882 -0.639715 -0.367371 0.627879 0.660457 1.00977 -0.608132 0.0938722 -0.511158 -0.493868 0.192563 
-6.88408 -2.12237 -7.39913 0.875717 4.54023 2.64128 8.15048 6.81969 8.21521 8.63909 -4.1101 2.64636 12.4508 -0.210403 0.746173 0.417311 -0.367597 -0.570649 0.622836 -0.207134 1.32464 0.461766 0.183966 -0.12332 -0.61073 0.176887 
-6.65785 -0.0263025 -6.17913 1.34674 0.195081 2.65886 6.95416 4.47093 8.7193 6.01646 -6.4103 -0.0879058 13.002 -0.00354881 0.0172512 0.952047 -0.132841 -1.26137 -0.428893 -0.285038 0.728751 0.452362 0.177742 0.646622 -0.0615769 0.0531935 
-6.22551 -2.83782 -4.5319 2.29108 3.29236 1.5051 2.36997 6.64614 11.3732 5.75811 -5.30328 1.38844 12.6524 0.669228 -0.324753 0.344948 0.523172 0.27952 -1.05865 -0.791112 -0.995811 -0.814084 -0.730278 0.16862 0.900411 -0.129727 
-5.327 -2.63419 -3.14108 1.58875 1.0673 -3.25581 4.92768 4.47144 6.37412 4.8667 -4.07455 4.17786 12.3503 0.778071 -0.611218 0.261117 -0.31192 0.498284 -0.134851 -0.14095 -0.66252 -1.69948 -0.281984 -0.0813109 0.736123 -0.168596 
-4.20337 -2.44219 -7.19342 3.37057 5.50172 0.305377 5.20815 1.84038 5.31738 5.56258 -4.43487 5.01553 12.128 0.581172 -0.141984 0.0464844 -0.5585 -0.0151758 0.492689 0.0596752 -1.19575 -1.39779 -0.309278 -0.371196 -0.295984 -0.103788 
-3.77856 -3.28021 -3.54279 -0.752609 1.58182 2.58446 4.83032 3.56121 3.2498 4.7043 -7.25106 1.77916 12.4212 0.326236 0.765418 1.07961 -0.98974 0.420734 0.720617 -1.54121 -0.0316824 -0.245322 -1.78865 -0.469704 -1.39395 0.179502 
-4.09387 -3.22473 -4.09862 0.669267 2.95922 1.04841 2.71703 1.12249 5.94643 4.29292 -5.57101 1.10786 12.098 0.304542 2.60378 3.80481 -1.4021 1.03787 0.451084 -2.2525 -0.221986 -1.27978 -2.98305 0.629436 -1.57986 0.710745 
-3.75056 1.58417 0.709562 -2.00929 4.44222 -0.0242387 -1.53282 4.67198 4.83298 -3.44174 -5.855 -0.838079 13.2628 0.0797359 4.73405 5.45439 -0.165089 2.44785 -1.62582 -2.11621 -0.790781 -1.58734 -2.85296 0.986836 -1.13668 1.19446 
-2.69466 8.14452 9.70448 -3.01161 9.26088 3.86515 -2.87279 0.175068 -1.87309 -5.27963 -1.98572 -1.57516 15.261 -0.474758 5.27408 4.83111 -0.0506251 2.62404 -1.34358 -1.23584 -0.617548 -2.31456 -2.15696 1.54524 -0.306781 1.34226 
-4.07949 14.7054 16.8276 0.262383 10.6702 -6.95303 -2.9558 0.0810119 -0.77716 -4.77421 -4.10952 -2.56274 16.812 -0.880433 3.53336 1.50605 0.914396 2.16198 -1.65562 0.528782 -0.426044 -1.42278 0.107151 1.32839 -0.503983 0.732155 
-6.3032 16.5851 11.9979 -0.719697 12.9654 -2.20509 -2.75067 0.33023 -2.82132 -5.82563 1.28245 0.436287 17.0347 -0.33607 -0.743079 -3.02315 2.16784 1.14427 0.24833 2.33114 -0.562186 0.0408962 1.6841 -0.411115 0.0585691 -0.527867 
-6.34846 15.0307 7.09311 1.41673 13.3998 -5.26723 1.05003 2.46417 -1.8068 -2.63299 -0.847129 -4.36372 16.0367 0.392631 -4.85101 -6.19095 1.33772 -0.947613 2.12432 2.75294 -0.051949 2.93958 4.50425 -0.328093 1.0789 -1.36587 
-3.24052 4.26649 -0.544025 7.25043 13.6174 4.2639 6.77998 -3.82744 -1.15379 2.07027 -5.67249 -0.381827 13.0093 0.945299 -5.63092 -5.50313 -0.101773 -2.73598 0.402632 1.50865 0.346465 1.93766 3.86737 -0.92269 1.31174 -1.44992 
-3.64767 -3.39031 -7.85619 2.9659 5.60614 0.434084 6.04358 1.9001 13.087 13.7991 -2.27252 3.24081 11.9954 0.485832 -4.12888 -3.7452 -1.85553 -3.35054 0.48339 1.05103 1.72442 2.08378 2.50486 0.700488 2.44147 -0.945886 
-2.9271 -2.35901 -8.04312 -2.00315 3.18236 -3.04259 2.29582 2.34459 -0.579926 5.29517 -2.6183 3.19274 11.8058 -0.393466 -1.07974 -0.741813 -1.60966 -1.99514 -0.837549 -0.205539 1.87046 0.17049 -0.176785 0.215408 0.560747 -0.189588 
-4.07601 -2.30094 -7.88333 -3.23413 1.86468 0.802964 8.54725 8.00025 8.32519 8.27886 1.12822 6.05635 11.909 -0.329139 0.417194 0.947351 0.141701 0.0426219 -0.236842 -0.402511 -0.460987 -0.49453 -2.18493 -0.946018 -0.908246 0.0767729 
-4.99368 -1.67691 -4.23952 2.30213 5.51247 -0.108286 4.50045 2.47479 2.07956 3.94646 -6.29582 1.01414 12.1045 -1.71262 0.8693 0.721751 -0.447168 1.6684 -0.967786 -0.327873 -0.514344 0.763611 -0.580018 0.00373456 -1.61794 0.774115 
-4.26007 -1.64539 -5.02124 1.52177 4.65419 -2.21728 2.92871 -0.469934 9.28459 3.54881 -5.16385 -0.211118 12.2299 -2.95309 1.07541 0.278036 -0.943981 3.05497 -0.859881 -0.564839 -0.959608 -2.66441 -2.65596 -0.840018 -3.10767 1.85897 
-11.3982 1.65971 -5.8654 -6.61694 10.1296 -6.37139 3.46572 4.00796 2.75843 4.76011 0.546404 -1.76323 15.5159 -2.7481 1.66664 -0.975594 -1.96963 1.90414 -0.548095 -1.39762 -0.0497671 -2.59116 -2.10948 -0.848882 -1.8276 2.07392 
-15.6392 1.40781 -5.68021 -3.4945 14.831 -0.364885 6.24042 2.43562 -5.33629 -5.40777 -6.49299 -8.09334 19.4982 -2.2926 2.79814 -0.8665 -0.622875 2.07951 0.289778 -1.63776 0.44073 -1.39862 -0.358611 -0.718345 -0.431456 1.78512 
-13.0446 5.12969 -8.78801 -5.03788 9.94481 -3.77496 -4.14348 0.77318 -3.56581 -2.12263 -9.87566 -4.18275 18.84 -0.828058 2.39965 -0.617642 0.958381 1.02949 0.984303 -1.73826 -0.61837 1.93037 0.710139 -0.58822 1.22196 0.77919 
-14.8998 10.6103 -7.89243 -2.38214 15.1441 -2.06661 -1.4555 3.35111 5.45361 5.19712 -3.54455 -1.15864 19.4935 0.369582 3.4851 1.96695 1.33325 0.691555 0.667712 -1.10204 -1.34144 2.5709 1.17628 0.311012 2.94861 -0.0760786 
-15.9082 9.05671 -7.8475 -2.38122 15.1205 -0.599017 -1.3776 0.458369 7.01532 3.00836 -3.86891 0.879221 19.4143 1.60034 3.62012 4.88558 1.99034 -1.82356 0.975172 0.880973 -1.95436 -1.58857 -1.8662 1.40051 2.01322 -0.15116 
-12.3595 16.8698 3.68431 1.84344 15.7009 1.3857 -0.652715 -4.11416 2.22763 -2.09184 -7.9413 4.11875 18.8307 3.7303 1.45124 6.25774 1.68953 -5.45786 -1.00018 0.762003 -1.76716 -4.8209 -3.86099 0.411444 0.417221 -0.521452 
-6.31304 20.1005 9.8515 2.80101 0.548587 -0.625253 -0.140013 -5.26599 -9.89565 -7.80915 -0.674753 3.24465 18.4156 4.85199 -1.40771 6.35579 1.27098 -7.39947 -1.00928 0.0905158 -0.584484 -4.51802 -3.15882 0.837222 -0.596434 -0.433786 
-1.0459 12.3446 14.5468 3.47439 -4.85925 -7.0544 1.73572 -2.62253 -10.1954 -8.69907 -3.08441 -0.255249 17.3855 3.84991 -4.41599 3.46219 0.884138 -7.58934 0.10881 -0.840491 -0.664557 -1.16962 -2.18665 1.90303 -1.76456 -0.0603952 
2.69498 4.28074 18.5002 3.15818 -11.5968 -1.42536 -2.11924 -3.20987 -9.36324 -9.48214 -2.11125 0.0840508 17.9679 2.57717 -5.08213 1.9538 0.905957 -5.16918 0.948846 -0.824438 -0.849979 1.49768 -1.05446 1.78398 -2.11466 0.246539 
2.386 2.69976 16.6709 6.08554 -16.1731 2.32981 -3.86556 -8.46501 -3.88667 -12.1886 2.29211 -3.12375 18.7525 1.76403 -3.56077 0.879718 0.684524 -3.85658 0.509205 -0.890668 0.498018 0.216329 -0.672338 2.81015 -1.64144 0.476389 
4.85688 -0.487671 18.5584 6.02522 -19.6404 -0.573126 -1.46156 -6.59464 -5.56161 -11.3367 5.55688 -5.89442 18.9648 1.67742 -2.2304 -0.382475 0.839624 -2.30166 -2.62976 0.337157 2.53624 -0.607447 -1.13952 2.94624 -0.598242 0.311345 
6.69332 -3.07503 18.9162 5.46349 -20.1204 -4.93449 -3.04646 1.55995 -11.0146 -11.1335 7.13226 -5.47322 19.269 2.04857 -1.75095 -1.71751 0.21389 0.207555 -4.17561 -0.0632674 3.64272 -1.36489 -0.0170692 1.58962 0.923033 0.0804094 
8.92844 -3.98385 15.4652 7.66733 -21.1315 -10.942 -0.843003 4.45884 -8.83652 -15.7073 10.1999 -1.73243 19.2664 1.3957 -0.395735 -4.26849 -0.290351 2.43614 -2.52772 -1.32284 -0.0648663 0.591851 2.57144 -0.536152 1.29596 -0.00599403 
10.5931 -4.3069 9.62998 6.33394 -14.3898 -13.3638 -4.49118 4.22184 -9.07368 -10.0887 7.91873 -0.589586 19.0038 1.68123 0.0558282 -5.20981 -1.74232 2.67994 1.42567 -2.64031 -3.19414 2.26229 5.51009 -1.63019 -0.147044 -0.0464293 
9.88549 -1.85041 1.85914 4.13824 -10.325 -8.99707 -7.35341 -8.24992 -3.57281 0.998097 2.48289 -1.85641 19.0674 1.85779 0.0944421 -4.96725 -2.91695 2.17431 4.47986 -2.19005 -4.61839 2.56334 6.24727 -1.58748 -0.801916 -0.0588451 
14.6209 -3.86261 -0.329782 -1.48356 -12.1239 1.22142 -12.9928 -8.05639 -2.33501 8.06426 2.8398 -6.14645 19.1363 1.91887 -0.0871039 -3.49702 -3.11816 0.706564 5.16865 0.209089 -3.29917 1.58856 3.03185 0.0262807 -0.473347 -0.102698 
16.2035 -3.73378 -4.39122 -3.00866 -11.3929 4.16468 -7.54245 -12.494 0.610833 6.45262 4.80195 -2.96358 18.9059 1.67772 -0.436885 -1.62609 -3.27667 0.291144 4.22991 2.27842 -0.978313 -0.22252 -0.453356 1.74658 0.882108 -0.120831 
17.0284 -3.80073 -4.72992 -5.68339 -10.323 5.89858 -3.35121 -10.1519 -3.2227 2.34332 6.8906 -2.40274 18.5711 0.639278 0.214529 -0.828988 -2.81624 0.284807 2.77401 3.37241 -1.1077 -0.30562 -2.48325 1.40114 2.03548 -0.107653 
17.0704 -4.06577 -4.07122 -10.1452 -9.76973 9.81389 -0.782118 -12.0937 -4.24157 1.59179 9.19039 0.682273 18.7459 0.275751 0.4178 -0.0914729 -2.51014 -0.082053 1.88715 2.17814 -0.0144068 -0.842391 -1.46256 0.291513 1.08161 -0.0350552 
17.3839 -2.62397 -4.63472 -11.9965 -11.5114 12.2669 0.489035 -13.7951 -1.43691 -1.92158 7.65126 2.20805 18.6781 0.163937 0.337108 -0.0218722 -1.47542 -0.518703 1.43466 0.920523 -0.0424911 -0.142996 -0.191652 -0.32037 0.740646 0.0302534 
17.4045 -2.23317 -4.89618 -12.4028 -11.2089 10.4163 1.42814 -10.7445 -4.49402 1.27227 5.87919 0.139095 18.6771 0.140583 -0.0600236 -0.348886 -0.202328 0.0829613 0.216623 -0.291498 0.739525 -0.53822 0.947652 -0.0323254 -0.337837 0.034627 
17.681 -3.0315 -4.4268 -11.9317 -12.1969 12.7707 0.146274 -11.039 -3.81145 1.54482 6.94436 1.57208 18.7568 -0.00673113 -0.333882 -0.709278 0.820597 0.864824 -0.45544 -1.40646 0.598038 -0.342806 2.3111 0.587894 -0.798258 0.0563328 
17.6247 -4.16213 -5.91961 -11.1892 -9.0122 10.6451 -2.06823 -9.77411 -5.7454 4.59686 9.38222 -0.688925 18.8797 -0.185784 -0.521917 -0.315026 1.04968 1.73306 -2.07838 -2.06577 1.2214 0.57659 1.92845 1.19119 -1.49819 0.0588364 
17.2401 -3.3289 -7.6694 -8.50031 -8.28569 9.87526 -4.79507 -11.2901 -2.52525 7.97165 8.83922 -1.36923 18.8584 -0.717933 -0.312635 -0.192703 1.9998 1.47575 -3.63881 -2.61671 1.82101 2.1468 0.639757 0.951166 -2.70685 0.0396729 
16.696 -4.69405 -4.85001 -8.87006 -4.49923 1.47212 -6.43003 -4.51197 -2.25417 7.70111 10.8877 -5.8812 18.9205 -1.00438 -0.354984 1.26297 2.31683 0.279374 -4.13469 -2.37905 2.0988 2.91262 -1.68046 0.146924 -1.72504 -0.040274 
14.5557 -4.32871 -5.92512 -3.09228 -7.07465 -0.836839 -10.7564 -4.56503 5.17694 3.19148 10.9474 -9.36602 18.9347 -1.09648 -0.36732 2.61266 2.94473 -1.12614 -4.37819 -1.21813 2.82722 -0.461404 -2.29452 -0.272924 -0.0128403 -0.172351 
13.945 -5.43714 -0.476891 -2.30912 -8.22085 -4.6723 -10.9828 -2.64262 4.9666 -1.41534 9.06273 -5.31571 18.6402 -1.47474 0.19258 4.12078 2.79752 -2.80791 -2.93683 -0.170669 2.55936 -3.66296 -2.41002 -0.386013 2.25273 -0.286143 
13.1332 -4.79395 3.20734 2.94288 -12.0556 -8.94347 -8.60934 1.91135 -8.44265 1.05728 8.38709 -1.71618 18.1368 -1.79085 0.602295 5.82497 1.63823 -2.92 -1.89556 1.1141 1.45054 -5.05137 -1.43872 -1.07562 2.5324 -0.358669 
10.0336 -3.49852 11.1876 2.09997 -16.0483 -9.15873 -8.35689 5.04665 -13.7592 -3.2819 10.2378 1.55754 17.8887 -2.13951 1.87431 4.89647 1.00311 -1.39268 -0.192127 0.238753 0.135534 -3.04818 -1.70865 -2.08681 1.12435 -0.539506 
7.5572 -2.28655 17.3675 2.89435 -17.7609 -8.07145 -6.49886 -1.15696 -10.717 -3.06885 4.98178 -0.140651 17.5171 -2.50295 1.92506 4.6743 -1.25761 0.724656 2.93109 -0.931948 -0.644741 0.105175 -3.35241 -2.41442 0.59537 -0.281997 
6.03548 2.68073 16.9254 2.73071 -12.3316 -6.06894 -10.8443 -0.430794 -9.13712 -7.89555 0.331316 -0.481734 16.2525 -2.46944 1.84226 1.37499 -0.471279 4.68973 3.05042 -1.33763 -0.731461 2.27135 -2.39823 -2.49555 -0.523462 -0.564505 
2.61753 1.74171 23.71 -3.66054 -10.2907 4.1671 -12.0254 1.42636 -10.2278 -13.3979 1.26824 2.2803 17.545 -2.26082 1.68361 -2.03334 -0.0581337 6.74152 3.60743 -0.94331 0.62836 1.2403 -2.07523 -1.58261 -0.42084 -0.592625 
0.156185 3.69864 14.8913 3.02101 3.66521 -0.0258867 -12.2818 0.0976795 -2.64702 -10.1085 -0.383139 -2.27025 15.0523 -2.02293 0.856551 -1.91571 0.601061 4.50712 2.64208 -1.49768 0.625421 -0.379209 -0.16139 0.801831 -1.11564 -0.160759 
-0.807277 5.62253 8.21781 2.45853 7.94831 6.94418 -10.4966 1.7206 -7.76057 -12.3385 -2.57405 -1.3506 15.1541 -1.31216 -0.182623 -4.41679 1.47805 1.79491 0.0737076 0.318636 0.0601925 -0.879833 1.21949 0.552832 -1.36421 -0.629998 
-2.36679 5.02307 15.0929 2.67648 1.08453 5.75292 -19.097 2.54919 -12.2668 -9.2322 6.26162 -4.24448 16.6441 -1.07591 -1.81975 -5.33286 -0.0498973 -1.52056 -0.905917 4.20315 1.50354 1.01089 3.5873 -0.295319 0.909177 -0.688443 
-2.68181 0.166381 1.52523 3.902 -0.0257788 1.64623 -7.02458 0.501569 -9.81709 -7.73863 0.710022 -3.55365 13.599 -0.732562 -2.37809 -5.1511 0.410734 -0.683666 -1.79498 5.56822 0.56503 3.07315 3.58315 -0.942594 1.88342 -1.02141 
-4.2861 -2.67202 -8.42667 2.04979 0.0494556 -1.9065 6.99793 8.22488 3.43568 5.52805 -3.50177 3.37717 12.3876 -0.724105 -1.97477 -4.47462 -0.00125059 0.754226 -1.18005 5.21997 0.328408 3.91136 2.92784 -1.90598 2.28781 -1.00696 
-3.51043 -2.42037 -5.77788 4.82554 5.04751 1.79897 4.29697 1.70791 -0.246028 -1.80288 -2.40532 4.25569 12.1753 -0.513527 -0.801373 -1.45902 -1.2673 0.24083 0.471421 1.30273 0.783095 2.56374 0.843951 -1.53614 2.21999 -0.277114 
-5.573 -3.55738 -3.62864 2.20845 2.31901 -0.223705 1.34204 3.58806 2.50448 2.43911 -1.71063 3.2899 12.3212 -0.417981 0.268644 -0.0858929 -0.798401 0.830109 0.318058 -0.82628 -1.12301 -0.556591 -1.02614 -0.183637 -0.11457 0.0492763 
-4.60599 -3.39781 -8.1689 -2.51383 0.0435925 3.16194 2.31701 6.73545 3.46719 -1.9744 -7.86627 7.58994 12.2467 -0.311836 0.331514 -0.338702 -0.173822 0.389186 0.155197 0.27357 -1.46729 0.53836 0.966035 -0.749942 -1.4503 0.0684406 
-5.82822 -0.840084 -7.66062 1.72747 6.70196 -0.997692 3.85651 0.0960709 -1.20388 0.483098 -1.68948 1.13719 12.5983 -0.152275 0.901051 0.471726 0.774653 1.13265 0.52767 0.443787 -2.47255 0.368193 1.15505 1.0269 -1.61334 0.0397203 
-4.942 -2.12145 -5.45539 4.19692 4.80197 2.96195 4.40758 -3.88254 4.29995 4.0053 -6.16561 -1.91947 12.379 -0.165635 0.602331 1.87114 1.10444 0.380412 -1.25741 -0.155179 -1.5432 0.737643 1.52484 2.33576 -1.45994 0.0184167 
-6.16637 0.309695 -2.62676 2.72634 5.60308 2.51464 2.51569 -3.46568 3.92907 5.2245 2.57355 -0.0221008 12.4536 0.0207226 -0.772257 0.679449 0.152258 -0.507432 -0.744839 0.637282 1.33253 1.28688 0.731054 0.898187 0.0792176 -0.102422 
-5.26509 -0.961043 -1.33012 2.50893 2.49509 -4.88125 2.21153 0.800317 4.58893 3.27911 1.68103 0.869883 12.4111 0.0183218 -0.856347 -0.458314 -0.55491 0.251622 -0.361489 1.38942 1.86155 0.318872 -1.78155 -0.544023 0.453786 -0.110966 
-5.56306 -5.28157 -6.32601 3.33275 5.31824 -0.800287 8.14095 4.41728 5.08605 4.50146 -1.12187 0.138601 12.0701 0.368782 -0.834871 -1.32135 -0.902318 0.394166 -0.215728 0.787045 2.34871 0.920079 -1.71972 -3.19091 -0.396784 -0.0886163 
-5.15204 -3.60755 -5.89733 1.11917 6.2025 2.81197 8.54207 1.48373 5.31582 -4.54094 -7.03801 0.269109 12.0159 0.279206 -0.276957 -1.08138 -0.617596 0.674046 1.39645 0.255039 1.64948 1.49344 -0.199257 -1.31497 -0.357266 -0.0412386 
-4.37898 -2.54141 -6.94991 -1.09037 5.7202 -2.41061 3.28565 7.93616 8.16602 0.535901 -9.02146 -1.70563 12.2081 0.335164 0.246956 -0.0842129 -0.514306 0.300552 -0.0134702 -0.60313 0.623534 0.690284 0.967453 1.27246 1.53718 -0.0232995 
-4.4611 -3.71591 -6.42509 1.63251 5.66434 2.90615 5.91437 7.28828 10.5161 4.2656 -0.944001 0.00567186 12.1359 0.0294321 -0.181655 -0.00793719 0.370429 0.793837 -0.30974 -0.599566 -0.336827 -1.48524 1.25082 2.43433 1.3906 -0.0322051 
-4.23272 -3.99261 -6.4832 0.504554 7.09008 -0.914731 6.43915 4.63267 5.93731 4.93546 2.19341 7.95624 11.8936 -0.0859417 -0.0459507 -0.835662 -0.306845 -0.0187283 0.193178 0.265721 -2.01568 -2.17563 0.302833 1.5719 0.475595 -0.0942667 
-5.07802 -3.79023 -6.17038 2.17385 9.48675 0.515325 3.96749 1.45134 -0.996007 -0.48661 -0.473801 2.39119 12.0121 0.0681417 0.131197 -0.437023 -0.566476 -0.285846 -1.20271 0.229943 -0.634533 -1.10714 -1.13347 -1.57194 -0.189672 -0.109435 
-4.50023 -2.734 -11.2556 -2.89526 3.71536 -0.249306 5.58769 0.776253 3.04393 4.42617 -1.39708 -0.520416 11.7987 0.0505476 0.108089 -0.272694 -0.101866 -0.671912 -0.304208 1.04415 1.05531 1.38212 -1.27881 -0.991129 -0.449403 -0.013061 
-3.98663 -3.68923 -6.22401 0.500041 5.92247 -3.4401 7.48981 6.04383 6.4271 -1.14711 -7.00848 3.29564 11.6362 0.385771 -0.171487 -0.394466 -0.242666 -0.364528 0.0333514 0.437084 2.10605 2.9893 0.0350659 0.86641 1.95033 -0.0564999 
-4.52567 -3.50267 -7.81985 0.83213 5.51266 -0.458062 9.89872 7.61297 9.13638 -1.12832 0.505105 5.257 12.0163 0.264838 0.0521364 1.76812 0.946823 0.0863822 0.556953 0.0907898 0.55123 -1.3407 0.125706 1.1458 0.182376 0.0941869 
-3.13644 -4.26333 -9.86057 -0.90317 6.76546 0.78646 3.99739 8.56323 10.9043 2.46597 2.90716 9.2541 11.6208 0.232994 0.310024 2.35771 -0.213327 -0.936452 0.893071 -0.19337 -1.59096 -3.89726 2.3706 1.57766 -2.13261 0.260894 
-3.60114 -2.18627 -0.59669 2.54046 3.72577 0.422181 7.78785 2.2727 -5.89814 3.24817 -0.625919 -2.58777 12.2773 0.233599 0.287674 3.13592 -0.502337 -1.13898 0.188508 -0.105964 -2.15117 -4.58029 2.53437 0.0418642 -3.01033 0.277701 
-3.28393 -2.79731 1.95297 -1.42076 2.13365 0.585139 7.5784 0.759164 -5.54194 8.51767 1.44534 -3.44505 12.8101 0.00222311 0.2321 2.61767 -0.499639 -1.08557 -0.0239683 0.695256 -1.71217 -3.25362 1.73729 -0.0852386 -2.62556 0.29115 
