-5.12929 -4.4855 -8.30701 0.308095 3.42778 -0.16006 3.08871 6.79744 8.67525 8.90162 -0.0245783 0.195795 11.4408 0.668784 0.449178 0.61459 -0.375025 0.199974 1.03761 0.0901908 -0.487013 -1.17615 -1.17071 -1.02415 0.365989 -0.0444689 
-3.40952 -1.83769 -5.65824 -0.541666 6.00756 4.36419 4.49726 6.37269 2.95869 3.31658 0.720762 3.65261 11.3162 0.769767 0.514921 0.476382 0.203412 1.34889 2.67252 0.896229 -0.200228 -1.48561 -1.66746 -0.979713 0.929884 -0.069418 
-2.64525 -3.56352 -6.55844 -1.14215 3.13776 2.76584 2.83539 4.57475 5.65278 5.8406 -5.51799 0.297334 11.2808 0.409719 0.320618 -0.308654 -0.799679 1.55175 1.76064 1.80629 0.578792 -1.72311 -1.71608 -0.960926 1.16164 0.118308 
-2.52247 -2.37189 -6.79938 2.05028 10.3173 11.7396 7.69651 6.90764 2.75843 2.09481 -2.17644 4.79445 11.1737 0.004389 -0.554547 -1.29228 -0.509264 1.54425 0.526876 1.50086 0.660339 -1.05669 -0.9084 -0.411942 1.59171 0.220484 
-3.52422 -2.61531 -9.27971 -4.98627 9.0317 4.95546 10.5205 9.42393 0.159833 0.932115 -3.38061 5.43306 12.1036 -1.2186 -0.435417 -1.10619 -0.978667 0.790739 -1.75159 2.16024 1.31497 0.235945 -1.78556 0.926419 1.52105 0.600075 
-2.94809 -5.08452 -10.759 -1.16592 10.7819 5.90376 8.15901 7.2498 0.42174 1.22882 -2.40764 9.0433 12.0072 -1.20282 -0.683967 -0.307165 -0.951145 -0.219511 -3.00188 1.31622 1.54403 2.37148 0.00721664 0.712581 0.371892 0.573793 
-8.52542 -4.38429 -10.1096 -4.42738 6.85915 -3.07418 13.4053 10.9785 8.00085 -2.65418 -0.770294 5.77816 13.8644 -0.159368 -0.207898 0.999635 0.0273348 -1.00638 -1.73269 -1.42127 -0.347318 1.05898 -0.122959 -0.530302 -1.30481 0.0901856 
-6.03598 -4.90723 -7.92029 -2.98489 10.306 0.744989 12.8352 13.8505 10.6953 3.92405 0.0813115 6.48136 13.1623 0.614565 0.380077 1.04873 -0.177168 -0.860152 0.0658838 -2.86697 -1.44667 -1.52994 -0.324658 -0.973996 -1.64816 -0.288821 
-2.77711 -3.74345 -5.70091 -3.94011 4.23774 -1.12857 1.07608 4.38699 0.317951 -1.03029 -7.27659 0.189977 11.977 1.76923 2.4516 3.66729 2.92846 -2.65859 2.01757 -3.35217 -4.84728 -3.09383 -2.3944 -1.08714 -1.50183 -0.0970295 
-2.74942 -3.50456 -7.71969 -2.29539 7.79181 5.26038 -0.0111928 3.31221 -3.3865 -1.20641 -4.02447 3.59661 11.5068 1.17107 4.48348 5.37816 3.88508 -4.80881 0.962551 -3.01616 -6.72132 -2.06165 -4.46506 0.808952 -1.89686 0.953676 
-1.32257 7.17239 8.12662 9.87017 -5.17673 4.75598 3.06768 -7.98874 -0.427379 -12.061 -4.1531 -0.288609 14.207 0.762224 4.935 5.91861 3.25584 -3.93111 0.821087 -1.23542 -5.96885 -0.804514 -2.121 2.57788 -1.60753 1.44291 
-0.907888 12.0522 12.0567 9.53536 -9.03085 2.61546 -3.24141 -13.5683 0.75974 -12.8859 2.56432 -2.76364 16.8156 0.839667 3.48891 5.22765 1.13319 -3.43446 0.559721 -1.88553 -4.06696 -0.625552 -1.04891 1.99372 -1.93952 1.29491 
0.113241 13.1532 14.0039 6.42372 -7.00647 4.29932 -3.48589 -17.017 -5.77774 -5.79551 2.3184 -4.66756 16.5371 0.383394 0.520045 1.91365 -1.58884 0.185374 0.852177 -2.11531 -0.379061 -1.16219 1.81761 0.796174 -0.969752 0.552693 
0.731003 10.9496 15.4799 5.09381 -8.46565 8.28732 -6.16204 -12.5085 -3.83908 -9.58366 2.7084 -3.91151 16.8163 -0.412912 -0.361554 1.40395 -0.782953 1.67198 0.292254 0.127733 1.58142 -0.94994 1.72139 -0.67535 0.45812 0.0578627 
-0.225048 10.3239 15.9833 4.14672 -4.53246 6.18094 -6.04856 -10.4139 -3.93892 -4.62403 -0.244266 -4.56343 16.9701 -1.49946 0.527257 1.21966 0.0941409 2.36276 -0.356792 1.02172 2.184 -0.448384 1.19472 -0.605124 1.61607 0.0425783 
-2.8033 11.6591 18.0868 6.75909 -1.90796 3.13592 -1.32141 -8.96268 -4.90937 -4.86475 0.468905 -0.525108 16.8884 -1.16216 1.24355 -0.870291 0.117155 3.28124 -0.596606 1.40439 3.36368 -0.10731 2.49965 -0.0723283 0.501438 -0.398509 
-5.61689 15.4347 18.7988 6.06178 1.52849 5.09105 -0.79759 -7.8699 -7.48452 -2.18138 0.412522 1.71959 16.7139 0.836408 -0.138395 -3.09402 0.38294 3.15544 -0.344267 1.62962 4.31455 1.61624 2.13616 -1.82237 -0.49695 -1.20897 
-2.38389 14.612 9.72072 4.72205 4.91008 5.84923 -1.76558 3.03793 -2.60283 1.69328 2.01836 -4.54584 14.9519 1.81558 -2.67821 -4.53906 -0.0907113 3.50602 0.0612211 1.34712 3.91842 2.57521 1.52983 -2.5946 -1.31976 -1.56673 
3.74728 8.15553 4.69622 7.07994 7.83571 3.10295 2.32161 5.15851 2.989 2.77777 -10.1308 -5.03782 11.8935 1.4531 -3.58884 -4.33586 -0.0208988 2.30461 -0.376511 1.85737 2.06599 1.88728 1.0443 -1.60243 0.762009 -1.36197 
1.59252 1.90761 2.44282 5.79645 12.4685 4.43608 3.85458 4.11523 2.72992 0.304815 -7.23243 -3.74522 11.4649 -0.61097 -3.40571 -2.90888 -0.676668 0.0382069 -0.320016 1.66772 0.181144 -0.47302 0.112327 -0.610466 3.23466 -0.742764 
-0.339587 3.8427 0.758393 5.42009 9.27229 3.91507 5.67915 1.9214 -0.714494 3.73434 -2.97423 5.12933 11.6475 -2.03552 -2.31359 -2.40351 -1.21545 -1.14935 -0.128944 -0.320339 -0.188049 -1.08072 0.681977 2.20119 3.51206 -0.0757355 
-3.3953 -0.260155 -2.85476 2.16864 4.38283 3.84309 4.89427 5.56221 -3.11619 1.77664 -4.61228 6.54389 11.361 -0.970621 -1.46023 -2.64454 -1.19623 -2.11377 -0.252669 -0.195923 0.562601 -1.10772 -0.120175 2.49794 1.95871 0.0240793 
-3.93638 -2.32855 -4.67252 2.81659 6.13181 2.75473 0.200073 3.49478 0.508442 5.45175 -0.434957 7.37794 11.5668 -1.58923 -1.08662 -1.25813 -1.78732 -0.359321 1.20714 -0.575248 1.89633 -0.101864 -1.18437 1.31366 -0.446869 0.61953 
-1.46218 -2.30791 -8.06445 1.11705 3.46992 3.75291 5.61451 6.14155 -3.42016 -1.15476 3.98761 4.92402 11.6257 -3.25001 -0.288246 0.360524 -1.65312 0.575286 1.24053 -0.751506 2.16277 -0.11124 -1.51843 -0.295209 -1.98447 1.80373 
-9.25227 -0.566519 -2.92739 -2.99073 7.93214 9.99586 2.4428 11.1134 -1.07183 -0.721828 -0.705901 3.70491 14.6128 -3.42649 0.704769 1.17037 -1.72271 -0.422963 0.401699 -2.01404 0.695565 -1.38629 -1.12125 -2.03099 -2.71401 2.13748 
-16.9874 -2.5824 -1.9247 -3.19329 6.35909 6.42517 0.0153768 12.5668 -2.88225 -2.72871 -5.95285 -1.54198 18.8567 -2.75158 1.51933 1.58057 -0.733665 0.435249 -0.310326 -2.77938 -0.837617 -0.37438 0.317692 -2.33327 -1.43607 1.70106 
-13.3062 1.33255 -1.89055 -3.64181 2.57241 3.42709 -7.07058 3.76 -6.69194 0.632475 -5.61966 -2.95911 18.6387 0.441486 2.92545 1.37036 1.01168 0.496456 -1.87608 -2.35351 -2.86264 -1.6957 -0.645568 -1.11645 -1.87113 0.601945 
-13.1931 4.33922 -0.680024 -2.22574 8.32603 5.48566 -3.52572 5.63016 -2.482 -0.243456 -5.22183 1.07571 18.1181 2.25017 4.18469 2.25325 1.30616 -0.117618 -1.8447 -1.46996 -2.40908 -1.38638 -1.12865 0.421924 -0.691336 -0.188768 
-8.942 10.5999 3.30206 1.5839 9.43095 1.0852 -7.55422 0.268511 -9.75047 -5.1923 -6.65368 -6.9596 17.9919 1.93437 2.7397 3.22602 0.744516 -1.61924 -1.22258 -0.180857 -1.52376 -1.08485 -1.9074 2.22198 -1.59097 0.00504818 
-7.91868 13.7073 6.74525 0.724669 2.34173 -1.62739 -7.09261 2.26712 -8.28489 -5.45955 -3.32622 -2.99841 18.2363 1.98377 0.434658 3.15664 -0.236695 -4.35081 -0.965149 -0.331216 -1.80699 -0.898932 -1.87098 2.59484 -2.23109 0.244789 
-6.27159 10.347 10.5269 -1.39443 -2.53165 0.870739 -6.19143 -2.17727 -9.21476 -6.29648 4.54244 -8.87692 18.6049 1.24543 -1.70746 2.28345 -1.23066 -5.03908 -0.207301 0.540486 -1.47004 0.964429 -1.26667 2.35614 -1.01015 0.328536 
-4.60946 6.63898 11.4907 -1.92005 -7.4467 0.767146 -5.86319 -2.1819 -7.24452 -9.04626 2.15433 -9.12109 19.0355 1.12901 -2.3494 1.26055 -0.917785 -3.51854 -0.125869 0.442195 -1.78299 1.41189 -0.941025 0.916916 -0.625253 0.301719 
-4.36946 5.59679 12.3466 -3.24704 -10.8702 -1.14857 -5.46649 -4.85718 -5.44851 -9.7323 2.38675 -8.94901 19.2349 0.891982 -1.70805 0.0626296 -0.263413 -2.92539 -0.930435 0.372179 -1.47715 1.44876 -0.340896 -0.41632 1.11373 0.230572 
-3.2247 4.33542 12.1382 -2.93795 -11.0817 -1.24707 -5.2441 -5.30789 -3.10854 -8.44677 2.33621 -6.08863 19.4298 1.16134 -1.16774 -0.160935 0.877903 -2.23419 -0.386325 0.582788 -0.686291 1.4131 1.22507 0.884424 1.76033 0.152859 
-2.50406 2.9585 10.5163 -2.20255 -15.3411 -2.77433 -4.64008 -8.00001 -4.03892 -8.30071 2.3699 -4.82451 19.5606 1.23025 -1.22739 -0.437028 1.7281 -2.05989 -0.721545 0.957581 0.312564 0.844459 1.79993 1.57827 2.25374 0.206139 
0.264537 2.11945 11.6012 1.94722 -16.3822 -0.351603 -3.36246 -4.04194 -0.88383 -3.63668 6.58487 -2.38168 19.637 1.22849 -1.50552 -0.283574 1.89854 -1.21272 -1.9027 1.02582 0.767292 -0.372683 2.76515 2.52722 3.24011 0.329142 
0.0371876 0.567835 10.4299 2.95086 -18.5194 -5.20404 -1.61941 -3.92733 -2.33857 -3.13769 8.15377 0.466198 20.1621 1.2837 -2.4205 -1.39068 0.841548 0.460523 -2.76096 1.18737 1.11927 -0.862265 2.52427 2.52748 3.51802 0.43047 
1.64713 -1.99684 10.7635 3.97806 -15.5561 -9.54569 -1.62532 -3.50777 -5.82213 2.79745 12.0804 7.46656 20.7748 1.26293 -2.98013 -2.85427 -0.27332 1.55617 -2.90425 0.650816 1.97944 -0.135219 0.853446 0.850275 2.39322 0.371978 
3.22312 -7.08585 3.98174 0.989773 -13.4516 -11.9821 0.428209 -2.67073 -5.88109 1.10357 12.2596 7.84149 21.144 1.73911 -2.68068 -3.93032 -0.53899 3.07603 -0.340405 -0.60006 3.17154 2.20204 0.328964 -1.98202 -0.712705 0.0736549 
4.98624 -8.95434 0.553892 1.56116 -11.1353 -11.4838 -1.13219 5.22697 0.211335 -1.49009 8.78335 5.89679 21.0059 1.55129 -1.65078 -4.61934 -1.1324 3.50423 1.67106 -0.823449 2.12868 3.81658 0.571019 -4.32911 -4.23106 -0.151034 
7.0632 -9.35683 -4.11683 1.46436 -5.34968 -5.937 -4.86627 7.56302 5.6549 0.650899 -0.107804 -2.31244 20.4148 1.27417 -0.333914 -3.58971 -1.92155 3.94678 2.81255 -0.279892 -0.686919 3.96927 2.17472 -3.79452 -5.55461 -0.174006 
7.48353 -9.11526 -8.2839 -1.92124 -2.08589 -4.21293 -3.09533 2.01877 7.49276 5.87888 -3.38153 -8.61179 20.3842 0.637414 0.318927 -2.8561 -3.08083 3.02695 3.1228 1.099 -3.91317 2.3815 2.30986 -1.34666 -4.60155 -0.0168945 
8.34532 -8.67496 -9.54794 -6.87676 1.75765 -1.55478 0.0103197 -4.50122 10.3245 8.29268 -0.630611 -12.6773 20.5848 0.133406 0.482962 -1.67047 -3.52291 1.40005 2.83941 1.58768 -4.10927 0.629506 1.3277 1.33283 -1.9424 0.177145 
7.53225 -7.70064 -11.0111 -9.67245 0.445782 1.93907 1.92451 -8.30673 9.78402 6.23833 2.31144 -11.9285 20.8364 -0.0184227 0.387504 -0.989499 -3.02344 0.00245972 3.0628 0.0901231 -2.48969 -0.779231 -0.0638569 1.74481 -0.200771 0.199283 
7.70586 -7.64933 -11.1056 -12.2746 0.384722 5.18405 0.562202 -7.82059 7.6568 7.10967 3.70986 -10.3661 21.0744 -0.194179 0.0473303 -0.873955 -2.37925 -1.15962 1.90878 -1.20736 -1.50029 -1.8169 -0.924919 0.744471 -0.144777 0.130816 
7.71114 -7.69056 -12.4526 -14.3395 -1.38713 7.73164 -2.92066 -8.76998 4.93048 6.1511 3.1723 -10.7712 21.1358 0.0309546 -0.0389889 -0.321876 -1.44844 -0.720931 0.811541 -0.942806 -1.11493 -1.0516 -0.456077 0.246243 -0.471389 0.0428242 
7.28497 -8.44335 -13.197 -16.4395 -3.12398 5.09282 -3.60387 -11.7711 3.66684 3.7117 2.66132 -13.9798 21.0892 -0.169191 0.242165 0.196699 -0.499321 0.305589 -0.217321 0.162869 -1.12906 0.281003 0.177914 0.272527 -0.12564 -0.00869656 
7.89747 -7.49857 -11.5748 -14.8322 -1.40452 6.04239 -0.706481 -11.9061 6.52098 5.65693 4.06693 -12.4786 21.0432 -0.269926 0.117822 0.542216 -0.0236549 1.30448 -1.63329 0.37188 -1.01543 1.10183 0.557992 0.063743 0.510734 -0.043981 
6.76675 -6.53449 -10.561 -14.5249 1.92136 4.94207 0.26946 -11.8978 8.26656 8.24633 4.62518 -10.1406 21.0773 0.0960672 -0.144879 1.37342 0.726801 1.63672 -2.03924 0.252632 0.436075 1.53102 0.696356 0.269948 1.13667 -0.138181 
6.62063 -8.05588 -11.0595 -15.4151 2.61261 -0.359436 -2.99792 -13.7838 8.13979 6.67375 2.50908 -10.1372 20.9219 0.247826 -0.638745 1.43267 1.60843 0.913848 -3.24539 -0.394531 1.09901 0.939144 0.63469 -0.623164 0.518873 -0.170951 
8.40373 -8.88909 -6.58749 -12.514 3.05105 -1.90248 -1.19499 -8.65189 10.5126 6.68507 4.78998 -9.46717 20.4589 0.712775 -1.45088 1.76758 3.0521 -0.62995 -3.68893 -1.38163 2.51137 0.0954473 -0.221201 -1.37825 0.166741 -0.164683 
8.31811 -9.515 -6.39816 -7.79547 2.59987 -6.76229 -1.94691 -8.03406 10.0937 9.61101 0.868708 -10.221 20.4976 0.996826 -1.50008 2.57228 4.55127 -1.71516 -2.99951 -1.57037 4.52319 -0.817066 -0.962494 -1.13116 1.27112 -0.139169 
9.48188 -13.0593 -4.05376 -3.07419 -1.22202 -10.3012 -7.16422 -2.2158 7.76684 5.67169 -1.44589 -9.26499 20.466 0.414531 -0.652908 2.35054 5.01052 -2.8097 -3.20296 -1.16219 4.35865 -2.61574 -2.56077 -0.723189 2.67231 -0.115343 
11.0657 -13.4712 0.535032 2.62131 -3.82667 -11.1576 -7.86518 5.61414 5.42731 2.36797 -0.0287983 -3.88267 20.2225 -0.14667 0.818137 2.95029 4.41529 -3.60774 -2.39932 1.11158 3.15297 -4.58766 -2.93145 0.358004 4.03872 -0.187255 
9.1026 -10.1755 1.69862 7.33016 -7.78416 -15.7196 -4.04679 6.31725 -0.232973 -2.49726 1.62279 0.72525 20.0198 -1.025 3.00505 2.74613 2.93522 -3.50249 -0.962921 3.56172 -0.0358265 -4.71408 -1.81307 1.2454 2.82006 -0.315603 
7.7744 -6.86621 5.47711 9.07881 -12.1578 -16.0497 2.0523 3.46428 -8.84471 -0.961757 1.12439 4.97752 19.7845 -1.42127 3.98054 2.46795 1.20093 -2.81946 0.754782 3.55281 -2.72242 -3.497 -0.738139 0.601962 1.16921 -0.493781 
6.0025 -1.33658 7.20586 8.37318 -14.5689 -12.6698 5.68562 -1.32 -8.66757 -1.72879 4.20452 0.405218 19.107 -0.869326 3.52456 2.72838 0.409069 -0.92296 2.71725 1.05482 -2.90521 -1.17076 -0.409766 0.0300027 0.193564 -0.715727 
5.50935 2.01206 10.1211 8.10447 -14.5316 -8.90866 5.03267 -4.17932 -7.8404 -1.70696 1.69015 2.12341 18.2099 -0.695474 3.25196 2.04494 0.365981 1.30207 2.64654 -1.14201 -2.78352 1.07153 -1.01353 -0.41109 -0.525084 -0.825241 
5.88849 3.00813 13.0185 9.86268 -11.2121 -5.70387 -0.262876 -4.38702 -6.58895 -4.17349 1.48993 3.12012 17.2284 -0.588935 3.01715 1.49812 0.687495 2.33246 1.49802 -2.28549 -1.68745 0.794463 -1.75077 -0.363778 -0.285319 -0.80559 
4.35404 7.22125 12.7955 10.164 -7.32589 -6.29991 -0.683481 -8.9198 -4.52635 -4.80707 0.426234 0.994643 16.5976 -0.47229 3.0401 -0.67553 0.381973 2.25685 1.61004 -1.68906 -1.05844 0.547683 -2.393 -0.964303 -0.517711 -0.66828 
3.63548 11.1446 13.3593 10.7809 -6.50947 -6.48401 -2.88375 -7.38702 -6.35228 -8.93262 3.01758 -0.456998 15.8852 -0.622708 2.59153 -0.903987 -0.986333 2.01852 1.16606 -0.990317 -0.425003 0.78924 -1.37049 -1.21214 -0.985566 -0.548625 
4.27441 13.1443 6.57311 9.55522 -5.59865 -0.468383 -2.10221 -7.97152 -5.22032 -11.2924 -3.8952 1.32341 15.5401 -0.900143 0.794537 -0.5311 -1.43516 1.98541 1.35417 -0.13801 -0.134256 1.01825 -0.495032 0.112511 0.392234 -0.409704 
2.81476 13.0043 11.6098 5.23539 -1.98308 -2.78935 -4.5051 -6.98618 -2.29576 -7.78327 -2.41008 -1.97209 15.014 -0.898581 -0.849078 -0.269736 -2.15828 2.80182 0.444633 0.724335 -0.67051 0.267296 0.921859 2.17451 0.492497 -0.378492 
0.263681 10.2641 11.0147 5.76093 0.337954 -1.37639 -0.562854 -9.7915 -1.46334 -7.8569 3.70262 3.71336 14.9847 -1.01197 -2.89952 -1.62467 -1.88255 2.3079 -0.333454 0.394256 0.43562 -0.704711 3.13649 1.60778 0.110722 -0.857959 
1.14794 8.33929 9.7898 1.88667 4.53132 -3.80684 -0.03175 -9.82957 -6.89429 -6.04107 10.0912 0.810515 14.2705 -0.893806 -3.88328 -4.55667 -1.57684 1.44926 1.08238 1.33406 3.29209 0.249502 3.2809 -0.855883 0.0819716 -1.03176 
0.0479774 0.979197 -0.640265 1.81683 2.68367 -1.62691 -2.3676 -4.37172 -6.44461 3.51894 -2.10693 0.485722 11.622 -0.727027 -3.31055 -4.82506 -1.90936 0.976631 1.27354 0.24054 3.5556 0.980281 3.57286 -1.38617 1.12836 -0.990758 
-1.54641 -1.76968 -5.34611 -0.676753 4.09038 2.74779 3.06758 6.76441 1.44238 2.9333 -3.78472 0.0515842 11.5365 -0.998918 -2.16597 -2.99426 -0.854939 -0.102318 0.7669 0.0512005 2.07086 0.158225 2.38673 -1.59012 2.30379 -0.526249 
-2.02428 -1.23416 -5.54263 -2.50418 5.44158 1.71398 -0.909818 -0.310477 -0.730274 5.5202 3.70976 9.73461 11.3979 -0.68257 -0.425474 0.153259 -0.992638 -1.23025 -1.18564 0.545263 0.87459 -0.0827655 -0.313309 0.347499 3.35308 0.136146 
-2.81052 -1.38389 -2.73033 -0.227525 2.64077 -1.64278 -0.504639 -1.50591 -8.96033 4.89194 -0.767719 7.70504 11.7513 -0.0360774 -0.122903 0.234739 -0.623429 -1.44155 -2.33325 -0.988532 0.199228 -0.225414 -0.783174 -0.413676 1.36777 0.114515 
-2.73282 -1.34107 -1.18186 -3.37097 -2.7428 -5.35983 2.14483 4.13639 -1.65708 0.973068 -1.87794 13.4244 12.1954 0.460956 -0.0311776 -0.361837 -0.795009 -1.26276 -0.743858 -0.670961 1.37334 1.19326 -0.93244 -1.41017 -1.9986 0.0614776 
-1.37253 -2.33074 -6.3528 -3.3605 0.974799 -5.38153 -3.4024 5.53711 0.778715 1.29099 -3.05925 5.04557 11.7103 0.780426 0.213992 -1.23222 -1.02481 -0.0517193 0.982096 -0.535255 1.76147 1.56904 -0.735344 0.73764 -2.20331 -0.0543882 
-0.438494 -0.916622 -5.54058 -4.91274 -0.0392551 -0.13593 -2.81574 3.03473 0.366506 2.65847 -2.19532 1.07137 11.7258 0.830234 0.448147 -0.954204 0.328174 0.467609 1.66464 0.0908202 -0.586178 -1.14301 -0.221028 0.383796 -1.37212 -0.140822 
-0.0555534 -0.526153 -6.71206 -4.58071 1.0304 0.655748 -0.700631 7.85226 -2.12694 0.372518 3.07918 2.86498 11.7142 0.475703 0.174912 -0.577624 0.581473 0.0939449 0.561804 0.926731 -0.538987 -1.03666 -0.714232 0.178324 1.14158 -0.0617121 
0.759865 -0.00262403 -5.77325 -1.12 -0.432552 -0.0552936 1.24804 0.0479236 -5.91928 0.327167 -3.02817 7.65409 11.4893 0.256632 0.324902 -0.246793 0.770892 0.223273 -0.114712 1.15341 -0.859775 -0.523558 -0.578426 -0.388147 1.67315 -0.0679756 
0.406808 -1.91318 -9.12459 -2.3495 1.64117 -2.61283 -0.800637 4.33558 -1.26172 -1.11451 -1.75121 7.46211 11.52 0.212224 0.112875 -0.108031 0.257799 0.207869 -0.959136 1.20185 -0.703417 0.739315 0.972623 -0.737327 0.408893 -0.0565593 
0.613486 1.4014 -5.56828 -2.17388 0.771728 0.924801 3.00129 0.494195 -2.6839 0.509858 -1.72087 7.13854 11.483 0.898965 0.438138 1.01594 1.3999 0.75389 -0.149146 0.126135 1.5332 1.88958 1.09565 -0.422128 -0.42866 0.0731425 
1.07876 -0.66379 -7.35469 -2.76478 1.46761 -4.62998 4.43198 4.11204 -0.0480618 5.14429 -1.26111 5.16722 11.4345 0.443368 0.239 2.4369 2.4738 0.479656 1.35149 0.33608 1.22423 2.11493 0.517574 -0.855889 0.00501068 0.178325 
4.91871 1.56337 -1.57847 6.08713 3.42368 0.207554 -0.737592 7.8257 2.9218 2.676 -5.38386 6.65824 11.8978 -0.89144 -1.01135 0.532243 1.16274 0.660118 1.60791 -0.0433402 1.35506 1.5921 -0.0132578 -0.0845721 -0.586843 0.153428 
0.471035 -0.799166 1.06503 5.88897 2.71348 4.50324 2.7492 6.79096 6.51011 0.390284 -4.19916 7.72731 12.2042 -1.89942 -1.21136 -0.412978 0.362098 1.18296 1.88874 0.391528 0.417917 0.253549 -0.191451 -0.173563 -1.45967 0.032503 
-3.53985 -3.58764 -7.11693 -0.687039 3.44938 4.39774 3.62598 5.93003 1.9975 2.82057 -0.674704 2.92427 11.8653 -1.92704 -1.30003 -1.5478 -0.337286 1.60068 0.389727 1.44223 0.0445879 -0.394745 0.0190376 0.753425 -0.873378 -0.161562 
-4.18906 -4.1451 -6.65036 2.4328 7.36957 2.71862 4.20784 7.14946 1.68184 4.11475 -4.4835 -0.264134 11.6133 -0.703206 -0.846162 -1.21622 -0.154641 2.73324 -0.324315 0.500612 0.101464 -0.438847 0.103189 0.274831 0.40248 -0.187704 
-2.38646 -3.26382 -5.45979 6.12879 9.09902 3.04849 5.74424 7.86939 3.36221 0.908953 -1.47457 6.28707 11.3854 -0.0250534 -0.177248 0.144229 -0.31802 1.93091 0.413156 0.221085 1.22674 1.57221 -0.895195 0.12591 1.506 -0.0946269 
-3.62169 -5.19188 -5.84462 1.70785 13.5549 3.55629 4.19313 6.32861 3.63351 1.86204 -2.42507 8.05831 11.5056 0.125453 0.480546 0.299899 -1.38516 -0.252186 -0.444297 -1.36063 0.751548 2.50285 -0.151625 0.583088 1.48951 -0.0374877 
-3.9488 -3.95048 -6.79865 -1.91467 10.0113 6.04469 4.73876 12.4741 8.88271 -0.529048 -1.07437 6.29306 11.446 0.0811565 0.460947 -0.219749 -1.71447 -0.769371 0.40968 -1.44311 0.900916 1.5938 1.53041 -0.044978 -1.15603 -0.0364468 
-2.78063 -1.39904 -4.48144 -0.471283 5.65252 -1.00096 -2.09257 8.60482 11.4359 4.07562 -1.76816 7.18041 11.3956 0.398856 0.576773 -0.323249 -0.556301 -0.951097 0.896929 -0.811043 0.857623 0.614044 1.91676 -0.0159229 -1.95721 -0.0682584 
-2.40121 -2.85551 -7.24013 -1.35399 9.20334 7.37552 1.67153 11.2359 7.43006 7.45421 -2.02791 0.945867 11.2582 0.347461 0.0733475 -0.364165 0.0238645 0.193496 1.10381 -0.237035 0.0154484 -0.69111 1.93451 -0.216684 -1.69289 -0.0512859 
