-6.34224 -1.73435 -8.51317 -2.12144 5.79972 4.47501 5.39611 5.26745 -1.74154 -2.02421 -6.58533 3.45737 11.0287 -0.355684 -0.102953 1.2221 0.93491 0.455834 -0.242414 2.45277 0.461217 1.29879 1.86442 0.932364 -0.23121 0.0229252 
-6.97757 -1.93089 -7.99995 -0.914299 6.48867 -1.1826 9.05423 4.64967 -0.875852 4.51669 -0.408768 2.81654 11.1091 -0.0946337 0.343306 1.88948 1.88663 1.26499 1.09937 2.90258 0.305039 2.67884 3.28723 1.79028 0.738135 0.0385758 
-7.80299 -2.15084 -2.65927 1.94953 7.73442 6.09174 15.8309 7.88242 4.31957 4.02745 -5.01179 2.62174 11.1032 0.00261059 0.618274 1.37491 1.3629 1.01507 0.0538498 1.17846 -0.503388 1.2182 2.24984 1.60967 0.862762 0.049888 
-6.08503 0.190426 -1.9927 5.27624 11.1573 9.1635 14.6916 5.48516 8.62212 11.3861 1.5793 7.56586 11.1844 0.0774174 0.64639 0.196361 0.077519 0.300475 0.731157 -1.32265 -1.91988 -0.5564 -0.0538933 0.206759 -0.13041 0.074423 
-6.77545 0.29636 -4.64226 1.59779 8.54072 -0.428796 8.4697 2.33277 -0.399528 5.79028 0.468967 5.39652 11.2405 -0.0478138 0.113287 -0.940192 -1.01781 0.335562 -0.796109 -2.66776 -1.32339 -2.5547 -1.84076 0.0444674 -0.0854037 0.165648 
-7.10425 0.0774567 -6.02665 -0.35083 7.58789 5.73346 6.12156 -2.17491 -1.2983 3.3658 -2.11535 0.777096 11.4125 -0.469598 0.0532103 -0.119392 -1.84027 -0.67468 -2.54932 -2.97987 -1.21017 -3.10047 -4.25497 -1.30599 -2.31129 0.385496 
-7.53245 -1.52793 -5.34325 -0.325979 11.197 3.82622 6.77713 5.09552 -3.49371 -1.16622 -2.94212 5.5891 11.8174 1.62069 1.21034 1.06939 -2.0952 -1.23712 -1.40028 -4.15609 -1.49071 -0.523191 -2.17314 -0.39709 -2.76177 0.456815 
-8.05452 1.36862 -2.23917 -2.96322 6.45583 -5.7106 0.638551 -1.94706 -5.33316 -6.41048 -3.24509 -4.08688 12.8234 2.41119 1.72341 1.36233 -2.29683 -1.72482 -2.41895 -5.26646 -0.788113 0.661723 -0.442416 1.3507 -1.46538 0.415183 
1.80313 5.70247 -1.18907 -7.57204 2.92115 -1.70819 -9.56924 -5.23471 -0.998052 -0.187277 -0.951612 -5.98034 12.8191 3.24023 1.54904 1.1636 -0.161674 -0.517741 -0.747734 -3.8566 -2.45399 -0.180012 1.67973 1.65489 -0.612132 0.137619 
0.283896 5.07929 -1.2921 -8.21195 3.10167 -3.59411 -12.0376 -0.950358 0.762488 0.664257 3.64288 -0.765104 12.9876 3.78335 0.385564 -0.176441 1.81717 0.788514 0.74601 -1.26288 -1.06757 -0.220437 2.76034 2.48343 0.75954 0.295606 
4.49951 4.36196 0.00119674 1.49001 10.2853 -0.970697 -6.16782 -7.67279 -7.44159 3.69508 1.88832 0.86755 12.4234 2.86546 -0.649759 -1.06321 2.39699 0.916953 0.646401 0.143843 -0.956834 -0.182101 1.3156 1.66548 0.526584 0.686145 
9.51405 3.96669 -3.7165 1.59158 6.71631 -2.3493 -7.37657 -6.06588 -3.21357 5.45002 7.75211 -3.71313 14.4993 2.9017 -0.0865095 -0.550144 1.04362 -0.947947 1.27766 0.0074996 -1.55798 0.487466 0.825732 1.11931 -1.36745 0.927698 
11.5154 3.00997 -5.29291 -0.488863 5.6986 0.901412 -11.1805 -7.46111 0.0794729 3.99782 5.32118 -1.87341 15.494 1.38807 0.0866491 0.360086 -0.748644 -2.11799 0.955802 -1.95021 -0.0386224 1.43213 0.308917 1.45595 -2.12324 1.00339 
11.2845 5.32274 -1.39577 -2.00441 0.655295 1.85815 -9.49371 -8.8461 -0.560714 4.64155 7.52302 -6.23185 16.0908 0.216286 0.580003 0.827713 -0.211812 -0.604486 0.203686 -1.09011 -0.0845175 0.471202 -0.142556 -0.0480983 -1.10549 0.58086 
10.5546 4.11718 0.641261 -0.455215 2.72591 1.70459 -14.8603 -6.47579 -1.60736 5.6439 9.28261 -8.4893 16.6446 -0.358204 0.853548 0.528278 1.08628 -0.58673 -1.12972 -0.110101 1.21109 -0.00976713 -1.10368 0.286095 -0.696756 0.407259 
11.0758 6.3131 -2.54503 0.515701 5.18023 -1.73246 -10.9872 -6.98113 -0.0141457 3.9142 5.5309 -5.93266 16.8283 -0.0862847 -0.172007 -0.349518 2.00236 -0.433337 -1.23355 -0.334008 1.46218 1.58717 -2.83381 -0.733499 0.733451 0.273952 
9.82866 6.78253 -2.0769 3.6825 0.502481 -2.95188 -10.9843 -2.33814 -0.242647 -1.1569 7.74771 -5.50679 17.1615 -0.186903 -0.483547 -0.397704 2.07647 -0.90118 -0.881113 0.092791 0.733598 2.23398 -1.83634 -2.8882 1.92132 -0.197238 
11.216 3.13003 -1.78428 5.93853 -0.399677 -1.98138 -13.1018 -3.60401 6.69278 -6.12712 4.62297 -4.05585 17.2021 -1.01748 -1.31694 0.925437 2.3465 0.72771 1.12866 1.14084 0.696993 1.52836 -0.968555 -4.86109 3.04929 -0.744426 
9.55004 3.29099 -1.72763 7.2157 1.00996 -2.57651 -13.3391 -4.49636 6.20909 1.48286 -4.70444 0.178911 15.4716 -1.38439 -1.54358 1.02075 0.699213 1.43589 1.9058 0.266836 -0.442836 -0.245547 0.389682 -4.26608 4.58547 -0.394782 
6.12776 1.47417 1.90753 10.4816 8.56504 3.72316 -4.10564 -2.41705 4.40181 -2.24845 -12.5485 6.47095 13.9511 -0.973521 -1.49102 1.04096 -1.00665 0.455883 1.06776 -1.33994 0.805422 -1.52969 1.10591 -1.0705 2.19621 0.450998 
5.45084 -0.107428 1.18093 4.90703 3.19956 3.72486 -14.1482 -5.14579 -0.324897 -1.14783 -4.99698 12.1572 16.8131 0.490261 -2.51089 0.83206 -1.95506 -2.44764 1.18578 -3.61574 2.35843 -0.374257 -0.44389 3.33821 -1.97364 1.29751 
8.39802 -2.62587 1.96625 2.05961 0.784937 0.206715 -19.397 0.747817 2.31133 0.717793 -0.583235 0.936062 18.7863 1.4185 -2.43608 -0.0327167 -2.61934 -4.23253 -0.36338 -3.89303 3.05799 0.621313 0.559888 4.63475 -4.32275 1.45968 
10.8662 -7.21343 2.40331 1.65138 -7.33819 5.1106 -23.7721 5.71336 5.38305 -2.21971 6.00399 -6.92186 19.5415 1.09321 -2.03341 -0.613315 -1.7073 -2.94599 -1.26995 0.364821 2.72669 1.97877 0.27823 2.32367 -3.60412 0.777075 
10.5126 -7.15326 1.13275 -0.987302 -7.32873 1.21339 -18.7588 7.44331 4.65441 1.08693 5.1248 -5.60329 19.8853 -0.049055 -0.646651 -2.024 -0.649827 -1.46547 -1.9895 3.20264 1.55874 1.47563 0.512983 0.17551 -0.254113 0.349909 
9.8596 -8.01079 -1.46889 -2.106 -7.47358 -3.1282 -12.6431 5.1399 8.39744 0.0587535 3.76736 -2.59376 20.1489 -0.730933 0.198391 -2.25287 0.18527 -0.531634 -2.48719 3.83445 1.27509 0.568641 0.642386 -0.855514 0.585532 0.164156 
8.65605 -5.46044 -6.21766 0.689162 -6.4747 -5.62137 -8.94829 8.82823 8.18229 2.14347 1.41263 -2.49855 20.2321 -0.519928 -0.119032 -1.61424 1.20703 -1.44665 -1.53552 2.49739 1.57289 0.129895 -0.831343 0.0334509 -0.385191 0.0665087 
8.13981 -7.06788 -5.18585 1.7395 -10.4234 -3.90795 -9.50516 11.3963 6.46231 0.463945 3.58251 -5.54657 20.1889 -0.35353 -0.151728 -0.476773 1.4112 -2.23783 -0.817662 2.17644 1.27091 -0.537488 -1.04384 0.697518 -0.918486 -0.000634193 
8.77283 -8.21988 -5.07997 3.12511 -13.0871 -6.07436 -7.84084 12.1796 6.27145 -3.27238 5.38448 -6.05284 20.1979 -0.429566 -0.105774 0.622217 0.211611 -2.3209 -0.888302 2.28765 -0.244713 -0.407076 -1.3134 0.71018 -0.416766 -0.0427176 
8.03356 -7.38972 -4.4216 3.732 -15.3565 -6.99002 -2.3147 9.81879 6.66542 -2.45251 5.26903 -5.40905 20.1629 -0.34624 0.165578 0.482498 -0.321473 -1.95265 -0.780595 2.14033 -0.94059 -0.219508 -1.02535 0.0849996 0.254252 -0.0363512 
6.56135 -5.82839 -3.4887 0.750968 -15.6126 -8.52184 -1.1053 8.39344 6.04535 -2.96532 4.12027 -4.65114 20.0315 -0.428161 0.312188 0.518584 -0.985653 -1.1596 -0.383308 1.72091 -0.994637 0.179854 -0.680598 -0.269662 0.115859 -0.0188271 
7.51435 -7.43573 -3.569 1.31921 -18.9238 -6.58718 -2.17127 8.58645 5.47782 -4.81634 4.63961 -4.97616 20.0903 -0.403191 0.183693 0.359406 -1.22609 0.690017 -0.818203 1.31612 0.239158 -0.107686 -0.0361382 -0.599407 -0.083916 0.0166353 
6.89162 -6.63593 -2.91335 -0.596759 -17.1014 -8.19232 0.692002 7.82255 7.76452 -5.49346 4.35088 -5.68999 20.1401 -0.126264 -0.0777854 -0.0785762 -0.235636 0.809721 -0.272571 1.06451 0.575968 0.158393 -0.110681 -0.957159 0.00124378 0.0338266 
5.85246 -6.06748 -2.91225 -1.72459 -11.1621 -11.2458 3.36723 11.3 5.26741 -1.36914 2.15669 -5.3092 20.1918 -0.0228536 0.00257998 -0.705654 0.92361 0.626776 0.214927 1.21376 0.144243 0.656322 0.101447 -2.13407 0.7616 0.0254738 
6.76097 -6.90144 -4.20996 1.09469 -15.4449 -7.55539 1.448 9.9165 6.94252 -5.24233 0.575933 -4.4784 20.1499 0.103709 -0.561469 -0.723147 0.838533 0.419884 1.0226 -0.533744 0.74027 -0.0656177 -0.0937431 -2.44282 -0.00325074 0.0308859 
7.46541 -7.29007 -6.44896 5.09154 -16.6182 -5.83101 3.51953 8.2607 9.17042 -4.43467 -4.14326 -1.77395 20.2127 0.346866 -1.0297 -0.832291 0.596404 0.530844 1.90011 -1.57622 0.441143 1.27167 -1.26421 -1.23657 -0.968075 0.0763231 
6.60369 -8.83198 -4.76073 0.18784 -12.2739 -5.7867 -2.05287 13.0436 5.48492 -4.42941 -4.71326 -7.47387 20.284 0.336261 -1.13423 -0.869405 -0.39985 2.67204 1.64731 -0.813661 0.0235548 2.51956 -0.852564 -1.03015 -1.22765 0.1811 
7.66543 -10.2507 -6.79832 1.71085 -10.0933 -2.62957 -2.76343 11.9422 12.3545 -8.09663 -1.38156 -8.65184 20.5064 0.264339 -1.24077 -1.24527 -1.57358 3.68496 1.62949 -0.264576 -1.29701 2.37337 -1.99257 -0.0169935 -2.21695 0.17982 
8.34227 -11.0923 -8.3823 0.785783 -5.34718 -0.919549 0.521173 8.19351 17.9483 -7.67417 -5.95566 -7.17769 20.9086 0.648655 -1.02915 -1.6953 -0.975323 3.4473 1.86106 1.00799 -2.9381 1.56832 -1.76194 0.343493 -1.28086 0.0369898 
7.91782 -12.3638 -10.8645 -3.07532 -1.65676 -0.117144 0.909633 4.20068 14.8056 -12.7751 -3.60703 -13.0068 20.7996 0.734888 -0.744801 -1.07156 -1.04842 3.07391 1.96637 0.281847 -3.78101 -1.03986 -0.0144769 1.73674 -1.84553 -0.14609 
9.72077 -12.9212 -11.2041 -2.29569 0.744312 2.26237 1.15055 2.22381 12.101 -10.8999 -1.88307 -11.7007 20.3224 1.00991 -0.301406 -0.414527 -0.544479 2.04468 1.85628 -0.997629 -3.74902 -1.98222 1.57145 2.92923 -1.34621 -0.325254 
10.6506 -13.0603 -10.7452 -1.9905 2.2305 5.61132 -1.66889 -3.97801 10.0789 -6.55617 5.26583 -15.618 20.069 1.22034 0.482674 0.144474 -0.16667 1.36522 1.56215 -1.10167 -3.16216 -1.54317 3.13284 2.96805 0.92637 -0.366931 
12.0254 -12.251 -10.5146 -2.47902 2.9326 5.49763 -3.17771 -6.46225 10.4005 -2.92638 4.25407 -12.6031 19.6476 1.20181 1.35007 0.424669 -0.646018 0.226823 0.827946 -0.689946 -3.01566 -1.79839 1.96648 3.35574 1.9355 -0.475949 
12.8672 -10.2855 -10.4869 -3.81701 4.07518 6.07599 -2.43459 -7.26707 7.93999 -1.09767 8.16463 -7.92371 19.3023 0.804793 1.87333 1.45314 -0.217846 -1.59207 0.51098 0.655128 -2.72082 -2.82431 1.34481 1.08309 3.30932 -0.653274 
14.6215 -7.55825 -9.20991 -4.61253 0.956086 6.16976 -1.91633 -11.2099 4.17851 -3.79669 13.4463 -5.87033 18.326 0.109528 1.81142 1.92653 0.277725 -2.53074 0.827989 1.09784 -2.56814 -2.6427 0.208294 -0.395856 2.37969 -0.638316 
13.3765 -6.04003 -4.13183 -2.01298 -4.74158 7.83015 0.976062 -15.2083 -0.931666 0.603061 6.0852 -2.43778 17.4634 -0.425583 1.36091 1.71461 0.118942 -2.2466 0.980818 0.652381 -1.93626 -1.32777 -0.245149 -1.46338 0.625801 -0.446002 
12.3184 -5.31667 -4.0595 -1.99241 -5.31271 8.7605 0.606185 -15.3324 1.62284 -2.73527 3.3145 -3.44766 17.3754 -0.615472 0.76814 0.644264 -0.7062 -0.637636 0.736887 -0.230441 0.108208 -0.255277 0.407015 -1.54603 -0.170923 -0.0815702 
11.8908 -4.60173 -4.48909 -4.53235 -4.0234 9.68471 -0.43394 -14.8871 2.57899 -2.85412 5.91358 -6.00604 17.5476 -0.285846 0.317373 -0.91902 -1.84595 1.18642 -0.193673 -1.39306 1.74664 0.65206 0.136987 1.20727 -0.971531 0.259325 
12.287 -4.4367 -5.80996 -6.88384 -2.59118 8.92691 -2.36353 -10.8295 1.14679 -0.0330238 5.80189 -4.94081 17.8761 -0.187754 -0.22338 -1.32837 -1.89966 2.00623 -0.638668 -2.54449 2.57449 1.08231 0.348064 2.37447 -0.77307 0.474812 
11.963 -4.89315 -7.8517 -8.79702 -0.170229 6.77858 -4.50439 -8.72654 2.56665 -0.0631313 10.8778 -6.54885 18.5098 -0.631635 -0.694437 -0.987975 -0.803102 2.14466 -1.01604 -2.35357 2.29391 2.49548 -0.16783 1.32171 -0.311665 0.551079 
11.3435 -6.28786 -9.02006 -9.35838 2.79185 7.02023 -10.081 -5.54023 7.04054 -2.39045 12.7047 -7.0416 19.2684 -1.5671 -0.40703 -0.213951 0.324559 1.72183 -1.6264 -1.40742 1.69534 3.01643 -0.429307 -0.417731 -0.979719 0.42792 
9.20441 -7.14834 -7.82391 -7.31059 4.00838 5.55787 -8.34304 -6.0622 12.1095 -2.51456 9.07071 -6.51398 19.6068 -1.84943 0.466269 0.451742 1.66628 0.692107 -2.14417 -0.0855217 2.27796 1.44788 0.118556 -3.26444 -0.0726403 0.126417 
5.83082 -5.34426 -6.89361 -6.00426 3.92866 1.40527 -7.48129 -3.68495 11.4575 -0.953842 4.6168 -9.85684 19.4672 -1.71651 2.15401 0.774168 2.24311 0.781468 -3.14251 1.39988 2.92275 -0.771122 1.34877 -5.47188 1.36386 -0.26815 
5.47219 -3.0336 -6.65622 -2.1427 2.72191 -1.13482 -6.23186 1.7356 7.59754 -0.188655 -1.40042 -5.50443 19.0425 -2.62032 4.85869 1.4547 2.50015 1.0922 -3.43317 2.93937 2.15427 -2.74242 2.17758 -5.7011 2.96862 -0.379759 
4.62711 2.42481 -5.73307 -0.726763 7.34243 -5.346 -4.1372 5.17463 5.44091 3.19044 -9.41915 -0.727057 18.2098 -4.8217 5.60816 1.03023 3.32824 2.45707 -1.87505 4.66744 1.32563 -3.01273 2.47488 -3.27788 3.93155 0.0756191 
-3.29534 13.2606 -1.13067 2.55142 7.76249 -8.23235 4.68176 0.279362 1.40573 6.30121 -12.4168 3.76422 18.3367 -6.47342 5.21506 -0.0537017 2.07494 2.53537 -0.415316 5.35714 0.47723 -2.66793 2.21872 -0.492719 3.02207 0.702865 
-13.8939 14.5495 -4.50524 8.2899 13.6937 -4.42121 10.3991 3.6713 -0.510197 8.17563 -6.26443 5.16658 20.1982 -5.99611 3.31114 -1.63585 0.739688 1.21336 -0.0349811 3.65713 0.503871 -1.41336 0.817956 1.97405 1.82117 1.06797 
-17.6344 16.9794 -7.53864 3.72369 12.2231 -3.67379 13.2857 4.87342 -2.76656 8.41235 -5.44137 6.65909 21.5626 -4.06979 0.695197 -2.41476 -0.783286 1.09667 0.724318 2.22736 0.561124 -0.505856 -0.214746 2.08418 1.10848 0.959532 
-18.1839 17.1211 -10.7084 2.38554 11.1789 -7.80018 9.84648 5.39696 0.460229 6.22465 -3.03663 6.93138 21.9367 -2.15881 -0.623291 -1.26219 -1.90768 0.392244 1.14927 1.32636 -0.157141 0.117185 -0.538055 0.842205 0.491678 0.369876 
-21.4993 15.4507 -10.1029 1.58717 14.5033 -2.92128 16.0948 2.22215 -1.60876 6.20297 -3.60979 8.42422 22.2651 -1.73767 -1.96374 -0.265129 -1.76832 0.160659 0.996737 0.904524 -1.22928 -0.0273155 -0.666854 0.488546 -0.273378 0.0189842 
-22.7555 12.1973 -9.53403 -0.180218 14.5149 0.948867 15.6263 4.21123 -0.503173 6.59004 -2.96919 6.74241 21.6963 -1.13652 -1.4339 0.850107 -1.51106 0.526902 1.64606 0.490561 -0.803212 -0.859349 -0.939374 -0.139428 -0.877339 -0.0736 
-24.037 9.62259 -9.45145 -3.83504 11.3584 -3.06463 14.9184 -0.680102 -2.42143 4.89539 -3.03236 5.38669 21.7777 -0.220068 -0.547324 1.87641 -1.09831 0.359385 -0.190321 -1.74878 -0.172107 -0.670234 -0.704236 -1.11368 -1.15562 -0.102537 
-22.5977 12.8657 -6.78354 -2.45864 15.3858 0.501803 12.8875 2.83203 -3.43018 2.18157 -4.02248 4.06345 21.8124 0.641499 0.661367 2.59622 -0.0773219 -0.457947 -1.04578 -0.84973 0.635473 -0.682415 0.195243 -0.753741 0.0857067 -0.0707682 
-22.6786 12.3799 -2.09611 -2.76516 15.8647 -3.64935 8.72037 2.05122 -3.49642 4.88602 -8.65156 3.98562 21.6943 1.20179 0.657915 1.73037 1.07934 -1.06601 0.145093 -0.212179 1.9681 0.0354654 0.995437 0.0491285 0.817729 -0.192849 
-20.2272 14.1255 -0.23059 -1.10177 9.972 -3.9877 14.4767 6.02293 -3.37775 7.57094 -3.9283 7.87147 21.3842 0.451482 -0.855319 0.437099 0.898673 -1.09135 0.252665 -0.349115 0.0580512 -0.0621221 1.37371 0.240755 0.613165 -0.226632 
-19.2132 12.2823 -4.0761 0.883238 8.73527 -0.0944176 13.0629 7.56496 -2.27032 7.17789 -2.83381 7.57132 21.0276 0.567522 -0.869986 -0.215991 0.602466 -0.569666 0.639346 -0.194423 -1.82557 -0.414108 0.785181 -1.10098 -1.00486 -0.20815 
-22.0729 8.63793 -3.60805 0.210528 13.4938 -0.0123401 8.97067 0.365409 -4.35384 7.90418 -5.72759 5.33642 21.0126 2.36937 -0.976319 1.81888 0.621009 -1.12251 -1.02949 -2.32823 -3.25293 -1.9016 -0.393194 -1.81297 -1.17855 -0.343383 
-18.9181 10.7738 -1.48733 -0.40898 11.2554 -2.4403 10.5013 -4.24787 -5.07892 8.64531 -13.2568 0.228864 20.8394 4.60423 -1.88589 4.35145 0.396772 -3.92124 -2.22762 -2.97995 -3.0901 -1.05435 -2.22694 -0.929277 -0.507053 -0.424157 
-8.52792 9.99813 7.56944 2.64939 3.09935 -7.96219 4.11634 -4.33532 -11.4814 4.87126 -7.78162 5.64996 19.7614 5.87939 -2.6475 4.78893 0.43222 -5.72398 -1.61787 -2.58327 -1.29373 0.256326 -4.16766 1.16394 0.293345 -0.350348 
-2.96456 2.1727 12.0924 1.64767 -5.67368 -7.25761 0.590305 -5.53517 -3.97824 -2.44037 -6.45318 4.87929 19.5324 5.00753 -4.14298 4.63563 -0.214838 -4.81754 -0.275919 -3.03679 -0.041405 0.594013 -4.38004 3.2966 -0.275917 -0.162032 
-0.652736 -0.29904 13.5467 1.3433 -6.66153 -5.69301 1.00981 -5.45959 -3.62255 -7.39127 -3.3097 4.47794 19.9143 2.96503 -3.76785 3.07929 -1.01873 -2.8497 1.16797 -1.73477 0.132528 1.29334 -3.20968 2.73306 -1.69047 0.0766443 
2.18192 -4.79251 18.7022 -0.830127 -7.95182 -4.95449 -3.12944 -3.89276 -6.0383 -7.12363 0.990217 -0.564707 19.9527 1.81647 -2.0231 2.09765 -0.72053 -1.53593 1.36915 -0.975546 0.285163 -0.29741 -1.54234 2.61359 -1.50718 0.0934771 
3.72398 -5.35852 19.661 -1.20535 -10.0101 -3.2739 -2.69763 -4.49388 -3.98472 -8.8355 2.16195 -0.0803947 19.9344 1.14356 -0.945659 1.27321 -0.457151 -1.40389 1.57807 -1.28464 0.463311 -0.497779 -0.496795 1.5151 -0.893988 -0.0151453 
3.92941 -5.41309 19.5235 -0.680653 -11.6791 -1.6214 -2.4337 -4.5922 -5.28421 -9.42995 3.87893 -0.377463 19.9898 0.295962 0.323175 0.119393 -0.0925629 -0.732546 1.33155 -0.277239 0.448456 -0.531675 -0.202656 0.64939 -0.04883 -0.0713072 
4.19134 -4.71704 19.5021 -1.01719 -11.8173 0.530795 -5.76128 -2.79331 -6.48849 -8.72208 2.82147 -0.0856214 19.8201 0.0758586 0.564158 -0.0331322 0.071057 -0.224714 0.873998 -0.130721 0.784544 -1.16775 0.608307 0.268518 -0.253156 -0.144443 
3.42806 -3.49737 19.3786 -1.38703 -10.7109 -0.199069 -2.98381 -2.50077 -7.44479 -8.19362 3.90741 -0.806244 19.6534 0.234943 0.781506 -0.406033 0.821733 -0.698022 0.863712 0.48204 0.318727 -0.0855945 0.377777 0.202084 0.150317 -0.247363 
4.35395 -3.49559 19.5678 -0.496883 -11.6177 0.384929 -3.07619 -1.61688 -8.74317 -6.41213 3.4903 -1.13178 19.3804 0.130348 0.9762 -0.393573 0.90832 -0.346637 0.0424655 0.751116 0.290506 0.0183376 0.580211 0.217303 0.49183 -0.312395 
5.02282 -2.11629 17.4605 3.16786 -15.269 2.77009 -1.36605 -3.58678 -4.58484 -8.69604 4.55493 0.897204 18.9728 0.22268 1.0668 -0.147663 0.737939 -0.0713884 0.032405 -0.404905 0.668483 -0.426219 1.15235 -0.175909 0.646268 -0.362661 
4.04569 -0.526587 18.4933 1.24697 -11.2715 -0.741457 -2.81459 -0.797776 -7.82678 -5.56981 3.58422 1.5218 18.5984 0.0721805 1.20744 0.267704 -0.0250395 0.832662 0.123853 -0.834687 0.260453 -0.888795 1.0725 0.288981 0.579954 -0.331736 
4.69559 0.352149 19.1775 1.43074 -11.241 0.526149 -5.13914 0.432096 -10.0341 -2.85303 2.98091 1.0983 18.2311 -0.0102441 0.903559 1.06178 -0.86049 1.01603 1.056 -1.60897 0.217716 -1.50893 0.451785 0.733407 -0.124666 -0.175689 
4.87847 1.30738 20.0478 0.24648 -9.46843 2.12616 -5.36308 -2.32406 -10.4625 -3.97114 5.72222 1.66744 18.0926 -0.0274452 0.213848 1.47267 -0.849108 0.113411 1.98767 -1.26302 -0.318313 -0.557315 -1.06166 1.00132 -0.785299 0.0182652 
4.55521 1.48453 21.9921 -0.634343 -11.0904 6.6163 -8.13666 -1.73506 -10.8116 -7.23646 7.15296 0.20106 18.3473 -0.345605 -0.06018 1.24179 -0.594408 -0.00530415 0.93925 -0.0731326 -0.347302 0.0692944 -1.17825 0.529652 -0.822612 0.0464216 
3.97865 -0.0235357 24.4493 -1.96602 -10.7797 6.15179 -7.6309 -1.30576 -10.2246 -8.68641 6.50478 -1.95607 18.6316 -0.537183 0.391302 0.379028 0.351831 -0.680172 -0.369054 0.56615 0.910695 -0.0571376 0.261348 -0.831486 -0.75793 -0.129957 
3.41747 0.716704 23.1857 -0.435048 -10.6118 3.20958 -4.37089 -1.81356 -9.80658 -6.38665 5.23789 -1.203 18.1936 -0.47045 1.1638 -1.1555 1.70452 0.391575 -2.27958 1.69283 -0.295905 0.318954 1.77574 -1.20354 0.146159 -0.488488 
2.76143 3.6478 21.3462 1.90599 -13.1085 1.98425 -4.41521 2.26867 -11.2507 -3.0893 2.52232 -1.42018 17.5196 0.00685806 1.65321 -2.26645 2.12983 0.53365 -1.94419 2.03882 -1.08337 0.116541 2.38681 -1.29748 0.791252 -0.721483 
2.81158 5.46787 17.7662 5.95223 -7.96808 -2.69784 -1.28036 -5.0018 -8.70377 -1.15629 3.12647 0.663911 16.4608 0.114634 1.24237 -1.90802 1.44745 1.02308 -1.29006 1.54121 -1.09722 -0.331865 2.11368 -1.04765 0.509823 -0.631102 
4.31589 5.86694 15.8268 5.48949 -9.43336 -0.61545 1.01795 -5.12849 -10.1933 0.632475 1.07307 1.06673 15.8906 -0.0259613 0.485355 -0.98659 -0.192047 1.42319 -0.633552 0.644979 -0.42363 -0.357809 0.651837 -0.158629 0.183837 -0.408182 
3.21341 5.81896 16.4053 5.01043 -7.33404 -1.94086 0.618599 -3.60106 -11.9946 2.32088 0.724276 0.102651 15.8526 -0.771477 0.158286 0.180125 -1.68131 0.268107 0.109448 -1.22113 0.975113 -0.692629 0.0836615 0.253416 -0.403773 -0.0638834 
2.4307 5.89903 17.0937 1.41665 -6.30961 -1.56199 -2.13979 -0.549849 -11.3944 -1.5687 2.93027 -0.220369 15.7828 -0.853917 0.952528 0.582534 -2.14831 0.402524 0.239298 -1.34114 0.95306 0.862666 0.275343 0.524865 0.121131 -0.218942 
-0.103215 6.24326 18.0334 -0.417891 -8.18942 -1.67733 -5.80716 -2.41556 -11.5664 0.362599 3.46494 -0.711401 16.1953 -0.267975 0.838153 0.307483 -2.68157 -0.624262 1.58361 -2.55445 0.314349 1.6661 -0.127882 -0.0958927 0.256428 -0.217988 
1.70462 10.4174 17.9254 -2.53791 -6.99305 0.449275 -2.47485 -0.955948 -6.09408 2.98833 2.32706 2.07941 14.6246 -0.491147 0.0902144 -3.2888 -1.14674 1.534 -0.651738 -1.81468 -1.49541 1.49352 0.339308 -0.885489 2.7512 -0.802617 
2.23657 7.75052 17.5268 -6.42015 -10.1136 4.97157 -11.9861 -1.82627 -6.31426 -0.597049 0.546418 0.234903 15.3418 -1.44363 -1.65746 -6.23048 -0.219626 2.90187 -2.38662 -0.0219754 -1.41903 1.23358 0.329976 -1.86109 2.95151 -1.22943 
-1.19493 5.59647 0.90294 -1.31593 2.32252 -8.14513 -8.1237 -8.32153 -6.55282 0.607669 -0.0379128 13.0625 12.1965 -2.60536 -2.82528 -7.01433 1.02449 3.70622 -0.987322 2.4032 0.15625 1.04051 0.226888 -2.08257 0.911287 -1.09458 
-5.87159 0.366438 -4.60773 -2.12701 1.66214 -9.31321 -3.09261 -5.82791 -5.1691 3.20281 -4.65804 8.5546 11.2622 -2.46032 -2.16807 -5.45335 1.5285 2.9627 0.404016 5.80375 1.96189 1.50246 0.368717 -2.65818 -1.03192 -0.922112 
-7.26809 -0.0169325 -6.07894 0.437955 5.65017 2.65506 5.09441 1.82612 -1.46409 2.22284 -5.48357 2.476 11.1914 -1.58154 -0.993253 -1.10376 0.427945 0.754763 1.6166 3.68784 1.98661 1.52675 -0.801528 -1.74694 -3.0282 -0.151372 
-7.02846 -0.283103 -6.24901 0.345407 3.03605 1.59155 10.4236 2.90933 -1.34632 0.43895 -10.0217 0.368533 11.2338 -0.181536 -0.327367 0.0841077 0.421304 1.134 1.11604 0.642674 0.89253 1.78622 -0.0780884 0.592528 -0.171599 0.0498617 
-8.52417 0.954973 -3.7952 -0.412414 5.40938 -5.5145 3.55737 -2.75709 -0.830468 -2.01804 -6.09078 2.01455 11.4539 -0.310484 -0.972309 1.42452 0.516419 -0.525164 -0.359779 -1.05493 -1.10941 -0.969412 1.31605 1.34077 0.949429 0.15163 
-6.15123 -1.75635 -5.32906 0.404694 7.45254 0.351741 0.889278 0.926343 3.44521 4.93281 -1.39179 7.92733 11.3803 -0.390518 -1.24266 0.171142 -0.140827 -0.121779 0.599013 -1.21294 -1.00381 -0.677224 1.28781 0.855938 1.45837 0.0577655 
-9.25913 -4.14185 0.583666 2.99041 0.816107 1.47607 4.58691 -2.72944 -8.70692 6.55616 -3.09465 3.44374 11.8763 0.0315701 -0.999399 -1.3506 -0.237217 0.134843 2.08332 1.69435 0.627936 -0.958721 0.502127 -0.418744 0.585762 -0.0642275 
-8.61358 -3.948 -7.58273 -2.06014 4.72379 1.09134 3.84413 -2.12356 -0.794222 2.59092 -7.24005 6.9458 11.3114 -0.0355066 0.0681675 -1.333 -0.129644 1.11683 1.09646 1.92402 0.482305 -0.828915 -1.66571 -1.65983 -0.449031 -0.141568 
-7.13515 -2.9462 -9.42136 -0.366082 7.44797 4.53232 10.5517 1.90754 -3.50435 1.66354 -5.26037 5.43413 11.1672 0.480829 0.82683 -1.38417 -0.235502 1.36602 0.535867 1.31367 1.341 1.52374 -1.53739 -0.811217 -0.134998 -0.212979 
-7.39075 -2.01334 -6.99155 1.43472 9.72074 4.30593 7.52698 1.01937 -3.30064 -0.949437 -8.60807 4.68699 11.027 0.287248 0.815417 0.778946 -0.139624 -0.106939 0.69052 1.12808 1.11265 0.845577 -0.46383 0.434299 -0.574658 -0.0444131 
-7.46639 -0.975034 -6.63276 0.0654678 5.14775 2.54811 9.31386 2.4041 0.165017 0.639385 -6.46674 3.89816 10.9536 0.0781628 0.28732 0.34917 -0.811009 -0.956429 0.214039 -0.115975 0.70301 1.35818 0.36436 0.406617 0.0515073 0.0636139 
-7.01171 -0.856494 -5.0823 -2.97403 5.33921 5.53604 10.1034 3.19144 1.59898 0.783842 -4.46537 4.84049 11.1961 0.167063 0.159835 -0.225816 -1.0288 -0.925548 0.349153 0.0521107 -0.526628 0.280788 1.4153 1.86849 -0.141846 0.0813094 
-6.93385 -2.08802 -8.63013 -2.21675 4.85659 4.98746 8.6836 4.33656 0.836749 2.6187 -5.29863 5.61491 11.4007 0.0221388 -0.213091 -0.197904 -0.525994 0.0802081 -0.245927 -0.88592 -0.431702 0.908798 0.881025 0.739801 -0.566804 0.0319496 
-6.8217 -0.65767 -7.12195 -2.56815 5.23858 4.83202 8.10266 -2.58 -2.23257 5.13742 0.150327 3.11938 11.21 -0.0465622 0.0632984 -0.151581 0.212723 -0.756188 -0.952827 -1.6847 -0.558316 1.78105 1.09973 0.612576 0.308712 -0.0253879 
-7.4507 -2.1399 -6.60246 -2.76744 5.5991 1.67049 5.88465 3.13131 6.62478 2.86772 -5.07558 1.9247 11.1064 0.0237658 0.478994 0.486011 0.406988 -0.378117 -0.380767 0.38904 0.311522 1.24146 1.03155 0.988633 0.629115 -0.0143004 
-6.9861 -0.514061 -6.85405 -1.63507 1.18701 2.43039 3.07943 1.00248 7.61019 6.158 -1.51402 8.22916 11.2164 -0.223439 0.00585511 -0.0616495 0.0353267 -0.236709 -1.32024 0.0967052 0.420579 -1.09424 0.396465 -0.569997 0.0913941 0.0344257 
-6.73283 0.235146 -6.33403 -0.648353 4.99179 4.28444 13.1404 4.10293 2.12265 7.26615 0.476709 6.2056 11.3261 -0.124412 -0.189519 -0.20253 0.693923 -0.19653 -0.893343 -0.157731 -1.12326 -3.71237 -0.461217 -0.125987 -1.14657 0.0248345 
-8.29784 -1.81592 -7.56441 -3.45106 4.35869 -3.07616 4.9583 -0.962913 -5.4527 4.92053 -5.47581 1.4359 11.2723 -0.195756 -0.290857 0.5833 2.05632 0.553678 -0.507787 -0.436916 -1.85177 -2.74574 -1.47061 -0.541562 -1.05331 -0.0165409 
-7.41689 -2.43657 -7.25992 1.61017 3.03062 -0.0429516 4.15655 -1.50229 -5.4056 1.18037 -3.72462 -0.411548 11.2026 0.0425558 0.0331599 0.970749 2.04809 0.813998 0.869563 -0.0767216 -0.498278 0.775685 -0.405687 -0.0871843 0.698472 -0.0067852 
-7.62284 -0.632493 -3.4746 7.51729 4.93599 2.05515 5.38679 -5.45377 -2.35438 1.84784 -2.12116 6.27117 11.1954 0.45406 0.770463 1.36914 2.21333 1.76868 2.59559 2.39038 2.86162 3.05245 0.408436 1.25106 1.5214 -0.0134933 
-6.85755 -0.190767 -3.52519 4.10793 8.77313 6.0666 12.5426 3.85697 4.45192 6.77406 -1.63654 7.28032 11.3306 0.150623 0.993174 1.09507 0.597272 2.16281 1.21067 1.91829 3.55281 2.44426 0.853076 0.0641775 1.11925 -0.0247938 
-6.30721 0.913496 -2.58607 6.36672 10.3308 6.84701 12.7172 10.6656 4.88078 4.16587 -0.264552 5.19695 11.1408 0.0138454 0.672468 0.378782 -0.362707 1.47966 0.0666567 0.693222 3.16569 0.985124 0.239048 -0.711726 -0.265729 -0.0403719 
-7.32159 1.75631 -2.22886 5.17182 11.1472 3.61448 10.0828 8.20211 3.19813 4.28674 -4.33204 5.72179 11.1059 -0.194247 0.473696 0.294987 0.0932866 0.556455 -0.813676 -0.7554 0.622681 -0.419022 -0.485378 -0.94585 -0.259223 -0.048434 
