-6.38691 1.55197 -5.84919 3.05507 6.87817 -2.57989 7.68657 7.16556 2.81226 2.07075 1.62882 5.0614 11.7532 -0.0934386 0.00690229 0.0764905 -0.0318554 0.126277 0.253242 -1.65001 -1.64257 -0.386051 -0.795955 -2.26769 -1.39171 0.0141901 
-6.98807 2.30679 -5.36413 3.59324 7.78147 -1.85903 3.08408 1.23603 3.61754 3.6543 -2.01185 0.13994 11.7367 -0.0345666 -0.0775151 -0.0130866 -0.264504 -0.391603 -0.557897 -1.39751 -0.892162 -0.494477 -0.985673 -1.38485 -1.10287 0.0171034 
-6.55352 1.20907 -5.70928 2.62671 7.0579 -1.67411 1.73778 1.91747 0.479368 -2.7008 -7.88929 0.563567 11.8324 -0.143786 -0.0153229 0.100027 -0.165308 -0.776763 -0.978364 -0.723543 1.26366 -0.0477348 -1.20757 -1.08392 -0.719992 0.0126599 
-6.47643 1.33584 -5.98459 1.94673 4.83029 -5.82226 3.67342 5.3288 1.50633 -0.471838 -0.536382 1.79597 11.7991 -0.102413 -0.106858 0.360736 -0.180419 -0.840647 -0.542804 1.07343 2.39683 -0.00428985 -0.932969 0.751054 0.162865 -0.0282973 
-7.36165 1.96083 -5.03883 3.05179 4.46995 -5.49009 3.77419 11.4375 3.6292 -1.90404 -4.5285 0.633426 11.7853 -0.513443 -0.62513 -0.382647 0.0174826 0.0406152 -0.304847 0.375448 1.57397 0.663709 0.850891 0.629238 0.359464 -0.0542167 
-7.09607 1.39662 -3.89567 2.47861 4.87222 -2.66506 7.43301 8.46015 2.02118 -1.40893 0.0630202 0.919337 11.6188 -0.450887 -0.817697 -0.660209 -0.186521 0.705412 -0.101116 -1.05443 -1.07976 -1.44026 0.353262 -0.499328 0.134146 -0.0233883 
-8.81092 -1.94697 -8.66697 2.44818 7.24001 -4.77694 1.73523 8.22165 3.54049 2.0222 -5.0428 2.7992 11.6515 -0.278604 -0.584267 -1.02796 -0.90576 0.135448 0.129955 -1.56373 -2.56366 -1.36935 1.11518 0.483984 0.741471 0.00972624 
-8.00624 -0.798747 -7.47156 1.31593 6.97232 -6.68442 -0.579238 1.5379 -5.65063 -0.668649 -2.77587 1.38381 11.7491 0.138539 0.443911 -0.506203 -0.168858 0.328238 0.985848 -0.44895 -1.21121 -0.00501485 0.922676 -0.641384 -0.70476 0.0234778 
-8.29959 0.137171 -8.39068 -0.895676 4.09714 -2.83063 -0.0383148 2.08031 0.618351 3.30172 -0.689132 4.10855 11.7688 2.75518 2.48063 0.772218 -0.534402 -1.10117 1.27378 2.20716 0.262366 -0.0317785 -0.383986 -0.506737 -0.818464 0.196113 
-6.65904 2.5741 -6.56483 3.30625 8.08484 1.29103 6.07503 5.47479 3.45717 2.56469 -5.32073 -3.25914 11.6775 4.87496 1.22807 1.18398 -3.03524 -1.74993 5.0353 0.211722 0.733849 1.4744 -2.449 0.453161 0.96135 1.10578 
4.29137 8.76973 -5.25924 -1.21899 1.1779 -2.39578 9.44389 7.56503 -1.17231 -1.5144 -6.30405 1.02835 12.6678 5.59155 -0.119251 1.06021 -4.55439 -1.88239 5.53754 -1.2772 -0.590278 0.173202 -3.73571 2.00338 1.26185 1.70178 
10.0731 1.02534 -3.11736 -13.6986 -0.317694 18.2747 -4.26173 2.46479 2.61671 -10.5056 2.2974 7.73066 16.8285 4.39884 -0.929889 0.851699 -5.45157 -2.47139 4.8165 -1.90302 -1.83969 -0.845496 -2.01839 2.78046 2.32542 1.73156 
11.2921 0.315296 -4.81334 -15.1652 -1.11354 16.3652 -1.25596 0.633918 1.90459 -8.84168 5.51869 4.92288 17.7022 1.63828 -1.36345 1.16621 -3.11136 -2.4395 2.84842 -0.0145723 -1.31506 -1.08342 0.153758 2.17703 0.655078 1.15466 
11.8348 2.15187 -2.52929 -16.9785 -3.12637 15.993 1.90983 -0.258093 -2.30876 -3.8636 2.6702 6.42068 17.8181 0.409158 -0.0513556 1.77493 -0.294019 -2.81911 -1.38665 1.96223 0.558027 -0.743607 0.968373 0.212345 -1.14772 0.271614 
11.6019 1.38921 0.277791 -15.1358 -9.61525 12.9871 6.28525 2.35118 -4.12666 -4.0666 4.39472 4.95873 17.9463 0.0562284 -0.0451318 2.45648 0.460855 -2.37565 -1.34204 0.607338 0.428483 0.817794 0.26048 -0.62814 -1.24904 0.0519032 
11.9639 0.231608 3.21175 -15.1834 -10.1624 13.0304 1.77882 4.39629 1.91431 -8.05126 3.92111 1.97413 18.0645 -0.0676262 -0.108217 2.25816 1.78735 -1.80471 -1.08299 -0.522905 -0.717847 1.61035 -0.0373795 -1.10689 -1.43817 -0.129442 
11.5086 1.04977 4.59854 -13.7585 -9.47378 11.1364 1.84624 0.449141 3.88203 -5.44545 1.75254 0.900972 17.8385 -0.346941 0.107465 1.08537 3.2301 -0.501016 0.40611 -1.13851 -3.18825 1.37575 0.287393 -1.89964 -1.48572 -0.309413 
11.5433 1.7805 6.60116 -8.73048 -12.2206 11.5035 1.51481 -2.89631 1.73862 -3.36107 -1.54316 1.2587 17.2248 -1.00855 0.0955648 -0.0895755 4.77318 0.325335 0.944134 0.561814 -3.69673 0.247886 0.669189 -2.40345 -1.82614 -0.439863 
10.0775 1.15208 4.00995 -2.2118 -11.0912 15.7812 0.724694 -9.94375 2.83995 -4.97473 -2.37135 -2.11218 16.8191 -1.45691 -0.414469 0.0951429 4.4893 1.8324 0.76442 1.35166 -2.05815 -0.69979 -0.158754 -2.93589 -2.53476 -0.371442 
7.63677 0.658276 3.05817 2.90915 -7.72699 15.4287 5.14866 -8.89093 3.67478 -4.94068 -6.03422 -5.65 16.3749 -1.4743 -0.537334 0.325378 2.9236 2.40343 -0.0938033 1.88316 -0.439125 -1.1724 -0.301913 -2.77715 -2.34889 -0.196733 
6.17736 -0.461462 6.84575 2.86821 -2.55859 12.9959 6.78761 -6.84431 -0.584998 -5.44942 -10.6814 -8.31849 16.4063 -0.931457 -0.391829 1.03856 0.967376 1.63693 -0.653861 1.36163 0.90155 -1.80038 -0.283292 -1.84313 -1.3336 -0.0694981 
6.12192 -0.0993953 6.81015 3.34753 -4.46978 12.4271 7.89916 -6.64166 -2.41089 -4.63329 -11.2739 -7.38256 16.4475 -0.308104 -0.303194 0.820991 0.156252 0.141317 0.433484 -0.400752 -0.152261 -1.22369 -0.585139 -0.730176 -0.317202 0.102904 
6.17768 -0.428226 7.32674 2.40589 -4.53516 14.0126 6.15759 -6.56064 -3.11909 -6.54488 -8.96714 -7.9139 16.4353 0.154625 -0.165795 -0.588988 -0.0201901 -1.09539 0.299557 -1.86356 -1.48347 0.756281 -0.0695023 1.08885 1.49258 0.142893 
6.09609 -0.874313 6.92262 3.92157 -6.03212 17.0877 3.45991 -9.79407 -1.17662 -7.31864 -10.5422 -7.4383 16.8749 0.603401 0.0770798 -1.099 -1.70644 -1.08558 -1.03526 -2.12823 -0.628182 1.29277 0.627963 1.68471 2.00844 0.205034 
6.96339 -0.902979 3.84457 2.48023 -7.25435 12.1633 -0.310551 -12.6855 2.57927 -4.45426 -5.60298 -0.827712 16.907 1.05174 0.441848 -1.42186 -3.23714 -1.20518 -1.84796 -0.638543 0.903312 1.12454 0.364388 2.85866 2.03478 0.34561 
8.74607 0.52338 3.05623 -5.22185 -8.53807 8.17549 0.492058 -6.72016 1.20379 -2.53879 -4.53241 -0.883477 17.2368 1.29255 0.293931 -1.72491 -4.36229 -0.314615 -1.51125 0.378309 1.67615 -0.586617 -0.426578 4.28434 1.88912 0.426565 
10.1114 1.08216 2.15065 -9.20812 -9.30806 9.22896 4.4488 -3.58104 1.31338 -7.11287 2.32125 -1.01742 17.9824 1.10085 0.0436153 -1.94187 -3.36878 1.06811 0.469375 0.110842 1.15627 -1.92454 -1.08095 4.361 1.48563 0.492581 
10.9849 -0.39723 -0.854954 -12.0457 -6.57834 10.9987 2.97178 -5.96552 -3.47676 -8.12222 6.91736 2.10213 18.4701 0.399485 -0.206726 -2.02207 -1.16434 2.04911 0.882905 -1.5391 -0.436863 -1.60368 -0.719237 4.10641 1.89505 0.346395 
11.3483 -0.224597 -3.9092 -10.9517 -2.89364 13.0986 -0.996205 -7.28145 -4.70315 -7.06729 10.4771 5.10764 18.7533 -0.241341 -0.41594 -1.33176 -0.0102535 3.26989 -0.0635402 -3.51205 -1.00728 -0.325494 1.31324 1.93299 1.23938 0.167777 
10.1251 0.14313 -4.0242 -10.1718 -1.49971 10.6552 -4.48095 -7.05427 -3.80634 -6.15776 11.9217 5.52923 18.5833 -1.08613 -0.0949477 0.0165193 1.43343 2.91882 -1.34892 -3.59658 -0.341397 1.45657 2.43976 -0.401455 -0.328223 0.0198946 
9.33459 -1.26772 -2.92351 -10.1964 4.50209 9.083 -9.38506 -8.07308 -0.149298 -1.52889 9.48402 3.46591 18.7646 -1.46651 0.38167 1.3517 2.33553 1.87505 -2.02771 -2.64455 0.908953 1.83962 2.88833 -2.63211 -1.67597 -0.176676 
6.56103 -0.350409 -1.2652 -5.25623 4.31788 6.26187 -10.8167 -7.27669 1.52914 1.30735 5.40664 1.28188 18.5639 -2.22261 2.29908 1.70905 2.21212 2.57878 -3.28271 -0.79871 2.66822 1.46672 2.65434 -3.48304 -2.53629 -0.265092 
5.79774 1.93052 1.46982 -1.73182 3.5728 5.15674 -11.0511 -2.62547 1.82721 3.64182 0.574112 -1.14854 17.8797 -4.43525 4.24569 2.11063 2.40898 3.41664 -4.33659 0.697112 5.01332 0.62666 1.51426 -2.73158 -1.74362 0.0843287 
0.780457 10.0394 2.32439 -3.34344 11.8588 -3.79524 -7.64148 3.56305 2.53899 4.52857 -1.03855 -4.845 17.7004 -6.44882 3.86972 1.84204 0.882921 4.21757 -2.66036 2.4359 4.11983 0.477299 -0.0139494 -0.921359 0.864667 0.53268 
-9.95138 14.7658 5.83482 0.892148 17.8148 -7.57137 -7.48711 11.5737 2.47908 4.43178 -0.951279 -2.18878 19.6181 -7.52621 1.78941 0.488504 0.224765 3.0452 -1.00623 3.56862 3.77966 -0.333867 -1.93245 0.169399 3.31236 0.869723 
-17.8085 12.5806 5.76251 -2.15362 18.2847 -0.675857 -0.419174 6.22291 3.58971 0.842625 1.56254 6.12534 20.3581 -6.22569 -0.83565 -0.493808 0.217286 0.0216365 1.78435 2.57514 0.905589 -2.09818 -2.96949 -0.322862 2.81059 0.831614 
-22.5388 9.60698 2.19327 -1.20291 15.5859 -1.43413 3.18084 14.9429 -0.36748 -4.17747 0.120561 9.92809 20.8994 -3.6399 -1.27984 -1.05994 -0.650726 -1.82106 2.38371 0.73732 -1.05219 -2.61774 -2.02367 0.0331361 0.114558 0.540043 
-24.0543 8.44059 1.67612 -1.20948 13.0815 2.05788 -0.099731 6.40637 -6.52863 -6.01427 -3.18878 3.14954 21.2178 -1.51313 -0.485528 0.094408 -0.0342714 -2.25494 0.703305 -0.826229 -0.311724 -3.36585 -2.2505 -0.938701 -1.36296 0.354337 
-25.028 10.4366 2.57834 -2.83355 11.3111 2.98032 -3.96023 6.221 -5.55046 -2.25811 1.59006 -0.128084 21.8884 0.150915 0.000617409 1.41417 -0.112058 -1.82833 1.04293 -0.624208 -0.87603 -0.561318 -0.950362 -0.323829 -1.51546 0.139174 
-24.1296 9.7381 6.04202 -1.50965 9.14737 0.633439 -0.979787 9.02524 -10.6481 -11.3695 -3.86572 4.33864 21.6353 1.42449 0.0161453 1.57313 0.306316 -1.31148 0.195996 1.0106 -0.32461 0.339864 0.0687725 -0.0551736 -0.804866 -0.163522 
-21.7466 8.96132 7.08118 -1.61312 8.41129 4.49274 0.499825 9.25332 -1.11435 -6.25164 -1.16011 1.75622 21.3865 4.13712 -0.567306 1.23917 1.16204 -1.89073 -2.40119 0.545663 -1.33048 0.554955 0.635957 -1.00959 -0.465476 -0.579397 
-18.5725 9.25897 7.29034 -0.288119 7.97404 2.28165 2.72326 3.26716 -7.04736 -3.67364 -2.08956 -1.81694 20.6511 6.06884 -2.26319 1.26117 1.96249 -3.56498 -3.42446 -1.42559 -2.58478 1.38561 1.48316 -0.309292 -0.0975447 -0.530619 
-7.12092 7.83965 8.15003 2.36586 2.44413 -9.84974 -3.08344 2.44766 -4.57604 -2.92628 -4.34596 0.622327 19.4835 6.26188 -3.862 1.84017 1.98822 -4.17519 -3.76095 -2.84438 -2.27188 0.513387 -0.655522 -1.01982 1.1763 -0.261215 
-1.09819 -1.01703 11.8134 6.31332 -5.69398 -9.31763 -6.31613 -0.495811 -1.98917 -5.61641 -3.81925 4.41786 19.9337 4.70591 -4.20424 1.57572 2.27283 -4.26157 -1.84427 -2.25289 -1.60067 2.37372 -1.9167 -1.28821 1.18651 -0.0202913 
0.82566 -5.2107 14.0205 5.02727 -5.63068 -8.51236 -9.20236 -0.224606 -1.0765 -8.55787 -5.39439 4.52032 20.4392 1.38748 -2.28563 1.02522 1.87316 -1.40316 -1.22611 0.927685 -1.75953 1.27856 0.997141 -1.76597 -0.198873 0.00955448 
0.983751 -5.23708 12.2337 9.74531 -9.2964 -7.60836 -5.48173 -3.40003 3.07148 -10.4413 -8.00639 2.16659 20.0718 0.752163 -0.834653 -0.897046 3.63697 0.272803 -1.56797 3.2481 -1.45635 -1.10004 2.68448 -0.545305 -1.61224 -0.294212 
-1.22451 -1.47846 13.066 10.0156 -2.77046 -16.8349 1.13779 -4.89788 -0.713562 4.47189 -11.0822 0.753598 19.4622 1.25783 -0.724346 -1.88283 2.02837 0.417147 -1.25039 2.62433 -1.55519 -1.15085 3.10724 0.624598 -1.50476 -0.332897 
3.68771 -7.05642 7.80543 22.004 -5.76007 -12.9962 4.75432 -5.4409 -7.67087 1.29111 -3.70186 -1.75997 18.9511 2.6891 -2.36663 -1.09813 -1.53604 0.446695 0.524049 -1.72409 0.606795 -0.730587 2.68327 1.5411 -0.560292 -0.0311596 
5.76281 -7.92276 6.82045 9.03979 -5.3131 -12.0704 -1.19874 -6.9801 -1.45959 1.11213 -4.42366 -1.04021 19.3351 3.6566 -2.96893 -1.45697 -3.8683 -1.27665 4.14241 -5.24889 1.75346 1.29408 0.701737 2.83287 -0.512515 0.252538 
10.9356 -13.8481 9.86584 2.55303 -5.7916 -7.37039 -12.9339 0.675056 -0.208437 4.65487 -3.63019 0.262031 19.9796 2.24687 -0.667844 -2.50363 -5.35631 -0.997594 4.2002 -4.02643 0.858374 2.01003 2.75987 1.67363 -0.17747 0.354071 
13.4345 -12.9273 4.75097 0.399611 -9.13795 1.06422 -16.2625 0.811463 2.0256 6.2987 3.04629 -2.81998 20.2107 1.44896 0.52008 -3.64079 -2.62723 -0.861117 5.06901 -0.879018 -0.372857 0.255956 2.75792 2.4401 -0.812221 0.220041 
11.0862 -7.89339 -3.67799 -0.457475 -8.83561 1.43746 -7.84591 -5.04481 0.636706 12.4972 0.931338 -1.75744 20.2836 0.0401975 1.94329 -4.3076 -1.56891 0.0122585 4.37898 2.30752 -2.77624 0.0250951 0.722291 2.62068 -1.35774 0.0786921 
12.9323 -8.29971 -4.6116 -2.59109 -8.09668 8.87075 -8.13783 -5.98444 -0.60238 10.9805 5.49609 -4.09158 20.2833 -0.359036 1.61506 -2.8247 -1.55443 1.12536 2.83864 2.80848 -3.01197 0.200103 -0.95476 1.9715 -0.908334 0.0439146 
11.3877 -6.44541 -6.99087 -3.79617 -6.25095 10.6213 -5.45866 -9.80817 1.23103 5.9254 8.24833 -5.89084 20.3368 -0.176714 0.858304 -1.25708 -1.4064 1.65275 1.65724 1.70273 -1.99262 0.988734 -2.15175 2.13865 -0.851662 0.0547314 
11.4886 -5.57598 -7.71608 -5.70319 -4.80347 10.6655 -3.41376 -11.8667 2.72895 4.81079 9.24531 -5.29494 20.4037 -0.436045 0.681499 -0.946251 -0.792569 1.72558 -0.674504 1.73542 -1.6693 1.86511 -1.79054 1.32256 -1.12152 0.0458397 
10.9245 -4.96373 -8.41115 -5.93345 -2.21846 8.82626 -1.69431 -12.0668 3.91471 4.8233 9.74998 -5.41406 20.4971 -0.370667 0.400678 -0.508375 0.0898731 0.788841 -1.14831 0.729205 -0.16663 1.73499 -0.45833 -0.0733302 -1.14934 -0.0252867 
10.9837 -5.63305 -8.63272 -5.4853 -1.48503 6.39573 -1.34292 -13.2017 7.38135 2.57888 11.3581 -9.93757 20.4323 -0.87355 0.226495 -0.0139216 0.791268 0.169921 -1.12213 -0.92103 1.55739 1.29541 0.0730367 -0.682294 -1.72826 -0.0478659 
9.78683 -4.41349 -9.07443 -3.45575 -3.96596 7.0146 -2.84805 -9.97384 7.57978 4.7497 6.8253 -9.31625 20.196 -0.792434 -0.294237 0.612306 1.35722 -0.863609 -1.00593 -1.69556 2.32747 1.40733 0.123099 -1.43021 -1.15388 -0.092454 
7.68969 -4.71862 -7.45405 -2.98569 -3.08012 5.96072 -7.44204 -5.12623 7.37346 5.21278 7.29618 -11.9851 20.3149 -0.976674 -0.434978 1.3345 1.52729 -1.16018 -1.77078 -1.14198 3.19462 1.16173 -0.209531 -1.83753 0.310552 -0.0945946 
8.60931 -6.89213 -5.93895 -0.397177 -5.73897 4.01411 -7.12257 -4.46716 10.9553 4.12185 4.62987 -10.1597 20.0935 -0.701018 -0.732624 2.0831 1.91623 -1.04292 -3.54107 0.262423 3.57152 0.697333 -1.43873 -1.19572 1.67015 -0.0795235 
6.68907 -6.56863 -3.52794 0.621867 -6.39943 -0.957934 -4.91554 0.0180969 11.5022 1.84515 3.26815 -7.96309 20.0106 -0.522816 -0.54589 2.63241 1.85978 -0.924329 -4.92072 2.03989 3.22184 -0.0509418 -2.37191 -0.391179 2.74736 -0.105396 
6.78205 -7.15161 -0.621965 4.32163 -7.52089 -7.23142 -2.79919 5.3116 9.00206 -0.760114 2.86071 -2.97653 19.9506 -0.797039 -0.0485144 3.30327 1.29969 -0.824038 -4.32044 1.80898 2.74415 -1.78509 -2.7689 0.919378 2.68781 -0.094285 
5.98924 -7.31834 3.04953 3.95382 -6.8108 -13.0201 0.595738 6.09359 8.09538 -4.20581 6.22486 -1.83993 19.8594 -0.468598 0.154487 4.02151 0.382964 -1.18897 -2.10803 1.33618 1.12203 -2.89699 -2.15064 1.31485 1.55225 -0.191419 
4.97403 -6.75985 7.28864 4.4353 -9.65347 -11.557 -0.833283 6.21587 3.73331 -6.69716 7.7484 0.21777 19.6977 -0.392042 0.927 3.91671 -0.446138 -1.55783 0.451458 0.673735 -0.758281 -3.36736 -0.0535015 0.563088 0.078278 -0.366891 
5.25009 -5.99207 12.6243 2.47985 -11.278 -9.33532 0.782396 5.17612 -0.348333 -5.93955 7.39857 -1.79899 19.1799 -0.56912 2.33129 2.41651 0.287518 -0.964507 0.433896 0.746844 -2.22267 -2.71917 1.20169 0.150222 -0.762976 -0.615108 
5.19141 -3.17974 14.1742 2.82792 -13.0764 -6.81652 0.476158 1.97894 -3.6129 -0.160752 5.0893 -2.60561 18.4558 -0.768034 3.41996 0.778794 -0.315706 0.791272 -0.0645482 0.932666 -2.13232 -2.45226 1.7797 -0.309206 -0.432128 -0.792658 
3.03495 2.54804 11.6893 6.1951 -9.92185 -13.2209 3.67524 -2.9013 -1.82735 -1.46558 8.30552 -4.24312 17.4048 -1.12878 3.3201 -0.438985 -0.541793 1.97017 -1.10238 -0.423155 -1.82423 -1.28632 2.04242 -0.281071 0.668963 -0.843457 
2.24144 6.0699 11.6501 0.999147 -6.37517 -9.93696 2.38362 -0.407025 -7.78846 -0.0356243 5.74889 -0.720803 16.622 -0.902725 1.97081 -1.25241 0.487616 2.70682 -0.629493 -1.8413 -0.797154 -0.660929 2.04349 -1.01004 0.550147 -0.84492 
1.0812 5.98362 11.6914 0.685272 -4.77776 -13.287 -2.28711 -2.75206 -4.69215 4.20998 5.66342 0.60342 15.8795 -0.265604 0.963736 -1.65087 0.777449 3.59058 -0.337636 -3.0942 -0.0568215 -0.466271 2.12814 -1.64867 1.47453 -0.905173 
1.65466 4.9565 7.91109 8.02092 -2.11437 -9.93091 -5.74918 -2.08145 -5.48515 7.21894 1.36013 -2.27814 14.9939 -0.62951 0.0725059 -2.66691 2.87748 4.64804 -0.0660238 -2.09353 -0.422977 0.866804 1.95553 -1.18052 1.36817 -0.977971 
2.00031 7.92343 5.30447 6.57146 5.90066 -14.9121 -7.72936 -2.3482 -5.31036 5.54781 2.25655 3.90818 13.693 -0.727053 0.0576057 -2.82241 2.20781 3.87762 1.14507 0.0244004 0.159718 -0.0528774 -0.0890021 -1.44806 0.838544 -0.901966 
-1.36567 5.46253 1.50902 12.4434 11.5258 -9.45455 -5.36291 -2.72384 -3.14533 9.07313 1.54973 4.46765 12.8254 -1.58888 -0.562832 -2.71787 -0.117747 2.84028 2.90562 3.74016 1.45369 1.09472 -1.65988 -2.50458 0.289646 -0.674023 
-1.0439 6.01864 0.780431 9.51304 7.79027 -7.79984 -2.35824 -1.63228 -6.12644 2.83787 -1.67166 1.42325 12.4539 -1.90607 -1.73489 -2.41213 -0.943287 -0.0300614 3.3465 3.7733 1.28111 1.82081 -0.853409 -1.83421 -1.13105 -0.413714 
-4.76765 3.09473 -3.41625 5.96139 11.1422 1.04107 10.2661 4.82906 0.39651 0.274529 -9.19868 0.412552 12.2433 -1.70992 -1.68138 -1.89314 -1.59107 -0.762326 2.24444 2.24442 1.74554 0.146327 -1.47719 0.0364988 -1.01799 -0.220126 
-5.82907 0.43286 -4.29352 5.09605 5.94215 -3.42737 3.32264 0.280913 2.02276 5.68007 -1.54032 0.280458 11.9155 -1.27378 -1.57285 -1.41973 -1.18495 -1.39233 0.298104 -0.139749 0.695407 0.362964 -0.393351 1.59428 0.98279 -0.160239 
-7.52271 -0.151489 -5.41969 6.69659 8.63823 -0.418594 3.01873 5.04724 -6.4883 0.266101 1.66655 -0.0509098 11.994 -0.601548 -1.32042 -0.0882743 -0.109124 -1.7875 -0.709225 -1.5516 -1.10031 -1.0587 0.778333 1.77618 1.39725 0.019454 
-6.03529 -0.222506 -5.31648 3.22067 2.08063 -5.57949 0.566677 1.73566 -0.869219 0.875332 0.867123 6.56893 11.7774 -0.412643 -1.97931 -0.158673 -0.441904 -0.977995 -0.628029 0.256628 -0.586424 -0.689927 0.391668 -0.369748 0.754841 0.241298 
-7.67227 -3.17971 -3.34614 6.35346 4.13549 -1.42899 3.88602 -1.39989 -3.45101 6.56856 -1.52148 4.25455 12.4096 0.115836 -1.55096 -0.497704 -1.52777 -1.18556 -1.3035 0.0869075 0.133961 0.897817 1.49359 -0.743791 -0.0619582 0.21894 
-7.8175 -7.9496 -6.12366 3.0581 3.30354 -6.06231 4.17214 0.572356 -2.94552 4.48718 -1.79504 1.90194 12.9142 0.166357 -0.742337 -0.126917 -0.338312 0.303383 -0.969931 -0.626208 0.882189 0.025651 -0.0689423 -0.712355 -0.808018 0.146217 
-6.05243 -4.04274 -7.50462 -0.86096 2.099 -6.69466 1.65054 6.29869 -0.961065 5.92811 -0.721321 1.97279 12.5203 0.240062 0.559575 -0.0621364 -0.966384 -0.356679 -0.966624 -0.972991 0.556043 -1.09233 -1.30766 0.109075 -0.358451 -0.0506741 
-6.01343 -3.50268 -3.87182 5.13632 4.61579 -7.7963 -1.44662 2.29732 -1.98593 0.850844 -3.09473 3.66971 12.4531 -0.0691887 1.07522 0.100606 -1.19778 -0.464263 0.531771 -1.19343 0.39852 -0.189051 -1.22227 0.151272 -0.176761 -0.153581 
-7.374 -2.6053 -4.78274 0.482428 1.69597 -5.39512 1.83044 0.517848 -9.39243 1.84842 -0.326257 1.57841 12.3868 -0.142184 0.445045 0.0607284 -0.215164 -0.317662 0.271229 0.0954772 -0.756575 0.704742 -0.716085 0.288361 0.307065 -0.10719 
-7.50266 -3.29224 -6.98157 -3.6025 1.18374 -4.05323 -1.88499 5.45538 0.324906 0.415684 -1.23621 1.21533 12.213 -0.00202284 1.22976 -0.243927 -0.265034 -0.43504 0.592385 2.44969 1.10738 1.75332 0.748114 0.983772 0.756384 -0.141728 
-6.01873 -1.92273 -5.64611 2.43263 2.22671 -7.21005 2.34711 0.936788 1.40722 2.56527 -0.208775 4.73531 12.1044 0.176966 1.0185 0.174115 0.886709 0.367534 0.915823 1.82331 0.806081 1.67988 0.988226 -0.23443 0.288727 -0.111613 
-6.70118 2.30484 -4.65978 2.83605 2.17522 -3.92691 10.5435 7.62476 1.38086 4.23299 1.76539 5.87318 11.8856 0.129964 0.78001 -0.0980289 0.733669 0.0565311 0.439625 0.927221 -0.859997 -0.976734 -0.252309 -1.05427 -1.40075 -0.0868094 
-6.88991 -0.311318 -5.07306 1.6967 3.0379 -0.879161 4.73277 3.46356 -1.521 4.8809 -2.99921 0.693115 11.9924 -0.27928 0.446407 -0.892444 -1.24299 -1.17955 -1.42374 -0.947128 -1.66553 -1.37627 -0.936985 -1.08867 -1.81264 -0.0259179 
-6.41725 -0.197896 -7.75823 0.433812 1.0608 -5.02055 1.55829 -0.10799 -3.09465 -2.00367 -5.11237 -3.76732 11.835 -0.208851 -0.544168 -1.09166 -1.0181 0.325396 -1.77451 -0.930918 -0.554577 0.552585 -0.687002 -1.31156 0.305318 -0.0125654 
-7.5571 1.56067 -8.5591 -2.58119 -3.11382 -13.7819 2.10407 -3.52451 -3.23637 0.998675 -2.21325 0.492343 12.0001 -0.0342692 0.040572 -0.731766 -0.176107 1.1955 -0.805127 1.08785 0.922287 2.25483 0.721361 0.10436 1.90773 -0.0308324 
-7.41184 -1.352 -8.37504 -0.115483 6.87807 -6.34808 7.20325 8.34591 5.00146 2.7391 -5.18539 7.50015 11.819 0.148277 -0.232331 0.0921641 0.344811 1.45958 1.96179 1.16121 1.34314 2.01026 2.46568 1.20588 1.31767 -0.050191 
-6.56396 0.468593 -8.4235 1.09081 6.10679 -4.24103 7.34953 3.84804 5.70507 6.11632 -2.44089 4.59804 11.8462 0.413231 -0.0137353 0.498395 0.314956 0.910375 2.83816 0.41218 0.827593 0.661902 1.90226 0.195107 -1.46105 -0.0527769 
-6.17243 -0.813513 -7.36521 0.321871 3.7484 0.0179839 4.74159 2.92143 2.48592 7.76592 1.03086 0.768163 11.661 -0.0333759 0.2276 0.78266 0.41316 -1.01236 0.576485 -0.0464423 -0.816343 -1.85373 1.45702 -0.212616 -2.93919 0.0204521 
-6.11065 1.22275 -6.57203 -1.22509 3.00288 -2.77416 5.3958 3.3257 1.33091 7.99658 -4.34584 -3.44691 11.8152 -0.411578 -0.18969 0.80498 0.68213 -0.585738 -0.413318 0.440305 0.295859 -2.01364 0.725372 -1.20371 -1.94843 0.0456708 
-7.80538 -0.591076 -5.38747 3.10826 3.3682 -4.19909 7.9479 4.52537 -2.0801 9.08409 -5.296 -3.17334 11.9367 -0.496062 -0.136896 0.514006 0.990613 -0.0395077 -0.985907 0.896472 0.440754 -1.25431 0.372386 -1.36039 -0.760944 0.0673006 
