-5.64827 -0.652688 -7.44257 4.11861 10.6033 -1.63619 8.71659 4.21345 5.17877 9.45469 -3.58677 4.80266 11.9304 0.375502 -0.168438 0.11429 -0.764756 -0.981741 -0.200949 -0.774383 -0.376805 -0.0719827 -2.48308 -1.03035 -0.618412 -0.103942 
-6.17402 -2.70854 -8.9043 1.6769 10.1914 0.668676 8.06594 2.11845 3.75093 4.31936 -2.29439 1.58361 11.6311 0.490792 -0.0736635 -0.576007 -1.04957 0.116123 0.660313 0.0647578 0.628358 -0.278009 -2.87123 -1.11034 -1.39983 -0.105649 
-3.50789 -0.466954 -6.14026 1.51568 5.90059 -3.79337 5.17 3.37693 5.53277 -0.393055 -9.3847 3.32013 11.5603 0.48511 0.184209 -0.872278 -1.48542 0.182755 0.691382 0.737637 0.591428 0.055436 -1.94181 -0.775227 0.118329 -0.0495584 
-4.2645 -1.11387 -10.9738 0.172195 13.5353 2.74397 10.8137 7.7735 3.61172 0.022398 -6.23952 -1.45525 11.5872 -0.0759602 0.239236 -0.87465 -0.465656 -0.218978 -0.515073 0.524262 0.350423 -0.222142 -0.160511 -0.230373 1.31028 0.0395328 
-4.17748 -0.528974 -10.7692 -2.55613 9.84513 0.783074 11.0309 4.34306 5.52555 1.89409 -5.49033 6.91373 11.7046 -0.507041 -0.372837 -0.844111 -0.448966 -1.26046 -0.434762 0.177398 -0.652238 0.556955 1.39581 1.14704 1.49183 0.00743685 
-6.21902 -1.48135 -10.9631 1.38453 7.12421 -4.19491 7.75679 3.3875 2.64383 2.37323 -5.39344 6.3382 11.7566 -0.383451 -0.310017 0.335383 0.26626 -2.08593 -1.04181 -0.607539 -0.223851 1.11119 1.50283 0.340683 0.988131 0.0169933 
-5.06583 -2.1474 -10.3662 -1.33532 2.80383 -2.49774 7.58543 2.30874 8.80149 5.41057 -4.07252 6.88254 11.5128 0.687537 0.658278 1.63928 1.45935 -0.489981 -0.761752 -1.37439 -1.5247 -1.77597 -1.07999 -0.444109 -1.57195 0.0405706 
-5.73758 -1.85474 -9.49838 0.893086 6.62631 -0.824697 9.49872 7.67141 7.52968 5.7783 -5.24502 3.50101 11.768 1.80164 1.6337 4.87034 -0.250982 -3.81055 -0.207156 -2.4092 -1.38619 -3.29881 -3.42676 0.195534 -2.17159 0.703948 
-0.980514 2.94912 -3.30517 4.98635 7.64417 -4.7108 3.288 -5.4224 -5.79724 -5.20841 -7.78509 0.472592 11.9017 1.68622 1.82093 5.86628 -0.149918 -3.29204 0.443873 -2.64311 -2.25051 -3.70922 -2.26453 2.02494 -1.11985 0.92024 
0.746518 4.13892 9.85811 -3.03121 -14.3487 -4.12416 -2.14048 0.322106 -6.55087 -9.45108 -2.55948 -1.31478 15.0819 1.32259 0.431073 6.34519 -0.779043 -5.28164 1.07669 -3.74102 -1.99213 -2.00913 -2.31547 3.15689 -1.62752 1.52727 
0.12324 3.96044 9.28698 -0.122758 -3.16887 1.37136 0.18947 -5.26917 -2.70432 1.70262 4.70943 3.69116 14.457 -0.0529436 -0.909693 5.01468 -0.717819 -4.69023 1.30628 -2.38603 0.818298 0.906836 -0.645205 2.90663 -1.82902 1.80611 
0.323512 -0.205039 15.9315 -0.447574 -14.3754 1.51768 -7.6571 -2.36584 -4.06242 -9.25456 4.29216 -6.24587 18.1267 -0.568735 -1.20616 2.84648 0.417642 -1.83599 0.677902 -1.5452 0.213006 0.581478 -1.07084 1.49113 -2.57648 1.52841 
-1.03373 0.572629 18.7316 0.105434 -15.7937 -1.00034 -5.88386 0.013063 -2.50728 -8.5327 3.32224 -6.20698 19.4099 -0.0598615 -0.893897 2.09292 0.0964856 -3.18002 0.414246 -1.98373 0.723749 -0.043743 -1.9749 0.550456 -2.73416 1.39962 
-1.51867 -0.197981 19.3682 -1.0571 -17.2162 0.451195 -6.82982 -1.25398 -3.74199 -9.68762 5.58974 -9.24811 20.2476 0.0529515 0.458135 -0.253023 0.292224 0.0023901 0.751872 -0.162673 -0.333911 -0.19308 0.117169 0.534611 -0.997906 0.483681 
0.745026 -0.512574 18.0332 0.664432 -17.6485 3.97583 -10.1428 -2.20635 -3.08325 -7.95536 6.81292 -8.47852 20.3947 0.369148 1.6027 -1.73929 0.858452 1.38719 1.2582 -0.345795 -1.3072 -0.575506 0.344295 -0.129928 -0.934557 -0.0787333 
-0.301107 2.62824 15.0155 0.734047 -13.436 2.78895 -6.34098 -2.92568 -4.73984 -8.95738 5.21987 -10.0996 20.0527 0.18695 2.60589 -1.66651 1.19462 2.36134 1.23716 0.520423 -1.82915 -0.82207 0.285073 -1.10934 0.0869573 -0.381637 
0.203228 7.173 12.2115 3.50212 -10.7478 4.12179 -7.85726 -5.68711 -4.88589 -7.17634 2.85753 -10.454 19.1136 -0.802049 2.76212 -0.00969906 0.385461 3.70003 0.27127 2.05159 -1.58726 -1.51386 0.275138 -2.26893 1.08489 -0.475142 
-0.313025 8.98868 13.9465 3.49716 -8.85987 6.56401 -5.37049 -8.65937 -6.95102 -8.65176 2.02074 -7.82558 18.9799 -1.13674 1.56292 0.827269 0.362878 4.26523 0.48235 2.31171 -0.537864 -0.489261 0.905685 -2.67333 2.13723 -0.733813 
-3.25926 10.1178 18.5192 1.21018 -1.43643 3.44465 -0.370116 -7.27579 -9.54696 -6.73248 -2.93216 -4.19111 18.5554 -0.0305021 0.180435 -1.10479 0.443511 5.13595 -0.844778 2.57404 1.48223 1.77877 1.25216 -3.21504 1.09131 -1.52347 
-4.25355 8.97043 15.998 3.6944 3.23448 5.53928 1.47401 -4.82066 -4.85561 -4.65088 -5.25191 -2.54492 16.6627 0.690447 -0.737767 -3.71183 1.01995 5.2766 -1.49176 1.50565 2.12373 1.90911 1.15592 -2.90706 1.50666 -2.01473 
2.02098 8.0843 5.66178 5.62105 8.88472 0.410273 1.59068 -0.195333 2.96023 -2.91598 -9.58135 -7.6378 12.6548 0.645094 -1.51081 -5.68038 0.948506 3.89745 -0.640569 1.56332 1.82185 1.76478 1.79782 -1.36369 0.780861 -1.82122 
0.499091 6.3166 1.8161 6.39148 12.3626 0.622376 1.17736 -1.58093 -3.65904 -4.78042 -9.18997 1.43106 11.8565 -0.321847 -1.98861 -5.43036 -0.680017 1.62508 -1.13209 2.3812 2.28955 1.61361 2.7031 0.956735 1.16381 -1.08135 
-2.41011 3.89068 -2.79172 4.60418 13.4868 2.70026 7.59479 0.2136 -1.32136 2.32141 -7.78161 -2.27479 11.8524 -2.35403 -2.58737 -3.63473 -2.30747 0.236592 -0.306206 1.00398 0.653214 0.659669 2.75366 2.14141 2.11006 -0.13849 
-3.64724 1.12418 -6.92701 0.802757 9.05887 -1.26614 10.3779 6.42264 5.35323 6.24594 -1.36811 0.592641 11.6572 -1.68039 -1.84208 -1.44071 -1.93878 -0.926054 -0.7063 0.541197 0.862453 1.20933 2.27646 1.91948 1.58525 0.0569395 
-7.67601 -2.25636 -8.14033 -3.12193 11.7195 -0.176496 2.01028 -0.93105 1.75244 5.33912 -2.78523 3.33172 12.062 -3.04347 -1.35686 -0.516588 -3.30574 -1.46077 -0.949727 -0.992032 0.155884 0.980228 0.842239 0.902348 2.25388 1.61207 
-5.2699 0.179721 -2.71314 0.560646 8.61593 -1.47075 6.6756 3.30366 0.850718 5.093 -2.09078 6.55404 12.0364 -3.74265 -0.249453 -0.00414906 -3.2887 -0.582926 0.346782 -1.29337 -1.0012 -0.358497 -0.198017 -0.0729394 1.01086 2.67943 
-16.8161 -2.42141 -7.4816 -11.8035 6.40443 -1.94608 4.4858 2.55252 5.83103 7.10908 -2.90853 6.01389 19.7232 -2.90015 2.28821 0.566921 -1.8344 -0.68555 1.06017 0.782019 1.66204 1.21129 -0.401938 -1.04845 -0.912063 2.32219 
-17.7904 -0.0405593 -7.27712 -11.3 8.80179 1.35256 2.67336 -0.325152 1.52145 4.37088 -1.67116 4.30584 21.2238 -1.35521 3.60469 1.87167 1.73407 1.43237 0.173682 -2.27295 -0.793201 -0.115146 -2.07008 -1.12386 -2.26725 1.32725 
-15.9165 9.29484 -3.02373 -6.36363 8.19885 3.71269 7.9215 9.19355 7.47351 3.69049 -8.23728 -0.104489 19.0793 2.17362 4.40043 5.22037 4.95024 -0.395643 0.0639441 -2.42788 -2.15768 -2.38647 -3.88543 0.24184 -2.82988 -0.281463 
-12.4957 12.345 4.41629 6.51108 14.8806 -3.43172 -6.40701 -3.98287 -0.546252 -3.54809 -5.04569 -1.72301 18.9946 3.30576 2.59944 5.70117 3.53315 -2.46262 -0.797334 -2.67536 -2.12096 -2.30187 -3.91288 1.91257 -1.95235 -0.307476 
-8.59537 13.388 12.7736 4.04222 1.38682 0.765783 -3.11343 -6.40701 -5.06744 -8.35859 -0.0120621 -5.12108 19.4305 3.64127 -0.67209 4.355 1.4208 -4.87633 -0.283781 -2.57095 -2.72041 -2.33156 -2.46815 2.26015 -0.0340531 0.0428192 
-4.92218 10.9101 13.3301 1.16284 -0.105285 -1.16066 -5.18598 -3.12967 -3.71741 -9.16897 3.7791 -2.94763 19.5108 3.37663 -2.1486 1.97377 -0.553437 -6.30576 1.13974 -0.751276 0.70425 -0.46725 -0.482878 0.908116 0.659847 -0.0194357 
-1.49689 6.65187 14.2944 3.41449 -8.68988 1.15826 -5.54375 -4.83508 -2.5987 -5.83981 -1.34894 0.337554 19.0353 2.6833 -2.66206 0.0688822 0.509733 -3.84166 0.456164 -1.64971 0.873354 -0.0727684 0.432571 0.168107 0.665017 -0.0334387 
0.838173 4.97008 13.5247 4.05776 -11.6099 2.07075 -8.94823 -1.24758 -4.11688 -7.22187 0.163328 -1.15309 19.095 1.91282 -2.49467 -0.155904 1.00192 -3.27195 0.522633 -1.34296 -0.00267534 -1.32933 0.486489 0.202009 0.0558639 0.154785 
1.94095 3.04768 13.0206 5.14343 -12.0692 1.4309 -9.48085 -2.98128 -5.23155 -7.16928 2.63636 -2.69326 19.4712 1.43342 -2.7527 -0.937822 0.125605 -2.21363 -0.983622 -0.106123 0.368828 -2.2409 0.155785 1.16648 -0.480146 0.496422 
2.92299 0.238831 13.1874 5.30797 -14.7754 1.31618 -9.93223 -4.06995 -9.04764 -6.07179 2.79649 -1.1529 20.0668 1.27415 -3.51953 -1.42772 -0.174352 -2.39819 -2.31295 1.47959 1.11534 -1.64853 -0.113894 0.896843 0.0996889 0.71126 
4.6278 -4.74602 9.77392 3.41741 -18.1753 -3.38257 -5.58236 -1.57976 -11.3378 -5.63593 3.16686 -2.06327 21.0315 1.42953 -3.7419 -2.45781 0.214749 -1.83348 -2.93157 1.2314 3.74808 -0.112519 -1.39377 0.717846 0.184293 0.629304 
5.86548 -8.73074 8.00949 4.04901 -20.5478 -7.08726 -3.49951 3.62838 -9.30641 -8.55801 4.38229 -0.969645 21.8711 1.62429 -2.82189 -3.55943 0.576385 0.294151 -2.49764 0.164646 4.5932 2.79571 -0.924938 0.537688 -0.376544 0.28116 
7.61736 -11.177 3.32057 6.84665 -18.3504 -9.02524 -6.5402 11.9099 -5.66476 -12.895 5.43269 -1.86343 21.7155 1.59706 -1.11954 -4.46448 0.21659 2.53176 -0.30577 -2.19236 1.9229 5.25188 1.42264 -0.00304766 -1.66611 -0.120217 
9.54966 -10.6551 -1.38304 6.47527 -13.2171 -8.3507 -8.63008 12.1512 2.0944 -7.06692 4.35202 -3.13554 21.1306 1.47767 0.335532 -4.72826 -1.87566 4.27999 1.69814 -2.48219 -1.94644 5.14162 4.77168 0.081492 -2.23976 -0.247939 
10.771 -9.38152 -7.85222 3.28723 -9.18184 -4.2797 -13.9789 3.77332 9.22116 0.731722 3.16676 -9.31089 20.8007 1.26105 1.0772 -4.01064 -3.60237 3.87785 3.23983 -0.807543 -4.33674 3.28962 6.00608 0.572854 -1.38331 -0.0985186 
11.677 -7.95083 -10.0454 -3.5496 -3.73207 -0.969321 -12.1911 -2.03553 8.95873 8.487 5.92272 -8.44471 21.0889 0.852415 1.19022 -2.88056 -4.36143 3.10799 2.4874 2.27391 -4.31672 0.179184 4.25759 0.969506 0.121578 0.074295 
12.8589 -7.14315 -12.4015 -6.15274 -3.70365 3.48324 -8.79739 -2.68038 7.35119 9.3584 7.5116 -6.1254 21.2438 0.353084 1.18201 -1.55381 -3.96664 2.81853 0.460844 5.1234 -2.78638 -2.02068 2.09151 0.36539 2.49134 0.112275 
12.7678 -5.82316 -13.5112 -10.6119 -0.416259 0.204807 0.148706 -6.20553 3.92531 9.9077 7.02712 -4.1204 21.2805 0.0292293 1.34357 -1.10762 -2.29605 1.4286 -0.0908913 4.69069 -1.32375 -1.99194 0.406672 -0.611256 2.45038 0.00533447 
11.991 -4.53529 -13.8884 -13.0148 3.2529 -2.56255 5.46819 -8.0736 1.63449 10.4789 4.4415 0.983676 21.2662 -0.280703 1.17791 -0.407169 -1.46904 0.42121 0.191979 2.55292 -0.784918 -0.979485 -0.363399 -1.06326 1.96015 -0.055862 
12.2571 -2.53694 -14.84 -11.5988 -0.0673647 1.59912 4.12956 -5.95768 1.8574 9.9601 4.40149 0.252661 21.1043 -0.0555591 0.858118 0.0659131 -0.0936298 -0.51281 1.57952 0.230768 0.12746 0.378452 -0.441485 -0.578604 1.37763 -0.0759747 
11.7108 -2.8967 -13.7729 -13.0045 -1.77205 3.74599 1.97676 -6.7289 3.48772 7.5152 3.50811 1.48883 21.0526 0.139527 0.0912233 0.40211 0.195192 -0.867991 1.77329 -1.18032 0.0686178 0.641535 -0.456705 0.102257 0.174727 -0.0591379 
12.6301 -2.35186 -13.2394 -11.0852 -0.467835 4.94816 3.04827 -6.24058 4.89095 9.18214 4.6008 2.51517 21.0075 0.372472 -1.00019 0.654327 0.227446 -0.224586 0.938099 -1.47561 -0.917062 0.162873 0.127596 0.317427 -0.252788 -0.00171432 
12.5022 -4.17171 -12.6781 -12.2957 -0.886816 4.6294 0.107223 -7.58905 3.32539 8.58438 4.85313 0.726054 21.019 0.763433 -1.66396 0.957461 1.46452 -0.223036 1.13408 -2.24884 -0.462924 0.592821 0.808079 1.09942 -1.24341 0.00250053 
13.7238 -6.90038 -12.1158 -10.816 -1.63291 5.8479 -2.3137 -10.1129 2.75293 10.0635 5.31612 -0.629888 21.1125 0.508491 -1.67934 0.855654 2.30211 -0.491995 -0.160382 -3.35327 -0.0364856 1.36418 0.0816897 0.585428 -2.2121 -0.0307327 
14.9811 -8.94222 -9.5474 -5.81652 -2.30469 8.96652 -6.58645 -7.10735 7.52083 11.1149 8.64756 -3.15567 21.0125 0.113601 -0.987975 1.0252 3.55226 -0.0746708 -1.82683 -3.33726 1.24729 2.191 -0.448365 0.0767442 -2.19662 -0.0983706 
13.9331 -8.36332 -10.5265 -2.81424 -2.21887 1.97769 -10.3713 -6.66386 9.61414 8.32531 5.63073 -6.60447 20.857 -0.392896 -0.379384 1.29083 4.39769 -0.709404 -3.60236 -3.06824 2.64045 2.02559 -2.04196 -1.27101 -0.99579 -0.151753 
12.9655 -8.38011 -8.34678 1.46475 -0.96719 -2.56964 -12.5503 -3.07714 10.8498 7.21164 5.07955 -7.26976 20.6549 -0.848066 0.161403 2.19117 3.69998 -1.4141 -4.66846 -0.994237 3.16758 -1.0695 -2.68454 -1.81056 1.21271 -0.18943 
12.7671 -9.07835 -6.26196 7.53181 -5.84868 -6.39583 -14.673 1.07424 11.2164 1.80535 0.745073 -3.55179 20.5326 -1.18508 0.61316 4.33666 2.06179 -2.59574 -2.44819 0.835658 3.45526 -4.58957 -2.18239 0.248495 2.49609 -0.153621 
11.3238 -7.77769 -0.723788 7.51034 -7.56026 -10.189 -9.40678 4.86152 1.3722 0.952214 2.03758 1.38152 20.2276 -1.66944 1.16635 6.06747 -0.0421345 -3.47427 0.249314 1.83 2.25012 -6.48103 -1.95476 1.82715 2.10549 -0.0397886 
8.82855 -5.59873 7.34531 4.47191 -11.901 -6.45358 -7.76473 6.64311 -8.59493 0.543071 8.39419 1.55033 20.3025 -2.16957 1.67631 6.85585 -1.85588 -2.50195 2.5464 1.95948 0.173514 -5.02096 -2.25017 2.6447 -0.314588 0.0507683 
6.58758 -4.28816 15.1869 2.78403 -15.3124 -1.29419 -6.85442 5.38901 -11.6497 -1.93101 10.3907 0.706621 20.571 -2.27379 1.91046 5.58916 -1.71538 -1.37348 3.92062 0.420416 -1.39863 -1.94818 -2.63301 1.36785 -2.07211 0.0758043 
4.28731 -2.44154 20.0619 0.615583 -14.4824 1.88875 -6.15174 1.67807 -7.37739 -8.0039 9.79199 -4.78728 20.6148 -1.77826 1.88289 3.32783 -1.00502 0.366609 2.85223 0.331253 -2.29464 0.518428 -3.2698 -0.0757842 -2.27981 -0.112084 
2.22547 0.196025 20.8637 0.861619 -13.137 5.24289 -8.11119 0.350867 -8.97747 -7.93933 8.17793 -5.81024 20.4505 -1.0693 1.93769 1.43847 -0.425835 1.30221 0.999559 -0.584133 -0.788165 0.475023 -1.93711 -1.03259 -1.71133 -0.43063 
2.11831 1.57363 21.146 0.408038 -11.1557 4.53904 -5.48008 -2.31104 -7.33892 -12.8018 9.12167 -6.59029 19.8024 -0.327878 2.2848 -1.23611 1.01435 1.76785 -1.04703 0.123076 0.188024 -0.563807 0.0778958 -0.97652 -0.716715 -0.87453 
2.3256 3.39269 21.8372 0.758622 -10.4647 2.37846 -10.1109 3.44274 -9.29385 -9.21764 5.56291 -6.94854 18.824 -0.719127 1.91395 -0.989083 0.813582 1.74074 -0.387337 0.227484 0.532082 0.224975 1.07726 -0.716685 -0.498013 -0.817429 
2.59785 7.38412 13.3947 5.73883 -6.97929 -1.91416 -4.5365 1.07225 -10.0382 -6.97527 6.2169 -7.8017 17.0554 -0.932474 2.0353 -0.982192 -1.07641 1.83174 1.02174 -1.32749 0.147168 0.754999 1.87078 -0.190661 -0.483021 -0.452037 
-1.60993 6.86055 19.794 2.26413 -6.52148 6.53281 -7.44556 1.31963 -6.50294 -5.46629 6.04689 -7.69459 17.7369 -1.29238 0.826804 -2.01381 -2.5967 3.00117 0.211096 -1.87223 -1.86731 0.356931 -0.778708 -1.11681 -0.0524475 -0.516063 
-0.57629 10.0162 17.2567 -5.72679 -3.96858 7.57057 -13.4502 -0.513648 -4.95938 -5.32355 7.92637 -8.63236 18.0857 -1.18383 -1.3932 -4.83301 -2.0324 4.22674 -1.18349 0.894691 -0.90412 2.32779 1.53324 -3.0247 1.79401 -1.25871 
-2.54922 6.21066 9.83716 -6.49207 3.03582 -1.30843 -15.0152 -5.10088 -10.0486 -13.937 -0.875866 -6.79545 15.7285 -0.904609 -2.21169 -6.92901 0.0703981 3.71954 -2.47808 5.66273 -0.598959 2.06825 3.03073 -3.66349 3.52812 -1.70681 
-2.85168 0.743057 -5.79198 -0.0450683 9.37574 -3.91099 3.72179 -0.238097 3.37354 4.92628 -5.44525 0.718777 11.766 -0.789484 -2.6898 -5.77388 1.26305 1.80723 -1.75051 6.89284 -0.651182 1.50177 3.79882 -1.75826 5.14036 -1.42823 
-4.99529 0.438681 -3.32673 -0.224737 5.40407 -0.11683 12.2821 -1.81294 -0.328128 4.56245 -5.58475 5.27045 12.3627 -0.195706 -1.129 -2.98947 1.30651 0.425633 0.150878 4.72171 1.31745 2.15054 3.16244 0.295822 3.94848 -0.695402 
-3.30067 -0.546792 -5.03076 -2.5452 3.88345 -1.77776 7.36535 -5.41353 -2.31078 4.4208 1.4895 11.0365 12.6275 -0.142866 0.00792181 -0.610018 0.119003 -0.37718 -0.253333 -0.0051121 0.58717 0.419188 -0.665204 0.904421 1.79418 -0.0390341 
-3.30325 1.21057 -5.49078 1.29053 7.91013 -1.62065 6.77155 4.07411 3.54622 2.12791 -2.86413 7.7881 11.8207 -0.373265 -0.559375 -2.03556 0.793586 1.63272 0.74753 -0.354851 1.59204 0.859332 -0.208541 0.932412 -0.618885 -0.165603 
-4.41202 0.396724 -7.76005 -0.207688 6.23682 -4.42574 6.4515 -0.245769 3.53231 2.81753 -2.28345 8.43084 11.8418 -0.346929 -0.08998 -1.44029 1.45893 1.25919 0.450162 0.100319 2.34489 1.25702 1.00822 0.843847 -1.76196 -0.139513 
-6.30593 -2.82995 -12.1399 2.57443 12.391 4.94481 10.9648 3.5634 1.04699 4.32138 0.963785 3.47886 11.9276 -0.264913 0.050252 -0.370453 0.479923 0.413975 0.456316 0.235505 0.935363 0.169818 0.410714 0.44433 -1.20245 0.00310659 
-3.53397 1.02357 -8.90764 4.1075 7.93894 -2.80968 5.77034 6.56628 5.22392 8.36519 3.79478 4.38135 11.8765 0.214662 0.206691 0.560904 1.14654 0.528146 0.0272583 -0.778626 -0.0459261 -0.284924 0.275014 -0.0821237 -0.484161 -0.0191468 
-5.06684 1.1484 -6.76925 1.53255 9.12894 -0.147105 8.28966 5.3449 3.54951 1.40765 -3.6816 3.80062 11.8189 0.253534 0.40487 0.825821 -0.902738 -0.724356 -1.19913 -0.924665 -1.72297 0.122049 -1.23193 -2.46929 0.675003 -0.0420579 
-3.95826 -0.558999 -7.64085 6.04596 10.5086 -1.74349 3.89593 -1.36615 0.856432 5.64947 -0.371377 5.84916 11.8004 -0.433869 -0.381892 0.336637 -1.20159 0.615459 0.902904 0.743292 -2.26989 -0.458522 -1.12613 -1.79761 0.671554 -0.0134715 
-4.82612 -0.0143166 -8.64419 -2.90848 7.48441 -1.58395 7.27864 -1.08525 3.84097 -0.480386 -9.29957 6.11997 11.7553 -0.354488 -0.379536 -0.587205 -1.06753 0.394422 0.71966 0.728538 -0.265969 1.24822 1.06354 0.120352 0.225092 0.029747 
-5.82368 -0.304535 -6.28698 0.320044 11.8385 2.42326 9.9923 -1.56812 2.78558 3.67857 -2.38429 6.57944 11.8409 -0.391452 -0.533801 -0.154895 -0.301128 0.850882 1.20507 0.87876 1.78728 1.75926 0.904601 0.439225 -0.40139 0.0127838 
-5.90657 -0.876507 -10.3822 -0.942162 10.4361 1.36782 8.88416 4.11604 8.82605 7.71078 -2.07337 4.56094 11.9474 0.565924 -0.197137 1.84144 1.08795 -0.761031 0.0696011 -1.10204 1.23735 0.0387005 0.375956 0.696252 0.323411 0.24405 
-5.3753 -2.79691 -7.54631 3.55716 13.2872 2.80599 7.48697 4.96959 7.16017 6.07689 -1.78835 4.62173 11.7683 1.37463 0.47859 2.59914 0.146738 -2.17765 -0.437671 -1.02456 0.57641 -0.823489 -1.23774 -0.703066 1.52944 0.369643 
-2.22069 0.246186 1.19266 0.912728 2.95493 -1.42731 3.02109 1.83266 1.84718 0.20023 -6.11628 8.71589 13.0119 0.656674 0.638438 1.41314 0.274896 -1.22108 -0.810872 -0.439088 -1.17879 -1.83464 -0.77944 -0.411649 1.21121 0.147286 
-0.793477 1.52707 0.921283 0.126291 4.69082 1.63246 7.80104 2.45562 2.15757 1.24515 -3.87817 12.1492 13.1569 -0.443671 0.0494872 -2.02957 -1.07851 -0.853797 -0.214182 0.196806 -0.71556 -0.865864 -0.858687 -0.56837 0.0160328 -0.050476 
-4.91411 0.153691 -7.55032 2.14775 8.62885 -2.09978 6.53168 -0.520929 2.15413 6.22945 -3.08671 6.85324 11.9895 -1.17428 -0.662461 -3.5701 -0.548221 2.15141 0.353689 -0.0916748 0.0705744 -0.660727 -0.625198 -1.48308 -2.18591 -0.357632 
-6.24694 -2.50323 -13.3227 -2.45291 6.18121 2.07132 6.71571 2.56858 2.67737 -1.23115 -6.14498 5.63321 12.0271 -0.840245 -0.252513 -2.28507 0.41782 1.5428 -0.114351 -0.131538 1.59802 -0.167686 -0.176653 -1.32196 -3.70453 -0.29523 
-5.36534 -1.05097 -9.53587 -0.538778 12.9668 0.121713 3.10538 2.12905 -1.71636 -1.68761 -12.3983 1.04434 11.7886 0.214031 -0.0448328 -0.187087 -0.210877 -0.433581 -1.03994 0.285813 1.66149 -0.00949789 -0.179593 -0.633113 -0.56969 -0.0841866 
-4.76909 0.866835 -9.5113 3.55866 10.2359 -0.0500357 8.8565 9.12072 3.25439 4.32041 -5.83216 -3.46901 11.7812 0.587275 0.702246 0.563326 0.0116203 -1.06539 -1.45184 0.773133 0.703223 -0.352472 1.3828 1.1131 1.38898 -0.0918424 
-4.58288 -1.7555 -10.3914 -1.91242 4.43361 -6.23882 6.89035 4.51045 1.81814 2.5557 -6.40868 8.5559 11.6915 0.151096 0.129389 0.272525 0.595945 -2.14368 -0.0402608 1.41083 -1.10278 -0.835475 -0.546727 0.920943 2.81178 -0.0309475 
-3.70179 1.36027 -10.0783 -1.70799 5.12086 -2.00762 8.68889 4.894 -0.852238 3.56119 -3.57428 8.82231 11.6165 0.0515381 -0.131415 0.748905 0.405995 -0.847212 0.452531 0.0162745 -2.31864 -1.45064 -1.24479 -0.49117 1.85427 -0.0308244 
-5.14351 -0.650741 -7.88977 5.07427 4.8059 0.899204 10.2434 -1.2715 -3.84042 -4.04163 -8.92253 8.9576 11.7163 0.0174303 0.112288 0.98083 1.18187 0.345293 1.04161 -0.0685472 -1.26593 -0.629261 -0.448721 -0.470162 -0.912965 -0.0155501 
-4.23108 -0.342621 -7.01761 2.09529 5.81367 -1.35639 7.26137 0.418516 -1.16952 1.39512 -7.03109 5.60149 11.6147 -0.014616 -0.309766 0.699344 0.462757 0.239338 -0.0953137 -0.583702 -0.726095 0.203633 0.110462 -0.502219 -0.979775 -0.0105138 
