-6.24331 0.768599 -4.49954 -1.64353 0.229061 5.82025 10.4944 9.93492 7.20523 7.46463 1.00294 5.49938 11.4236 -0.133865 -0.185344 -0.409392 0.108864 0.0594063 -1.53368 -0.8113 -1.16933 -0.743767 -0.730302 -0.202489 -0.163157 -0.0112627 
-7.15266 -2.47416 -9.00295 -2.94271 0.822775 4.05938 7.36555 6.69062 5.89472 5.5597 -0.737729 6.19201 11.3432 -0.0188076 0.762954 0.979056 0.426399 0.693756 -1.22662 -1.69519 -1.45288 -1.54891 -0.761057 -0.174896 -0.227768 -0.0264601 
-6.45796 1.46326 -4.29479 -0.449623 0.229236 -0.967703 8.00231 5.71043 4.14166 4.76559 0.860835 4.33728 11.4075 0.520774 1.36669 1.20222 0.852604 1.5741 0.357546 -1.42355 -1.32149 -1.8708 -1.37284 -0.360864 -1.08866 -0.0121833 
-6.23003 4.23604 0.293369 -0.108493 3.69775 3.08111 3.26445 4.78274 0.992493 5.00887 0.199514 4.9416 11.2994 0.910572 2.29683 2.02515 1.44129 1.8712 1.80113 -1.02401 -0.395766 -1.2579 -0.843812 -1.52774 -0.533355 0.0386439 
-4.10076 4.24694 -3.13661 1.20238 6.66208 8.09712 5.42719 4.28142 0.302358 0.875838 -1.27 0.681278 11.3846 1.65431 2.37619 2.03385 2.04976 2.52796 1.90337 -1.49363 -1.15477 -0.945456 -0.895198 -2.62704 -0.162101 0.0598633 
-3.7784 7.61816 0.543721 3.43775 6.96234 8.53264 3.53307 5.42629 1.52486 3.28552 -7.31103 5.35324 11.5479 2.30715 2.26519 1.99335 1.91016 1.33099 0.328962 -1.20323 -1.46077 -0.18745 -1.39501 -1.83277 0.405421 0.0965347 
0.587757 11.6532 5.74926 8.02606 11.2367 5.82338 0.39986 -0.385195 -0.851811 1.15127 -8.51908 3.32096 11.5825 1.90164 2.18412 2.75774 1.94102 0.544026 -1.53173 -1.34163 -1.54434 -0.200953 -0.247776 -0.709795 -0.561868 0.0842854 
2.96149 11.8589 5.81716 6.03045 8.0654 5.86278 -0.238055 -0.187813 0.632328 -2.1039 -5.33981 5.64886 11.6831 1.60424 0.313604 0.924233 1.68217 1.3588 -1.18266 -1.14508 -0.924632 -1.12981 -1.04667 0.602225 -1.03249 0.0817273 
2.0375 13.0472 8.01539 9.61113 8.83069 1.77337 0.604612 -0.63322 -0.256139 2.33167 -5.80458 -2.27587 11.7384 0.542478 -2.97685 -2.83081 0.796143 2.04159 -1.12976 -1.12921 1.40709 -0.952006 0.652993 -0.400724 -0.361039 0.796347 
3.51794 8.48917 4.03182 11.0561 14.9593 4.64437 -2.29472 0.927138 -4.422 -2.53803 -5.65716 2.98921 11.8786 -0.42683 -4.17605 -4.09008 0.409996 2.74387 -2.10249 -1.22009 1.09158 -0.863278 1.49841 -0.795951 0.815623 1.41254 
3.02192 -1.54623 -7.51214 9.49396 17.9977 0.783779 -4.21787 6.09278 -3.08468 4.6333 -10.364 2.84559 15.4665 -0.418142 -3.82667 -3.72352 -0.133713 1.43785 -2.82542 -0.76813 0.336903 -1.06561 0.285521 0.0703176 1.83064 1.55939 
0.335128 -1.72465 -6.86946 8.13901 17.2013 -4.15489 -3.92724 1.90706 -2.26979 4.23734 -7.03984 7.16625 16.8817 0.131942 -1.31952 0.160905 0.652724 -1.24972 -3.72722 -1.01041 -1.08138 -1.24019 -0.108088 2.29144 0.580523 1.08446 
1.5382 -0.979231 -5.15158 10.4011 14.899 -7.95408 -2.41977 0.561333 -6.66028 0.371586 -4.76165 4.78881 17.0338 1.48379 1.14821 3.87943 1.11678 -3.94796 -2.20392 -1.06075 -1.29899 -0.782763 -2.85652 4.06929 -0.423842 0.166076 
4.91951 1.60809 3.65606 13.8661 10.2601 -9.6228 -8.24583 -1.71405 -8.83516 -0.947614 2.99885 4.92021 16.5172 2.27945 0.928447 3.72513 0.592294 -3.9826 -0.504675 -2.07167 0.386567 -0.024304 -3.25776 3.81343 -1.69658 0.0117897 
8.14868 2.52843 6.62223 12.2143 1.7285 -7.50185 -7.36233 1.4084 -3.71581 -7.0568 4.96306 1.8494 16.4792 1.60073 0.386723 2.15636 -0.445065 -3.43368 0.839201 -2.67138 0.588484 1.05959 -2.44929 2.97788 -1.80728 0.210127 
8.42714 1.16375 5.86928 10.1939 3.87348 -6.90438 -11.8143 3.41637 -3.86355 -8.33726 7.16496 0.153076 17.218 0.705469 -0.395046 -0.0846091 -1.52106 -1.64994 1.06292 -1.95747 0.538832 1.12799 -1.20391 0.929311 -2.07393 0.427753 
7.78804 1.17655 4.52362 10.0119 0.923921 -5.11729 -13.9924 0.938544 -3.84815 -8.18003 8.04469 -1.864 17.734 0.140539 -0.718686 -0.565452 -1.74505 -0.208942 0.678535 -2.03406 -0.0638102 -0.31644 0.626127 0.430959 -1.82253 0.429747 
8.62718 0.308803 4.28232 7.36203 2.4127 -5.5005 -14.7182 1.21504 -3.12901 -6.40554 6.10459 -3.59272 18.0285 -0.0260549 -0.540277 -0.422732 -1.91859 -0.668787 0.46531 -1.03695 -0.412066 -0.335786 1.40889 -0.280548 -1.11356 0.307134 
8.75136 -0.637526 4.58844 4.90494 1.41419 -4.81112 -16.0807 2.19001 -5.66528 -4.89202 7.64804 -5.39037 18.2226 0.0638485 -0.576646 -0.508014 -2.02782 -0.352353 0.108003 -0.379578 -0.227098 -0.138241 1.83455 -0.0802896 -0.832562 0.252214 
7.8152 -0.630595 3.72321 3.15439 0.284417 -4.73091 -15.9549 0.7303 -4.63392 -2.93682 5.96055 -3.65154 18.5094 -0.10948 -0.408419 -1.09047 -1.48443 -1.38549 0.599664 -0.320524 -0.404391 0.435809 1.7611 0.30639 -0.774072 0.246426 
8.51327 -1.23698 2.2631 1.97663 0.2263 -4.96206 -15.2719 0.0454221 -3.7869 -0.741617 7.71527 -5.9974 18.7547 -0.104889 -0.390542 -2.02055 -0.52152 -2.38003 1.08621 0.0631729 -0.767015 1.39488 1.74218 0.672759 -1.14985 0.272674 
8.19882 -1.43357 -0.00733924 1.40401 -3.92081 -2.42671 -16.7252 0.265381 -1.88916 0.324778 7.60293 -7.15957 18.9946 0.235875 -0.75121 -2.3963 -0.470422 -2.18518 0.945828 0.852225 -1.17822 2.4945 1.56482 1.21377 -1.56557 0.31906 
8.0351 -2.18875 -3.64901 3.17254 -8.38333 -0.532147 -15.3797 -1.4126 -0.0632723 2.18808 10.1906 -9.38558 19.3434 0.146013 -0.81804 -2.49709 -0.918296 -1.24568 1.10095 2.39283 -0.95575 3.19705 1.92166 0.737893 -0.796226 0.387371 
9.23366 -3.91076 -5.30225 0.204332 -6.33668 -2.21673 -11.6399 -4.43181 5.97677 3.42244 10.7917 -9.78531 19.8103 -0.340679 -0.759039 -2.56633 -1.64664 0.17757 0.479669 3.8419 -0.925223 2.59427 1.28564 -0.403025 -1.12103 0.40104 
8.72592 -4.08858 -7.57489 -2.015 -4.79417 0.437708 -5.85042 -2.38474 8.26538 7.31784 9.81035 -8.66566 20.2837 -0.752005 -0.548814 -2.03676 -1.69487 1.31251 0.444134 3.75285 -0.182228 1.42499 0.720939 -2.07398 -1.31375 0.375144 
6.15002 -4.27884 -10.8761 -4.23541 -4.82753 -0.513289 -2.28032 -3.87467 6.91788 4.18809 5.77795 -13.1247 20.5297 -1.23591 -0.110775 -1.64747 -0.961556 1.48025 0.761413 2.52584 0.69552 -0.116068 0.510244 -2.92761 -1.67198 0.324125 
5.81689 -4.74878 -11.0459 -3.08192 -2.57533 0.836802 -1.29523 -2.60231 6.59112 5.40995 2.3276 -14.2846 20.8594 -1.18915 -0.525128 -1.12593 -0.835933 1.168 0.436866 0.763211 0.266905 -0.873061 -0.373792 -3.08094 -1.78942 0.280863 
4.50862 -4.13454 -11.8041 -4.06999 -0.0448408 1.39079 -1.28826 -0.845418 6.23356 6.92761 -0.104982 -15.3357 21.1431 -0.65533 -0.867251 -0.277037 -0.83229 1.27372 0.817781 0.263311 0.231804 -0.648303 -0.341471 -2.33222 -0.718014 0.256246 
3.60086 -6.78637 -12.7405 -6.27738 -1.34554 1.67 -2.53039 -2.56483 4.24223 4.07913 -2.6529 -16.5073 21.3813 -0.388963 -0.930861 0.280592 -0.934391 1.39345 1.13016 0.687339 0.260258 -0.688338 -0.250963 -1.86734 0.402436 0.211867 
3.98139 -7.5963 -11.4139 -6.79913 0.926168 3.15902 -0.346187 -2.73439 4.85081 3.14615 -3.39288 -15.6034 21.55 -0.0453063 -0.895324 0.486799 -0.527714 1.34703 1.47393 1.06155 0.16453 -0.618619 -0.239068 -1.82277 1.4587 0.161917 
4.13569 -7.6722 -9.83802 -6.3893 3.90639 5.60347 1.67042 -0.356537 3.8408 6.04587 -5.36518 -12.1386 21.7153 0.140849 -0.56484 0.55096 -0.270452 1.63516 1.1481 1.24764 0.246506 -0.296334 0.0515924 -1.81215 2.24384 0.12024 
4.01467 -8.16825 -10.8214 -6.6526 4.06436 6.79369 1.9191 -1.12692 3.34118 4.7489 -7.8627 -10.2266 21.7857 0.176438 -0.563286 0.503041 -0.0931288 1.44007 0.734466 1.29744 -0.0910944 0.291315 -0.159499 -1.47737 2.29315 0.0943144 
4.28846 -9.3246 -10.282 -7.70291 5.26116 5.59319 2.57514 -2.13604 3.51537 3.53571 -9.47876 -7.9765 21.8647 -0.0736884 -0.621349 0.244288 -0.344858 0.793455 -0.143108 0.740372 -0.655855 0.763175 -1.0795 -1.04257 1.37114 0.0689398 
4.7872 -9.58653 -8.67673 -6.60797 7.44914 6.83649 5.68866 -2.30011 6.4701 3.60373 -8.72295 -6.21875 21.9469 -0.427772 -0.518444 0.102949 -0.259664 0.114568 -0.609991 0.00297644 -0.258789 0.586966 -1.22916 -0.617068 0.471719 0.0570263 
3.38098 -10.0698 -9.6889 -8.1359 6.18128 4.86653 3.48751 -3.04922 6.09222 1.22095 -10.1479 -7.28681 21.9794 -0.452227 -0.132356 0.295301 0.528 -0.482169 -0.444707 -0.114492 0.603867 1.008 -1.29595 -0.00763807 -0.00799007 0.0483971 
2.32955 -10.3879 -10.6032 -7.73442 4.17714 4.10706 1.4778 -1.96427 4.98759 -0.239512 -10.6135 -8.21281 22.0134 -0.611105 -0.0254049 0.431959 0.686177 -1.19435 -1.22304 -0.114421 1.2161 0.828617 -1.37434 -0.0785055 0.0487601 0.027368 
3.25615 -9.58571 -7.84228 -4.49968 4.48631 4.73437 4.10811 0.715378 9.29664 -1.02239 -8.57169 -7.01942 22.0734 -0.378336 0.27945 1.42876 0.894486 -1.10738 -1.61276 0.894224 1.92873 1.28315 -1.05333 0.142095 0.609069 -0.00679016 
1.79409 -9.9556 -7.44025 -4.9952 2.32486 0.787368 4.80625 1.89812 9.01097 -2.14633 -9.90357 -6.10865 22.0367 -0.170158 0.356509 1.73841 0.61503 -1.4763 -2.03149 0.925271 2.18073 1.41482 -1.3074 0.254709 0.545158 -0.0611496 
1.75703 -8.88869 -4.12655 -5.03308 1.57051 -1.53741 6.2944 4.66324 10.4963 -3.09232 -9.79236 -5.29355 21.9338 -0.109086 -0.0149019 1.46317 -0.231882 -2.46438 -2.58729 -0.0423133 2.04978 0.000192261 -2.03293 -0.17878 0.303043 -0.135542 
2.22832 -8.95384 -3.76899 -4.39257 -1.74645 -2.91449 5.01101 6.96542 11.4619 -5.74156 -8.72959 -6.34996 21.7775 0.258528 -0.106056 1.69326 -0.631363 -2.40428 -2.37925 0.423001 1.34678 -0.755046 -2.3807 1.09055 0.644386 -0.204891 
2.49361 -10.1611 -2.36207 -5.96041 -5.79993 -6.35115 3.79416 8.43062 8.07216 -9.38941 -10.0526 -5.38355 21.5253 0.290886 -0.053001 1.97871 -0.839296 -1.67577 -2.40295 1.78763 0.215619 -1.47459 -1.36135 2.64983 1.68647 -0.187037 
2.71844 -9.84967 0.143814 -7.68835 -6.01133 -8.70199 8.17137 6.74831 6.44781 -10.9013 -4.32072 -2.84172 21.2165 0.0698116 0.166983 2.30595 -1.2513 -1.24223 -2.84407 2.4682 -1.49554 -2.05793 0.017921 3.78427 1.77329 -0.138616 
2.9664 -8.70578 3.81057 -7.58167 -4.67592 -10.6584 13.6524 5.8499 5.63037 -7.31923 1.25234 1.38467 21.2791 -0.277222 0.905217 2.53484 -0.634189 -1.3883 -2.27421 1.6653 -1.85777 -1.94764 2.0277 4.53724 1.41348 -0.0471085 
2.34098 -8.84659 4.67441 -9.83846 -8.51959 -14.9812 12.4229 0.778076 2.39311 -6.68704 4.53928 -0.867601 21.2075 -0.728449 1.32886 2.59592 0.201091 -2.09646 -1.15058 -0.424925 -1.91842 -2.43311 2.4757 3.00099 0.714773 -0.00838451 
1.29623 -6.13656 8.04681 -8.0563 -11.4873 -14.5826 9.99489 2.12689 0.361294 -1.35802 8.20365 0.696801 21.2943 -0.952764 1.8726 2.3264 0.836167 -1.88444 0.715934 -1.80591 -2.21376 -3.05192 1.57488 0.842084 0.203061 -0.11769 
-0.0887184 -4.48999 11.0053 -6.44558 -13.0879 -12.4928 7.87548 -0.982275 -3.08321 -1.50337 7.20855 1.07608 21.167 -1.05517 2.24749 1.83732 1.44081 -1.23102 2.06087 -2.29649 -2.32887 -3.17054 -0.0820262 -0.905896 0.242498 -0.141806 
-0.582571 -1.52107 12.2771 -5.09728 -11.814 -8.32296 6.89649 -4.33872 -6.89107 -2.03664 4.12813 1.42813 20.7109 -1.25152 2.23426 1.17402 1.25811 -1.11126 2.58398 -2.66122 -2.72814 -3.17562 -1.8518 -1.58433 -0.276809 -0.121029 
-1.99547 0.0831213 11.7458 -4.11394 -14.5114 -7.80667 2.48964 -7.63345 -9.8334 -6.75786 2.04756 -0.0207758 20.7902 -1.07166 2.39071 0.922558 1.29778 -0.813879 2.95572 -2.93362 -1.95956 -2.25068 -1.84876 -1.07832 0.0145004 -0.124012 
-4.008 2.7482 13.5466 -2.93157 -16.3319 -4.00581 -0.618284 -8.18821 -12.1417 -7.98975 2.86249 -0.138816 20.8776 -0.914948 2.33605 0.820234 1.25747 -0.570176 2.28257 -2.69896 -1.57675 -1.97887 -1.71402 -0.340393 0.43098 -0.202395 
-3.73431 5.32891 14.9833 -1.03953 -14.8983 0.127242 -3.03522 -8.85531 -11.7113 -7.77061 2.44979 1.93206 20.4636 -0.331352 2.17506 0.975971 1.26889 0.314618 1.85353 -2.27604 -1.56191 -1.2043 -0.646753 0.464952 1.23203 -0.42923 
-4.28789 7.5363 14.7596 -0.347119 -14.4713 -0.877079 -3.83587 -11.6116 -15.8465 -10.1004 2.22505 2.60662 19.8622 0.46945 1.64992 0.7946 1.36068 0.357911 0.413851 -2.07546 -1.10595 0.592372 0.977684 1.17178 0.935652 -0.69234 
-3.51229 8.56435 16.0192 0.938306 -13.8686 -0.103401 -7.28177 -13.7313 -14.0025 -8.93631 4.69104 4.76664 19.1517 0.909675 0.789448 0.611774 1.01118 -0.216937 -0.474595 -0.741633 -0.690205 0.885624 2.03841 1.37885 0.430965 -0.774169 
-1.77176 9.38008 17.0017 2.8829 -15.0572 -1.82123 -8.87231 -11.28 -8.03421 -2.51848 7.60078 3.12215 18.0718 0.276709 0.606075 0.587465 0.380311 -0.429109 -0.0358437 -0.127993 -0.356663 0.744949 1.63886 0.978083 -0.6243 -0.615609 
-0.443996 8.35426 16.9211 2.40134 -15.6901 -1.77366 -4.22517 -12.4721 -11.1893 -1.36953 6.65618 3.82911 17.4879 -0.197908 1.01364 0.214624 -0.112287 -0.793983 -0.503518 0.597264 -0.254283 0.671537 1.39458 0.0520834 -2.49495 -0.625718 
-4.43849 10.6717 17.2459 0.822919 -15.7061 -0.221169 -6.00414 -14.0245 -13.5283 -5.68947 6.13289 -0.0461206 17.616 -0.0557849 0.0270701 -1.76677 0.540532 0.965416 -0.999748 0.28362 -1.60358 -1.30187 0.0240373 -0.751381 -1.70152 -1.01283 
-3.16847 12.9868 16.9702 1.40686 -17.514 -3.42102 -5.72954 -13.6305 -7.89778 -0.377894 5.6854 -6.12397 16.251 -0.179355 -0.929858 -3.86146 0.0959507 3.4391 -0.131581 0.728321 0.248436 0.332086 0.266095 -1.86028 0.0270318 -1.54357 
-0.688455 7.19918 8.1433 6.0828 -9.31818 -5.99628 -6.70203 -18.7187 -16.1894 -2.89411 4.32926 -0.408888 13.6261 -0.0548091 -2.54017 -5.4782 -0.239863 5.43792 1.27867 1.87791 2.31476 2.21165 1.36092 -1.85395 2.13582 -1.69566 
-3.21579 5.44124 2.16515 0.251155 -1.68855 0.455997 -0.234616 -8.88286 -8.19837 -1.43673 -1.74339 4.14566 11.765 -0.743166 -2.66191 -4.87471 -0.621147 5.59463 1.87195 1.91587 2.9144 1.7872 0.0424268 -0.781972 3.45113 -1.1715 
-4.68888 1.74361 -2.74254 0.201457 3.57073 4.23368 0.637957 -4.82446 -2.31979 1.64456 0.57754 5.49818 11.3807 -1.06114 -1.54074 -2.30757 -1.08873 2.28003 1.05111 1.82099 4.25832 3.41315 0.502548 0.0832383 2.69458 -0.453375 
-4.88408 2.40498 -1.9604 1.2418 4.01465 0.823764 0.179834 -6.00561 -5.89655 -2.4351 3.65141 8.17815 11.5163 -0.510454 -0.903582 -0.856814 -0.1852 0.229502 -0.736571 0.45875 2.61049 2.22604 -0.305923 0.481701 1.12863 -0.054482 
-5.16 1.01359 -1.33177 0.143835 -0.769656 -0.92461 2.19571 1.1343 -0.274518 0.117812 2.04806 11.0478 11.4836 -0.343027 -0.457635 -0.744554 -0.603879 -0.978259 -0.839718 -0.118668 1.00273 1.35168 -0.596335 -0.753508 0.11577 0.0134212 
-5.5325 1.28834 -2.8243 -0.646034 1.62916 -0.647717 1.28026 1.1902 1.9092 -2.20297 -0.0701462 7.01401 11.4412 0.00767384 0.135013 -0.894784 -0.55292 -0.0568274 1.03987 1.0195 1.50341 1.5602 0.433724 -0.359332 -2.14206 0.00253553 
-6.0798 0.0137558 -6.03335 -1.87402 -0.127813 0.770824 -0.505594 -3.40871 0.535744 -1.45318 -1.32922 6.6591 11.4853 -0.177979 0.252301 -0.638976 -0.157012 1.04255 1.41025 1.36204 1.01757 -0.312222 0.458617 -0.033403 -1.97716 0.00393457 
-4.38581 3.57997 -4.08353 -0.513869 3.4096 5.1754 6.62798 3.78296 1.49933 0.519018 3.54339 -0.337819 11.5281 -0.0516661 0.369257 0.409542 1.06698 0.945319 0.61746 1.47466 2.02657 0.374118 2.08406 0.625779 -0.614441 -0.0401413 
-6.62324 1.12928 -3.89704 -0.707308 3.55289 3.21508 6.33203 4.92578 -1.63069 1.0499 0.0742767 4.83787 11.4598 -0.181758 0.225413 0.864556 0.598465 0.713139 -0.0448128 1.0987 2.3195 0.85938 1.36375 0.766069 1.34524 -0.0980196 
-5.51911 2.57687 -1.84475 4.10551 4.5154 1.21745 5.23476 7.15578 4.86301 6.96577 2.357 4.85242 11.2532 -0.356935 -0.276994 0.520825 0.130957 0.294478 0.0846325 -0.259594 1.02595 0.142061 -0.485739 -0.739882 1.30628 -0.066641 
-6.42194 1.64237 -2.82997 -1.19138 2.88498 2.52574 5.6845 6.50237 3.1508 2.14222 3.09431 10.7902 11.1327 -0.224267 -0.112292 0.339569 -0.658971 0.67046 0.264787 -0.844555 -0.283651 0.965068 0.444123 -0.186568 -0.494687 0.00747204 
-6.27114 1.93846 -2.01294 0.382954 5.21594 5.94324 5.65377 8.12443 -0.181109 -2.45583 -1.66604 3.2174 11.3585 -0.194298 -0.101813 -0.434853 -1.16129 0.852696 1.44676 0.745095 -1.22157 -0.589627 0.949114 -0.134754 -1.20546 0.0671103 
-7.36856 0.887026 -2.1151 -2.14089 6.55492 2.17613 1.89974 3.02321 5.71671 7.98132 1.15296 3.18194 11.4446 1.15742 0.630666 1.2532 0.570334 -0.448688 0.37222 0.155484 -0.721502 0.439799 0.126902 -1.91619 0.168839 0.230957 
-6.01729 2.44547 -4.37645 -1.22621 6.94391 8.62606 10.8526 2.78751 0.631926 8.79179 2.65391 2.62927 11.4328 1.4164 0.933329 2.05027 0.533339 -1.35769 -0.199222 -0.0242166 -0.524883 0.878521 0.288956 -1.17123 2.85553 0.205613 
-0.761768 4.54219 4.61778 2.46486 -0.222443 3.04542 3.8625 5.56332 4.94328 -2.84708 -8.64663 11.9285 12.2503 0.965007 0.498136 0.468306 0.542529 -1.31695 -0.0727586 0.265154 0.632455 0.124583 -1.4751 -0.540592 2.24466 0.0681367 
-2.49255 4.77752 4.87195 0.746773 1.81618 4.51248 4.55131 4.22995 4.59821 4.40315 -2.62238 13.1218 11.9837 -0.184252 -0.630525 -0.673743 0.692656 -0.195946 -0.811476 -1.19141 0.688104 0.264643 0.286804 0.886806 1.85182 -0.0482225 
-4.3059 2.21168 -4.39776 -0.414733 2.53403 3.86912 6.37617 5.46426 4.35648 2.80013 1.08814 9.15895 11.5098 -1.26965 -0.893057 -2.0074 -0.158458 1.44064 0.736914 0.00465295 1.27429 0.0411428 2.22203 1.7762 -1.7927 -0.159467 
-5.16649 0.458102 -3.23739 3.67687 4.58594 4.15683 3.63871 6.27756 2.24854 7.4022 2.22055 13.2731 11.5619 -0.967573 -0.450558 -1.41106 0.158741 1.08594 0.795205 -0.125124 0.735977 -0.844442 0.666522 0.336272 -2.70926 -0.0531952 
-5.77306 2.23661 -1.36456 0.207525 5.59588 6.90782 4.34206 10.911 6.32383 6.76352 -2.1871 2.88931 11.6638 -0.66087 -0.0371091 0.358355 -0.323738 -0.214509 0.440669 -0.801165 -0.283849 -0.206258 0.248705 -0.976798 -1.78319 -0.035881 
-6.59684 2.51226 -3.69998 1.22935 5.71498 6.96916 4.94274 5.18647 -0.607676 5.75407 0.696602 2.71033 11.6407 -0.243474 0.384942 0.31795 -1.29296 -0.893231 0.317056 -1.01688 -1.32356 -0.0724681 -0.491648 -0.640572 -0.533648 -0.0783363 
-6.89507 0.999057 -2.37469 -0.809663 0.896968 4.6663 1.71833 4.59055 4.7533 4.86772 -3.03387 5.52437 11.291 -0.0406195 -0.231237 -0.737014 -0.46832 -0.168446 -0.495613 -0.653244 -1.43433 -0.328592 -1.36445 -0.480159 0.909755 -0.0931068 
-5.82285 3.00159 -1.14257 -2.27934 2.46924 6.86287 -0.133839 2.81997 2.67146 5.89186 -0.558925 9.28733 11.3566 0.09993 -0.351629 -0.921036 -0.278822 0.680262 -0.515593 -0.0761413 -0.019571 0.558595 -1.67588 -1.02397 0.150372 -0.0551456 
-6.36315 0.835767 -6.32834 -0.37973 6.37652 4.4829 3.61413 4.9226 3.0413 -0.127641 -3.96013 4.14958 11.3403 0.0523554 -0.24924 -1.30931 0.275948 1.48664 -0.274679 0.753958 0.276671 -0.305416 -1.60102 -0.525373 -0.788732 0.00822353 
