-8.96931 -2.10884 -3.33185 -1.11611 8.36793 2.85436 16.3503 5.79796 1.04016 4.10186 2.15285 8.9674 11.1839 -0.233531 0.0600324 0.296366 0.791204 -0.179981 -0.0536305 -1.86977 0.241644 -0.861486 0.247515 -0.260663 0.547792 0.043405 
-9.27799 -1.62802 -2.8753 3.17519 10.3029 7.81787 16.7685 6.12864 -2.19284 2.23019 -2.18576 9.10256 11.3343 -0.0684065 -0.0799307 0.0321502 0.498083 -0.325348 -0.522099 -3.13379 -1.04219 -1.64023 -0.98507 -1.21085 0.403866 0.0521228 
-9.98263 -2.04909 -2.0783 0.69427 6.50055 0.10445 6.7924 6.84084 -1.65077 6.27526 3.01884 11.6388 11.3257 -0.211637 -0.625288 -0.721952 -0.437596 -1.65007 -2.48662 -3.25927 -1.86972 -1.60529 -1.30752 -2.04809 -0.206087 0.0750653 
-8.80469 -2.53837 -3.79788 0.469124 7.67488 1.61882 5.46034 0.0655794 -5.81554 -1.9102 -4.33439 9.65104 11.3736 -0.0328527 -0.326874 -0.336627 -1.19333 -1.23218 -1.86203 -2.29794 -2.00562 -0.213728 -1.27994 -2.46341 -1.50468 0.0319926 
-10.2641 -4.78011 -6.48032 -1.95105 1.43157 -6.4792 5.70811 -0.519112 -5.17492 -0.365567 -7.01326 7.66272 11.5396 0.791632 0.746151 0.949534 0.841315 -0.0726605 -0.0174707 0.346583 -0.946618 0.892267 -0.53141 -1.70788 -2.19189 0.0209618 
-9.30149 -1.89688 -2.35742 -1.46878 6.67646 1.79955 5.82097 -0.219468 -1.4994 -0.849074 -9.48673 3.56718 11.3873 2.52051 3.0824 2.65495 0.725185 -0.248844 -0.152706 -0.672485 -0.204875 0.482977 1.03156 1.22256 -1.68424 0.0717451 
-5.77606 1.36091 1.94915 5.86979 6.63646 -0.0732727 8.345 2.25027 0.652497 3.08765 -2.94436 3.72126 11.4237 4.08643 4.08795 3.27718 1.49993 -0.168835 -0.156916 -1.24462 -1.25734 -1.19726 0.172511 1.94341 -2.06767 0.265512 
1.55382 9.80309 5.26212 0.184623 3.82821 -2.34768 0.779466 -2.34349 -6.31436 1.52099 -0.256026 3.20057 11.7903 3.88198 2.4626 1.76379 1.58318 -1.99833 -2.61018 -1.00552 -1.47435 -0.741399 0.116081 1.21141 -1.75345 0.417349 
4.74035 9.80965 6.09581 4.72187 2.01152 -5.19017 2.00578 -5.74382 -8.75375 -0.688043 -1.91156 -2.49233 12.6657 2.56092 -0.420636 -1.38706 0.199427 -0.342849 -1.33597 -1.56882 -1.30675 -0.765255 0.232483 -0.231952 -0.853871 0.599001 
4.85019 6.19177 4.38819 7.02108 -1.00274 -8.6929 3.963 -3.59417 -0.503272 1.61918 -3.94607 -2.09326 12.8531 0.37794 -2.49101 -4.07656 0.631277 2.02553 -0.386261 -0.911843 -0.736695 -0.675608 1.03451 -1.77693 0.354021 0.925422 
5.38035 1.0634 -4.54918 3.4487 7.33769 -3.58049 -1.09088 -3.65812 -6.07933 4.20097 -2.2591 2.09882 13.8873 -0.322243 -1.78024 -3.97185 -0.313194 3.42592 -0.0726012 -1.11299 -0.125402 -0.555325 1.00768 -1.81289 0.846674 0.954192 
3.12353 1.72116 -9.7982 3.97759 11.2928 -5.08382 -2.23141 -7.06981 -11.0296 4.249 -8.96689 2.6751 15.8066 -0.0672387 0.0107651 -1.84471 -0.488967 2.65099 -0.207438 -2.00253 -0.660264 -0.908461 0.190876 -0.575355 -0.316508 0.915271 
3.99247 3.14378 -6.67026 4.67764 12.9934 -7.35771 -0.461954 -4.63301 -6.26721 3.03544 -8.46563 -0.643137 15.9599 0.731652 1.75149 0.754838 0.244366 -0.406332 -0.470212 -1.71831 -1.23085 0.723473 -0.668573 2.03524 -2.0354 0.584387 
5.20794 5.20541 -3.77482 3.96177 9.42438 -7.84149 -6.36412 -6.40804 -4.95164 3.15633 -3.71959 -2.30482 16.3931 1.41321 1.30928 1.46156 -0.220402 -2.24987 0.763791 -1.4949 -1.59533 0.655376 0.0561538 3.95123 -1.68111 0.309932 
7.9964 8.07875 -3.78669 4.67844 6.24022 -4.55272 -7.61608 -10.1432 -5.50095 1.40445 5.29343 -5.5882 16.5159 1.67001 0.285886 0.180339 -0.145865 -3.52945 2.03529 -1.73552 -1.50746 -0.618928 0.108672 4.44915 -0.879238 0.38354 
8.18763 5.80008 -3.9322 2.87518 3.41997 -2.66736 -6.12886 -12.2913 -8.13587 5.34527 3.90971 -3.25792 17.0782 1.48977 -0.749415 -0.51141 -0.274137 -3.93716 2.8655 -0.968405 -1.30985 0.0965039 -0.036244 3.32753 -0.548539 0.424309 
10.8527 4.27587 -5.68987 4.49161 -1.65168 0.23167 -9.2572 -9.22867 -7.76973 2.48433 9.96549 -4.56278 17.5351 1.20135 -1.2475 -0.850322 -0.39553 -3.93382 2.77175 -1.78181 -0.37616 0.775855 0.456236 1.26341 0.933167 0.496209 
11.2287 3.35977 -5.38027 2.6845 -6.31545 4.09382 -10.3856 -13.4146 -3.33473 2.43517 10.5821 -5.56022 18.0051 1.08419 -1.06231 -0.795362 -0.608903 -3.21451 1.9899 -1.88437 0.354667 1.35143 0.156775 1.3562 0.506633 0.468479 
12.4826 3.0614 -7.31426 2.79613 -8.56116 5.92542 -14.3968 -11.4624 -4.02225 5.14068 8.27431 0.228792 18.5335 0.351475 -0.799969 -0.83929 -1.56812 -1.55717 0.853922 -0.706237 0.938498 1.57181 0.756467 -0.0101547 0.465834 0.398856 
12.7936 1.09576 -7.09681 0.678406 -9.19782 4.43527 -12.9809 -9.40113 -3.25244 4.80097 11.5363 -3.12054 18.9214 0.052676 -0.787874 -0.769888 -2.00944 -0.0805856 0.27172 0.0996166 2.31904 1.27682 0.74808 -0.180422 -0.681086 0.24696 
11.8276 1.40803 -9.02805 -2.34596 -7.99635 4.33055 -11.4907 -6.5429 0.0481904 5.08376 9.43758 -3.45344 19.0712 -0.447333 -0.528417 -0.458991 -2.7238 1.2573 0.285473 0.781243 2.28546 1.44938 1.04848 -0.794015 -2.46311 0.104371 
11.8196 0.247086 -8.37282 -4.79167 -7.00079 6.24985 -11.3405 -4.27914 1.01417 6.20403 9.09831 -7.12453 18.9711 -0.711707 0.242206 -1.1253 -2.42564 2.15622 0.205193 0.86551 1.48972 1.73811 1.18467 -1.71712 -2.90114 0.0900995 
10.733 0.843657 -8.97121 -8.08785 -3.37317 6.4455 -11.3108 -2.59613 1.09133 9.68154 5.52324 -10.0848 19.0305 -0.73894 0.218935 -1.83077 -1.28287 2.11357 -0.0534043 1.12667 0.95229 2.04757 0.102937 -1.83516 -2.56486 0.210554 
9.78237 2.58898 -12.7517 -8.57884 -0.728289 4.40376 -8.74336 -3.9259 4.91652 8.42542 4.90787 -14.3106 19.3922 -0.762026 0.0618398 -2.20225 -0.840071 2.20391 -0.318964 0.984475 1.48383 2.17271 -1.00527 -2.27239 -1.99036 0.315705 
9.15146 1.33176 -15.9924 -6.86674 -0.564752 4.98658 -7.15594 -1.95807 8.33486 4.48775 2.35699 -12.6847 19.9134 -0.540444 -0.454648 -1.76361 0.128201 1.36802 -0.0849639 0.708445 1.80808 2.33258 -2.30083 -2.40842 -0.475669 0.270868 
8.8002 0.312235 -15.8735 -9.60258 2.61455 5.38449 -8.49558 2.82098 8.25594 3.77459 -0.680517 -15.7764 20.1082 -0.493478 -1.26271 -0.238273 0.610169 0.778775 0.00543315 0.52216 1.93613 1.30423 -1.53948 -2.63618 0.419291 0.156057 
8.52183 -0.291209 -16.2284 -6.93497 1.79549 5.53031 -7.89244 3.07081 11.0845 0.502796 -3.72468 -11.7302 20.0269 -0.289974 -0.872166 0.13077 0.606857 1.08306 -0.562599 0.526028 1.17868 0.717998 -0.889782 -1.35496 -0.330917 0.042137 
7.62979 -2.9131 -13.8251 -5.49387 1.98547 4.15906 -5.76431 3.24031 10.0628 2.72048 -5.23218 -12.6914 20.1158 -0.159226 -0.719146 0.010014 0.814699 0.999695 -0.668902 0.472567 0.904821 0.410601 -0.948168 -0.399959 -0.133022 0.0226458 
8.28679 -1.41641 -16.3628 -5.8868 5.16508 2.7863 -5.89143 3.72566 11.0214 0.565895 -2.14196 -15.8818 20.1203 -0.233621 -1.06935 0.48187 0.782401 -0.223188 -0.00649464 0.304135 0.69204 0.205778 -0.660425 -0.50354 -0.114304 0.0413099 
8.12159 -2.7209 -15.7562 -6.05317 5.92823 3.41199 -7.13325 7.01767 10.3405 -0.9978 -3.47168 -14.3657 20.1747 -0.398806 -1.0611 1.0922 0.208427 -0.981302 0.525808 -0.276065 0.722268 0.607368 -1.2976 -0.687812 0.315784 0.023131 
7.10783 -5.73406 -12.8535 -2.74332 -1.29184 5.87137 -5.68729 4.64233 11.9746 -0.940189 -7.12264 -11.4646 20.204 -0.630143 -1.48005 2.00902 0.549409 -2.14764 0.247563 0.0449029 0.851396 0.638353 -1.66738 -0.855923 0.859941 -0.00329018 
6.22524 -6.05979 -10.1187 -6.02348 0.307412 5.24556 -7.24671 6.39332 12.6231 -3.01445 -6.1809 -13.3211 20.1896 -0.431344 -0.438745 1.42777 0.59723 -1.70699 -1.26128 0.976127 0.9452 0.44145 -1.37921 -1.13411 1.58558 -0.0818266 
6.08425 -7.14719 -9.13642 -3.15461 -2.76273 3.10733 -5.61019 8.29481 13.0719 -6.7627 -5.06696 -12.1044 20.0964 -0.528175 0.31211 1.08897 0.657989 -1.79522 -1.72394 1.48537 1.54867 -0.407955 -1.17095 -0.562 1.83013 -0.0813744 
6.47667 -4.20806 -10.4759 -2.86138 -1.87127 -1.51237 -2.29117 9.91743 11.9991 -4.98261 -10.17 -6.11785 19.8193 -0.624696 0.452923 1.28923 1.08347 -3.02894 -1.48097 1.52286 1.80416 -1.46576 -0.427992 -0.284727 2.85975 -0.0576857 
4.34124 -5.09938 -7.23005 -1.03443 -9.17858 0.630645 -0.738196 10.6236 10.2468 -5.81087 -7.93807 -5.91556 19.9822 -0.812611 0.127098 2.60443 0.339916 -3.54253 -1.18408 1.24885 1.17573 -2.281 0.633726 1.16767 2.32683 0.0265779 
3.97326 -4.81908 -4.62575 -1.66622 -11.6294 -0.920954 -2.06842 14.2497 6.70685 -5.63033 -6.16899 -2.11672 19.9582 -0.626149 -0.581814 3.76764 0.622431 -4.03232 -1.14962 1.19333 -0.873474 -2.36305 1.09614 3.06295 1.62453 0.0671564 
3.2729 -6.20619 0.960643 -2.0526 -15.5963 -3.1088 0.522685 12.0073 4.31299 -3.27022 -1.22914 -2.47083 20.1598 -0.22411 -0.020216 3.65862 0.620901 -2.50521 -2.51258 1.55696 -2.65588 -2.78425 1.63049 3.36769 1.32967 -0.0423826 
3.8801 -6.56373 4.26696 0.759866 -18.824 -5.39075 3.04504 4.85823 3.15076 -0.77223 1.79023 0.282449 20.0663 -0.205608 0.346702 3.47897 0.676432 -1.51295 -2.19089 1.0269 -4.22951 -2.03843 0.29901 3.96671 0.707213 -0.102351 
3.26728 -4.32813 6.61671 0.857035 -18.1073 -9.69735 4.48987 2.04 -1.89643 -0.0874531 4.9208 -0.466792 19.7163 -0.336202 1.22092 3.12537 -0.00680017 -0.10904 -1.58115 -0.656037 -3.88392 -1.58988 -1.79188 4.27026 0.22031 -0.15505 
2.94803 -4.02459 9.94108 0.26112 -17.9386 -8.58113 1.08247 -1.91418 -0.380606 -5.72666 10.5896 0.417325 19.6683 -0.599488 1.34653 3.27232 -1.28198 1.37184 -0.592589 -1.65839 -2.47827 -1.4453 -2.42737 3.19008 -0.503006 -0.188268 
2.05792 -1.37113 13.7504 -1.83723 -16.5842 -9.41934 -1.77621 -4.0261 -1.8707 -9.75241 15.7225 -1.43672 19.5836 -0.600972 1.02935 3.21988 -1.51739 1.71906 0.677009 -1.88026 -1.6109 -0.717775 -2.29463 1.4191 -0.866673 -0.172763 
1.48734 -1.30957 17.0617 -4.3029 -12.7263 -8.4927 -2.11385 -4.50007 -4.08858 -8.07662 12.3398 -1.74762 19.1913 -0.767419 1.20854 2.27568 -0.875287 1.49747 1.3341 -1.647 -0.253064 -0.562009 -1.69387 -0.772484 -0.839689 -0.205932 
0.99277 -0.53888 19.1558 -4.44793 -12.1182 -6.35652 -3.31325 -4.72155 -3.63131 -10.3856 11.1412 -3.71769 19.0909 -0.483892 0.812374 1.00756 -0.131131 1.3349 1.34256 -1.1759 0.181979 -0.00520647 -1.70261 -1.88218 -0.180398 -0.247027 
-0.356486 1.60199 18.6168 -2.80997 -12.6843 -3.44204 -6.384 -2.83178 -2.31035 -13.8794 9.01782 -2.64063 18.8849 -0.12836 0.881868 0.00124855 0.602124 0.721143 0.889657 -1.42974 0.731025 -0.26011 -1.33155 -1.9103 0.237349 -0.339692 
0.56037 1.23496 18.0107 -3.23935 -9.93075 -5.23185 -5.52062 -3.95036 -2.78585 -15.3641 7.9726 -1.8922 18.5017 0.00810137 0.0566437 0.268969 0.0150127 1.00089 0.444364 -1.27333 0.80281 -0.847659 -0.819497 -1.18195 0.13306 -0.271242 
1.06174 2.21284 17.6405 -1.89657 -10.2143 -4.60675 -8.15887 -1.23055 -5.81187 -12.2451 4.37258 -1.47362 17.7875 -0.297717 -0.477132 1.53921 -0.33463 0.760186 0.51093 -1.18864 0.599508 -1.30961 0.304761 -0.170508 -0.255167 -0.131831 
0.324164 -0.561089 20.9888 -4.82956 -8.3487 -3.55235 -8.79248 -1.50811 -6.11885 -15.3003 7.55402 -3.63589 18.2835 -0.96137 0.226886 2.30751 -0.150811 -0.0898676 1.19584 -0.852151 1.36828 -1.24218 1.32479 -0.23145 -0.472203 -0.185565 
-1.72697 0.114354 24.8238 -3.68801 -9.67439 -1.72714 -10.6913 -1.05536 -7.19191 -12.3875 8.37457 -3.04462 18.3349 -1.42657 0.816401 2.11259 -0.235158 1.15343 0.877513 -0.171748 0.129619 -1.86762 1.91826 -0.27749 -0.143215 -0.453175 
-2.85213 3.41864 25.9566 -3.09768 -10.6501 -0.692444 -8.51517 2.80343 -8.30671 -8.66895 4.81435 -3.46771 17.3001 -1.26377 1.2109 0.689777 0.226665 2.35707 0.727498 -0.740598 -1.39599 -3.01084 2.15914 -1.37481 1.00511 -0.818596 
-4.48296 4.30499 25.7196 -3.9383 -3.29653 -1.64913 -9.15627 -2.73823 -14.056 -5.96949 4.35496 -2.27379 16.0133 -1.24099 -0.30345 -4.86752 1.23195 3.8378 -0.89687 1.86377 -1.84582 -1.40419 2.13363 -2.7572 2.12997 -1.57408 
-4.61671 3.3981 23.9898 -3.57109 0.247737 0.0461346 -13.263 -7.64665 -17.741 -7.71358 2.68976 1.00425 15.3513 -1.57463 -1.96241 -8.52061 1.94359 3.19185 -0.485153 2.91236 -1.26494 4.49916 4.45258 -1.63575 2.7812 -1.47325 
-7.04963 -1.39263 1.46964 2.70844 4.0657 -6.58078 1.00149 -5.0594 -9.49573 -2.19702 -4.34915 5.36924 11.4389 -1.65731 -2.53867 -9.18922 2.08726 1.35201 1.10764 4.16397 1.28204 7.84384 5.20355 -1.75278 1.86132 -1.08747 
-9.44193 -3.5446 -4.52149 3.29689 1.62807 -0.652386 0.967736 -2.36068 11.9089 11.7077 0.987644 6.61677 12.2211 -1.15821 -1.93307 -6.02973 0.642651 0.113867 0.284063 3.44022 2.29604 5.49266 2.59978 -2.3676 0.989299 -0.741592 
-10.3569 -4.91701 -5.97088 3.06403 2.77333 4.23834 4.54823 1.02899 10.3382 10.3376 -3.55789 4.22653 12.141 -0.493982 -0.460137 -1.24413 -1.47904 -0.513794 1.11815 2.03867 2.34446 0.62685 -0.632693 -0.969533 1.08489 -0.082487 
-8.75413 -4.50504 -2.43861 -0.535633 1.46326 -3.94311 2.16477 0.789346 -0.194698 -0.981983 -9.54389 6.5221 11.2923 0.145777 0.0549436 0.0338928 -1.67111 0.453813 -0.301781 1.91814 1.47548 -3.63414 -3.42061 -1.9012 1.15188 -0.265439 
-9.86344 -3.21309 -5.79247 -2.77049 1.57914 0.65534 10.5963 5.08789 -0.309665 0.984354 -3.93105 10.841 11.4909 0.305524 0.572744 0.382786 -0.548057 1.37421 -0.8255 1.22081 0.282847 -2.84722 -1.5954 -0.569166 0.924302 -0.194138 
-8.95978 -4.12184 -4.44123 -2.14139 4.49423 -0.369792 7.53436 2.98725 -0.937836 -0.718709 -8.33176 9.06894 11.219 0.0590275 0.27545 -0.0401578 0.524843 1.25384 0.302502 0.671587 -0.467362 -1.0733 0.521554 0.937165 -0.797265 -0.0569428 
-8.72645 -2.24489 -3.05564 1.12662 8.12888 -1.67581 7.96749 1.34427 -3.52628 2.22898 -7.00979 7.57462 11.207 0.263174 0.280672 0.479005 1.07761 0.625083 0.057426 -0.577651 -1.29146 -0.083357 1.60762 0.886199 -0.900927 -0.0800758 
-9.02749 -3.6119 -4.00781 0.140025 4.4576 -1.26502 6.83713 0.324346 -3.95291 1.00347 -3.3187 4.16896 11.1495 0.238682 0.598834 0.636772 0.7906 -0.633012 -0.579531 -0.496496 -0.421075 0.831712 0.793838 1.80212 -0.128678 -0.0191672 
-8.51372 -2.0647 -3.61415 1.47686 4.72287 1.39008 8.05671 -0.0379834 0.781088 8.16136 -2.00659 8.78636 11.1252 0.167444 -0.0285091 1.66395 -0.0791085 -1.51965 0.680368 -0.831088 -0.578497 0.853473 -0.533667 0.408916 0.482 0.123286 
-7.87274 -1.21777 -0.978113 1.63649 3.03218 -4.8004 5.00727 1.573 1.06704 0.28429 -1.82275 7.81968 11.164 -0.256534 0.284136 2.65073 0.0715223 -1.51556 0.879862 -1.14822 -1.41018 1.23572 1.07005 0.0757321 -0.211451 0.227906 
-8.46661 -3.5845 3.74924 -0.0171514 1.24333 3.49372 4.72698 -2.17254 -1.76889 -0.0797608 -5.71318 8.15926 11.8162 -0.0953899 0.430827 1.05586 0.171118 -0.782924 1.04691 -0.374288 -1.28644 -0.952256 -0.376307 0.106899 -0.371901 0.14367 
-10.3337 -1.43132 5.56414 1.24464 -1.38045 2.08248 2.76089 -5.65926 3.50065 10.4743 -1.08674 3.42525 11.9436 -0.154024 0.439235 -1.38015 -0.237226 0.500556 1.11811 1.36879 0.277337 0.123782 0.178277 0.639772 0.0629136 -0.0110898 
-7.76018 0.196208 -1.60599 2.52837 3.01456 3.18319 7.30846 -2.85403 -5.197 1.18484 -1.84009 9.12407 11.4538 0.131553 0.790042 -2.24714 0.53159 1.7462 -0.512241 0.75461 2.07426 1.05457 0.599653 1.88641 1.23898 -0.183666 
-8.99607 -0.911944 -5.20123 -0.822404 4.64934 0.945403 10.5605 3.30043 3.4 0.543378 -0.560433 7.65185 11.2897 0.603631 0.583189 -0.895346 1.16024 2.29445 0.337421 2.00122 3.08754 0.414303 -0.565185 0.541599 1.23322 -0.14585 
-8.47766 0.10602 -2.10378 3.67432 6.95942 1.50105 4.60023 3.71892 3.55429 7.88395 3.45572 12.2409 11.2247 0.777337 0.803973 1.69046 1.95167 2.0864 1.61194 0.831922 1.17666 0.651141 -0.381159 -1.25922 -0.527692 0.0132182 
-6.95682 1.52972 1.3363 6.47288 8.11936 4.61065 14.1211 6.49198 1.19652 4.29878 -1.02665 8.03294 11.3288 1.29068 1.63515 2.88364 2.42711 1.80854 1.15839 -0.18384 0.0522088 -0.395372 -0.2455 -2.46914 -1.66997 0.0510973 
-4.89312 2.99524 3.57755 8.6391 11.7115 9.41028 9.68777 1.43349 -0.839553 -2.59866 -7.90308 6.29506 11.5003 1.28292 1.65634 2.69383 1.67648 1.33269 0.188626 1.54869 0.0848646 0.259647 -1.06254 -1.58541 -0.97731 0.0459737 
-4.33494 5.81919 6.3763 8.83074 11.316 2.78276 7.09752 4.70419 3.62006 4.55718 -7.22674 2.2749 11.4074 0.859549 0.961107 1.13651 -0.0166602 0.0470976 -0.807774 0.610918 -0.27096 0.930007 -0.176911 0.402912 0.410136 -0.0304671 
-3.374 6.24297 8.84536 10.8778 12.0246 3.35812 15.8555 5.03714 3.64075 2.44202 -1.37128 10.2333 11.4153 0.217645 0.194483 0.420257 -0.825372 -0.23842 -0.019063 1.82423 0.526909 0.681382 1.14958 1.89224 1.06502 -0.0344478 
-3.41863 4.71139 4.38495 5.27024 8.19833 3.59786 14.0918 3.33535 3.60641 0.893885 -2.27799 8.11448 11.219 -0.196496 -0.543114 -0.87748 -0.80543 0.413744 1.18005 1.63034 1.23098 -0.125826 -0.732231 -0.0579433 0.905758 -0.0231474 
-4.26305 4.52155 6.67451 6.29249 12.0783 8.90741 15.3117 4.75246 2.57419 4.98089 -0.916234 8.70036 11.4223 -0.445204 -0.530434 -1.28527 -0.573711 0.782602 0.741106 0.0760445 1.95946 -0.0315258 -0.689815 -1.82114 -0.587064 -0.0185087 
-4.87289 3.96433 3.07432 7.09623 13.3578 5.90839 15.5211 11.0014 3.52422 -0.373407 -7.74398 7.57017 11.2882 -0.351836 -0.205135 -0.622145 0.445573 1.15986 0.162203 0.306783 2.15811 0.078566 -0.788888 -1.77597 -0.22188 0.000425529 
