-6.18199 0.528556 -7.64017 2.81741 1.63757 2.21492 10.5972 0.716023 11.1263 2.63641 -0.640351 3.42559 11.3531 -0.393697 -0.367883 0.109816 0.712734 1.11195 -0.48918 -0.263761 1.53217 -0.66271 0.924368 0.949392 -0.272 0.0181012 
-7.87501 -2.5814 -8.70512 3.08114 8.29307 2.26233 8.69355 3.97716 10.2823 6.62825 2.76281 4.62332 11.3686 -0.649105 -0.278013 0.138321 0.483451 0.0683783 -0.75421 0.0974766 0.710307 -0.601571 1.01304 1.66512 0.0991389 0.0408278 
-7.30396 0.244119 -6.55861 6.24921 3.86956 -0.254677 10.2302 6.7463 8.23473 5.26233 2.40503 1.46672 11.4359 -0.257528 -0.200988 -0.521817 0.189968 -0.157395 -0.648649 -0.966248 -0.116423 -0.336113 0.703662 0.907651 -0.106558 -0.00113602 
-8.86652 -0.719292 -7.48934 3.51876 0.863461 -0.321325 11.2681 1.25242 9.5642 6.38865 6.16258 4.90071 11.5159 0.282894 0.610214 -0.0640801 0.13189 -0.729249 0.361802 -0.874833 -1.02837 -0.11415 -0.0780373 0.0532824 -0.522346 -0.0118304 
-6.97387 -1.40744 -10.8571 3.54844 4.5654 0.263505 4.4787 1.49628 9.80475 6.27453 2.19802 2.7541 11.2738 0.317066 0.15167 0.133871 0.141393 1.23158 1.1797 -1.02893 -1.2861 0.148862 -0.471907 0.135003 -0.629944 -6.76155e-05 
-6.62558 1.29545 -6.87626 5.09098 4.29891 3.81225 7.19514 1.46034 8.92651 5.73197 3.13273 1.3679 11.3905 0.369209 0.536435 0.583283 0.710877 1.72063 1.38873 -0.551727 -0.472352 -1.84223 -1.58162 -0.673561 -1.51266 0.0111603 
-6.8391 -0.00490427 -6.1958 6.17006 8.30972 3.57703 7.12205 0.211831 9.29789 3.23114 4.59497 0.0834036 11.4983 -0.00676041 0.0578425 0.329643 0.148529 -0.215484 0.537671 1.69567 -0.170765 -1.01324 -0.769963 0.212798 0.446917 0.0341546 
-7.08786 1.26162 -6.9036 5.76233 7.59444 4.96555 7.18776 -0.467113 0.606483 0.00222048 1.5963 -1.32726 11.4595 -0.11983 -0.290871 -0.701382 -0.550906 -0.525195 0.40224 0.73604 -1.27565 -1.20367 -0.99567 -1.38434 0.646281 0.0106265 
-6.77653 -1.10131 -9.19526 3.95541 1.84021 2.37521 12.9608 1.60618 8.89857 5.28959 4.03022 6.33626 11.4101 0.716613 0.979211 -0.271964 0.225312 0.0170821 0.435123 0.516949 0.460483 -0.00282009 -0.529241 -1.51431 0.347889 -0.00347023 
-7.25602 0.3893 -8.88344 3.44378 4.90769 6.42436 7.95599 -5.6151 3.10783 -0.275607 -3.5066 1.47288 11.4877 4.06527 1.77354 0.569482 -3.51503 -2.22115 0.199589 -0.234922 0.255498 -0.317102 -1.76272 -1.09088 -0.920688 0.851873 
-3.17196 5.32731 -6.5657 8.4559 9.73851 5.02324 9.32268 5.08824 8.03311 0.723844 -0.425145 0.422783 11.4668 5.833 1.85619 1.17427 -5.9147 -3.57927 1.12532 -0.605437 1.34317 -1.79065 -2.73094 -0.429023 -2.24853 1.62652 
11.4362 6.91502 -5.37097 -14.0631 -7.46044 4.63948 7.83218 -0.930654 -0.546296 -6.5285 -1.6304 -2.97396 15.6905 5.8127 0.97821 0.835495 -6.38329 -5.27962 0.468924 -0.238345 2.43428 0.253373 -1.28856 0.494974 -1.52253 1.87315 
13.0424 4.91678 -5.08016 -16.8647 -9.87209 8.89424 9.99547 5.97978 1.7724 -5.23868 0.947008 -2.68295 17.4413 3.60533 -0.0492374 0.537697 -4.72844 -4.77311 0.348039 -1.31239 1.00412 0.968762 -0.262538 -0.111855 -1.19714 1.52039 
13.7003 5.48562 -5.44873 -15.8124 -11.6851 6.83348 6.42787 6.11053 7.50506 -3.73714 -1.71781 -4.5869 17.8662 0.794284 0.0812403 0.61288 0.375933 -1.36466 -0.261548 -1.73954 1.39885 2.58853 1.74111 -0.0989856 -0.719566 0.54602 
13.7226 5.79583 -3.83833 -14.3116 -12.0147 5.66644 3.4629 6.58826 8.85124 -1.98452 -0.940717 -4.75642 17.9809 0.568615 0.940249 0.707078 1.55911 -0.965344 -1.76481 -2.0704 -0.758429 1.62553 1.94053 -0.525743 -0.455326 0.1196 
15.0675 6.8817 -2.92748 -13.4599 -13.2124 4.94564 2.40079 5.75935 8.85695 0.549985 -1.18146 -5.53505 18.1508 0.277199 1.25075 0.78003 2.52833 -0.645146 -1.66455 -1.57028 -1.83 -0.726964 1.85953 -0.00672729 1.20282 -0.136882 
15.2019 8.91998 -2.8054 -10.2454 -13.9352 1.01412 1.65699 2.36323 9.22409 2.32042 -1.94988 -4.48551 17.897 -0.311052 0.665479 0.140692 3.75954 0.703035 0.599005 -0.911453 -4.56983 -0.872751 1.12071 -0.0683299 2.84014 -0.54433 
14.3467 10.1773 -2.06504 -5.2039 -13.9506 0.836868 -0.5206 -0.926929 3.68382 3.40801 -1.24686 1.29172 17.2237 -1.5994 -0.24518 1.1931 5.90447 1.88281 1.40139 0.482865 -5.01038 -1.36606 -0.751437 -1.50615 3.4317 -0.917273 
12.5278 7.47542 -3.56609 0.358078 -8.13041 10.7158 0.366327 -12.9177 7.07406 2.19 -1.24967 6.03089 15.7228 -2.11121 -0.87205 1.85843 5.69229 2.50249 1.79153 1.29973 -3.83996 -2.42251 -1.68225 -2.30025 3.24804 -0.905423 
8.40753 6.37808 3.41835 10.7607 -6.70072 7.10174 5.46045 -11.6521 3.10166 -3.14199 -9.06231 6.36523 14.6516 -1.82271 -1.65368 1.01068 3.59657 2.65411 0.000358522 0.637806 -1.71192 -1.84306 -0.960277 -2.0184 0.785485 -0.48516 
7.61536 6.45935 3.74504 10.2338 -5.04763 6.83936 5.1651 -11.474 -2.59736 -2.81582 -9.54338 9.21792 14.656 -0.708928 -1.30447 -1.16699 -0.275839 1.07431 -2.59655 -1.43412 0.57823 -2.00964 0.681206 -0.353911 -0.968289 0.224475 
7.68933 2.41693 -0.667196 7.84109 -2.22143 2.7769 0.269047 -10.2084 -0.695763 1.10953 -7.192 3.62563 15.3313 0.620277 -0.0998651 -3.54932 -4.76455 -0.862857 -2.48576 -2.98597 2.38063 -0.133367 0.816149 1.50439 -1.1468 0.861084 
9.34224 2.93366 -7.35828 0.438679 -4.9985 -0.104501 -4.20856 -10.7484 -1.07543 3.47026 -3.95437 2.55925 16.5053 0.899432 0.628524 -3.21413 -6.42412 -2.01964 -1.1494 -2.27493 4.51002 0.706114 -1.00673 0.786229 0.126735 1.16146 
10.6455 7.6416 -8.77657 -8.16452 -11.0396 -1.85514 -4.78257 -0.111709 1.67386 -2.20428 -4.33484 3.96058 18.0323 0.288709 0.43647 -1.95962 -6.91831 -2.44773 1.77831 -0.350471 3.32533 -1.19922 -2.99471 -1.06239 2.74666 1.21742 
10.6344 6.98963 -8.27094 -13.884 -10.7368 3.4084 -3.68376 6.02776 -0.2516 -6.19256 -7.04082 9.68412 19.1128 -0.472648 -1.26231 -1.03028 -4.6096 -0.558842 4.27856 0.964447 -0.212749 -2.39795 -2.56204 -0.868801 2.85858 1.05233 
8.48678 2.57129 -10.009 -19.5891 -11.591 9.91199 -1.74571 -1.96985 -7.10379 -9.03261 -10.9608 13.7965 20.1147 -0.910723 -3.20619 0.0538531 -1.12366 1.61186 3.5758 0.642009 -2.95538 -2.62498 1.20945 0.483407 -0.421775 0.596251 
8.05835 -0.842752 -11.8935 -16.897 -7.51701 15.4047 -0.904757 -10.8831 -8.67637 -5.92578 -4.98542 11.9342 20.7258 -1.11285 -3.63148 0.936324 1.2597 2.21505 -0.246218 -1.7418 -2.71479 -1.89202 3.95086 0.625382 -4.89363 0.267252 
7.37991 -4.47318 -6.69603 -12.2763 -4.59017 10.0257 -2.96202 -6.43319 -7.23866 3.70955 -2.94551 0.726677 20.2071 -0.586458 -2.22686 2.22716 2.8419 2.71757 -3.71446 -3.17932 -0.108187 -0.285439 4.11547 -0.874977 -7.39574 -0.1686 
5.62363 -7.64555 -5.24579 -11.2419 -3.16191 2.12048 -11.7846 -5.31451 -9.64429 7.19068 -7.92153 -8.24909 20.4028 -0.597847 0.7245 2.38916 3.4226 2.73391 -5.25815 -2.6837 1.04379 1.15809 0.287722 -2.22606 -6.02423 -0.521465 
6.77184 -5.16161 -2.19701 -8.2072 -0.18066 -2.01818 -12.2024 -5.29508 -8.04703 4.98651 -13.8676 -13.0906 19.4332 -2.31341 4.72692 2.66265 3.55123 3.65959 -3.67903 -0.204326 1.62885 2.21315 -3.21424 -0.446797 -0.839561 -0.324755 
5.37314 3.12397 -2.19721 -1.81857 3.9478 -4.86409 -9.70308 -6.23318 -2.48173 -5.12564 -10.6547 -11.2783 18.5054 -4.569 5.89525 2.96663 4.0216 4.50267 -0.366057 4.44302 3.52728 1.74686 -3.59168 3.16913 3.81272 -0.0772612 
-4.0619 13.7767 5.09292 0.768193 10.1529 -4.87722 -5.02442 2.17039 0.245796 -6.20348 -3.81291 -1.9565 19.5321 -5.99271 3.9514 1.82804 3.18571 3.20279 2.976 5.45194 4.12669 0.0319193 -1.00426 5.2374 5.03186 0.209543 
-11.8045 12.3616 5.94238 4.37843 14.1846 1.71971 6.84151 8.58915 -5.05639 -5.17273 2.89676 5.24748 19.9671 -5.46137 0.702071 0.243595 1.84282 1.7915 4.8284 4.43148 2.66112 -1.76512 1.13766 4.05526 3.50297 0.286844 
-14.6029 9.9766 2.87337 4.62283 10.7149 9.56992 6.78501 7.92719 -6.6001 -0.0112722 5.54371 3.80583 19.75 -3.00142 -1.78749 -2.02016 0.322909 -1.13414 2.70157 1.14771 -0.725085 -0.687541 0.816199 1.30213 0.309383 0.0625624 
-16.6632 8.53435 0.130536 5.46819 12.6243 12.0544 6.54961 4.19402 -7.88438 -2.53343 4.94329 3.35535 19.8306 -1.1515 -1.70402 -1.36839 -0.0189441 -1.79765 -0.272438 -0.51434 -1.4666 0.970452 0.268165 -2.28684 -1.7364 0.0664366 
-16.6397 6.75283 -2.10197 1.83786 5.26238 3.4633 0.860097 0.742526 -1.77791 -3.44214 1.67449 0.53648 19.9131 -0.107423 -1.18585 -0.299553 -0.102568 -0.749203 -1.63989 0.766015 -0.20268 1.76817 0.19078 -3.96845 -1.1658 0.0764063 
-16.5436 5.45335 1.58808 5.67619 7.92261 3.41083 7.23226 4.84848 -2.61522 -2.11647 -6.60281 -1.79986 20.2177 1.91357 0.374738 0.798501 -0.0194829 -2.1123 -3.22925 -1.08075 -1.17672 0.196988 -0.0924996 -3.24077 -0.618545 -0.264889 
-15.1998 5.58786 0.646837 4.00599 9.3197 5.69221 10.2738 6.58657 -0.393821 0.734149 -8.52548 0.554431 19.9385 4.3555 -1.36163 2.38909 -0.777221 -2.86752 -4.77177 -3.96737 -1.62652 -3.14459 -1.14537 -1.9347 -0.775446 -0.144184 
-7.8153 10.9905 2.74864 4.28671 0.0341406 -5.20636 -3.56096 -4.61162 -7.59149 -5.08407 -6.16059 0.253648 18.4935 5.14938 -3.54031 3.16202 -2.20383 -4.15671 -5.73627 -7.05252 -0.724512 -4.53283 -2.06367 0.0489249 -0.458548 0.150705 
0.773685 -2.82391 9.2632 -1.35351 -5.13097 -16.087 -13.5802 -2.66002 -15.0127 -7.6852 -8.22012 -4.36751 20.0543 3.97158 -4.32669 3.00577 -1.78828 -4.0355 -5.39134 -6.84167 0.372436 -5.38697 -1.46493 1.52875 -0.992331 0.401316 
1.21655 -8.04234 13.09 -2.66322 -5.63562 -14.381 -16.1034 5.84921 -17.9699 -8.22515 -6.51087 -1.63163 20.9134 1.88349 -4.01654 1.28757 -1.44847 -1.97424 -2.90452 -3.56944 1.74397 -3.82063 0.372274 2.50455 -1.48911 0.440362 
0.142168 -6.52918 10.505 -1.46047 -8.02292 -16.6772 -17.6634 3.21833 -22.1395 -5.01996 -0.706575 -3.46458 20.7351 1.18206 -1.21569 -0.361886 0.476608 -0.35832 -0.115422 -1.14348 1.19701 -0.567217 0.655906 3.93885 -1.42194 -0.170324 
1.9179 -7.23953 8.5656 -2.90215 -8.39107 -19.4338 -19.3666 1.16905 -23.1313 -4.55532 2.6054 -7.64337 20.3549 0.975962 -0.382639 -1.3223 3.94852 0.599647 1.60175 1.924 -3.2546 5.41398 0.564599 1.73816 -0.668119 -0.71731 
6.3333 -9.30375 9.71598 1.149 -5.54484 -14.1376 -17.6659 5.6651 -15.2681 -6.24058 6.91601 -8.47136 19.4819 1.71284 -1.11189 -1.80476 3.54226 1.16514 2.67705 2.6725 -2.50524 7.93968 0.621126 1.08603 0.218361 -0.487778 
3.0008 -8.56824 6.87302 15.7747 -3.87642 -7.64196 -6.48206 -11.6472 5.66434 -4.79184 -1.63134 -2.46884 17.9534 2.02987 -1.78901 -2.33255 0.492526 1.08265 3.27349 0.958315 -0.360294 6.01716 1.76812 1.51898 -0.273767 0.0473175 
8.16491 -11.4243 2.32751 6.91244 -4.45453 -9.18788 -10.7431 -2.89977 3.16114 -1.79607 6.84195 -4.96005 19.497 1.65367 -1.33913 -3.378 -3.20071 0.60365 2.77899 -0.919973 0.858882 1.87575 2.43146 2.37677 -2.38716 0.505868 
11.1515 -15.1243 0.59709 -3.32124 -3.52296 -5.54124 -18.0364 3.65001 -2.2601 2.06303 10.2373 -10.7679 20.5839 1.63621 -0.564828 -3.21711 -5.77845 0.683617 1.97239 -1.5361 2.64783 -1.66563 1.94974 3.88726 -3.82914 0.684376 
10.5263 -12.7213 -4.03605 -5.3066 -2.70332 -1.29303 -16.4886 2.31092 -1.92718 2.48928 12.8655 -16.2577 20.696 0.568691 0.373014 -2.35252 -3.29524 1.04424 1.80713 0.743111 0.0404937 -0.948567 1.88432 2.25617 -2.13746 0.30859 
10.0012 -10.7439 -6.03073 -7.00805 -1.33394 -1.72744 -11.2898 -1.01336 -0.119667 2.8142 14.7932 -15.9657 20.7758 0.181589 0.700172 -1.31454 -1.25591 1.31407 0.748963 2.74793 -0.751959 -0.226869 2.30439 1.26578 0.576495 0.133892 
11.5835 -11.7494 -6.12118 -7.72035 -0.327832 -2.05912 -10.4009 -0.365617 -2.65192 7.24995 15.8449 -13.0484 20.944 0.117698 -0.123447 -0.262537 -0.680301 1.41423 -0.598422 2.16208 -0.0204989 -0.589347 2.38554 -0.425715 2.03478 0.106281 
11.5308 -12.1094 -4.93304 -8.39391 1.85964 -1.41338 -7.34066 1.22849 -3.03208 11.2047 15.0765 -9.49001 21.1294 -0.0515572 -0.365287 0.445478 0.340485 1.01996 -1.047 0.739261 0.984826 -0.446385 1.65076 -1.87622 1.88114 0.0262167 
10.35 -12.6558 -5.89758 -8.01517 2.77105 -4.44218 -7.65277 1.0875 -3.41771 10.2217 10.5953 -9.32163 21.0506 -0.56909 0.131348 1.3343 1.08494 0.789327 -1.97311 -0.00918264 1.29807 -0.0596413 0.669623 -3.84613 2.57215 -0.120165 
10.3601 -12.1171 -3.91513 -5.15821 2.2164 -5.77091 -8.96752 3.18421 -1.96869 9.58209 8.03691 -8.42345 20.8536 -0.68465 0.369317 2.57896 1.39717 0.0236174 -2.81595 -1.22436 1.75608 -0.767522 -0.273128 -4.66389 4.04062 -0.227226 
9.3234 -11.0889 0.0413518 -3.91352 3.44042 -9.74592 -9.63336 5.14686 -3.48181 11.4094 0.134053 -0.720927 20.4811 -0.871628 0.732618 4.61953 1.10172 -0.875141 -2.54664 -0.805445 1.21825 -1.53554 -1.36288 -3.01185 5.01897 -0.241907 
8.62084 -11.0463 4.99229 -3.45888 1.64304 -12.8412 -12.4722 7.9792 -6.83764 9.24522 -3.01233 6.41275 20.278 -1.42995 1.50222 5.8703 0.949716 -2.21653 -1.3029 -0.0746441 -0.131289 -3.18873 -1.9944 -1.30461 4.74619 -0.225702 
6.86149 -9.52811 12.7463 -3.35622 -1.31798 -13.6402 -9.92766 4.78126 -8.66094 3.57578 1.0606 8.35514 20.1288 -1.72924 2.19469 6.32298 0.72579 -2.85118 0.693374 1.08806 -1.45539 -2.89452 -2.6796 0.611866 2.40035 -0.217974 
4.44132 -5.38638 19.0839 -0.688279 -6.48707 -10.3383 -9.19359 2.71057 -15.3228 3.52689 1.05058 10.7695 19.9012 -1.93589 2.54355 5.59137 0.275351 -1.75241 2.32858 1.93254 -1.79276 -1.11415 -2.90701 0.326759 -0.0180208 -0.229491 
2.76696 -2.94538 24.6105 -1.66987 -6.75041 -7.53055 -5.83238 0.504231 -13.7118 0.870525 1.16193 9.10245 19.5796 -2.04396 2.5252 3.53673 0.0450223 0.0772842 2.58406 1.63301 -0.871696 0.272656 -2.78366 -0.707237 -1.1021 -0.25667 
0.988673 -1.61993 27.0171 -2.9253 -4.40278 -4.2532 -4.85713 1.15391 -9.88292 -3.93721 -1.4292 5.94899 19.4052 -1.79365 2.0393 1.62038 -0.303528 1.86957 1.94628 1.13317 -0.448915 1.44801 -2.91747 -0.437738 -1.75997 -0.333797 
-1.63201 1.21468 26.4634 -2.0126 -1.9737 -3.76244 -3.93082 1.2011 -10.0176 -6.61046 -1.2357 5.25486 19.0935 -1.24773 1.71826 -0.406943 0.573882 2.41739 1.42514 -0.121338 -0.393993 0.820618 -1.95864 0.214299 -1.53754 -0.642944 
-2.32743 2.7301 26.2593 -2.03456 0.472434 -2.49091 -4.47852 0.117557 -9.92986 -7.31996 0.0607038 3.89344 18.4753 -0.561847 1.98381 -1.21775 2.24044 1.56076 1.82224 -0.51181 -1.72011 0.858978 -0.902442 0.164314 -1.26911 -1.06405 
-1.81366 3.47091 22.9546 0.754169 2.89896 -1.28598 -6.62837 -0.947555 -9.58529 -7.2313 1.48848 2.44253 16.8299 0.287899 1.92042 -2.7334 1.8809 0.935429 1.41161 -0.569093 -2.19196 0.684793 -1.67183 -0.53705 -2.21839 -1.37157 
-1.72973 7.17103 22.6827 6.89354 0.964704 3.61979 -6.06741 -6.3723 -5.80418 -8.139 -1.96971 1.00961 15.2167 0.0385331 1.56916 -2.06398 1.13485 -0.338409 -0.00202951 -0.720318 -1.20262 0.413276 -1.69965 -0.353604 -1.25472 -0.950774 
-0.491359 8.59633 14.5847 2.92784 2.45731 0.240287 -5.98185 -6.51376 -8.65647 -14.5601 -2.90574 -4.39517 13.8649 -0.197587 0.355073 -4.81064 1.4221 0.41893 -0.597491 0.988488 -0.317958 1.64151 -0.234198 -0.77594 -1.00905 -1.00986 
-2.79591 8.0132 20.1244 2.55287 -0.998786 -3.26419 -8.40337 -3.11244 -8.32789 -12.1538 0.489792 1.03868 15.2039 -1.43453 -2.15922 -6.55383 0.515691 1.80139 -0.161417 3.00177 1.67228 4.04114 1.3104 -0.413738 -0.358161 -0.898396 
-2.26851 4.82518 0.180611 10.035 5.97536 -0.831444 -0.517951 -4.16727 -0.115871 -6.39487 -3.62098 -2.61724 11.787 -2.46621 -3.15955 -5.58508 0.731875 1.56798 1.80031 4.51766 2.70774 5.86489 3.40039 0.876294 1.34314 -0.710433 
-8.01383 -1.73951 -2.8844 5.91841 8.21261 3.34857 6.20948 0.815857 10.1312 -5.6696 -3.68079 -1.67016 11.7637 -1.81363 -2.0423 -5.72842 -0.402734 1.36825 2.21992 4.29625 1.5548 4.12037 3.51651 -0.495537 0.320979 -0.680895 
-10.2134 -2.32505 -1.83628 4.90444 5.69154 5.93545 9.30002 5.06078 11.4384 -0.800262 3.56102 3.67493 12.0328 -0.952058 -0.250905 -1.59491 -1.14933 -0.0146822 0.671886 2.21755 1.47443 1.4109 2.3384 0.260379 0.5426 -0.0405426 
-7.89161 1.37681 -7.50925 3.10448 5.98437 4.45198 8.16888 0.0475563 6.4968 2.6314 -5.57889 -0.502511 11.6765 0.513299 0.38103 -0.559225 0.189652 -0.537221 -0.762637 1.12895 -0.756632 -0.732427 2.12783 0.326049 -0.483112 -0.0613009 
-7.08991 2.0125 -5.48152 5.69534 7.01606 1.97628 9.59008 3.58902 8.75585 1.14663 -1.37003 -0.488062 11.6279 0.448979 -0.0136848 0.0811806 -0.28893 -0.815291 -2.04772 -0.586985 -1.63291 0.2118 1.50278 0.514288 -0.0629702 -0.030414 
-7.0091 -2.00314 -3.8579 6.47122 4.86424 1.51497 11.7092 -2.23142 7.81036 3.99608 0.414982 -2.00422 11.6597 -0.255663 -0.817992 0.91115 -0.0298969 -0.527485 -1.43043 -0.205722 -0.118914 1.70576 1.34921 2.06572 2.30565 0.0507546 
-8.4098 -0.703503 -3.25605 1.77642 2.17515 -2.83465 4.59493 -1.96426 11.8406 6.03128 3.13552 4.11094 11.8892 -0.347308 -0.367632 -0.096272 -0.194338 -0.811552 -0.890445 -1.28065 0.23291 0.452057 0.301887 0.767292 1.40941 0.0185905 
-8.50998 -1.35515 -4.06623 4.91446 5.7674 -0.294728 9.63785 2.22963 13.4832 6.93511 2.49693 8.72624 11.7996 -0.217158 -0.186151 -0.593942 -0.177614 -0.293194 0.314169 -0.478652 0.964444 -0.0307291 -1.4285 0.0488001 0.389842 0.0220822 
-8.07601 -0.149656 -5.85872 5.50203 2.50672 -1.5711 4.22251 2.52305 8.17971 1.18655 1.42546 1.19378 11.6509 -0.116807 -0.337182 -0.471592 0.452561 -0.5722 0.875078 1.16283 -0.00998345 -0.834294 -0.791755 0.167335 -1.2815 0.015225 
-8.26179 -3.21082 -5.52628 3.72035 3.23248 2.45404 9.50216 0.347139 9.48717 -0.724069 1.51401 1.40357 11.8892 -0.477235 0.691817 -0.20834 0.263073 -1.54589 1.06841 0.439862 -0.0142992 -0.552859 0.266231 -0.168795 -1.66957 0.193531 
-9.11793 -1.46158 -4.88399 4.63628 0.581609 0.166361 10.4769 -1.07293 9.66718 5.90209 4.46365 1.36478 11.9205 -0.045495 0.253706 0.216999 0.621591 0.293535 1.0861 0.939651 0.316552 -0.086374 0.881011 -0.201596 0.197731 0.0991281 
-10.3752 2.7599 -5.5953 6.6627 -0.999474 4.17858 8.70995 3.95612 9.97518 5.90849 0.133859 0.292896 12.6325 0.319988 0.20709 -0.289922 0.159427 0.151783 -0.220786 -0.553542 0.113803 -0.422776 0.549688 0.0607131 0.593725 -0.0930226 
-7.24678 -1.86648 -4.73921 7.13881 6.09038 2.99712 9.31687 2.30132 7.50383 2.27533 1.10756 2.73777 11.7749 0.579368 -0.019976 -0.155902 -0.288817 0.887055 -0.0191974 -0.645923 0.61391 -0.200698 -0.0765014 -0.00494536 -0.0997829 -0.185128 
-7.59742 -1.97291 -7.04828 3.26622 1.23701 -0.0652716 7.31448 -0.770973 8.45496 3.83775 3.49563 3.6857 11.4969 1.13218 0.190444 0.276009 -0.11397 1.52831 -0.578698 -0.70342 0.313898 -0.830157 -1.25826 0.675906 -0.803624 -0.22504 
-7.60998 0.804949 -4.93701 4.89043 3.89864 2.1923 7.94505 4.36017 9.42379 6.55495 2.75804 -0.830533 11.5626 0.528956 0.73365 0.42059 -0.00396833 0.170695 0.413791 0.109941 -0.730222 -0.997797 -0.680075 -0.32598 -1.15824 -0.00382833 
-4.53271 2.3764 -4.11635 7.21703 7.73796 1.6875 5.87876 4.49619 4.86442 -2.52262 2.68814 -1.94107 11.6134 0.671414 0.509057 0.368457 0.285384 -0.367095 0.721781 0.505341 -1.74357 -1.34775 -0.843303 -0.906306 -0.231618 0.0619659 
-6.13435 -0.372891 -4.10223 5.14356 3.69338 4.18969 10.5844 -3.98337 4.31012 2.05514 -0.118602 -0.240027 11.6975 0.226654 -0.379868 -0.415308 -0.145899 -0.98236 0.612423 -0.20056 -2.87051 -1.38664 -1.43228 -1.10786 0.587701 -0.00596075 
-4.97816 1.16129 -5.62338 4.56657 -0.49583 2.54493 8.52149 -5.31708 4.27307 1.87114 0.40242 2.23235 11.7393 -0.397192 -0.431285 -0.985029 -0.485748 -0.83811 -0.322371 -0.693332 -2.05121 -0.738793 -0.476374 -1.50184 0.602884 -0.0613307 
-6.25398 -0.486838 -6.26004 5.48617 3.10374 4.8257 5.62089 -5.08573 2.78627 -2.80333 -1.63837 0.0212593 11.4699 -0.21297 0.0415345 -1.006 -0.100273 0.463576 -1.16514 -1.50087 -0.234222 -0.709619 -1.34072 -1.23487 0.107581 -0.0872645 
-6.45885 0.27695 -7.9626 4.61699 3.84223 -0.242352 4.89388 -5.20868 1.93238 -2.47526 -4.06115 0.942703 11.4206 -0.316626 -0.100489 -0.638099 -0.0768352 0.941462 -1.06426 -0.798224 0.00938435 -0.553529 -0.836473 -1.13499 -0.165786 -0.0686778 
