-6.6889 1.04038 -5.27834 4.89159 4.68922 -0.977248 2.87285 0.850498 11.6886 1.67767 -0.896777 5.3176 11.3526 -0.233271 0.271253 -0.644135 -0.0647803 0.320269 1.19537 1.08155 0.142707 -1.28278 0.72231 2.2799 -2.15076 0.0206472 
-7.34169 1.31701 -7.47774 3.89171 4.85892 -1.46565 1.24236 -1.09019 6.46999 5.18227 7.03784 1.40377 11.3976 0.142315 0.423041 -0.939752 -0.287951 0.322135 1.35838 1.60713 0.0183501 -2.16236 0.456949 1.95299 -2.07051 0.00977287 
-7.52886 2.25833 -7.39932 5.06763 6.20572 5.24378 9.09585 2.53438 7.88406 3.53692 6.53543 -3.47928 11.4333 0.159837 0.082566 -0.982557 -0.435336 0.428646 0.876346 1.75448 0.0485021 -0.517685 -0.0955901 -0.583225 -0.878723 -0.00402498 
-5.55734 2.54661 -8.91661 3.36381 5.54165 2.70413 7.79699 0.100309 2.77909 3.03279 5.15206 -0.636502 11.3611 0.226463 0.0729226 0.00982971 0.516546 0.504325 0.692868 0.963407 0.559523 0.948539 -1.15084 -1.71896 0.960269 -0.0247875 
-6.78189 0.838412 -9.47169 2.97885 6.49108 1.31959 8.36794 0.497758 10.9456 2.27446 -2.87001 1.94412 11.3507 0.238091 -0.151826 -0.0468539 0.0111614 0.0121737 -0.540353 0.134658 0.182636 1.09977 -0.740507 -1.22039 1.48366 -0.0540283 
-6.58286 2.39158 -6.39241 7.51883 7.23786 3.96078 6.42335 2.72573 9.68189 0.059299 3.14577 3.49341 11.315 0.238739 -0.120713 0.507388 0.472076 0.140346 0.695091 0.843595 1.72318 1.78187 -0.810644 -0.50931 0.441211 -0.0297822 
-5.82564 1.57671 -8.89569 3.04593 5.41848 1.91369 10.456 2.13484 9.93149 1.32113 1.43661 1.87407 11.1862 0.774024 -0.124501 -0.00726058 -0.390576 -0.403131 0.792199 1.03693 0.656554 -0.0915656 -0.473835 0.490572 0.0256873 0.0132231 
-4.84177 1.57389 -6.66768 5.69065 6.77968 5.88253 10.971 7.89768 12.1955 -0.54377 0.452199 1.60458 11.2944 0.23776 0.0260529 0.243421 -0.754368 -0.193967 0.298629 0.999682 -0.184635 -0.729474 0.352693 -0.208746 0.10818 0.0622243 
-3.78231 0.624752 -9.37036 1.94006 4.70452 4.31971 11.2788 1.19455 9.231 0.206819 0.929632 3.01697 11.4271 1.25366 1.79293 1.53076 0.282899 -0.585259 -0.326943 0.317272 -1.06036 -1.86663 -0.878429 -0.706366 -0.0367868 0.0712479 
-6.41573 2.99783 -4.93797 4.29992 6.625 4.25092 11.0104 2.2727 6.38477 2.37992 2.35553 3.46286 11.5056 4.09674 2.51262 0.420777 -2.92813 -2.69646 -0.970367 -1.043 -1.09229 -2.5627 -2.84258 -0.576798 -0.787436 0.834791 
1.22966 9.82939 -2.10675 5.15579 2.56952 1.09478 12.0226 -0.354469 3.50372 -4.53286 -3.04689 0.760993 11.4369 4.87675 2.79731 -0.438691 -4.15401 -4.47063 0.0322242 -0.841923 2.18025 -1.68877 -3.7609 -0.215229 -1.03774 1.31272 
13.1359 9.53467 -8.1956 -10.5579 -5.63513 2.64316 5.38405 3.21073 2.24566 -12.3868 -0.443532 -1.20461 15.4635 4.28447 2.00668 -1.43547 -4.38169 -5.55217 0.402815 -0.7878 3.0543 -0.505298 -1.98326 0.465329 -0.827447 1.54539 
10.8256 11.3429 -9.935 -11.4011 -11.5186 5.28471 9.8823 11.6268 2.85672 -11.2143 1.25302 0.161987 16.0118 1.82505 0.324497 -1.2987 -2.67556 -4.1293 0.259515 -1.34065 2.91979 0.310544 2.06691 0.24321 -0.4111 1.33976 
10.2086 12.2745 -8.20117 -9.33008 -14.0918 4.17003 8.14152 11.5536 4.18178 -4.19563 2.53222 -0.374868 16.9451 -0.110957 0.153034 0.588702 0.899186 -2.11119 -0.558657 -1.01717 0.131407 0.645278 4.33957 -0.092609 -0.795252 0.505014 
11.8186 10.082 -8.59746 -8.83589 -13.8486 1.62892 3.94063 10.0731 4.08838 1.70606 -3.31872 -1.70938 17.3948 0.507905 -0.776924 1.85014 1.76454 -0.765197 -1.17924 -2.24578 -3.38761 0.597457 3.74926 0.36614 -1.4241 0.171501 
12.0847 10.9303 -5.92086 -7.34452 -15.0261 1.67777 3.26903 4.64463 4.85622 2.85083 1.37929 -4.24519 17.297 0.197603 -1.38292 2.37965 2.28018 0.171186 -0.032512 -1.03821 -4.98671 -0.410937 1.09037 1.57976 -0.268043 -0.305192 
12.4271 8.13036 -1.82447 -3.57115 -14.8774 0.63465 1.08962 -1.85681 5.50678 4.00874 3.66019 -5.02335 16.6934 -0.652445 -1.56843 2.02603 3.34631 1.42778 1.39855 0.251142 -5.46393 -1.68215 -0.433706 1.26699 1.10838 -0.64224 
10.8924 6.33572 0.310598 -0.561574 -12.7215 4.50461 4.37599 -7.41507 1.41789 0.104883 6.94159 -0.0580983 15.7699 -0.967721 -1.80456 0.912995 3.18618 2.41405 1.44821 -0.0535777 -3.71582 -1.81749 -0.577015 -0.570953 1.16884 -0.635648 
9.15249 4.53709 -1.58301 4.50416 -7.86199 7.20827 4.64286 -11.2167 -2.60319 0.910505 0.235061 1.73897 14.9472 -0.705249 -1.10851 -0.659774 1.45048 2.24574 0.19594 -0.491306 -1.53519 -1.32928 -0.584483 -1.37309 -0.601258 -0.309565 
8.88339 3.70414 -1.47661 4.54871 -6.46353 5.63201 1.22452 -9.25451 -0.176265 1.51487 0.237087 -1.78214 14.9919 0.251683 -0.590573 -1.20025 -1.12865 0.942533 -1.07353 -1.56878 1.2839 -0.202726 -1.72139 -0.690449 -2.1738 0.204971 
9.90536 3.9036 -4.22974 1.12613 -6.77771 1.05065 0.208831 -8.61304 -0.34255 0.381329 0.146981 -7.16762 15.5345 0.965168 -0.643008 -1.3256 -3.80213 -0.549768 -0.136644 -1.4882 2.42265 -0.182989 -3.44694 0.559102 -0.462797 0.718319 
11.7743 3.6996 -4.36728 -4.51579 -8.55095 2.21574 -1.25089 -2.29742 -0.72606 -8.23747 3.53338 -6.4738 16.5011 0.682502 -1.28672 -1.05683 -5.28545 -0.889294 1.58881 -1.1222 1.25664 -2.24604 -2.12729 -0.651683 1.64943 0.982474 
12.5329 1.32432 -6.76568 -9.97425 -9.56712 8.23318 -1.56043 -2.58205 -3.24324 -11.448 1.38243 1.77082 17.7842 -0.168441 -2.27854 -0.322336 -4.73052 0.82914 2.29913 -2.08078 -0.237972 -3.03676 1.73625 -1.69019 2.15874 1.00799 
10.9822 -1.43982 -5.49279 -16.3284 -9.5153 9.98477 -3.50186 -5.98681 -9.9561 -3.2069 -3.63905 1.99578 18.7794 -1.47072 -2.69666 0.680046 -2.10391 2.12615 -0.438576 -2.95852 -1.3319 -2.08716 5.26253 -3.5341 -0.0440135 0.808245 
9.45925 -4.91938 -5.27866 -16.6202 -2.14984 8.66178 -9.06956 -7.9582 -10.9113 6.54727 -4.71773 -0.608692 19.4353 -1.88174 -2.06515 1.91501 1.07358 2.32546 -2.92737 -2.88651 -0.637637 0.137038 5.03115 -3.81639 -2.70374 0.423881 
5.95755 -6.66183 -1.71056 -11.7124 -1.62885 -0.191431 -12.2889 -6.26885 -7.32782 9.07754 -11.087 -5.50411 19.7168 -2.02828 0.583208 1.06162 4.52756 2.70894 -4.09294 -0.437607 -0.344562 2.32562 -0.781351 -2.75236 -2.87828 -0.145189 
5.63644 -6.39044 0.918252 -6.91434 -1.88305 -1.31557 -11.5994 -5.62921 -3.87219 7.56552 -13.9755 -7.99793 19.4349 -3.16923 3.2657 1.52249 4.89436 1.17916 -2.75404 1.6649 1.39564 2.52383 -5.41926 -1.28691 -0.209417 -0.406164 
2.75214 2.21176 -3.28313 1.45654 3.89602 -5.49125 -4.42495 -8.87411 -1.84757 -7.62278 -12.772 -8.70102 18.0537 -4.66741 3.25519 0.968139 4.545 1.85958 0.356523 3.79101 3.0869 0.97532 -5.24732 2.29394 3.06733 -0.348219 
-4.78419 6.97234 3.12006 1.26715 0.983531 -2.45852 -4.67704 0.322619 -1.03231 -12.1989 -10.3098 -0.0573211 18.236 -6.13073 1.22791 0.237349 2.46666 1.75833 1.50323 3.42789 4.55748 0.687443 -1.87684 5.32121 4.94718 -0.0393446 
-12.1692 2.93272 2.02923 6.92191 6.23575 2.16266 3.20495 6.18975 -3.87116 -7.27687 -1.45019 5.86225 18.5751 -5.36691 -1.3056 0.463783 -0.159244 1.82121 3.45096 3.16399 4.60673 0.839491 2.28199 4.56464 3.36048 0.365749 
-17.5566 -0.611375 -0.551183 2.68628 5.73871 2.37361 1.72505 9.62628 0.576816 -1.99164 6.96966 9.45636 18.9775 -3.18821 -0.818541 0.34209 0.20132 2.52455 3.03682 2.84475 1.15484 1.17823 3.30254 3.38454 -0.487068 0.318156 
-17.6962 -0.524391 0.87141 -0.0492401 10.6245 9.3475 8.19398 9.50769 1.54531 -1.31645 1.41149 3.34456 19.5117 -0.333768 1.61669 1.51467 0.426966 0.910847 1.30563 0.20051 -1.61132 0.209265 1.39943 -0.521569 -2.34328 0.0252724 
-17.9617 4.60819 5.40942 5.75933 11.4119 9.13318 7.0522 4.43784 2.15059 1.33361 5.18205 -1.23382 19.3585 1.29671 1.71578 2.16928 1.56174 -0.0985224 0.51511 0.265376 -2.76589 -1.5978 -0.474039 -1.84293 -1.62858 -0.300401 
-13.6354 8.40641 6.62228 7.52022 7.95338 5.31102 1.54393 0.727362 -3.61172 -1.94236 -3.16423 -0.509047 18.511 3.68765 0.256055 1.72351 1.00423 -3.04831 -3.69251 -2.74293 -3.25935 -3.09278 -2.34026 -1.99157 -0.857304 -0.381643 
-13.1034 3.50213 7.41979 6.71027 6.58164 6.9674 6.37696 0.186995 -4.83369 -4.04888 0.0428514 3.24026 17.9759 4.96321 -2.94942 1.40497 -2.11957 -4.69379 -5.7124 -5.11901 -1.61805 -4.34191 -3.27328 -3.45396 -0.660249 0.100691 
-1.68712 1.30892 8.48376 4.49645 -2.20194 -8.03214 -5.18305 -4.66364 -10.4264 -10.3265 -5.97678 -3.179 18.2948 4.77017 -4.00969 1.71 -2.335 -4.00707 -5.1436 -4.56945 0.863089 -2.71836 -1.62965 -0.819814 -0.889871 0.444046 
0.880187 -6.59017 11.5036 -3.32662 -6.97936 -12.7572 -15.1794 -0.956909 -16.1516 -10.8407 -10.6815 -3.20009 19.9701 3.95741 -3.02246 0.490984 -1.48272 -3.46884 -4.62165 -4.60259 1.02797 -1.45932 -0.605691 0.0666371 -1.37667 0.431873 
3.22358 -6.59588 13.1304 0.863643 -5.30146 -10.5447 -10.5252 5.61476 -11.5445 -6.6947 -1.90113 -1.73823 19.7341 2.17153 -2.12385 -0.754771 0.834074 -1.16651 -0.876013 -1.36343 1.48578 1.71631 1.0838 2.61742 -0.108299 0.10333 
4.22828 -7.65775 7.55139 1.11306 -9.21281 -14.8846 -13.9649 0.187663 -11.5713 -8.89323 -1.66178 -4.36348 19.4156 1.94529 -0.478705 -2.72824 2.66761 0.456604 0.21231 0.827814 -0.739037 4.06247 1.71483 3.23882 -0.175236 -0.30304 
7.4965 -8.77657 6.68598 6.44698 -6.91775 -11.3485 -12.6074 2.19296 -4.13508 -5.88125 2.6005 -3.1388 19.0887 1.53008 -1.10037 -3.45996 -0.137848 0.377405 1.0692 -0.524165 -1.94508 3.04368 1.99111 2.28874 -0.649075 0.0153616 
8.47015 -7.89335 1.08454 7.21977 -3.88819 -11.2938 -9.99916 -2.94119 0.456007 -2.67329 3.26183 -3.37598 18.7776 1.51717 -1.5111 -2.20737 -3.14883 1.45348 2.91094 -0.081316 -0.494264 1.51906 3.41868 2.17722 -0.851738 0.296129 
8.75305 -11.9799 -0.936002 -2.87895 -6.07675 -6.9941 -15.1289 -2.54622 -2.33978 0.1509 7.08076 -5.47735 20.1299 1.02947 -1.5869 -1.38709 -5.26279 1.07493 3.23044 0.192 0.134492 -1.50721 3.78736 0.748158 -1.38785 0.395132 
11.1859 -13.6116 0.325512 -9.96813 -2.36591 -2.50711 -13.1108 0.0859315 -4.87361 5.18409 6.98416 -7.45289 20.3756 0.809268 -1.29426 -0.468429 -4.47279 0.369255 2.98847 0.359253 0.952342 -2.29319 3.55124 -0.0551604 -1.27842 0.307745 
11.286 -13.8519 0.130069 -11.273 -2.30425 0.41033 -10.0916 1.35186 -9.00632 9.12688 4.48012 -8.0396 20.2653 0.585112 0.0416203 -0.270493 -1.43572 0.854243 1.41639 1.81297 0.442721 -0.510521 3.35628 0.0479013 -0.402941 0.0166145 
11.25 -13.4286 -1.79064 -10.9472 -3.92816 -0.0536413 -10.7215 -0.128516 -7.67668 10.5949 4.28634 -8.48698 20.2486 0.184911 0.341763 -0.603363 0.36229 0.458663 -0.155852 1.04046 -0.464438 1.0756 2.56314 0.0117166 0.57883 -0.00588703 
11.6465 -11.8633 -1.23039 -9.56806 -1.0244 -1.13889 -7.25864 -0.225394 -3.49085 14.2269 8.66917 -6.97501 20.2765 -0.108516 0.415897 -0.663815 1.07104 0.600983 -1.2661 0.500575 -0.601349 2.42734 1.725 -0.616055 1.28019 0.03081 
11.9302 -12.8971 -2.01108 -9.00915 -0.712515 -2.51177 -9.32494 -1.44763 -2.25336 15.4498 4.94821 -5.09104 20.3406 -0.428617 0.297626 0.0860594 1.36852 1.07962 -1.99764 0.31464 0.59891 1.87747 1.04883 -1.9968 2.34673 0.00551147 
10.4034 -12.0382 -3.07879 -6.88681 -0.907161 -4.69113 -8.28701 -0.995332 0.418735 15.3245 1.06891 -3.33663 20.3734 -0.903796 0.365434 1.01627 1.21599 0.79651 -2.64556 -0.752429 1.58424 0.513688 -0.348572 -3.72405 3.25463 -0.0760048 
9.72851 -11.853 -0.436144 -5.44516 1.41129 -8.26573 -8.63415 3.251 -0.244131 15.2903 -1.89752 1.42749 20.2277 -1.29388 0.935507 2.75349 1.01596 0.026145 -2.3961 -0.598162 2.03752 -1.10495 -1.68721 -2.54157 3.62155 -0.165252 
8.22839 -10.5581 3.0635 -5.2701 1.89625 -11.4897 -11.3662 5.34648 -1.92703 12.5638 -6.52819 6.03889 19.9529 -1.39949 1.48753 4.46809 0.798919 -1.08854 -1.3615 -0.513086 1.08676 -3.03503 -2.81568 -0.391325 3.32704 -0.230439 
6.54826 -8.95961 8.68523 -4.7377 -1.98349 -11.093 -10.7762 5.56905 -6.60526 8.39406 -3.96111 8.32898 19.7245 -1.65256 2.17207 5.29572 0.365259 -1.85562 0.101533 0.458428 -0.884412 -3.3055 -3.78993 1.44377 1.71521 -0.221634 
4.99602 -6.04731 14.701 -3.24594 -4.65245 -10.085 -9.78143 3.27944 -11.5759 4.69418 0.144082 9.84785 19.4727 -1.79466 2.17213 5.22205 -0.202082 -0.840945 1.65462 1.62103 -1.56171 -3.09317 -3.28369 1.65024 0.217274 -0.14953 
3.08191 -3.24809 20.2237 -4.63094 -4.59245 -8.46041 -7.13438 -0.137537 -11.9472 0.275445 1.98519 8.09904 19.3596 -1.74544 1.96523 4.49375 -0.687854 0.630884 2.35653 1.78889 -1.12692 -1.88839 -2.46785 0.243252 -0.662412 -0.128268 
0.988235 -2.55326 23.4045 -6.33389 -1.004 -4.53289 -5.08191 0.391205 -14.7219 0.204621 -1.25013 7.24023 19.3877 -1.48031 1.60106 2.83416 -0.735659 1.81289 2.71797 1.49125 -0.8248 -0.706669 -1.90612 -0.441746 -1.14306 -0.207229 
-0.175065 -0.880467 26.8022 -6.63299 -0.653298 -2.08638 -4.18149 1.37859 -14.4742 -1.7004 -2.04774 6.32073 19.1257 -1.05302 1.67249 0.993611 0.360955 1.75607 2.76279 0.867213 -0.82619 -0.0641525 -1.91356 -0.564868 -1.27486 -0.555275 
-0.777041 0.77416 25.5825 -5.92321 2.44243 0.317816 -3.80161 -1.60262 -13.8457 -3.84849 -0.0481868 5.02169 18.5535 -0.599307 1.63011 -0.101334 0.985072 1.3846 1.07455 0.464423 -1.77044 1.27972 -1.49 -0.0917598 -1.30717 -0.7425 
-1.30057 3.45065 24.1028 -3.03151 2.46468 2.92819 -3.43847 -3.27157 -12.7061 -7.26579 -1.44013 2.83402 17.0003 -0.724409 1.51322 -2.37182 2.05572 1.71554 0.922246 0.852055 -2.42046 3.12127 -1.22838 -1.25723 -1.8128 -1.13103 
-1.44555 3.43175 24.2476 -3.20928 4.36003 -1.66745 -3.13131 -6.13591 -9.20732 -4.46269 -2.01274 2.44774 16.7379 -0.338298 1.94207 -4.04203 2.36376 1.28922 0.25099 0.16971 -1.36623 3.26847 -1.94724 -1.60054 -2.67697 -1.22847 
-3.46286 5.35685 15.6106 2.28866 6.96561 3.51748 -0.256368 -8.45707 -1.18702 -7.53519 -7.35161 -1.45628 14.3784 -0.264786 1.5089 -5.07636 3.12654 1.13881 -0.384709 0.371195 -0.54654 2.25544 -1.58936 -0.571765 -2.39497 -1.09431 
-1.38739 9.53141 9.61845 3.23549 6.63805 1.27812 -4.5441 -5.841 -3.26292 -13.45 -5.09516 -6.21803 13.7222 -0.214984 1.16349 -4.9688 3.82203 0.671034 -0.237466 -0.1058 -1.13339 0.368343 -0.545164 0.608792 -1.90981 -1.00389 
-2.65358 7.94532 6.03554 9.37879 7.01971 -0.468135 -0.876095 -6.15172 -4.40104 -10.7189 -2.75774 -4.80795 13.0367 -0.271074 -0.589952 -3.58783 1.88724 0.300086 -1.59793 0.403723 -0.629608 0.48568 1.77538 1.03493 0.22341 -0.658932 
-2.92511 7.95499 4.19111 12.3558 7.68815 -0.861967 -3.35044 -12.9555 -5.75859 -5.59663 -1.26572 -5.42547 12.3893 -0.249124 -1.2778 -1.64438 0.884471 -0.935279 -2.103 -1.11075 -1.93726 1.18803 1.40795 -0.935049 1.46148 -0.434942 
-4.04937 3.1953 0.385117 7.16471 7.94099 -3.40211 1.16542 -8.04786 2.48922 -2.58496 -4.09167 -0.735504 11.7501 -0.0968895 -0.546727 -1.28142 -1.33037 -1.9324 -1.80266 -1.30746 -0.61117 1.30003 0.540709 -1.32574 0.714523 -0.286715 
-1.93512 5.5174 4.22175 8.76488 1.50102 -7.76991 -11.1186 -14.5793 -0.767889 -10.4772 -9.10344 -0.946877 12.1907 -0.666045 -0.793194 -2.57223 -2.93337 -2.08873 0.0451494 1.60752 2.23096 1.67624 0.218009 0.260809 0.247911 -0.145072 
-3.63302 6.43048 -0.386878 4.52242 0.451293 -6.02746 -3.5293 -8.3957 -0.396246 -5.5751 -5.4676 -3.47464 11.7024 -1.0653 -1.38152 -2.99356 -2.1499 -0.952834 1.94992 1.84445 3.37438 2.61046 1.50305 1.66911 0.243755 -0.11815 
-6.4635 2.37143 -8.28407 -0.989905 0.989365 0.676454 7.0345 -1.62676 4.06536 -3.01151 0.726298 -2.81635 11.6878 -1.4543 -1.52337 -2.71595 -1.24107 0.767463 3.49206 4.00369 4.38317 4.3037 2.54702 2.39647 1.16955 -0.18135 
-7.11166 -2.1393 -8.32978 1.2926 3.43264 2.12428 1.31113 2.34781 13.1249 1.19741 -0.660994 1.41801 11.4108 -0.766204 -1.13246 -0.949786 0.266412 1.04242 2.03012 1.71142 2.61486 3.49443 1.60774 1.43455 2.99697 -0.102016 
-7.46732 2.18545 -5.38657 4.17446 3.84765 5.61451 6.47965 1.96486 13.9901 -1.12838 0.475632 2.45456 11.4298 -0.0149582 0.147451 0.777752 1.16128 0.44646 0.636429 1.09066 0.961301 0.328075 1.1947 1.68417 1.82573 -0.101223 
-6.96213 0.861186 -6.58456 3.2723 4.23423 1.65409 5.30523 2.88278 12.1135 1.52205 1.83049 8.87475 11.3213 -0.0757679 0.181908 0.578617 0.177057 0.0224503 -0.227077 2.21682 1.41845 -1.19261 1.79276 2.22785 -1.08798 0.0113054 
-6.61306 1.60844 -5.26792 3.82664 2.82087 4.09369 10.4907 2.91226 6.21142 2.79966 7.90142 2.58393 11.2265 -0.368103 -1.24834 -0.371978 0.00511112 0.52286 -0.917549 1.04275 1.54581 -1.79199 1.71963 1.1563 -1.54021 0.138111 
-7.91763 -0.941259 -5.49602 2.35179 4.05829 1.74931 10.3897 8.96639 11.0512 8.1972 6.76535 -4.0866 11.569 -0.542083 -1.27294 -0.21231 0.303785 0.241924 -0.690053 0.582712 -0.25059 -0.634876 0.549053 -1.16987 -1.32704 0.138086 
-8.83009 -3.15503 -7.79072 4.66027 6.54992 0.979155 9.15117 6.6521 5.56132 4.13221 3.78972 1.23416 11.9965 -0.338962 -0.878251 -0.944471 0.157847 0.296555 0.00150955 -1.24002 -2.09057 -0.151043 -1.71936 -2.70481 1.24633 0.0402786 
-8.56403 -3.12176 -6.3847 4.37441 3.57933 -0.238902 8.88857 -0.240091 9.26421 3.60104 -1.96301 2.91442 11.6268 0.412177 0.513245 -0.790989 -0.0390577 -1.56624 0.546429 -1.17781 -2.61159 -0.293081 -2.10097 -0.377631 1.59629 -0.108405 
-7.98466 -1.69256 -9.54593 3.60457 4.54312 5.09535 5.0412 -2.93737 6.34968 -3.49906 -1.25847 5.31507 11.399 0.5531 1.20714 -0.782929 0.104437 -1.55992 1.3289 -0.750196 -0.932673 -0.208713 -0.741368 -0.178468 -1.17913 -0.0804027 
-6.27946 0.893735 -8.57336 2.68435 -2.76952 2.42335 6.55561 0.703151 9.19157 1.50799 7.40129 1.8544 11.3257 0.127709 0.895776 -1.05149 0.663027 -1.40611 0.877916 0.102443 1.63408 -0.297809 0.947285 0.563542 -0.405803 0.11165 
-7.20687 0.872912 -10.611 6.02748 1.92473 6.29255 6.56667 1.51711 4.55407 1.47189 -1.78477 -4.13149 11.745 -0.0578281 0.226039 0.0506795 1.08584 -0.973436 -0.975962 1.33876 1.28905 0.0886388 1.80512 0.113607 0.0841391 0.0387405 
-8.31438 0.0743885 -11.1096 6.47809 -2.142 3.55208 8.63805 5.70309 8.67296 5.85199 1.11785 5.60868 12.012 0.0502184 0.00430994 0.134505 -0.196323 0.808228 -1.209 0.984823 -0.0959577 0.027051 0.916853 -0.0577078 1.81748 -0.0699297 
-7.25634 -0.152695 -8.02441 7.1369 -0.637813 -0.348825 10.6938 1.00792 7.05217 3.35455 2.45128 3.85863 11.2495 -0.147853 -0.437084 1.11684 0.339587 1.20844 -1.10704 -0.234299 1.17078 -0.109493 0.436816 1.61495 1.7553 0.0307115 
-6.00363 1.42809 -9.19415 1.14802 2.55289 -0.300951 9.41617 0.477959 8.07778 5.15093 4.99472 6.94675 11.2238 -0.165993 -0.517929 1.28455 1.31108 1.63294 -0.237149 -0.930518 1.27666 -1.25283 0.571103 0.492723 -1.18486 0.283992 
-9.10152 -1.98936 -5.98456 10.3904 5.61949 2.68384 5.00612 9.98357 4.3042 4.0065 4.35156 3.97598 12.2927 -0.414897 -0.591347 0.81226 1.87984 0.740484 0.354859 -1.03158 2.03019 -1.08337 1.32846 -0.200331 -1.57869 0.500836 
-8.22176 -1.59692 -5.70679 11.4067 2.89403 0.849996 6.8293 7.59856 3.78281 8.38153 2.63133 -0.374287 12.9104 -0.355651 -0.565759 0.725249 2.15337 -0.204316 0.0468047 -0.335057 1.18562 -0.911134 1.08362 -0.644703 -1.89923 0.399102 
