-4.6792 -2.41417 -11.6914 2.7276 6.39597 -2.40365 3.89035 1.63829 9.55038 6.52693 -4.45614 -1.42725 11.6676 0.434245 0.915423 1.16664 -0.436652 -1.27078 0.856167 0.95557 0.264587 0.0567462 -1.00385 -0.191546 -0.0942151 -0.0168591 
-3.51752 0.171905 -6.86835 3.40904 5.65941 -2.25741 6.8115 4.19557 7.62711 3.593 -3.68029 -1.75046 11.6491 0.465523 0.533704 1.10244 -0.180313 -1.08612 1.55915 0.977709 1.48046 0.586473 -1.29997 0.715896 0.661219 -0.0253547 
-3.08882 0.869901 -8.26974 0.203627 0.410349 1.80407 7.20762 1.68259 10.7957 2.97462 -5.8018 -1.73671 11.5926 0.333687 0.0590096 0.203252 -0.248241 -0.510425 0.912825 0.482944 1.66392 0.0992465 0.234843 2.91835 1.95582 -0.0297601 
-3.14678 -1.38769 -7.89002 3.08803 3.95816 3.28824 7.12025 9.01842 11.8601 1.80324 -0.203833 2.03358 11.5784 0.244441 -0.372804 -0.805278 -0.757605 0.374801 1.11962 -0.568941 0.40246 0.272001 0.770613 1.4617 1.57693 -0.0488254 
-3.19613 -1.33933 -10.1643 1.64691 4.69447 -0.612347 6.15068 7.54646 7.93014 8.59602 8.39738 6.45983 11.5542 0.08864 -0.338191 -0.126587 -0.149369 0.934694 0.769495 0.324215 0.0836214 -0.159568 0.0967792 1.03754 0.972016 -0.0270832 
-2.24166 -0.5875 -9.94746 -1.10062 5.39135 4.54892 4.49526 3.27593 10.4199 4.63537 -3.4714 2.03592 11.4242 0.0115528 0.185532 0.238887 0.0484231 0.389086 0.308686 0.724311 -0.665498 -0.183802 -0.562502 0.500079 0.0144156 -0.056997 
-3.09818 -1.22115 -7.87396 1.55111 4.36722 5.02121 10.1412 4.97194 10.718 2.04245 1.01966 3.1222 11.5342 -0.00989132 -0.00547135 0.753751 0.543713 0.28105 0.0225989 -0.718685 -0.419553 -0.079331 -2.09717 -0.371646 -0.899285 -0.0689932 
-3.13799 -0.51912 -7.84077 3.37805 6.06721 2.0149 8.74655 6.97819 9.54713 2.26752 5.98543 3.77448 11.3034 -0.198635 -0.436921 0.0199564 1.49465 -0.281507 -1.29531 -0.835467 0.925615 -0.508159 -1.12434 1.32629 0.10834 -0.0209603 
-2.79742 -1.40087 -7.44891 2.12614 5.76179 0.767659 0.431612 3.59756 7.96988 -0.705908 1.81074 1.09413 11.2696 0.378664 0.151184 0.441403 0.348546 -0.671198 -0.199601 -1.26218 -0.548728 -1.37868 -0.330846 -0.193344 -0.644047 0.14362 
-3.38521 -2.68224 -10.0602 6.08511 3.28653 0.19912 5.17272 8.5912 9.25318 0.38787 2.7645 3.59166 11.4517 1.28954 0.0822899 5.83027 -1.5317 -3.46545 0.00535314 -3.46548 -0.743156 -4.76302 -1.53677 -2.54171 -0.645124 1.27334 
-1.08125 0.616333 -4.55722 1.9403 2.40157 4.93109 5.61723 1.4218 3.97154 1.32804 1.6634 -0.00662804 12.1782 1.95233 0.148392 8.58283 -2.22903 -3.96115 0.218989 -3.73228 0.444717 -6.3601 -1.12481 -2.48494 0.0669437 1.92879 
2.45164 -1.11627 19.8647 -4.18754 -9.5799 -0.0400558 -11.1736 4.35029 -12.2688 -6.43329 -6.64947 1.09923 17.2158 2.61296 0.323116 8.00526 -2.87024 -3.59407 -0.392422 -4.50504 -0.821585 -5.57542 -1.40902 -2.74296 0.314733 1.83302 
4.04582 -1.4419 20.5028 -3.88266 -7.61076 1.98219 -10.0566 7.9416 -13.0696 -2.91938 -5.90699 2.67506 18.0315 1.95776 0.0834828 5.19766 -1.57501 -2.36597 -0.911015 -2.97731 -0.258162 -3.06508 -0.535719 -2.2643 1.38713 1.28251 
7.11607 -0.0375438 17.4361 -5.35461 -9.67763 -0.288539 -9.51556 1.22337 -10.1033 -4.5335 -7.1651 3.82448 17.6901 0.673551 0.869655 0.923894 0.117708 0.660621 -0.0446557 0.569877 -1.23014 -0.0872845 0.79823 -0.867239 2.15656 0.291985 
6.37535 0.494382 22.6454 -5.35121 -9.37941 0.500259 -10.0984 1.69445 -12.4366 -2.30045 -9.40027 5.56641 18.3536 -0.433736 2.03215 0.133766 1.04973 1.55459 0.23347 1.43941 -1.64502 0.263809 -0.305295 -0.799581 2.17105 -0.0344578 
4.65463 2.26386 23.4129 -2.86473 -5.39247 0.477633 -8.30339 1.32316 -13.0218 -2.75161 -9.23902 10.4364 18.5147 -1.29385 2.68323 -1.46899 2.32479 3.05922 1.99319 3.16579 -0.329566 1.45263 -0.963212 1.28751 1.65058 -0.565904 
3.10785 7.56817 18.1832 0.121032 -1.9804 2.76646 -3.46564 -0.333384 -10.2913 -5.3368 -8.86794 10.2244 17.4469 -0.591975 1.95336 -4.08632 3.80456 4.47052 2.88853 3.13742 -1.11034 3.75226 -2.36282 2.68866 -0.365803 -1.2499 
2.28058 9.84173 12.3222 3.53322 1.91897 8.54429 2.997 0.589454 -3.91282 -7.83139 -0.993694 9.74839 15.3139 0.452607 1.40305 -5.63114 3.96409 4.18718 1.46133 2.12526 -0.888685 3.54164 -0.898458 3.0659 -3.02881 -1.71309 
4.60251 6.47226 7.7591 10.4726 9.31748 10.9096 -0.0614681 -3.4904 1.77026 -11.5747 -0.0796418 4.08138 13.7045 0.0412718 -0.868693 -5.42549 1.85168 2.01442 -0.0344267 2.31513 0.280944 3.1819 1.80619 3.05195 -3.39911 -1.52998 
6.17034 9.82706 0.469231 11.7799 9.89449 3.71271 0.620804 -1.54176 -1.34435 -4.12497 1.69632 -1.63621 11.8205 -1.38568 -2.4683 -5.22939 -0.77434 -0.596661 -2.10963 0.582729 0.900523 1.34426 3.29156 1.10594 -3.13255 -0.941022 
1.36933 3.23204 -3.01773 5.2561 4.10392 5.01012 9.29812 2.13694 4.3339 1.84092 5.0468 -1.07888 11.5437 -3.57775 -1.72648 -3.33306 -2.6583 -0.941895 -1.56318 1.40889 1.70125 0.702612 3.53216 0.524884 -0.576632 0.30307 
-3.03124 -0.879665 -8.4363 2.26978 1.54244 0.945904 1.23086 2.2784 1.52663 1.91864 1.97279 -3.33424 11.6892 -4.77057 -2.09639 -2.28955 -3.7655 0.0906766 -0.529145 0.878241 0.980229 -0.522148 0.688143 -0.0950365 0.86797 1.6352 
-8.68544 3.1932 -4.45342 1.93617 8.78403 4.47712 6.67794 3.10575 3.84783 3.06433 2.40655 2.04723 15.2855 -3.65418 0.718136 -0.488857 -2.67929 2.08302 -0.987982 -0.784409 0.493311 -1.29016 -0.0427776 -0.226139 0.898841 1.89973 
-12.6551 -0.635472 -10.2607 -5.38761 8.00781 1.33349 6.32209 2.87498 -3.71205 -1.29596 2.54127 1.14058 18.1256 -2.54455 2.06584 1.66386 -0.733475 2.73338 0.328034 -0.904377 -0.267797 -0.425767 0.232583 2.29559 1.65497 1.58407 
-12.0896 6.70063 -4.54984 -4.31166 11.2864 -0.123584 2.83045 4.3052 0.502446 3.23433 3.63187 1.17791 17.8241 -0.671568 2.08121 2.14092 0.188762 2.0337 0.438764 -1.72069 -0.40135 0.157112 0.326988 1.22491 0.25535 0.81499 
-14.0519 7.69583 -0.068778 1.72631 13.9582 4.88642 -1.36728 0.339682 1.0705 2.99655 12.8381 5.37525 18.3402 1.74083 2.75879 4.20247 1.49492 0.2242 -0.82134 -3.61422 -1.76987 -1.10038 -1.41352 -0.461125 0.18284 0.382317 
-11.3449 9.4336 1.15526 -0.676987 15.9774 4.89447 1.9192 2.36665 2.24212 2.55302 3.3827 1.20665 19.2531 2.9973 0.107574 4.1181 1.37755 -3.53641 -1.47886 -3.47493 -2.13534 -3.7709 -4.58381 -3.30689 -0.824804 0.421521 
-4.32333 11.792 7.89913 0.269662 6.7833 -5.28224 -11.2934 -5.00509 -10.0838 -8.02291 0.360227 2.04041 19.3227 3.33604 -1.21841 3.91627 0.580273 -6.15652 -1.4883 -3.19421 -1.21995 -4.70246 -5.29765 -4.49271 -2.05708 0.400104 
-1.96741 5.19043 12.0567 3.30442 -2.80828 -2.43357 -9.58117 -3.69912 -12.7749 -14.175 -6.66364 -1.27869 19.4405 2.12676 -2.35093 2.91242 0.531372 -6.86531 -0.308341 -3.09423 -1.41769 -4.36353 -4.35604 -2.72392 -2.08225 0.389229 
-2.06043 3.72538 14.0618 2.63697 -7.43161 1.10892 -11.5882 -2.72718 -14.9333 -15.1277 -4.60228 -3.66748 20.2471 0.699247 -2.46276 1.11417 0.0969523 -4.74257 1.26151 -0.443316 -0.435877 -1.54419 -1.2656 -1.62614 -1.74231 0.451649 
-1.84254 1.71227 12.636 0.796221 -11.2417 0.15718 -13.4045 -5.86074 -17.1508 -15.6748 -7.75562 -6.35065 20.7371 0.386674 -1.4184 0.0223969 -0.247379 -2.62026 -0.150616 -0.232289 -0.940442 -0.502212 0.563449 -0.24997 -0.434162 0.394973 
-0.889534 1.21724 13.1803 2.00852 -12.7128 -0.27008 -11.5983 -6.10366 -15.6168 -13.601 -7.22447 -4.13517 20.9326 0.606014 -1.37514 -0.438978 0.451481 -1.40713 -1.51983 1.29612 -0.551362 0.6625 1.28288 0.804466 0.609151 0.232328 
-0.619486 -0.647495 12.6095 2.38175 -13.269 -2.49715 -10.7376 -6.71309 -14.9442 -12.1211 -6.60239 -3.21566 21.0726 0.812977 -1.82561 -1.29156 0.540876 -1.06442 -3.13302 2.22248 -0.304243 1.29639 0.902208 2.31629 -0.0633233 0.074103 
0.358109 -1.97046 11.8802 4.10161 -13.4536 -5.16304 -6.44103 -5.05782 -12.7241 -10.4901 -1.15657 -2.18922 21.241 1.30135 -2.46038 -2.50662 0.592822 -0.157737 -4.06169 1.94656 0.61088 2.7297 0.448352 2.44118 -0.838848 -0.0347773 
1.59853 -5.82196 6.82826 2.45406 -16.1934 -13.0614 -4.87075 -7.90488 -12.1152 -12.7192 0.791886 -7.64024 20.9534 1.57007 -2.2234 -4.24149 0.50712 0.768161 -3.3811 0.091582 1.11474 4.32279 1.09789 1.20329 -1.43144 -0.153418 
4.50822 -8.49741 3.53781 4.93648 -12.0393 -15.2964 -4.79885 -2.45337 -3.3828 -11.0602 1.28428 -6.11711 20.8183 1.53465 -0.815121 -5.23201 -0.254798 2.14153 -0.472128 -0.943248 0.0837923 5.13613 3.77535 -0.0693735 -1.47172 -0.245046 
5.15578 -8.50102 -4.42678 4.49991 -10.1353 -14.336 -11.1007 -2.44164 1.99909 -6.34659 -1.80636 -8.40893 20.5168 1.22706 1.04024 -4.78675 -2.04426 2.63635 2.77157 -0.11238 -1.30955 3.08815 6.24008 -0.325721 -0.294911 -0.180479 
6.25271 -4.70653 -8.6523 1.80469 -5.77501 -6.88641 -8.04228 -7.37048 5.89938 5.20031 -0.204312 -9.16349 20.2341 1.05599 2.12698 -3.47788 -3.53908 1.82399 3.7871 1.5307 -2.80838 0.265259 6.63448 0.544245 0.922447 -0.0231865 
6.86159 -2.51619 -11.0104 -6.20134 -6.14381 -3.40858 -3.81094 -11.9941 -1.31557 10.3509 -0.0924232 -7.59161 20.3432 1.25542 1.97859 -1.28276 -3.76691 1.05227 3.34257 2.53473 -3.13597 -1.37533 4.98735 2.50766 2.59223 0.19874 
8.93527 -0.854934 -10.5598 -7.40828 -4.91507 -1.82456 -0.790258 -11.719 -0.399179 13.7635 3.14854 -1.91354 20.7892 1.30473 0.311376 -0.285329 -2.98328 0.610336 1.65845 0.92188 -2.30003 -1.95652 1.23845 2.77802 3.23726 0.323666 
10.0916 -0.533857 -9.88685 -9.72816 -5.30397 -0.154028 -2.05309 -15.9472 -1.72827 14.3086 9.05552 0.92723 21.2329 1.09425 -1.37523 0.0910904 -1.87271 1.05875 0.754408 -1.13687 -1.99843 -1.50006 -0.638656 1.84385 2.54372 0.254931 
11.1613 -4.14082 -10.6407 -11.3483 -3.14324 -0.221418 -4.3118 -16.894 -3.67688 9.41375 9.11184 2.76338 21.4075 0.598306 -2.18887 0.598718 -1.37037 1.12349 0.0443013 -1.67885 -1.35919 -1.12415 -1.2932 -0.131497 0.671355 0.000557709 
11.2198 -7.7494 -10.5145 -13.5949 -1.73596 -0.438114 -7.73452 -19.3987 -7.17701 9.33249 6.14519 2.78855 21.3087 0.108839 -2.01032 1.45598 0.154954 1.205 -1.05141 -0.976829 1.24058 -0.0959164 -0.896954 -2.23855 -0.875397 -0.247324 
11.3627 -8.1915 -7.25237 -12.3268 -1.08162 -1.46101 -6.34377 -16.7893 -3.29558 9.7855 3.94622 0.512569 20.7541 -0.536915 -1.00518 2.86655 1.71995 0.139365 -2.1579 0.000743294 3.49619 0.489341 -1.06625 -2.94033 -1.19522 -0.341467 
10.5351 -8.56013 -4.30112 -8.46416 -0.309753 -4.7913 -5.92125 -9.79674 -2.39851 9.63793 0.445587 -2.32435 20.323 -1.06565 -0.142394 4.30861 2.67684 -1.37714 -2.60193 1.01781 4.62653 -0.148962 -2.75795 -2.0381 -0.600166 -0.233406 
8.81911 -8.76134 0.585309 -5.31394 -3.15952 -8.83431 -5.21472 -4.2141 -3.61943 3.92979 -2.74002 -0.656258 20.193 -1.59054 0.383097 5.57232 1.81097 -2.20183 -2.14944 1.88026 2.84395 -1.39861 -4.07461 -0.737432 0.277512 0.016534 
7.16334 -8.17645 7.10971 -3.71709 -7.5827 -9.76109 -3.21 -2.55365 -7.7599 -1.52941 -0.702169 0.37214 20.4222 -1.74619 1.09631 6.5528 0.0723595 -1.66842 -0.411018 1.82246 0.682649 -1.74607 -3.62963 0.137302 0.493437 0.153736 
5.09589 -6.46786 14.9038 -5.64547 -8.45431 -9.72334 1.70192 -6.19107 -7.60793 -5.00389 0.832935 0.551885 20.7872 -1.81062 1.90735 6.08512 -0.763906 -0.299731 1.45468 0.284631 0.409967 -1.41281 -2.18655 0.0656744 -0.533595 0.0762041 
3.6658 -4.22531 21.3036 -7.93659 -6.00447 -6.40188 -0.267284 -5.39501 -9.13461 -4.0434 -0.654382 -0.461236 20.7946 -1.71433 2.33498 4.28823 -0.935486 1.61408 2.67335 -1.42459 0.85129 -0.903605 -1.16596 -0.415621 -0.926421 -0.158586 
1.51476 -1.20018 23.914 -7.02371 -5.44729 -3.24049 -5.26292 -0.743591 -9.99613 -5.74597 -2.43554 -2.90754 20.3878 -1.50425 2.61911 2.22493 -0.489038 2.30406 2.74067 -1.65484 1.53401 -1.31065 -1.17896 -0.0920969 -1.07916 -0.47467 
0.382282 0.864606 24.0458 -7.70539 -1.01583 0.364223 -6.85054 -1.02094 -11.0838 -6.98819 -1.14604 -2.53025 19.829 -0.981303 2.34227 0.0374109 1.86981 3.27217 2.04791 -1.08909 0.363371 -1.11169 -1.3686 0.233581 -0.885532 -1.04346 
-0.783581 4.08273 24.6574 -8.20626 0.571683 0.59696 -3.28065 -0.708059 -13.1866 -9.42629 0.618279 -3.80943 18.8967 -0.0385848 2.29563 -2.07895 2.75035 3.07901 -0.79575 1.059 -0.918394 -0.0366491 0.612466 -0.107052 -1.55239 -1.54421 
-0.0915403 4.8446 21.119 2.00373 7.3469 1.91894 -6.70387 -3.59592 -13.0978 -9.04622 -1.01339 -4.43795 16.3229 0.45247 1.0509 -5.36468 3.62479 2.43847 -1.56612 1.38108 -1.15997 0.648528 1.98588 -1.28273 -2.29948 -1.84493 
1.55875 8.28799 14.9826 1.87348 5.76641 -7.9966 -0.0412536 -4.04806 -9.17236 -1.65462 -3.03712 -9.71567 14.4198 0.176789 -0.592645 -8.58947 2.04527 0.890036 -0.226165 2.1418 1.13764 4.88116 1.81285 -1.0117 -0.0931396 -1.80484 
1.47347 4.01648 2.05977 5.37869 8.57913 -3.1696 -1.56483 -5.1508 -9.84828 -0.944599 -5.73198 -11.0745 12.8427 -0.511833 -1.74783 -8.79966 -0.395753 -0.826826 1.03865 3.14862 3.25434 5.62069 1.48753 0.629348 1.80168 -1.24688 
-0.682141 1.53356 -8.76037 0.332634 4.40575 2.0104 4.85885 5.75756 9.59445 -4.41286 -2.08094 -0.956851 11.6125 -1.29124 -2.63279 -5.75721 -0.872951 -0.415652 2.93404 2.50216 3.53869 5.22557 1.71227 0.302666 2.92765 -0.630021 
-1.53026 -0.517351 -11.0078 0.795393 3.89311 2.1087 6.58918 7.77296 5.62219 -0.229458 1.65526 0.191043 11.4921 -1.18917 -1.29808 -1.4507 -1.00111 -0.536444 1.14284 1.41609 2.84521 3.37515 1.94227 0.0175507 2.03653 -0.179897 
-3.39557 -2.60901 -7.26965 -0.199622 6.03116 4.03445 8.39253 7.1835 9.22023 6.54916 -5.21741 -0.710197 11.945 -0.456841 -0.148207 0.914852 1.37014 0.117477 0.567309 0.124387 0.623346 0.541181 1.71994 -0.617323 -0.205276 -0.0284067 
-3.11566 -0.40261 -5.93907 0.639275 5.0842 1.53256 3.7488 8.36226 7.21459 3.28574 -4.07599 -1.0152 11.777 -0.000548935 0.484385 0.643458 1.69781 -0.215651 0.585921 -0.478048 -0.663533 0.546827 0.220431 0.559424 0.455551 -0.117393 
-2.17365 0.735153 -6.72049 7.26137 4.39759 5.13502 6.90098 8.57964 11.5042 2.42922 -2.30193 -1.38011 11.3281 0.538802 0.873692 -0.562949 0.984964 -0.909461 -0.0695539 -0.97888 -1.77791 -0.598799 -0.470651 3.18026 0.180693 -0.202077 
-2.14396 0.232491 -8.06511 5.55396 3.63164 4.48802 4.94472 3.75723 7.21436 2.93267 2.99464 2.80376 11.2136 0.184213 -0.302915 -1.29269 -0.295879 -1.31958 -1.08258 -0.7376 -1.46428 -0.529784 0.624975 2.18563 0.376804 -0.0875529 
-1.1874 1.4419 -9.02137 2.26785 2.21014 2.20895 2.90017 0.596488 6.22635 4.37245 7.14856 -1.71621 11.2163 -0.140675 -0.683142 -1.0139 -2.1005 -0.964586 -1.24573 -0.5364 -0.384455 -0.559359 0.983901 1.23607 0.580911 0.0470199 
-2.68771 -2.27056 -11.2521 1.65664 -0.419983 -2.41731 2.0612 5.03244 7.20458 5.439 2.12693 1.03687 11.3951 -0.169149 -0.940369 -0.605897 -0.931896 0.0289558 0.106893 0.567792 1.27694 0.969823 0.298075 -0.539829 0.131027 0.0223053 
-2.60515 -1.42903 -10.1965 -1.29249 1.60047 2.35903 5.66074 6.01976 8.71226 6.09556 4.31225 2.40789 11.4724 -0.214061 -0.314453 -0.256486 0.547565 0.581149 0.773545 1.64059 0.997831 0.469983 -0.435121 -1.13946 1.30135 -0.020402 
-2.28084 -3.03389 -10.507 2.67465 4.08126 4.94745 6.4034 7.43032 10.8205 3.56149 1.71365 1.39684 11.1971 -0.227674 0.16731 0.475919 0.659494 0.531092 0.626212 1.68266 0.449706 1.02288 0.645769 0.236965 0.387808 -0.0045042 
-2.46115 0.251296 -10.6763 4.49667 2.86526 2.3943 8.93203 4.38671 6.76829 3.1356 1.6579 4.61057 11.2133 -0.671447 0.0331139 0.700603 0.608066 -0.615107 0.385012 1.59643 -0.331827 0.316215 1.31822 0.673349 -0.19436 0.0598001 
-3.89808 -2.27417 -8.63257 2.05953 1.60308 0.696118 8.83888 8.0975 13.291 10.1478 4.63893 1.87457 11.5022 -0.277795 0.401962 0.550527 0.445821 -0.665925 -0.524773 -0.0299026 -0.606358 -0.0655049 -1.08863 -0.859785 -0.36941 0.0698825 
-5.15376 -1.64332 -7.63075 2.05541 -0.235973 6.40975 12.4251 4.02703 9.0581 9.3935 6.21635 1.19722 11.6189 0.335034 0.429639 0.539797 -0.283908 -0.357516 -0.0918736 -0.843097 -0.2737 -0.49319 -2.40584 -0.930922 0.480113 0.011975 
-2.3235 -0.0767686 -9.27716 6.12439 2.30225 0.315852 4.50733 4.57837 9.34809 -5.01061 -4.8645 1.25646 11.3437 0.684478 0.324196 0.0348798 0.348033 0.338897 0.253751 -0.345604 -1.08537 -1.68835 -2.37028 -0.919843 1.23785 -0.118454 
-1.57327 1.30079 -7.65505 1.0447 0.728095 2.12506 6.88232 4.77777 6.27378 -1.31436 1.755 7.32019 11.3524 0.576473 0.25967 0.0291215 -0.371612 0.0263371 -0.910342 -0.707198 -0.322957 -0.137144 -0.176205 -0.528694 -0.255014 -0.0956777 
-2.26594 -2.12525 -8.44602 4.30505 2.81553 4.10722 9.88227 2.29527 6.24137 3.65035 2.27039 5.00236 11.0431 -0.247232 0.340796 -0.245955 -1.69254 -0.707393 0.171445 -0.780415 0.304097 1.51596 3.26019 1.38535 -1.24357 0.017991 
-2.30018 0.679268 -7.90071 1.10702 -0.360926 -0.0376449 6.20168 3.5538 9.92574 4.18199 0.00543785 -1.95079 11.2908 -0.545561 0.712035 -1.07505 0.706099 -1.21359 0.161012 -2.82429 -0.0898421 1.16801 1.84837 0.522305 -2.24164 0.302327 
-3.19621 1.93797 -10.3841 -2.36947 -0.690202 2.25443 0.945572 6.71084 15.1019 8.54216 2.93704 -0.325895 11.4645 -0.124667 0.51491 -0.944435 -0.217369 -0.87257 -0.057919 -1.2181 0.612661 0.82027 1.06392 1.26521 -0.686721 0.185244 
-3.83594 2.82935 -12.0612 7.91245 -3.58697 3.85651 -2.77077 2.12078 7.68358 5.48159 4.03321 -1.22389 12.6534 0.337461 -0.564809 -0.487515 -0.0437347 0.212679 0.932482 0.471714 -0.31438 -0.936962 -0.560123 -0.220739 0.316111 -0.0435369 
-2.1214 -0.625739 -11.0879 -0.184515 0.0657015 1.87054 8.27798 6.07509 11.4638 8.32016 6.58255 1.2053 11.2881 0.677752 -0.929405 0.287033 -0.378591 0.594093 0.608476 1.55618 -0.864314 -1.67074 -1.80888 -1.86703 -0.153182 -0.209838 
-1.15028 -0.86292 -9.98637 -0.204136 0.324518 4.81671 4.89404 2.29977 7.05998 1.49238 -2.92102 -1.13583 11.1613 0.634244 -0.762173 0.525129 -1.62528 0.80818 0.486656 1.19457 -0.341733 -0.565102 -1.48062 -2.3412 -0.216502 -0.311085 
