-6.22101 -2.03906 -12.5724 2.99438 7.84479 0.730297 9.52069 10.2818 8.90108 10.5368 1.77712 3.28767 11.4764 0.276003 0.839658 0.945326 0.00974317 -0.388413 -0.835488 -0.917245 -0.433699 0.433756 -1.0511 -0.91723 -1.68402 -0.0491084 
-5.10575 -0.338892 -9.43407 1.27634 7.10043 -3.97539 4.38644 10.5047 13.3617 7.00342 1.40573 -0.514214 11.372 0.086598 0.415532 0.657129 -0.261645 -0.974844 -0.908372 -0.908521 -1.32934 -0.766862 -1.51175 -0.877663 -0.952998 -0.0449877 
-5.39862 1.30915 -9.41492 3.90212 6.27491 -1.0943 7.50159 8.00178 8.83957 7.04803 -2.62334 -3.2315 11.283 0.121031 0.227579 0.865901 0.61829 0.0645249 -0.69725 -1.12388 -1.80501 -1.84354 -2.17421 -0.56584 0.589453 -0.0443844 
-6.19921 -1.63551 -10.8655 1.23228 3.75552 -2.89926 5.98764 4.77504 5.09753 4.72248 -0.41097 1.78227 11.3481 -0.124805 0.070635 0.396667 0.640678 0.303399 0.5669 -0.528654 -1.45262 -2.18807 -1.52136 -0.211385 2.37456 0.00435829 
-5.06912 -0.252859 -7.52718 6.10785 9.83987 -3.29402 3.10069 4.12153 3.81543 0.806226 -0.143735 5.0867 11.2664 -0.064945 -0.0843447 0.358361 -0.810551 -0.986468 -0.40553 -0.200047 -0.927474 -0.779843 -0.871937 -0.452617 1.78908 0.024354 
-5.89453 0.795285 -8.3946 3.37686 6.83494 -0.0410325 3.94362 5.18174 4.93341 2.5175 -0.891001 7.19949 11.4021 -0.163052 -0.0436415 -0.0738988 -1.11607 -1.0348 -0.342042 0.456665 0.806621 1.30623 0.694546 -1.68867 -0.502553 0.00491934 
-5.87569 -0.327972 -8.85855 -1.22292 -0.197145 -4.55107 7.52336 3.16105 5.02241 3.79084 -4.64641 3.00527 11.3778 0.933391 1.40331 1.38546 -0.377155 -0.0899522 -0.0843979 0.957828 0.777643 0.032547 -1.1229 -2.88724 -2.54997 0.0563268 
-6.61119 -1.81616 -10.5693 -0.682696 3.60002 -3.98095 6.05963 9.28838 11.0252 6.7029 -6.60299 0.310215 11.317 2.37942 2.40476 5.41313 0.815028 0.0771819 -0.121674 -1.48496 -2.03202 -2.92907 -2.01841 -1.2037 -1.75157 0.470013 
-0.0438375 8.06943 0.487468 6.25186 11.0076 -1.74605 6.83182 5.95643 0.932276 -6.90097 -11.7239 -4.21851 11.5906 2.78647 2.34769 7.6553 0.397512 -0.731509 0.815774 -2.79601 -2.35826 -4.57812 -1.98089 0.161419 0.614681 0.9417 
3.08665 8.62037 13.998 3.71461 1.61849 -2.05191 -3.13542 -6.37603 -7.66688 -2.22866 -3.37071 2.05353 13.6458 2.81169 1.7202 5.85243 -0.54167 -1.93484 0.551706 -1.89775 -3.08984 -5.46321 -1.20736 1.46743 1.57383 0.926854 
3.20776 6.19223 17.1343 -1.43402 -2.86393 -1.43672 -1.85915 -0.798047 -8.52214 -1.64783 -5.45545 5.20702 14.9219 1.00848 -0.355469 1.48285 -1.12763 -1.61437 0.366457 -0.98419 -1.78444 -1.27387 0.225525 1.45244 1.36584 0.75516 
5.82145 7.72347 10.3695 0.451888 0.86158 -1.37709 0.916366 -2.78359 -11.5637 -1.96046 -2.40007 3.46662 14.2856 -0.273141 -0.00734326 -1.4901 -0.520384 0.487864 0.19447 0.930029 0.606342 1.33219 -0.8265 0.283426 -1.21391 0.453303 
3.63115 6.74053 9.71598 2.24506 3.3142 -0.251174 -0.11502 -4.76199 -3.48867 -5.90744 -4.94707 1.90415 15.0465 -0.898569 0.510598 -1.49639 0.365205 -0.0139791 0.603653 -0.351409 0.266138 2.71477 -1.24419 0.946477 -2.34993 0.453425 
1.50925 8.3095 10.2567 -0.726853 0.968748 -1.67233 0.64266 -1.36235 -3.52265 -4.23135 -2.20776 -2.36457 15.85 -1.55287 0.443644 -0.209169 -0.311772 -0.840615 0.352166 -0.877087 0.532928 2.86544 -0.302719 1.20431 -1.71146 0.617866 
0.871018 8.4522 9.70869 0.981377 -2.98741 1.72917 -3.47935 -0.177978 1.03121 -6.73336 -0.81922 -3.62704 16.4068 -1.13009 0.532166 -0.293067 -0.225829 -1.00216 0.26812 -1.22317 0.549955 0.809706 0.460702 2.34168 -0.473897 0.453915 
-0.562849 9.08585 9.32727 -0.475131 -0.190691 -0.606429 -1.78691 -2.41096 0.503603 -3.06109 1.55756 -2.32507 16.6947 -0.934406 0.347027 -0.388011 0.128899 0.231298 -0.343979 -1.13504 0.494523 -0.0603132 0.454671 0.928027 0.867301 0.255292 
-0.98327 9.01319 8.71537 0.990054 -1.11687 0.556475 -5.01609 -1.48791 -1.45326 -4.18906 4.87869 -0.485085 16.8937 -1.16681 0.796909 -0.59821 0.456532 1.32339 -0.772032 0.121645 -0.307373 -1.58491 0.849901 0.847851 1.16146 0.0616585 
-2.23564 9.76414 8.81331 -0.0866947 1.18997 -2.80588 -4.26416 1.76523 -2.58198 -3.23015 -0.416585 0.400955 16.8831 -1.20181 1.41295 -1.35087 0.810893 2.31844 -0.624602 0.716043 -0.243669 -0.814272 1.01251 -0.0407628 -0.549302 -0.134423 
-4.12663 12.0976 6.97462 3.06982 2.93919 -1.03127 -1.63249 -3.80294 -5.35057 -2.39932 4.40711 0.817236 16.621 -1.40557 1.77498 -2.79283 0.518803 4.75175 -1.02126 3.08213 -0.0681741 0.267061 1.14148 -0.539533 -1.94262 -0.332756 
-5.00025 14.6084 3.44328 2.53945 9.37349 -2.93557 0.10151 -2.47179 -1.6191 1.10657 1.58954 -5.72274 16.159 -1.06873 0.165076 -3.93004 1.0834 4.74615 0.151188 4.47116 1.13284 1.71906 1.59924 -0.783743 -1.52821 -0.841082 
-6.6288 15.466 -2.56377 2.271 18.5501 -4.485 8.21173 0.289728 -0.599398 -0.650038 1.17797 -7.13636 15.5919 -0.553725 -3.04659 -4.13197 0.254002 1.59789 -0.030236 3.51524 2.72534 2.97869 1.378 -2.22578 -0.0352479 -1.32582 
-6.32822 8.90534 -6.06771 5.7297 17.1152 -0.32307 13.1695 5.38309 3.63772 3.89143 -2.72073 -3.26329 13.1922 0.0111637 -4.42551 -2.86191 0.862432 -1.437 0.134589 1.13863 1.81012 2.60764 1.23022 -0.451942 3.19758 -1.35331 
-6.23126 -0.283824 -8.92971 2.7447 7.05779 -2.48869 9.40968 5.89632 6.91445 3.09822 -4.56666 -0.588729 11.4753 0.656909 -4.03249 -1.77788 -0.169187 -3.11655 0.345369 -0.302278 1.4272 2.28999 1.18673 0.0858812 2.55527 -1.00924 
-5.1432 0.355726 -7.6833 6.61476 7.93467 -3.26077 5.19569 3.77553 7.66218 5.38352 2.20214 6.99132 11.4508 0.444053 -2.16435 -0.986765 -1.24242 -1.63699 0.432651 -1.37399 0.176778 1.6773 -0.632465 -0.0575157 0.265113 -0.360534 
-3.93677 -0.421659 -10.6454 0.982533 7.55768 -1.2893 10.6872 8.22948 8.83834 4.53755 -0.854063 0.512679 11.4164 -1.70578 0.0472769 -0.445329 -1.9096 0.61651 0.299103 -0.919832 -0.76229 -0.270974 -1.17122 1.58306 -0.866457 1.05485 
-5.25521 -1.84752 -10.1437 0.398708 8.68033 1.24049 5.6608 5.1004 11.0623 0.00944829 -4.86461 -2.48842 11.4189 -3.4048 0.0223559 -1.07302 -2.80361 0.620445 -0.971175 -1.64792 -1.18917 -1.49466 -1.61778 0.670617 -1.40622 1.73177 
-14.7041 1.05418 -9.92616 -3.69527 9.76751 -3.24381 4.57797 1.42244 3.85954 -0.0708492 6.88204 -0.181141 16.7654 -3.37268 1.21084 -0.500288 -0.706377 1.94238 -1.50955 -0.681818 -0.856082 -1.80798 -0.150759 0.233478 0.0336051 1.56769 
-16.7835 -0.270415 -13.408 -5.0644 9.93198 -7.13939 0.0107503 1.2332 2.67827 -0.401186 1.68717 0.307121 17.4351 -1.51548 2.24704 -0.587087 -1.42804 1.41775 -0.920504 0.353716 -0.838749 -2.55437 0.240957 -1.00433 0.508538 1.03871 
-15.036 4.844 -11.5147 0.182202 16.6438 -4.64711 10.1032 5.88267 3.99046 3.98907 -2.96256 -0.717067 16.2468 0.71376 2.43244 -0.0015542 -0.37739 1.42638 0.85123 -0.0301103 0.169635 -0.259592 -0.223291 -3.67654 -0.608864 0.0163538 
-12.6666 7.49279 -12.2849 -8.68023 12.3309 -2.66039 4.66677 -1.32346 -1.77504 -0.815727 -4.96396 0.322228 16.8718 1.70054 3.64054 2.85346 0.789928 0.980102 1.07483 -2.24265 -1.47013 -0.103508 -1.89869 -2.93464 -1.43442 0.0213755 
-13.1938 9.33477 -10.4955 -3.77431 15.6999 -1.22716 2.09941 3.54894 4.78823 -0.980036 -8.17511 -3.23302 17.1288 2.39198 1.97257 4.85812 1.01697 -1.82524 -0.400614 -3.32286 -2.23992 -1.5753 -3.14109 -0.507591 -0.69961 0.0788271 
-9.20195 15.6869 0.349704 0.863494 15.3044 -3.47522 -7.20063 -4.95057 1.76184 -7.41008 -10.3797 -5.60702 17.1009 2.97265 -0.708743 6.38154 2.31042 -4.35302 -0.381356 -1.7319 -1.93859 -1.61646 -2.17274 1.12623 0.945293 0.0653542 
-4.80847 10.6098 6.45861 0.495172 6.03081 -6.24276 -0.577408 -3.50338 -5.65447 -8.4192 -2.79263 -1.2505 16.5263 3.51919 -3.51741 6.33845 0.647789 -7.09908 1.01715 -1.49604 -1.56708 -2.00557 -1.71833 2.29735 2.4945 0.442278 
-1.99603 3.31157 11.1458 0.737152 -4.5996 -2.05937 -2.65433 -7.49026 -4.63602 -7.95987 -2.02405 4.05743 17.4998 2.74412 -5.39363 4.19428 0.108898 -8.02155 2.18234 -1.14823 0.345448 -0.531317 -0.998399 1.53411 2.45189 0.789429 
0.799232 -2.06461 15.7987 -0.472193 -9.84346 3.15064 -7.65394 -3.01661 -2.04069 -9.29679 -0.86621 4.40726 19.1408 1.90802 -4.36413 2.68032 0.756224 -6.32496 2.33064 -2.43804 -0.108463 0.621994 -0.484135 -0.365158 0.861703 0.900686 
1.71482 -4.94404 16.651 1.89167 -16.8662 2.73977 -9.40351 -3.46672 -2.70163 -11.9633 -3.6724 3.82357 19.7409 1.28259 -2.48256 1.00458 1.59732 -4.36742 0.548695 -1.06993 0.107125 -0.267565 0.415876 -0.374426 -0.728198 0.477764 
2.8762 -7.08304 17.1076 3.69904 -19.4607 3.01088 -9.39304 -6.05747 -3.51169 -8.83817 -3.79424 3.17495 19.9093 0.725863 -1.09171 -0.846727 2.66954 -2.91864 -1.3016 0.267595 -0.890081 -1.49717 1.41782 0.586868 -0.944313 0.028159 
3.37843 -6.592 15.5143 6.63813 -21.6281 0.753988 -7.13445 -5.43421 -5.23834 -6.1098 -2.43216 1.0326 19.5044 0.591914 -0.608604 -2.38248 2.45614 -0.773766 -2.44286 0.838488 -0.561644 -2.0986 1.81752 2.17611 -0.555574 -0.0538654 
3.59674 -6.69921 12.1335 10.5023 -22.0557 -2.36445 -7.45049 -6.48327 -8.25818 -5.13445 1.44801 1.08118 19.3998 0.692942 -0.873209 -3.5968 1.54499 0.240862 -2.31761 0.378242 0.91948 -1.52938 1.33497 3.09224 -0.314908 0.0555758 
4.31412 -8.17898 7.2257 10.7708 -19.4375 -6.78685 -6.18234 -6.06204 -10.8214 -4.72753 4.587 2.09259 19.7263 0.840754 -1.64798 -4.36514 -0.704735 0.946176 -1.46731 -0.529118 1.21477 -0.846728 1.07629 2.46094 -1.21008 0.182619 
5.87307 -10.6556 3.26786 9.35766 -19.3517 -4.80677 -7.97788 -1.14615 -8.36709 -2.85445 8.15736 1.07042 20.0762 1.08685 -1.4552 -4.3466 -2.42309 2.05513 0.461096 -0.19836 0.647788 0.71631 2.0827 1.22275 -2.67696 0.0760975 
6.44404 -12.8537 -1.87864 3.68676 -18.2492 -5.3614 -9.51635 -2.02891 -9.41753 -1.86833 6.51787 -5.01244 20.0793 1.15843 -0.594745 -3.978 -3.21057 2.35328 2.41605 -0.0591355 -0.918692 1.74739 2.65019 0.455657 -3.81891 -0.162033 
7.96603 -11.6379 -5.04733 1.92878 -12.3742 -0.771695 -6.77529 -5.26089 -5.37856 3.84944 6.59633 -8.75112 19.6038 1.0712 0.269147 -3.3016 -3.50318 2.07893 3.35906 0.0886133 -2.128 1.87565 1.97311 -0.649388 -2.54322 -0.32867 
9.0598 -10.6616 -8.5067 -1.56768 -11.1598 3.27586 -7.07931 -8.59813 -3.57869 5.1715 7.6458 -12.0912 19.1523 1.14448 0.791821 -2.04988 -2.86991 1.44912 4.24029 0.78149 -1.63835 2.40297 1.03661 -0.361133 0.645594 -0.260333 
9.92118 -10.4059 -9.92613 -5.53104 -12.5017 7.66988 -8.75333 -8.50155 -1.90825 3.4912 4.34645 -8.1063 18.8964 0.86445 0.529646 -1.15071 -2.87448 0.148449 3.25198 1.44335 -0.99942 1.7037 -0.740342 0.0285718 2.85073 -0.0582596 
11.1889 -9.51056 -9.68864 -6.93288 -10.9398 11.6193 -4.61988 -8.60034 0.862165 3.49384 5.83714 -2.10687 19.1313 0.891993 0.523208 -0.2036 -2.30682 0.192182 1.84996 2.61065 -0.244696 1.56581 -0.947451 0.319702 3.4947 0.0211504 
11.2237 -9.56513 -10.2099 -9.761 -11.7419 11.3165 -0.788275 -10.2569 0.91949 0.986556 7.64352 0.510378 19.323 0.726576 0.430619 0.169378 -1.55642 0.171791 -0.137411 3.51061 -0.351083 1.34353 -0.560615 0.600598 1.87378 0.0207823 
12.8685 -8.46593 -9.3828 -10.9868 -10.5788 10.7024 1.99142 -8.94394 2.83652 1.68656 7.59578 1.07394 19.0448 0.369434 0.34227 0.209162 -1.03375 -0.042412 -1.41969 2.96798 -0.557746 1.04558 -0.397826 0.205971 -0.00319364 -0.032369 
12.7143 -8.77514 -9.23216 -11.2862 -11.8233 7.44128 5.49406 -10.0852 3.82223 1.59176 6.47012 -0.327793 19.0435 -0.0185621 0.0870839 0.403465 -0.609802 0.250016 -1.46107 1.6108 -0.280531 0.543673 -0.0800395 0.144227 -0.946403 -0.0159996 
12.2908 -8.1942 -9.13172 -11.339 -11.1112 6.45841 7.07886 -11.4749 4.63871 1.20211 7.4537 -1.70376 19.1092 -0.46742 -0.235004 -0.0394692 -0.345937 0.384369 -0.736452 -0.491467 -0.0886469 -0.563445 0.0529594 0.79367 -0.915936 0.0776341 
11.4198 -9.26558 -8.31815 -12.6339 -10.2256 6.13313 4.72201 -10.394 2.73676 0.828585 8.4357 -2.83279 19.2108 -0.44121 -0.464887 -0.0704891 0.398701 1.12765 0.590427 -2.64102 0.671189 -0.585874 1.3405 1.0171 0.040587 0.126365 
11.1786 -9.39573 -10.0372 -12.0426 -9.45577 7.67418 -0.0798869 -9.23273 0.562026 2.33295 10.5813 -2.25324 19.3493 -0.273571 -0.980899 0.393349 0.979497 0.807834 0.463016 -4.47481 1.5864 -0.711765 2.97813 -0.484335 -0.14458 0.0899509 
11.0643 -10.4988 -9.13189 -8.94089 -7.01275 9.78553 -4.13167 -7.85031 2.9312 7.72885 9.99179 0.149886 19.5553 -0.114103 -1.38321 1.08036 1.81289 0.378071 -0.678586 -4.64636 1.57829 -0.155628 3.98673 -1.54224 -1.36224 0.0943977 
11.1007 -12.4821 -6.7581 -8.28805 -8.6785 6.94728 -10.8684 -4.8148 0.982662 12.6426 4.25398 -3.91799 19.3867 -0.464166 -1.18904 2.42483 2.87695 -0.469728 -2.28906 -2.83147 1.93165 0.347385 2.87737 -1.60111 -1.80496 0.130614 
10.8882 -14.6385 -4.55585 -5.44674 -8.72392 3.10365 -13.1156 -4.71158 1.7483 15.6074 3.88819 -8.81162 19.6641 -0.87818 -1.00211 3.55964 2.9633 -1.57091 -3.9058 -0.268801 1.20364 -0.665803 -0.212801 -0.675196 -1.35415 0.242774 
8.94583 -13.2711 -0.200997 0.59503 -10.9488 -0.430181 -9.7453 -1.14387 2.89041 12.7805 5.62757 -6.7973 19.948 -1.27254 -0.0934046 4.6157 2.78233 -2.72321 -2.47368 2.33647 0.62344 -1.52737 -2.69915 0.10444 1.19614 0.368497 
7.75081 -15.1149 5.38776 1.43407 -13.7322 -6.05473 -6.03721 -3.6676 -1.35169 6.59588 5.92901 -5.18119 20.4885 -1.68502 1.3607 5.18529 1.2964 -3.02295 0.285997 2.55741 0.2275 -1.92107 -4.58487 -1.3107 3.34647 0.323996 
6.3067 -12.7109 11.3486 2.18319 -19.7904 -0.841919 -2.72522 -2.21959 -5.1042 3.65261 3.75577 0.247494 20.817 -1.61381 2.45349 4.49865 -0.0309049 -1.48015 2.06853 0.429013 0.0445168 -1.47101 -4.62134 -2.27674 3.30382 0.0577925 
3.78271 -8.11506 15.5958 0.241198 -19.4179 4.7395 -3.83856 -3.03622 -3.85977 -2.75299 -1.7294 4.39834 20.8496 -1.40534 3.3277 3.04043 -0.488175 1.02888 2.63423 -1.04929 1.16682 -0.693276 -3.42226 -2.40682 2.52444 -0.300949 
2.86083 -4.5035 17.1882 1.03694 -15.5067 4.51535 -8.69956 -1.23697 -3.21061 -5.65174 -1.92692 4.93205 20.0564 -0.923149 2.78473 1.68302 -0.662933 3.09878 1.11084 -1.69032 1.5638 -0.444694 -2.19851 -0.94455 0.502496 -0.553101 
2.44704 -2.58005 17.6701 -0.43368 -10.7296 4.43777 -8.29651 1.6752 -5.76486 -5.86328 -3.26376 5.09875 19.364 -0.255716 1.85915 0.605804 -0.534123 3.52043 -0.19381 -0.557497 1.53929 -0.891398 -0.696419 0.660149 -0.724399 -0.693786 
2.35878 -1.55477 18.7265 -0.794033 -8.64065 4.86314 -8.94787 3.24368 -6.37512 -5.78482 -0.1998 2.40977 18.7942 -0.0338034 1.44114 -0.0198139 -0.906536 3.04473 -0.20954 1.14323 1.0393 -1.09757 0.10646 0.490511 -0.876499 -0.638287 
2.75515 -0.293664 17.8557 -1.51393 -5.24877 3.59655 -6.50189 2.41992 -6.7345 -6.16854 0.707789 2.03748 18.0118 -0.096043 1.54727 -0.594537 -0.25136 1.94083 -0.423016 1.60407 0.1147 0.000283813 0.0637885 0.353954 -1.33789 -0.568607 
2.53776 1.55901 16.9964 -2.95562 -3.02351 3.88826 -3.8807 3.58717 -8.21366 -4.96681 -1.46014 2.08019 17.5411 -0.0793491 1.44515 -0.560418 0.161959 1.00611 -0.297565 1.52853 -0.565672 0.194398 -0.285684 -0.309696 -0.724721 -0.46005 
1.87734 3.59942 15.5625 -0.609686 -3.83402 2.81013 -2.80973 2.07696 -4.84417 -5.95334 -0.863822 -1.4259 17.1475 0.257811 0.984436 -0.439935 0.564837 0.239452 0.110658 0.699065 -1.11285 0.35442 -0.781829 -0.0682838 -0.407409 -0.411381 
2.40094 3.72443 17.071 -0.436361 -4.31748 3.76853 -3.15131 0.586803 -6.34829 -7.32085 -0.962472 0.517858 16.9261 0.529494 0.480756 -0.747916 0.602569 0.57377 0.0692428 0.0762392 -1.67161 -0.506612 -0.568667 -0.139734 0.28796 -0.445906 
4.11262 3.5458 15.6187 0.0506282 -3.40452 4.20971 -3.37126 -1.64416 -5.89508 -8.90067 0.117538 0.781601 16.2624 0.676342 0.0631144 -0.256559 -0.0441076 1.17483 -0.00289938 -0.986607 -0.820555 -1.63013 -0.440479 -0.551489 1.0777 -0.398828 
4.06759 3.9896 13.2287 -0.272926 -0.369401 3.53468 -3.21874 -2.91032 -10.2213 -6.33648 -2.64949 2.41624 15.7542 0.445448 0.00999057 -0.125974 0.134995 2.12376 -1.07405 -1.78708 -1.12717 -1.51127 0.60414 -0.438468 0.439135 -0.387992 
4.42572 3.78241 16.2009 -0.911942 0.0661125 2.91255 -7.70905 -0.277254 -11.0584 -8.64792 -2.77776 3.0134 15.7394 0.143383 0.226071 0.0692669 -0.0232458 1.3819 -1.39707 -1.73052 -0.81386 -1.13683 0.977734 0.0364675 -0.571475 -0.29446 
4.47163 3.65608 16.1501 0.719899 4.56598 -0.953153 -9.91781 -5.73248 -11.323 -4.42652 -1.70716 1.59763 15.2477 0.171343 0.869364 -0.826852 -0.553286 0.482692 -1.39577 -0.167683 -0.435465 0.239836 0.773814 0.306209 -1.74005 -0.348861 
4.62752 4.84292 14.5043 -0.562013 1.03727 -0.531728 -8.67432 -4.30238 -11.0284 -4.96698 -0.171285 -1.66647 15.0433 -0.308838 0.959346 -1.23276 -0.817023 0.200207 -0.407691 1.28322 -0.649374 1.0651 0.717527 0.514272 -1.16403 -0.29635 
4.82341 7.80617 9.94273 -3.21432 1.55848 -1.722 -3.57452 -3.07508 -9.03707 -4.30788 -2.42168 -3.94408 14.3579 -0.195818 1.25822 -1.55985 -0.945558 0.217244 0.470081 0.980464 0.2279 1.09022 -0.201424 0.782976 -0.953247 -0.288065 
2.70564 6.5041 13.1407 -3.02994 2.5709 1.25852 -4.46458 -4.85282 -6.8758 -5.1196 0.150857 -0.0359035 14.7025 -0.741569 0.788962 -2.36861 0.65962 1.85603 -1.07489 -0.772767 1.18848 0.901718 -0.838728 -0.11596 0.269017 -0.496355 
4.45348 9.11658 9.0326 -2.77393 4.88539 0.502126 -7.12036 -4.31776 -7.94817 -5.35733 2.04665 -3.98389 13.9778 -1.57374 -0.190805 -3.39603 1.95024 2.14845 -0.679456 0.915851 2.21192 1.79901 0.415125 -0.31393 0.51808 -0.702259 
1.10464 8.13252 3.11632 2.51589 8.65399 -7.01822 -10.7652 2.26138 -7.06424 -8.63589 -2.98525 -0.301482 12.7516 -1.89276 -1.12017 -4.77829 1.5508 2.09307 -0.866687 3.06789 2.16173 3.08431 2.45827 -1.13289 -0.272779 -0.784189 
-2.24478 6.03793 -2.0252 3.76397 9.25916 -0.980908 4.15506 4.42743 0.0521998 -0.474107 -2.42328 -1.22089 11.822 -2.03833 -1.55947 -3.41911 1.14826 1.25848 0.698673 3.96836 1.91334 3.76246 3.08546 -0.98967 -0.444845 -0.568852 
-3.40905 2.44257 -5.22179 1.45508 10.8494 -2.3334 5.23717 1.58325 4.54559 4.73015 -3.27861 -2.7813 11.8594 -0.690236 -0.533645 -2.11352 -0.0787285 -0.0952403 0.672152 2.95009 0.0738104 2.66535 3.43699 0.372836 0.490966 -0.266466 
-3.48131 4.16422 -3.89391 3.49776 10.0801 1.65308 4.72024 5.58803 5.05922 3.38697 -2.75502 -4.96821 11.5796 -0.284918 -0.568492 -2.12362 -0.233621 -0.112657 -0.556732 0.256841 -1.1901 0.117075 1.49085 0.940698 1.58271 -0.0792867 
-1.72828 6.40114 -6.51692 2.25535 7.76732 -4.97446 3.70264 2.05013 3.75899 6.6185 -0.955193 4.02701 11.5405 -0.484825 -1.02938 -1.68998 -0.0104329 -1.64816 -1.50109 -0.366849 -0.477027 0.042275 -0.313878 -0.0628426 1.44534 -0.0755424 
-4.50976 1.21619 -11.9957 2.19573 10.2369 -2.44404 6.20653 -1.75651 1.03087 6.03596 1.11851 3.28851 11.585 -0.534492 -1.39099 -1.58029 -1.16488 -1.92623 -1.89704 -0.67952 0.233298 0.66334 -0.75064 0.206558 1.47688 -0.0324222 
-5.31895 -1.2303 -9.62079 2.05393 2.53018 -7.7903 2.65978 2.87038 6.77114 1.83626 -5.52959 0.31702 11.479 -0.564115 -0.967779 -1.17994 -1.50376 -0.967388 0.128575 0.42489 1.31691 1.8061 -1.07654 0.0791868 0.453523 -0.0110446 
-4.35843 1.02497 -10.2434 -2.22593 3.06752 -6.4242 1.84407 6.34439 6.86985 2.02489 0.564961 4.27121 11.4483 0.0679192 0.3223 -0.106061 -0.585036 -0.453488 0.281835 0.769986 1.15566 0.572436 -0.330277 0.0958294 -0.264299 -0.0256186 
-4.62452 1.65785 -13.2928 -3.05261 6.51507 -2.3415 8.00832 4.58421 9.87 3.24133 -0.282487 5.80327 11.5537 0.409461 0.206748 -0.0288769 0.205219 1.48992 1.95963 1.19039 0.477476 -1.95262 0.0152471 1.2153 -0.384754 -0.0264108 
-4.51738 1.38361 -10.69 1.82382 5.97702 -3.75926 7.38219 3.16486 2.34362 3.68204 -1.0259 -0.776106 11.4196 -0.150388 -1.02682 0.438823 0.798071 1.44582 2.32707 1.78303 -0.163826 -0.920028 -0.250753 -0.0104705 0.171933 -0.0612517 
-3.19217 -0.375881 -9.54187 1.05515 8.52504 0.67536 5.84267 6.84753 -0.728853 1.08392 1.34234 0.916909 11.3612 -0.292431 -1.09342 0.564171 0.528127 0.00937624 -0.109276 0.757628 0.842503 0.61517 0.342941 -0.314408 0.00120046 -0.0551547 
-5.82654 -3.09225 -9.92478 -0.289457 9.29163 3.70274 11.8421 4.39361 7.56914 1.84982 -0.299803 7.57405 11.2382 -0.275498 -0.456567 -0.626188 -0.412617 -0.306466 -0.70255 -0.321699 0.335463 2.54766 0.442792 -1.18301 0.763321 0.0318072 
-5.4321 -1.5713 -10.8546 0.644667 4.90465 -6.61888 9.56653 8.18235 10.3331 5.87214 -2.21757 1.6342 11.3686 -0.202837 0.0939158 -0.823306 0.315597 -0.192479 -1.26362 -0.185319 -0.090225 1.806 1.36398 -0.297524 -0.644933 0.0688846 
-4.77491 -0.301516 -13.1646 -0.0340242 6.25488 -3.62489 3.91176 4.17476 9.55095 3.50189 -5.16097 2.68185 11.575 -0.056852 0.198694 -0.49152 0.831017 0.741487 -0.36652 -0.934547 0.480559 -0.205996 1.13778 0.866036 -1.30976 0.0962289 
-4.73217 -1.30167 -12.0385 2.50542 9.08102 -1.97895 8.88122 6.50583 7.31025 7.07781 2.2853 0.138346 11.5373 -0.00666218 -0.161936 0.376436 0.95344 0.784827 2.07979 -0.191772 -0.0496054 -0.763308 -0.151168 0.913945 0.179593 -0.0164099 
-6.46076 -2.2336 -11.7904 2.93525 10.9109 -0.449827 7.51198 7.63467 8.05058 6.93591 1.77894 1.77318 11.635 0.00353508 -0.0723101 1.32196 0.965219 0.579139 0.785835 0.0664381 0.427335 -0.37168 -0.41682 0.0983341 -0.279847 -0.0544762 
-4.62248 -1.41494 -9.65949 3.92723 6.50079 2.19254 6.80756 6.20437 7.26674 3.39929 -1.1178 2.9865 11.2565 0.0151619 0.453523 1.18652 0.211882 0.0179188 0.400832 0.766777 1.10676 -0.794424 -0.942916 -0.802999 -0.126525 -0.0227775 
-4.81208 -0.606428 -7.74433 4.08117 10.4407 -1.78146 5.28078 6.46216 7.71431 3.25705 -2.96775 -0.141459 11.443 0.476409 0.812535 0.618461 -0.638318 0.0750903 -0.163682 0.753022 0.281185 -1.43509 0.00675005 -0.62277 -0.100882 -0.0239036 
-5.48071 0.152362 -8.12892 2.99187 9.4057 0.691033 13.8307 12.6259 3.50627 4.20266 0.643651 0.46304 11.5194 0.159285 0.137403 -0.203587 -0.89664 0.687294 0.0807858 -0.844562 0.130041 -1.00971 -0.841924 -1.70264 0.275594 0.0331543 
-3.6496 1.04542 -9.4634 0.21134 9.83387 -0.517484 7.76552 5.82983 2.75537 6.56798 -2.21564 2.5305 11.384 0.188299 -0.360107 -0.583608 -0.701739 0.0434918 0.876532 -2.03651 -0.4038 -0.484195 -1.81141 -2.47294 0.890536 -0.00500755 
-4.40729 -1.55385 -9.81789 1.37894 10.2407 1.96448 1.34238 7.17074 4.69765 -2.46579 -10.0071 3.02849 11.4518 0.138913 -0.601171 -0.373243 -0.205827 0.207674 0.502885 -3.13998 -0.956939 0.432504 -2.23707 -2.90929 0.562891 -0.00676079 
