-6.48613 -0.243884 -11.6535 1.39785 10.1143 1.10159 9.26626 8.85209 4.01883 9.20889 3.22534 2.84021 11.3758 0.476044 -0.0524305 0.9403 -0.0515593 -0.713312 -0.0242329 -0.217113 -0.770328 -0.96287 -1.02261 -1.86928 0.257617 -0.0265798 
-5.32207 -1.25826 -10.069 0.596204 7.98563 -0.38533 5.79399 5.87631 3.39109 6.70299 -5.36422 0.865908 11.1712 0.262452 0.0423481 1.04274 0.0590095 -0.735205 -1.69828 -1.18242 -0.742524 0.241301 0.778395 -0.608382 0.0310555 -0.0199583 
-4.68793 0.00115252 -7.74429 1.54087 7.61207 1.72388 9.91683 6.48835 -0.481643 5.34879 -1.82629 5.11544 11.3452 0.0410975 0.184796 0.281759 -0.248459 -0.728209 -1.40825 -1.31311 -0.990698 0.394439 0.81543 0.20666 -0.598126 0.0125726 
-6.07296 -0.154662 -8.39445 1.62138 7.68938 -7.70096 3.02887 6.32135 7.47558 15.0309 2.70924 1.85787 11.2913 -0.324743 0.183551 -0.67165 -0.595698 -0.117318 -0.168533 0.308924 0.600364 0.540587 1.10272 1.59721 -0.987857 0.042299 
-5.90519 0.128295 -11.082 -0.357036 6.62137 -2.28185 4.08326 3.67608 3.94878 9.12208 0.221905 -0.646403 11.3786 -0.579224 -0.827399 -1.61636 -0.789137 -0.766356 0.647865 -0.006064 0.766312 1.35532 -0.870531 -0.674383 -2.38026 0.0683605 
-6.33716 -0.404077 -11.7584 -1.43333 7.89438 0.774869 10.2554 10.2843 3.87881 10.33 1.59772 -1.19245 11.366 -0.274108 -0.915776 -0.967521 -0.335218 -0.169681 2.40581 0.915916 1.38627 0.809107 -1.71813 -1.2192 -1.05677 0.0875936 
-7.45196 -4.01114 -14.1441 -0.877457 3.67779 0.725294 6.27324 8.33845 8.09334 3.34662 -4.64245 -5.26069 11.6497 0.298364 -0.315026 -0.225572 -0.243023 -0.214503 -0.0692265 0.268886 0.0929727 0.902029 -0.0565195 -1.42678 0.466127 0.018991 
-6.67012 -2.66383 -11.701 0.205501 8.31277 2.82451 6.51346 10.9215 9.44884 9.32799 -0.954597 -1.11882 11.5937 1.51655 1.79614 2.11539 1.17409 1.13537 -0.258578 -2.03186 -3.26817 -1.9695 -2.73029 -1.74619 -0.460824 0.0352249 
-4.24689 -0.316958 -12.2386 -2.39157 5.33967 -3.6528 7.29866 3.82233 5.67391 9.34046 -5.63582 1.64741 11.3597 2.59145 3.02578 6.29703 0.934854 0.599819 0.735982 -3.57699 -3.10835 -3.98787 -3.57581 0.0399935 -0.997753 0.562031 
-0.356942 6.72956 -2.13421 5.19418 12.7403 1.67103 -0.416625 -3.79854 -4.75895 -6.31842 -6.63654 -6.95062 11.6871 2.24433 2.46617 8.47406 -0.23039 -1.6172 0.969326 -4.17851 -2.12951 -5.28421 -4.8459 0.571128 -1.71154 1.24019 
2.34872 6.42107 12.5576 1.30248 4.46312 4.98194 -8.14666 0.156705 -4.74211 -6.70922 -1.60151 -7.33355 14.4132 0.644136 1.34742 8.08025 -0.934172 -2.16596 1.34826 -2.95227 0.778817 -4.73986 -3.99959 2.36593 -1.70416 1.79155 
1.25371 6.29801 18.2712 -2.79347 0.665042 3.35377 -6.65641 2.10675 -11.7642 -6.87668 -0.116115 -5.18602 16.268 -0.799549 0.180853 4.9871 -2.0555 -2.79615 -0.204433 -0.677312 2.18895 -2.05654 -0.431485 1.49241 -1.08073 1.67097 
-1.83153 6.63594 17.96 -3.0686 0.547483 2.24713 -4.34282 4.76377 -14.5228 -10.3783 2.93361 -7.75569 18.027 -1.24515 0.641902 1.43185 -0.714268 -0.816506 -0.792966 1.21357 0.977094 -0.819341 -0.314557 -0.0965336 -1.05148 0.846396 
-2.26456 7.52639 20.1001 -2.89776 0.717358 2.01627 -5.7051 4.84268 -10.1513 -6.64128 -1.44207 -12.1432 18.235 -0.746076 0.603913 -0.0969639 0.826304 0.0104779 0.403823 1.02952 -0.302204 0.804581 -1.09153 -0.0490616 -0.578335 0.247138 
-2.11789 9.01639 18.8024 -2.21672 0.354432 1.68586 -2.55449 3.67421 -9.64525 -8.3997 -1.4212 -9.11235 17.6616 -0.1595 0.0987342 -0.495081 1.49877 0.450671 0.906618 0.272227 -0.863497 0.963156 -0.773697 -0.214787 0.277993 -0.120316 
-2.3335 8.12735 17.3651 0.912108 0.813957 5.65352 -2.40296 1.14051 -10.1801 -13.3237 1.81598 -7.39937 17.6864 -0.12178 -0.2274 -0.720364 1.42035 0.805041 0.295371 -0.231569 -1.15013 0.369425 -0.812917 0.679134 1.06061 -0.0834368 
-2.59457 6.82913 16.8521 2.52032 2.75254 4.96159 -4.63276 2.29737 -9.69265 -10.9056 0.230653 -8.73764 17.6998 -0.397659 -0.343796 0.111726 1.24145 0.638269 -0.00348428 -1.16939 -1.87161 0.114649 -0.118139 0.675824 1.32667 0.0777691 
-2.63512 7.48302 17.4735 1.83547 3.54351 1.85526 -5.82382 -0.219524 -8.28049 -9.4529 1.12768 -7.02752 17.7987 -0.261441 -0.0956789 0.892705 0.326623 -0.0295419 -0.922468 -1.07907 -1.43643 0.204713 0.753578 0.287948 1.32142 0.0978336 
-3.95537 7.61958 19.3069 3.52883 2.181 3.56757 -6.69103 -5.00382 -10.0218 -10.9258 2.30208 -2.66494 17.9943 -0.0256523 0.0602441 1.11923 -0.144146 -1.59093 -0.84255 -0.518713 -1.25817 0.895766 -0.467222 0.344395 1.22703 0.149677 
-2.9603 7.25373 20.6012 2.04097 0.952018 1.73819 -6.76918 -2.39103 -8.99192 -9.5457 2.22001 -3.82861 18.0283 0.363182 -0.775399 0.663213 -0.182565 -2.21873 -0.0872005 0.0341754 -0.743626 0.773602 -1.06928 -0.635472 1.09941 0.203232 
-2.56024 7.24499 20.8843 1.69684 -3.90635 0.807378 -6.75364 -2.90773 -4.8581 -13.1953 1.40646 -4.20197 18.3334 1.011 -1.82397 -0.289038 0.0527393 -3.0873 0.265053 0.613077 -0.936032 1.64023 -0.812848 -1.7042 0.332609 0.281639 
-1.51677 3.79331 20.0008 1.83864 -4.50647 2.79935 -5.62163 -4.9857 -6.99433 -13.6645 -1.60188 -0.761971 18.6453 1.2964 -3.06521 -1.56861 0.801072 -3.74408 -0.228357 1.09941 -1.92849 1.65672 0.197981 -1.70915 0.48402 0.379502 
0.377866 0.229928 18.1619 3.89369 -10.5263 4.36225 -4.19941 -8.38664 -2.81942 -12.9306 -4.30796 -2.53521 19.0939 1.5783 -3.82659 -3.05821 0.964824 -3.4898 -1.61299 1.55719 -1.60533 1.19108 2.07324 -0.444556 0.332587 0.394474 
2.05267 -4.5648 14.1194 4.94791 -14.4584 -1.18104 -2.54923 -9.29405 -1.72767 -8.68817 -3.46852 -2.24189 19.5455 1.85499 -3.46241 -4.47919 1.27408 -2.14016 -2.8214 1.29968 -0.013794 1.81115 3.23718 1.91309 0.00869265 0.276146 
3.54651 -7.7089 8.53398 4.96633 -16.3794 -5.26739 -0.503889 -8.7802 -1.53603 -5.31732 0.117002 -1.79907 19.8557 1.68805 -2.56079 -5.61257 0.36255 0.435811 -2.82629 0.206185 0.232008 1.78999 3.48202 3.41326 -0.340695 0.0658485 
6.17387 -9.54931 2.41882 7.67272 -12.2807 -6.49281 -0.971018 -4.85788 1.41972 -1.28528 5.75107 -1.08658 19.6452 1.26038 -0.96689 -5.75484 -0.699085 2.16361 -0.428838 -0.921969 -0.57764 1.86093 3.60997 3.39834 -1.11847 -0.126248 
6.75751 -10.0817 -4.05068 4.34403 -9.43605 -7.11331 -3.9576 -9.44468 4.55684 0.778066 8.14857 -4.81634 19.3733 0.60023 0.488667 -4.90672 -1.77679 2.65099 1.27735 -1.24048 -1.52953 1.24814 3.10028 1.88671 -0.580987 -0.260827 
6.74906 -8.21283 -8.36248 1.76363 -7.11203 -2.40227 -5.43223 -11.85 4.53056 6.314 9.50742 -6.32563 19.1555 -0.119885 1.30308 -3.73869 -2.57501 1.80938 2.01412 -1.19486 -2.13211 -0.431906 1.69596 0.105779 -0.00373304 -0.26179 
6.26007 -5.9338 -10.609 -0.963054 -5.70876 -0.92593 -4.47567 -12.9318 3.14925 6.38441 7.67237 -2.08448 18.7964 -0.254962 1.57549 -2.26469 -1.49523 1.2773 1.84034 -0.399338 -0.70193 -1.62563 0.347552 -1.00632 1.00769 -0.266697 
5.82316 -5.10788 -12.9955 -2.54878 -5.0975 0.484096 -6.68629 -13.7748 -0.0360076 4.39137 6.51806 -2.47117 18.6247 -0.33199 1.2633 -1.05348 -0.142901 1.08222 0.523531 0.145556 0.263075 -1.5034 -0.576209 -1.21374 0.956525 -0.21366 
5.94565 -3.75675 -13.0576 -0.975917 -4.05682 0.645235 -5.32726 -11.9919 -1.28805 3.47715 4.61162 -1.70512 18.3052 -0.541828 0.564569 -0.154579 1.07976 0.800024 -0.748255 0.136316 0.423746 -1.13985 -0.593321 -0.86092 -0.580411 -0.0681768 
5.24632 -2.98488 -12.4056 1.05556 -2.52688 -0.570194 -4.27865 -11.0046 -0.767812 4.88659 4.96908 -1.73268 18.3327 -0.756078 0.196738 1.13997 2.32438 0.287228 -2.02431 0.711049 1.33359 -0.29847 -0.941523 -0.707216 -0.56906 0.0501009 
3.83935 -4.17245 -11.6768 2.63356 -2.99395 -4.14006 -4.99791 -12.1982 -2.1841 3.17019 4.14227 -5.35578 18.6015 -1.03847 -0.133895 2.60337 2.78569 -0.765816 -2.83318 1.20846 1.45475 -0.111669 -1.88304 -0.874122 -0.40248 0.181252 
3.09592 -3.91633 -7.98603 7.26837 -4.19279 -7.2448 -3.29572 -7.00374 -1.08033 -0.162773 3.21666 -3.49114 18.7271 -1.23767 0.14897 4.57207 2.34335 -2.37774 -2.1598 2.4111 1.03913 -1.1039 -2.74008 -1.52797 -0.00400219 0.195007 
1.82851 -3.96049 -2.25052 9.84614 -7.05295 -10.1834 0.22355 -6.71857 -1.69014 -3.41336 1.11722 -2.83829 19.0143 -1.47454 1.2854 6.26456 1.23341 -2.5831 0.629993 2.04453 0.0587895 -0.374915 -3.10242 -2.68003 1.40787 0.0429136 
0.0633802 -2.34601 5.74165 9.166 -12.3861 -8.34755 5.16613 -8.54875 -6.53431 -5.52204 -1.15825 -3.01144 19.1014 -1.55915 2.39513 6.23928 -1.03484 -1.06443 2.45038 -0.523645 -0.65414 1.25753 -2.72037 -1.71348 2.22905 -0.086334 
-2.01706 1.46939 12.7821 7.85181 -11.8128 -0.43872 0.993809 -11.1318 -1.33169 -9.66226 -7.0704 1.4437 18.6289 -1.20742 2.87712 4.58047 -2.27772 0.857718 3.04337 -2.17876 0.596473 1.45082 -2.74422 -0.561786 2.59125 -0.237353 
-2.77705 5.34437 15.6941 3.09134 -7.13501 0.13475 -6.29907 -8.06784 5.02808 -10.6402 -1.25693 5.51314 18.4881 -0.76272 2.48027 2.8394 -1.83251 2.88522 1.58344 -2.88093 1.50953 0.727528 -1.7877 0.930266 2.09559 -0.339798 
-2.78835 6.5799 15.6756 1.49486 -5.38989 0.792297 -4.93764 -3.97665 -0.217247 -14.5754 -1.64237 5.85568 18.1342 -0.606758 1.80528 1.49022 -0.319811 2.88668 -0.430594 -0.790757 1.4444 -1.54302 -0.834794 1.27859 1.07159 -0.366517 
-3.36457 7.50007 18.4919 3.18194 -1.17145 -1.04587 -6.2728 -4.57868 -3.45389 -12.004 0.779062 5.26052 17.6498 -0.613583 0.76704 1.10908 0.896521 2.68537 -0.230017 0.539397 0.514682 -2.71932 -0.0657257 0.331326 0.0191549 -0.28099 
-4.75709 9.41796 18.8343 6.20745 -0.361228 -2.00138 -2.97311 -5.65433 -4.80579 -13.1543 -1.69545 6.92795 17.2155 -0.360286 -0.211304 0.842613 0.463202 2.90928 0.402172 0.437934 0.318478 -1.04913 0.640211 0.0133682 -0.865932 -0.078471 
-4.8606 7.76054 19.6601 5.21765 3.77751 0.381503 -4.58435 -4.6556 -6.27427 -11.6793 0.426247 5.07278 17.5425 0.223469 -1.01332 -0.325105 -0.352403 1.50744 1.45645 1.05554 1.12987 0.386777 0.750497 -1.28984 -1.06607 0.047143 
-3.84177 5.39314 19.3046 2.79302 6.68204 2.08947 -3.59219 -2.3458 -4.05273 -11.5366 -1.39912 1.61989 17.7955 1.01668 -1.59568 -0.886065 -1.01341 -0.0233701 1.73453 0.368937 2.41278 1.15688 0.786913 -1.33515 -1.17177 0.0344788 
-2.70489 4.44588 16.6313 3.12714 2.84413 4.19095 -0.685537 -0.58358 -1.89654 -9.06037 -5.81833 2.58421 17.5955 1.19365 -1.26379 -1.01923 -0.962802 -1.31757 0.852744 0.361582 1.71247 2.02636 0.206257 -1.06747 -0.738969 -0.0367409 
-0.75157 3.09687 15.9184 2.18564 -0.0113888 4.76654 -3.07784 4.37355 -1.21026 -10.5292 -5.24892 2.31336 17.3614 0.846705 -0.718561 -0.240372 -0.925906 -1.66232 -0.0378779 -0.0736093 0.554577 1.16206 0.379154 -0.0875251 -0.455766 -0.0389557 
-0.437474 2.5897 16.257 0.70733 0.536355 3.30669 -3.03361 0.547095 2.43631 -11.1518 -2.9862 1.03121 17.5758 0.641555 -0.477003 0.284736 -0.369969 -0.910437 -1.24438 -0.193333 -1.21123 0.902809 0.239567 0.768842 -0.368322 -0.0609861 
-0.741957 2.72842 18.2898 -0.626602 -0.475649 2.34221 -2.7862 -0.138251 -0.408844 -8.59518 -3.25281 0.117562 17.6105 0.932903 -1.03653 0.0369492 0.803359 -1.34472 -1.29531 -0.0512026 -2.18077 0.139064 1.4955 0.420734 0.391836 -0.0510637 
0.498079 2.24508 16.8692 2.68342 -1.47592 -0.818795 -1.79802 -4.38382 2.2168 -8.82957 -2.97217 1.8405 17.166 1.78242 -2.23535 -1.11997 1.92915 -2.09192 -0.768344 -0.491901 -2.22354 -1.24473 2.79421 0.786324 0.957129 -0.0335274 
3.44517 -1.91349 15.797 5.21439 -5.72887 0.352711 -3.95165 -4.06482 -0.405184 -4.21285 -3.15226 3.86789 17.311 2.19119 -2.93291 -2.64781 1.93152 -2.90254 -0.957017 -0.487941 -0.623032 -1.45539 2.47648 1.95649 0.598562 0.114653 
6.38109 -6.26609 11.9035 7.4326 -7.29665 0.459719 -4.91039 -8.60734 -3.78915 0.628137 0.895149 3.94168 17.5579 2.12909 -3.0018 -3.45029 0.754883 -2.45525 -0.697497 -1.03129 1.57388 -1.41376 2.00834 3.3346 -0.282018 0.226853 
7.27249 -7.68054 7.53361 6.65641 -12.078 -3.08213 -3.66972 -1.14165 -4.6828 -0.941634 4.59599 2.05978 17.9878 1.9153 -1.93414 -4.54183 -0.432816 -0.46657 -0.962422 -0.99608 2.03221 -0.0588883 1.3378 3.79483 -1.2083 0.0814667 
9.22989 -9.88039 3.74948 5.73683 -10.5776 -2.58886 -7.09542 2.024 -2.71319 -0.423479 9.8267 1.33446 17.9619 1.82779 -0.826923 -4.90335 -1.69648 1.3362 0.1397 -0.716067 1.19634 1.57512 1.50671 2.3653 -2.20375 -0.145107 
11.5973 -9.77706 -2.83506 3.8982 -6.42124 -2.93511 -7.83953 0.78058 -1.2376 3.00193 11.3561 -0.869977 17.5164 1.56939 0.377287 -4.78251 -2.77007 2.83518 1.85405 0.0725359 -1.70337 1.96389 2.62632 0.876053 -2.01613 -0.309043 
13.3576 -9.35244 -7.42887 0.329301 -3.444 1.08471 -6.40582 -3.58677 2.36386 6.18991 9.34157 -5.6122 17.0681 0.970813 1.35533 -4.30137 -2.95538 1.93131 2.40578 1.1035 -1.43372 0.603536 2.37781 -1.03482 0.0746028 -0.269108 
13.0556 -6.05808 -10.7898 -4.4902 -1.46886 4.35136 -3.65184 -6.85313 2.59814 8.88325 9.21882 -4.54756 16.8895 0.445002 1.68015 -2.81291 -2.99657 0.424829 2.39996 2.05065 -0.546945 -0.343524 0.886687 -1.54875 2.30402 -0.163948 
13.3548 -4.96325 -13.78 -4.84588 -3.39722 5.7968 -3.67176 -1.32774 -1.61339 8.52489 5.72125 3.54627 16.9298 0.115113 1.89637 -1.70327 -2.30434 -0.603111 1.14362 2.67463 0.67554 -0.721378 -0.790774 -2.02376 3.22774 -0.217349 
13.8237 -3.5709 -13.7241 -8.49708 -4.32048 6.70865 1.04671 -3.08366 -0.966601 6.26787 5.42254 6.07089 16.7658 -0.205435 1.20567 -0.310684 -1.62542 -0.784472 0.30879 3.18224 1.72925 -0.315516 -1.90543 -2.26582 1.9978 -0.35147 
13.5491 -1.11417 -14.4781 -9.18894 -5.03374 5.62414 4.61803 -2.0938 0.539336 3.54373 1.12089 5.21727 16.0432 -0.548681 0.977024 0.420036 -1.42514 -0.629698 0.442915 3.39183 0.876008 0.819394 -2.05965 -2.10804 0.17594 -0.444626 
11.9312 -1.95427 -11.9941 -10.4458 -4.57296 5.98163 8.11445 2.17616 -0.0558009 1.84667 0.189894 4.60595 15.5754 -1.18168 1.2768 0.37378 -1.12495 -0.56009 0.0200752 2.61806 1.91115 0.984853 -0.866629 -1.37524 -0.349839 -0.565429 
11.5576 -0.886444 -12.5448 -10.9972 -6.41947 8.37488 9.75353 0.422389 2.02819 0.437243 -2.20261 5.15844 15.3019 -0.922575 2.37819 -0.370105 -1.73954 0.485433 -0.95675 0.623255 2.61087 -0.0314647 -0.0168958 -0.641713 -0.749675 -0.517264 
8.91102 2.69925 -12.8218 -13.2177 -6.42807 5.43366 11.5693 5.214 3.21324 3.48797 0.208078 4.35111 14.3094 -1.91265 2.18901 -1.31059 -1.91095 0.688677 -2.54437 0.231687 2.20412 0.682133 1.05595 -0.482917 -0.401703 -0.60506 
10.4464 8.45004 -15.9148 -16.5007 -1.67902 1.11438 6.00689 9.44163 -1.25251 2.6386 -2.09676 1.59632 14.0899 -2.75139 0.661566 -0.108272 0.035004 1.25348 -1.62517 0.818869 2.14105 0.711421 1.33909 -0.927066 -0.980633 -0.778525 
2.9236 4.32254 -16.8621 -17.2488 -3.4998 -3.10995 11.1462 8.68715 4.99521 6.02572 -2.27761 4.3785 13.1561 -3.20325 -1.24612 1.16972 2.23537 2.35785 -0.200048 0.1124 0.116906 1.08146 1.00514 -0.96063 -1.32126 -0.758838 
0.79439 1.60974 -11.066 -8.80663 -1.61619 4.52081 14.0594 9.39106 4.6943 5.8638 -5.59509 0.241579 11.9859 -3.50788 -2.12302 2.45226 4.75054 3.28208 1.30837 -0.695578 -2.28517 1.27314 0.819754 -0.167819 -0.400358 -0.703093 
-2.27925 -0.111204 -9.39763 -5.88786 5.32976 2.7302 8.10502 5.82382 5.64712 6.90105 -2.84591 -1.57784 11.5672 -1.92509 -1.1528 1.69806 3.97218 3.24337 0.783696 -1.14779 -1.92451 -0.917655 0.173413 -0.37584 -1.26385 -0.426246 
-4.49165 0.051791 -7.3857 1.57155 10.3166 4.73615 4.04959 -0.552531 4.78726 6.29971 -2.65171 2.57269 11.3689 -1.53137 -0.547915 0.572818 1.42794 1.6793 -2.20774 -2.28616 -0.792831 -0.451873 0.959875 0.259044 -0.149621 -0.100618 
-4.05884 -0.662501 -10.2119 -2.57699 6.75066 0.700864 10.4122 4.0364 0.360457 6.67484 -5.6285 -3.10631 11.3333 -1.14408 -0.235485 0.452658 0.658858 -0.360533 -1.56464 -1.09561 0.751716 -0.694402 0.787352 -0.133337 -0.0196354 0.0105094 
-5.97268 -0.854184 -7.79476 -3.32237 6.06984 -5.50322 1.47504 6.32061 5.07827 10.7763 -2.90857 0.257713 11.5997 -0.748017 -0.103737 0.354913 -0.205681 -1.80108 -0.731985 0.165123 2.22787 1.28615 0.464513 0.0631774 -0.1761 0.00756731 
-7.25915 -0.835643 -6.92981 -0.146606 5.65048 0.0267034 3.91427 6.14583 2.0296 8.59952 -3.38416 -0.518528 11.5043 -0.513489 -0.0490068 0.00339787 1.01899 -0.552696 0.22985 -0.215773 1.72133 2.51497 0.769746 0.722846 1.6363 -0.0304703 
-6.63158 -0.380321 -7.2522 -0.672045 1.8613 1.4133 8.12415 9.53213 10.3834 7.65993 -3.458 0.398301 11.3212 -0.0805502 -0.0597599 -0.242621 1.22771 0.605572 0.678493 0.375085 0.177159 1.53084 0.0942393 0.621397 0.950651 -0.0140814 
-6.29684 -1.14447 -10.4662 1.19279 6.09145 -1.60815 6.00874 11.0373 10.2827 12.0817 -1.73956 5.00488 11.3202 0.156639 -0.0402799 -0.158161 0.746361 1.34591 -0.866224 -0.991532 -1.05183 -0.266321 0.154299 0.754773 0.547553 0.0668908 
-6.85658 -0.998571 -7.23966 2.14646 8.87722 -1.29333 2.30323 4.76067 8.60593 9.50636 -0.623886 2.24926 11.6214 0.275613 0.00592923 -0.0474966 -0.0189066 0.509519 -1.36673 -2.07488 -1.17148 -3.4369 -1.05924 0.750641 -0.177876 0.0851152 
-6.36345 -0.727917 -7.72689 2.17595 8.87206 -2.9511 1.86707 3.2724 1.58676 8.4478 -1.02735 1.29376 11.6887 0.498517 -0.0801855 -0.463863 -0.931709 -0.99784 -1.35393 -2.02701 -1.34168 -3.53376 -1.93231 1.62847 -0.237504 -0.0139606 
-5.22021 -0.558949 -8.85935 -1.25815 3.01859 -4.74885 -0.179432 7.55718 -2.45309 4.18068 -0.0608985 1.36448 11.5626 0.39817 0.0318593 -1.23794 -0.960515 -0.306637 -1.20773 -0.551819 0.566315 -1.91635 -0.907561 -0.00514996 -0.125025 -0.113394 
-4.62244 -1.7652 -11.9757 -1.76345 4.03156 -6.65002 -2.88499 2.93065 -1.85658 5.08304 6.1213 4.25975 11.2798 -0.0143904 0.545044 -0.78356 -0.841481 0.259126 -0.219638 0.314147 0.432126 0.929711 0.0929157 -0.766631 -0.316485 -0.0532317 
-5.73624 -0.320631 -11.3049 -0.68642 9.76429 -5.4825 1.92016 7.76312 0.745836 6.65094 -4.22396 0.14114 11.2588 -0.0813976 0.623226 -0.348009 -0.573988 0.605738 0.838673 0.865008 -0.972237 1.78065 -0.0423992 -2.12912 -0.853185 -0.0300315 
-6.17739 1.87814 -10.4219 -2.31733 6.79484 -3.68246 2.38801 5.33005 4.63585 7.67725 -2.77897 0.323004 11.5744 -0.054058 0.582913 0.362403 -0.353687 0.671501 2.58705 1.80431 -0.258198 1.11193 -0.473251 -1.84147 -0.717836 0.0508352 
-4.84972 0.735503 -11.3763 -3.85115 4.66564 -2.03926 1.50911 1.49629 3.20395 2.67158 -6.25634 -0.933066 11.2651 0.143971 -0.391219 0.033646 -0.972252 -0.23444 1.40585 0.524794 -0.480815 -0.122888 -0.478134 1.13478 1.13223 0.0232331 
-5.33598 0.621295 -10.128 -1.94951 9.93839 4.56361 6.34208 4.77307 2.474 4.70646 -2.06984 1.20767 11.5309 0.270543 -0.91 0.546035 -0.109123 -0.0670808 0.133443 -0.0542222 0.263123 -0.630852 0.505498 1.9606 2.23052 0.0149664 
-5.43708 -1.6483 -11.2837 -5.73159 7.02032 -2.57631 2.5671 5.63754 1.21232 5.74566 1.09537 5.35998 11.3968 0.12583 -0.766646 1.00291 0.423783 -0.271721 -0.390719 -0.52245 0.0434534 0.449921 1.30883 1.76186 2.57746 0.114335 
-4.53099 -1.47995 -7.73803 -1.92272 5.2821 -2.74672 1.58791 4.57505 2.4774 8.6677 3.34818 8.32907 11.5834 0.139898 -1.2813 0.644831 0.652967 -1.26843 -1.48401 -1.29448 0.33643 1.85582 -0.101155 -0.879692 1.39032 0.12127 
-4.62307 -2.0471 -7.55673 -1.74563 5.63518 -0.33769 1.27394 1.81257 5.45185 7.2351 -0.156035 8.39353 11.8105 0.165156 -1.35904 0.119165 1.51342 -0.431447 -0.498324 -1.02036 0.277202 2.69942 -1.04407 -3.28384 -0.45927 0.206142 
-5.0435 -5.58582 -8.76731 -0.677654 4.28883 -3.97577 0.516253 8.36771 9.63336 3.45597 -5.8426 6.64252 11.9303 0.0619908 -1.41647 -0.748681 0.923003 -0.0120234 -0.752906 -1.04465 0.4419 2.29877 -1.51769 -3.87257 -1.3331 0.178475 
-4.35505 -6.39057 -10.1732 1.21299 5.35972 -4.4534 -1.9989 5.12722 11.1314 3.1312 -10.7285 3.9069 12.254 0.122449 -0.949168 -0.663883 0.780788 0.0519965 -0.870905 -0.906084 0.338881 1.28573 -0.853258 -2.60307 -1.17089 0.12107 
