-5.75776 0.715649 -10.8975 -5.76123 2.22656 3.95152 3.56167 3.40897 -1.54798 10.2773 3.90378 8.58413 11.3834 2.02799 2.30169 3.60377 2.72812 1.09201 0.00894936 1.13915 1.25991 -0.470289 -1.1873 -1.57331 -1.70006 0.092494 
-1.91487 5.75888 -1.75835 0.61474 6.50527 6.8975 9.54995 6.369 -0.758385 12.2845 -1.60577 2.45654 11.3092 2.67353 1.75253 3.8415 4.35901 1.79889 -1.93449 0.495424 0.494532 -1.47817 -1.4598 -1.76716 -1.64795 0.319745 
2.46075 9.70248 2.55182 4.69139 5.54726 2.52327 6.26329 8.22851 -4.29422 3.33724 -1.20801 3.14762 11.883 2.36608 0.665314 3.12736 4.29935 1.69535 -2.66897 -0.922619 0.243512 -1.7769 -1.69545 -0.60144 -1.861 0.437448 
3.50061 4.98488 1.58539 10.8075 9.56066 -5.00682 4.68798 3.47186 -7.56573 6.44839 -2.3761 3.06264 12.7324 0.931814 -0.121717 1.32211 3.09562 0.469417 -2.51931 -2.19603 -0.310266 -1.86723 -1.2625 0.65487 -0.505337 0.31766 
3.36491 4.42922 3.06749 10.6391 9.17559 -3.44118 1.37956 6.0751 -7.02883 4.71812 1.28175 -1.02391 12.8591 -0.274438 0.260182 0.454476 1.40187 0.171328 -0.180806 -0.831417 -0.326682 -0.226465 -0.0419767 0.294441 -0.568963 0.00182962 
2.29212 7.78692 4.59438 13.119 7.03819 -2.71682 1.01168 5.89438 -8.72722 5.28154 0.423699 2.01562 12.4095 -1.00401 1.43411 0.279764 -0.615876 1.4043 1.71858 -0.309043 -0.728035 1.36433 -0.274447 -0.75712 -0.276417 -0.160837 
1.69281 9.60236 3.3197 10.545 7.66513 0.474236 3.94435 5.38384 -4.8458 3.71078 -1.13571 0.826315 12.0536 -2.19644 -0.00682591 -2.22099 -0.98642 4.58613 0.988782 1.72874 -1.9577 2.11534 -1.19351 -2.37743 -1.0564 0.543254 
-0.683404 9.56886 2.8581 7.7752 17.3374 1.62838 1.86037 0.177315 -1.83561 5.57983 -4.95297 0.755441 12.3309 -2.25477 -1.53377 -4.00988 -0.517328 6.30513 -0.161557 0.624108 -1.04517 2.17977 -1.37255 -2.21022 -0.92766 0.992697 
-6.12952 3.50412 -7.16932 8.37892 26.9566 -0.669878 9.5989 -0.854868 0.102055 -1.39859 -7.91709 -5.67583 15.6146 -1.18038 -1.32192 -2.38486 -0.243919 2.67527 -2.5835 -1.27335 0.981664 -0.0626406 -0.161794 -0.35242 0.214908 0.954941 
-5.07056 3.16718 -10.2105 11.6154 28.9181 -2.95255 1.30495 3.78789 -0.3023 0.973456 -7.23673 0.628393 15.5924 0.557306 -0.593112 -0.257527 -0.451816 -2.14253 -4.01449 -1.3954 2.7722 -0.159567 -0.919031 0.884163 0.397148 0.704126 
-2.01553 6.19362 -2.07029 7.4053 15.2511 -10.1528 -2.14468 8.48688 -5.92566 5.205 -1.75593 1.96438 15.1975 2.23051 0.458691 2.36201 -0.402592 -4.79183 -4.26311 -1.65608 1.6932 -0.333487 -0.508633 1.21339 1.56306 0.203006 
0.0461302 5.25855 -0.979052 6.00292 12.4775 -13.7026 0.755138 9.36745 0.380407 -2.31712 -3.61274 -1.07893 16.0601 1.99202 -0.0932699 2.34444 -0.551609 -3.62506 -3.30343 0.316778 -1.31126 1.07967 -2.00093 1.63549 0.489704 0.405395 
2.46469 4.7519 0.0249877 9.17218 11.2178 -16.6104 1.59341 4.82136 -1.90673 -2.29646 -3.66211 2.99314 16.3958 1.3683 -1.29432 0.686827 0.646772 -1.03884 -1.17797 0.890795 -3.81272 2.4147 -2.83041 1.84288 0.403071 0.541708 
2.64942 3.42169 0.464047 7.97389 12.8095 -16.2409 1.01979 -0.935655 3.08658 -5.28047 1.89383 2.56253 17.0203 0.933049 -1.34605 0.479835 0.331688 -0.870386 0.415735 -0.216713 -3.79124 1.63145 -1.14154 1.94466 0.546299 0.371427 
3.52435 0.640429 0.642294 9.65368 9.89095 -14.7735 2.17697 -5.42519 4.79473 -7.46538 4.70519 2.159 17.426 0.639311 -1.38862 0.134061 -0.394409 -0.755016 1.09974 -1.03587 -2.53134 1.8519 -0.760532 1.46832 0.0492818 0.288917 
4.18154 0.584054 1.11147 7.42062 8.78899 -12.5424 -0.620201 -4.46547 5.18691 -5.44035 1.92692 2.06963 17.4022 0.710025 -1.24463 -0.168092 -0.284027 -1.12964 0.846466 -1.00091 -1.60425 1.14519 -0.203908 0.774838 0.130221 0.180661 
4.89518 -0.772388 0.371585 7.47678 9.45294 -12.961 -2.76596 -6.07045 6.30258 -6.01918 3.66296 3.486 17.6495 0.668231 -1.24793 -0.171099 -0.71523 -0.711012 0.378643 -0.955904 -1.29449 0.886788 0.240057 0.728261 0.0930157 0.167706 
5.51413 -2.09505 -0.241059 7.64221 7.38031 -12.9148 -1.51332 -8.6343 8.0586 -7.0231 6.28913 2.55014 17.8118 0.604103 -1.38261 -0.12699 -0.538371 -1.32805 0.671118 -0.846581 -1.44797 0.977572 -0.14616 1.9889 -0.308836 0.209757 
6.19921 -4.25967 0.463062 5.96673 7.04024 -12.6941 -2.15599 -9.81322 7.79283 -5.47372 6.16539 2.38383 18.0597 0.769239 -1.4074 0.260527 -0.762703 -2.55439 1.19367 -0.738062 -0.713458 0.607818 0.0697449 2.4257 -0.693665 0.21005 
6.55004 -4.58538 0.430777 5.48378 3.35507 -9.32024 -5.15809 -9.83391 9.32965 -6.44388 10.6202 1.07654 18.2458 0.971853 -1.39388 0.328893 -1.30131 -3.03395 1.55277 -0.577319 0.330716 -0.0152672 1.40847 2.03059 -0.456648 0.271947 
8.22342 -6.56421 1.3383 4.74247 -1.30641 -8.78994 -4.63389 -9.03793 8.70614 -5.96007 13.6259 0.754473 18.4827 0.994929 -1.32248 -0.339339 -1.7881 -3.5979 1.77691 0.291252 1.18465 0.0622142 2.40276 1.40281 -1.11784 0.344176 
9.36129 -7.91218 0.965788 1.74779 -3.61613 -7.10306 -3.16097 -7.36836 7.52561 0.26243 12.7118 1.08158 18.96 0.977265 -1.48835 -1.00977 -2.26356 -3.18349 2.11327 1.38321 1.43255 0.251826 3.60349 -0.54072 -2.53997 0.379901 
9.76823 -9.20867 -1.50114 -1.10577 -7.46364 -4.91809 -1.6983 -5.12275 9.00592 3.18693 12.1336 -3.20787 19.4235 0.631847 -1.05483 -1.78428 -1.72798 -2.06444 2.72037 2.35855 0.499336 1.65779 3.15378 -2.02799 -4.17213 0.389289 
10.664 -10.7049 -3.19837 -2.90989 -9.48375 -0.689801 0.290162 -4.62877 10.4389 7.00008 8.66273 -9.64216 19.675 0.283422 -1.3224 -1.89868 -1.07558 -1.2134 3.13706 1.8541 0.3787 2.13601 2.04021 -3.42976 -4.19964 0.452015 
10.7313 -10.442 -5.50101 -1.56857 -8.69482 1.60528 5.43329 -7.91105 15.5385 6.43999 5.51054 -14.7443 20.0717 -0.355125 -1.10659 -2.25099 -0.762384 0.620332 2.82993 1.68297 0.681718 0.773526 1.53085 -5.15651 -1.55994 0.532527 
10.2969 -13.9075 -6.52768 -3.39873 -9.06756 5.32054 2.54373 -4.08071 14.9394 8.83694 -1.12544 -14.1484 20.896 -1.10849 -0.450525 -2.84758 -0.586031 1.94927 2.03307 1.34937 1.08719 -1.13646 0.476925 -5.38926 1.4508 0.532132 
8.17616 -13.1403 -11.0914 -4.67327 -4.57008 6.22638 5.58976 -1.98818 10.6233 9.92274 -8.75485 -8.75445 21.4756 -1.38404 -0.192303 -2.2781 -0.861819 2.63334 1.35434 0.699929 1.8703 -2.99535 -0.387334 -3.95212 3.11933 0.387372 
6.39906 -11.6084 -14.6411 -4.28769 -1.79976 7.16499 6.95879 -2.15427 7.21418 7.64333 -11.1509 -5.38311 21.6337 -1.50208 0.41291 -1.62201 -0.908262 3.01967 0.0845951 0.895594 1.33375 -3.50114 -1.54977 -1.44493 2.42915 0.18375 
5.76004 -12.5531 -12.8348 -5.43318 0.837969 7.45475 6.72541 0.477252 4.42431 5.10013 -9.23736 -3.53029 21.6397 -1.16763 0.342028 -0.486334 -0.894524 2.4995 -0.384641 0.165528 1.26877 -2.97162 -1.63199 0.461455 0.962181 0.0766573 
3.99449 -12.1366 -13.766 -7.56009 3.32678 5.12933 6.45388 1.3553 0.533188 3.49937 -8.10884 -4.61474 21.7327 -0.785181 0.358198 -0.000334167 -0.508081 1.98538 -0.501216 -0.148934 1.6032 -2.40472 -1.08762 0.837586 -0.0626076 0.0528975 
3.54032 -11.1661 -13.9606 -7.50969 5.36414 5.32101 6.66986 2.60089 -0.894295 3.83475 -7.96859 -4.32773 21.8094 -0.522234 0.396831 -0.463751 0.195423 1.08599 -0.61367 -0.17704 1.29214 -1.71047 -0.739811 -0.0107478 -0.258126 0.0386456 
3.58302 -10.5109 -14.0798 -5.78984 5.86403 5.72579 6.2419 4.7999 -2.15013 2.8379 -7.59732 -5.29743 21.8134 -0.0941525 0.0312859 -0.154037 0.872234 0.0334957 -0.61008 -0.0714687 1.21121 -0.48689 -0.786613 -0.646668 0.352504 0.00454636 
3.3546 -11.3818 -14.9967 -5.34119 4.99929 4.08817 5.9462 5.21567 -2.78637 1.73181 -9.54686 -4.47958 21.7926 0.026963 0.0401184 0.264584 1.05068 -0.384567 -0.795796 0.0747147 1.39958 0.541534 -0.657051 -1.0921 1.00821 -0.0119354 
3.61658 -11.8723 -14.0182 -4.28317 3.67668 2.69534 6.45836 6.10394 -0.955221 0.61778 -10.553 -2.7763 21.7638 -0.131542 -0.0141415 0.378174 0.672811 -0.932481 -1.51592 -0.0862603 1.07128 1.56203 -0.700721 -1.65197 1.18325 0.00794754 
3.65835 -10.2848 -12.6685 -3.00961 4.53499 2.85725 6.9352 8.94678 1.21592 1.65956 -11.9512 -0.54724 21.7745 -0.1375 -0.0721119 0.925562 0.598218 -2.05244 -2.01924 -0.154971 0.783774 2.57369 -0.783459 -1.53076 1.21575 0.0449404 
2.77343 -11.1301 -13.353 -3.59158 1.43378 -1.23836 5.3161 8.29074 3.65885 -0.629573 -14.655 -1.34733 21.8622 0.315149 -0.169574 1.87049 0.887662 -3.84299 -1.38872 -0.39015 0.753184 3.93276 -0.879076 -0.156588 1.02461 0.0488997 
3.08867 -12.1134 -10.7014 -2.6959 -4.14147 -4.04118 5.74248 8.04114 7.77504 -1.56181 -15.1497 0.884677 21.9681 0.292601 0.20599 2.52508 0.89863 -6.04797 -0.695778 -0.723042 0.30552 3.50703 -1.38238 0.988071 0.62144 -0.0746012 
5.47716 -11.8058 -5.64925 -0.00171566 -11.2001 -0.799018 5.10397 10.3227 15.429 -2.16691 -9.73676 1.63081 21.9115 0.0151779 1.21556 3.50527 0.629293 -5.79545 0.81199 -0.832458 -0.906722 1.78738 -0.659824 2.96307 1.16278 -0.194639 
3.76949 -8.91696 -3.89502 -0.311388 -19.3879 -0.841314 3.42605 9.45841 12.866 -4.48367 -9.46999 1.07089 21.3768 -0.513951 1.94056 4.05042 -0.0372545 -3.86733 0.832204 -1.61975 -2.66191 -0.0143859 -0.0502563 4.43875 1.27659 -0.245034 
2.50892 -6.65053 0.7701 -1.63737 -19.9202 1.22165 2.31202 3.0485 10.0503 -2.46776 -2.67951 4.37346 21.1846 -1.19799 2.15612 4.01294 -0.92219 -1.6024 0.366933 -2.1944 -4.05155 -2.49786 -0.73046 3.58883 0.43326 -0.216808 
2.00304 -4.9883 6.34101 -2.06434 -19.118 -0.890497 -0.960291 -1.6313 10.3925 -1.66267 3.51545 5.89632 21.1064 -1.17794 2.14074 3.78184 -0.701473 0.672011 0.826196 -2.22923 -3.89992 -3.17407 -2.20253 2.48925 -0.63463 -0.153179 
0.370452 -2.98955 9.29742 -3.73619 -19.347 1.06024 -3.67486 -4.39024 4.17646 -7.22971 1.71466 1.38439 20.9626 -1.28068 2.23885 2.83181 0.0313533 1.80898 0.733157 -1.54778 -2.82457 -3.49978 -4.10343 0.676544 -2.03667 -0.185868 
-1.05099 -0.0437789 10.7505 -2.76935 -16.3145 3.37037 -4.72667 -6.32181 -0.0674338 -13.1153 0.779201 -0.607724 20.7219 -1.02616 2.1773 2.10882 0.615224 2.53137 0.849356 -0.722214 -1.86851 -3.54565 -4.13516 0.05903 -2.1337 -0.301537 
-2.36749 2.07146 12.7244 -1.1281 -12.2771 2.757 -3.54371 -8.72909 -2.21867 -17.2586 2.07133 -2.55786 20.4475 -0.50672 1.7131 1.87544 1.04901 3.03934 0.0548748 -0.396616 -1.40926 -2.47555 -2.00184 0.530908 -0.960014 -0.396594 
-1.7588 3.3677 15.1716 -0.292268 -9.99612 2.5079 -4.63693 -8.80443 -4.13821 -17.3241 3.63226 -2.80106 19.8563 0.0522527 1.07138 1.59617 0.753493 2.02892 -0.414209 -0.344859 -0.753146 -1.24491 -0.137822 0.936985 -0.42655 -0.417805 
-1.80924 3.87024 16.4641 0.270345 -7.30952 1.76585 -5.7028 -10.1952 -6.16592 -15.1345 2.94267 -2.31901 19.4125 0.316617 0.524605 1.21337 0.356714 0.868574 -0.190251 -0.775787 2.81334e-05 -0.615554 1.03709 0.508186 0.301604 -0.34684 
-1.06885 4.41375 16.8615 0.298897 -8.6537 1.7949 -5.37141 -9.35446 -4.31837 -14.8665 5.02846 -2.8599 19.1504 0.290465 0.183771 0.727935 0.206868 -0.114773 0.0210549 -0.993785 0.493284 -0.269226 1.7067 0.435122 0.701135 -0.243609 
-1.12938 4.17145 17.9463 0.359891 -8.60545 2.16224 -7.0554 -8.45394 -5.20635 -13.3019 3.91416 -1.02042 19.0662 0.440673 0.185851 0.167911 0.298171 -1.00281 0.0021729 -0.687684 0.841874 -0.194356 2.19015 0.953902 0.507567 -0.279373 
-0.646405 4.13595 18.0702 0.697299 -9.92201 2.41498 -8.92956 -7.20866 -5.96412 -9.70685 5.32212 0.0553179 18.8113 0.475118 0.513847 -0.573505 0.449642 -0.721624 -0.568589 -0.0473684 0.167284 0.208584 1.88065 0.960332 0.599785 -0.430137 
0.182903 4.9384 16.6993 1.562 -11.6894 1.46668 -7.36215 -7.05878 -6.31482 -6.76358 7.56535 -1.23878 18.1852 0.640594 0.952405 -0.764414 -0.897598 -0.458792 -0.462064 0.308972 1.00582 0.281634 0.938359 0.863509 0.0506098 -0.549647 
0.650599 6.59951 14.6175 1.94606 -10.7198 -0.700258 -5.45488 -9.21561 -2.72122 -8.73239 8.00452 0.248199 17.4403 0.751074 1.08009 -0.542616 -1.61657 -0.596166 0.119972 0.503177 1.65206 0.00685473 0.41699 0.463581 -0.0801483 -0.563711 
1.42509 7.70169 15.8506 -4.75248 -10.5005 1.40954 -7.24788 -2.42134 -5.41963 -9.09737 6.89051 -0.863813 17.0036 0.636119 1.14954 -0.425129 -2.41144 -0.234549 1.37102 0.42482 1.17299 -0.970481 0.438919 0.0492035 0.516744 -0.546167 
2.48787 8.15477 15.7815 -4.22833 -13.4973 3.0434 -6.47081 -1.26708 -6.37744 -6.455 7.97745 -0.532907 16.5836 -0.0641994 0.762247 0.148009 -1.43268 0.250157 1.01687 -0.349449 1.00377 -1.178 0.691683 0.0566338 -0.202011 -0.382658 
2.44486 9.90849 13.9917 -7.40803 -11.4734 6.44993 -4.73008 -5.16809 -9.33912 -5.70768 7.8249 1.73549 15.8827 -0.746255 0.561571 0.0639498 -0.0755348 1.02002 1.04025 -0.789231 -0.687695 -0.657669 -0.397859 0.60581 -0.771712 -0.163555 
-0.180285 9.30735 16.287 -3.88957 -8.9826 1.86391 -8.46103 -2.82341 -6.65146 -6.96883 7.82049 -2.06151 16.0874 -0.878857 -0.0921125 0.275728 0.772789 2.22493 0.723127 -0.957073 -1.63981 -1.09688 -1.20461 0.390056 -0.500337 -0.217647 
-0.972108 9.93325 15.9175 -5.29953 -7.65775 7.20054 -10.1989 -5.08165 -8.57097 -10.8298 9.99803 -3.95807 16.4339 -0.637513 -0.383407 -0.142671 0.89874 2.17102 0.135642 -1.63128 -1.2181 -0.855833 -0.383008 -0.660982 -0.611382 -0.252401 
-0.197927 7.68182 16.1972 -1.41863 -4.28047 6.28373 -8.52175 -9.50933 -12.2459 -9.91701 8.84117 -0.187811 15.2198 -0.456883 -0.380849 -0.675172 0.120448 1.51166 0.582729 -1.99058 -1.50102 -2.10929 0.44457 -1.60792 -0.13012 -0.383128 
-0.733881 8.80422 13.3232 -4.1498 -2.96939 4.91823 -12.8561 -7.91563 -10.821 -6.14863 4.00966 -2.25827 15.0545 -0.883063 -0.915189 -0.518607 0.370553 1.08394 -0.651262 -1.59595 -1.24801 -2.5519 -0.397122 -2.87797 0.0282065 -0.351018 
-2.58381 7.96762 14.2083 -3.86219 -3.76847 5.91871 -17.0853 -8.9115 -16.0729 -7.08654 2.7751 -3.56201 14.8615 -0.917263 -0.425367 -0.876344 -0.947218 0.393442 -0.232075 -0.876774 0.589267 -0.451757 -0.161218 -2.77001 -0.954737 -0.210513 
-4.19448 5.21441 14.3189 -2.22499 -2.49403 4.12674 -13.8969 -11.6206 -19.417 -14.2306 -1.35877 -2.12994 14.8579 -0.85634 -0.232043 -1.62423 -0.245766 0.635583 -1.01564 0.327412 1.42138 1.41846 -0.305634 -2.03569 -1.25735 -0.547999 
-3.05394 7.34989 11.3176 -7.11713 -2.55094 5.5191 -12.3852 -4.71051 -10.2067 -6.68211 -2.32467 -5.02566 14.2655 -0.652824 0.0870203 -3.49705 0.639143 1.29744 -1.9126 2.93043 2.31621 2.18975 2.33011 -1.76183 -0.142952 -0.909391 
-4.78052 7.95287 6.64742 -3.75116 -0.40024 0.0398598 -13.5691 -2.90921 -6.66179 -7.87901 -3.6189 -7.81319 12.6125 -1.13065 -0.815241 -5.32121 1.03848 1.70023 -1.23667 5.20851 4.13656 2.91637 5.08322 -0.189432 2.41368 -1.01042 
-5.55491 7.03349 0.558851 0.0966129 1.67183 -1.60082 -2.59707 -1.68614 -11.5017 1.38819 -4.904 -1.43514 11.4372 -1.23675 -1.719 -4.74458 1.43628 2.20298 -0.167911 5.11872 2.98014 1.90536 4.48601 0.687718 4.09859 -0.755865 
-8.59724 1.2964 -6.90772 -0.639433 3.89575 1.50333 7.25154 7.55 -4.18769 7.15035 -1.01627 8.14322 11.2199 -0.836556 -1.89156 -3.63453 0.00151768 0.552245 0.945538 3.90636 2.07563 2.51802 4.88578 2.87442 4.11497 -0.256703 
-7.32931 2.08312 -5.62772 -1.49161 6.31599 3.94781 2.79803 4.96059 -1.917 8.23328 -0.187397 7.48907 11.1824 -0.0594677 -1.0431 -2.06816 -1.28907 -0.13251 0.997943 1.36895 1.06723 3.16356 2.84947 1.98807 0.734996 -0.046333 
-8.0761 0.970265 -8.43194 -2.94946 0.0389071 1.99324 3.26515 4.14557 1.13591 13.1274 8.39488 8.29953 11.4564 0.508033 0.0118093 -0.402649 -0.677797 0.0826174 0.709091 0.0645253 -0.663181 0.787263 1.71203 0.199004 -0.844107 0.0434681 
-6.11282 1.98106 -9.01986 -5.19374 2.9377 3.14394 6.24087 5.3522 1.65428 12.647 0.330761 2.16168 11.0873 0.375282 -0.199286 -0.321611 0.0291419 -0.228247 -0.31641 0.5014 0.421267 0.529172 1.1407 0.309941 -0.626997 0.059872 
-6.66532 1.40648 -7.22489 -2.17735 5.99798 5.45072 5.85274 4.03829 -2.03701 13.5036 -0.280327 6.58638 11.4848 0.190632 0.191635 -0.127848 0.521114 0.897987 -0.655326 -0.199558 0.131662 -0.633781 -0.281674 -0.74873 -0.710128 0.0467102 
-6.15829 0.868588 -7.8393 -1.73196 2.19522 0.637016 4.01123 7.12056 2.31532 13.7487 5.69991 5.21066 11.4676 -0.211185 -0.0377822 0.14241 0.407728 -0.283541 -1.45626 -1.47316 0.604677 -0.615263 -0.63771 0.956689 2.02052 0.0612927 
-7.10021 2.48468 -9.66146 -2.07479 4.90008 -0.0299315 3.38218 3.9197 -2.36352 11.1682 1.96665 3.22441 11.4998 -0.0445842 -0.123821 0.548786 -0.109595 -1.23545 -1.99846 -1.87662 0.78471 0.541962 -1.82406 -0.577499 0.0589482 -0.0398132 
-6.95131 1.25305 -7.08952 -3.20639 2.06895 -1.39701 0.110346 8.43488 -1.25879 10.6262 3.99072 13.9453 11.3863 -0.0420299 -0.302696 0.202376 -0.0714473 -0.0606334 0.319252 -0.754404 -0.435581 -0.7568 -1.54939 -1.47507 0.0549301 -0.0443373 
-6.49174 0.595146 -4.85585 -1.98811 -0.116133 -3.52456 -1.57994 7.30469 2.45986 5.94457 -2.31323 2.51382 11.3264 0.123297 -0.281476 0.203586 0.530165 0.508287 1.33752 -0.965044 -0.192338 0.125322 -1.02023 -1.38863 -0.70378 -0.0236818 
-6.67268 0.299873 -9.23022 -2.13253 4.40016 3.98059 2.72027 3.25017 -3.88036 8.61352 0.464499 5.8406 11.3326 0.138354 0.362162 0.268319 0.627294 0.723717 1.08469 0.51629 0.233227 1.4551 -1.37268 -3.16864 -2.6221 0.00469675 
-6.62303 1.55388 -7.57318 0.0391121 6.27591 3.96887 -2.748 5.55037 -0.42612 7.07337 -3.21341 3.75784 11.4082 -0.409442 0.198176 -0.232203 0.394425 0.935381 0.943643 1.89328 1.65843 1.12347 -0.577907 -1.42561 -1.13709 0.0357048 
-6.19389 2.58449 -4.38926 -1.08353 2.49151 0.279741 3.27583 10.4782 7.45971 3.19841 -11.4024 0.21273 11.3688 -0.670682 0.126869 0.59669 0.423068 0.129906 0.232206 1.75193 0.724894 0.837648 -0.406039 -0.714574 -1.28654 -0.00268555 
-8.77834 0.443718 -8.43734 -0.540485 5.5151 3.04408 7.60866 11.9828 2.40717 5.76259 -3.50783 -0.357707 11.4868 -0.484808 -0.469988 -0.571497 -0.306957 -0.965721 1.09912 1.16134 -1.32661 -0.0101454 0.880327 1.98512 0.441118 -0.0295208 
-8.94843 1.4893 -5.81469 0.272607 5.4301 5.60401 6.3016 3.6584 -1.10877 7.23871 -2.96116 1.46568 11.2799 -0.436531 -0.409981 -1.30256 -1.08665 -1.67048 0.549696 -0.195689 -1.63031 -0.38302 2.48656 2.0702 0.487788 0.00263968 
-7.6698 -0.248459 -9.71795 -2.17374 -0.021986 6.80235 1.54582 2.32723 3.80739 9.45485 2.49156 5.33695 11.3051 0.419023 0.481021 0.0207171 -0.96362 -1.22684 0.0256487 -0.205003 -1.5767 0.808427 1.39669 -0.0466357 -0.426445 -0.0094388 
-8.93081 0.880674 -10.2618 -5.70015 -3.09235 1.14909 5.3288 7.15443 4.8445 13.7851 -4.05111 -0.19566 11.4729 0.549056 0.672926 0.301669 -0.548808 0.00881138 -0.181102 0.706111 -0.259008 0.882816 0.448636 -0.615736 -1.32461 0.0164388 
-6.69204 3.15314 -6.11022 -2.3722 3.64211 5.39978 7.07004 2.35132 3.47267 9.47288 -3.19604 -1.65926 11.3431 0.419431 0.907565 1.1367 0.293103 1.40626 0.144557 1.27897 -0.475494 -0.204127 -0.427616 -1.05201 -1.5456 -0.00537825 
