-9.11263 0.0620155 -9.74424 -0.150386 12.0276 -1.50723 6.87606 6.593 5.77094 -2.64449 -6.33986 5.33254 11.2255 0.395261 0.80353 0.555875 0.553716 -1.79649 -0.533098 -0.234487 0.862547 0.406078 1.49795 1.35076 0.126592 0.0158822 
-8.35138 3.4955 -7.9032 0.544388 3.44114 -5.11544 8.18669 8.95758 4.15368 0.264622 -0.915673 8.87722 11.3568 0.688487 0.478563 0.365676 0.788584 -0.455189 0.451555 -0.67895 0.918466 0.804924 1.44319 0.172444 -0.641775 -0.0035738 
-7.51695 2.36293 -7.88538 2.27081 7.33835 -2.36861 5.04831 9.72345 8.60996 3.3907 -2.29816 4.19316 11.2393 0.386828 -0.0311799 0.122518 0.350609 0.735437 1.17994 -0.590911 0.710305 0.897914 1.74483 1.07889 -1.19916 0.0376598 
-6.46803 1.30438 -8.84528 2.58193 12.0963 1.18124 4.39518 9.62011 8.37605 1.55389 -7.49849 2.69336 11.2008 -0.0423273 -0.281727 0.33403 -1.04129 2.21869 1.42774 -1.9643 -1.00249 -1.04957 0.05733 1.50541 -0.701571 0.0887031 
-8.12016 1.00168 -8.6606 0.583885 11.3772 1.24411 5.81726 9.81326 8.14933 5.43505 2.34598 2.42869 11.4918 -0.181126 0.185183 1.39713 -0.308435 1.40893 0.510654 -0.911178 -0.821669 -2.57118 -0.761286 2.54448 -0.248516 0.152658 
-8.26141 2.76749 -5.84544 -3.81862 12.5152 0.216908 -2.01927 3.90022 -0.863877 -0.470903 4.2893 6.2516 11.674 1.21217 1.87558 3.4297 1.23089 0.493519 -0.268291 -3.06733 -1.61737 -2.4055 -1.2416 1.44878 -0.580123 0.246496 
-7.52589 2.55728 -2.39963 3.92891 14.1735 0.666824 3.69965 8.47505 0.374046 0.596667 4.53036 1.17146 11.766 2.53225 3.30621 5.68901 0.642521 -1.09768 -0.373471 -3.88062 -1.65858 -1.14927 -3.01104 -1.8943 -1.09777 0.540489 
-0.704329 9.90446 5.17271 7.06389 13.1657 0.128427 -9.88265 2.20237 0.236193 -2.23493 -1.34677 0.421359 12.2962 2.47872 3.21026 6.07766 -0.047518 -2.84467 -0.605544 -1.80617 -0.450557 -0.931031 -2.10622 -1.93026 -1.57988 0.748931 
0.762528 13.9642 14.2754 -1.64476 5.56354 -0.579003 -9.65413 2.3693 1.85293 -8.73812 -4.30747 -0.145062 13.8832 1.27527 2.19086 4.26263 -2.04583 -3.27039 0.168485 0.107698 -2.52061 -2.05883 -1.52571 -0.577729 -0.65332 0.876285 
-0.0120268 13.1153 16.2053 -1.26937 2.5968 -2.1879 -4.37324 4.7003 -6.25847 -6.33462 -0.943106 -0.989551 14.3601 -0.919353 -0.128624 1.77219 -1.12707 -2.9016 0.918968 2.77833 -2.22193 -1.15042 -0.837051 0.67254 -0.111897 0.947713 
-1.49571 11.9062 13.3972 -2.13359 3.10605 2.66741 1.48344 -5.37699 -6.67278 -4.98205 1.43989 -1.38969 15.1155 -1.6644 -1.14033 0.197841 0.717581 -1.79736 1.58243 1.58873 -1.78491 -0.59814 0.0570438 0.323483 0.858949 0.910971 
-4.17198 10.2904 14.4728 1.67297 -0.113552 3.10006 -1.55977 -5.03414 -1.25304 -8.29822 -0.857745 0.484187 16.4186 -1.42142 -1.31636 0.970194 0.199184 -1.42395 1.62834 -0.173774 -1.07764 0.584736 -0.576819 -0.263497 1.17579 0.932973 
-5.47952 9.67505 16.1309 0.471972 -2.06806 4.68916 -3.11719 -1.68804 -3.64048 -7.47111 -2.73273 3.41281 17.4088 -0.815379 -1.47671 2.0879 -0.0917479 -1.75224 0.900888 -1.00096 0.326816 0.551291 -1.34412 -0.0490723 0.989575 0.849951 
-5.12723 7.64907 19.6895 -1.57623 -1.93589 4.94293 -2.9418 -2.53239 -4.85094 -7.97419 -0.174283 2.48815 17.8783 -0.0555779 -1.56071 1.82226 -0.658428 -0.838621 0.912276 -0.317051 -0.759634 -1.10254 -0.253047 0.1946 0.443219 0.601214 
-5.09498 5.84326 21.2284 -0.967728 -4.74397 6.25042 -2.83033 -4.99379 -2.11738 -11.8647 0.852797 2.55621 18.6354 0.0902154 -1.62339 1.59143 0.417294 -0.529182 -0.00121105 -0.278852 -1.53962 -0.774415 -0.451131 -0.0598607 -0.260711 0.439184 
-4.64214 4.40274 21.0353 -0.899324 -2.96871 6.88081 -3.28845 -7.17944 -7.52732 -7.36668 -1.67751 3.12859 18.8114 0.207499 -1.63744 1.13409 1.10611 -0.0603827 -0.911749 -0.155711 -2.23342 -1.12795 0.270319 -0.680162 -0.0657392 0.344308 
-5.27099 3.18125 23.4151 2.21999 -4.19756 3.71417 -4.33813 -7.06261 -6.17437 -10.0305 -2.28042 1.78904 19.1381 0.749287 -2.06814 0.71588 1.29192 -0.244059 -2.41274 0.0511051 -2.03552 -0.982625 1.64954 -1.57313 -0.175356 0.224611 
-4.00173 0.792893 24.2665 2.36045 -2.511 1.65231 -2.96645 -12.6651 -8.46222 -7.53967 -2.00848 2.54304 19.3484 0.925937 -2.15489 -0.717642 1.34319 -1.212 -4.15365 1.13962 -1.50282 0.140778 1.87459 -1.00201 -0.0273939 0.196183 
-1.66874 -2.69252 23.1922 3.86197 -6.19312 -3.19901 -2.7358 -12.4286 -6.56305 -3.53044 -6.84735 1.9722 19.4899 1.62442 -2.83459 -3.15116 1.54065 -2.62929 -3.41106 0.462808 0.758278 0.442445 1.61293 0.743446 -0.730994 0.18791 
-1.81358 -3.43482 17.5586 4.99565 -8.03092 -10.4309 1.60847 -12.0106 -6.62909 -1.24379 -4.40409 2.90004 19.6164 1.5726 -2.98291 -4.95402 1.50687 -2.59566 -2.96167 -1.08693 3.756 1.60277 -0.122551 2.05419 -2.09999 0.126734 
1.75704 -8.87784 11.0133 8.60563 -14.584 -7.29956 -4.31155 -3.59848 -4.87871 -5.1138 2.63461 -2.04443 19.9437 1.48416 -2.56729 -5.66147 1.08909 -0.255212 -1.97831 -2.09275 4.97821 2.77948 -0.274156 2.42415 -2.63895 0.0173903 
2.14835 -11.029 5.58585 7.52296 -11.2938 -11.1058 -7.61323 1.69988 -1.29056 -7.36074 3.52148 -5.94861 19.7552 1.42161 -1.84544 -5.63906 0.332869 1.7671 -0.910836 -2.76906 3.78016 3.53581 1.28417 1.02844 -3.62447 -0.0865187 
3.77109 -11.7319 0.871181 8.04375 -5.83772 -12.7531 -8.5887 5.60725 4.66508 -1.84274 1.31063 -6.79825 19.5075 0.991207 -1.1079 -4.84002 -1.15718 3.03008 -0.657906 -1.42082 0.211066 2.67764 4.06502 -0.0625715 -3.51137 -0.0968954 
4.28743 -11.235 -5.56565 6.94093 -3.56859 -12.2583 -10.0983 2.28738 6.27808 3.54154 1.40011 -12.8454 19.4019 0.96114 -0.520175 -3.96875 -1.38775 1.84929 1.31299 0.101152 -2.3629 0.95353 4.78289 0.944157 -2.80054 -0.0149132 
5.64354 -14.3144 -7.61106 3.11075 -3.29628 -10.0128 -10.1732 -2.8369 4.72519 9.76017 3.38244 -16.1529 19.6359 0.779995 -0.0732521 -2.57134 -1.74016 0.184583 3.21706 1.20498 -3.48472 -0.245116 3.58343 2.46956 -1.513 0.00189686 
6.01783 -12.3386 -10.0168 3.05074 -3.31811 -5.91094 -6.31524 -5.89257 3.44704 10.7523 7.20636 -15.274 19.6164 0.668171 0.29743 -1.09097 -1.94694 -0.805674 3.57781 2.23595 -3.38494 -0.303982 1.34255 1.67177 1.25959 -0.0567551 
6.80586 -11.5463 -9.75993 1.28807 -5.04004 0.158521 -4.45533 -7.72636 4.85502 12.469 10.7553 -13.149 19.4097 0.156672 0.610163 -0.534363 -2.12277 -1.38559 2.9267 1.4319 -3.2666 -0.446444 -0.733853 -0.0226867 2.15892 -0.0876169 
7.04712 -11.1318 -9.94608 -1.88242 -6.72507 0.54511 -1.77741 -12.1926 4.69325 8.89985 6.07254 -8.04944 19.2312 -0.154242 0.0134621 0.111162 -2.09908 -1.34647 1.60573 -0.378742 -2.51102 -0.65301 -1.1509 -1.46555 1.58063 -0.0640148 
5.91226 -11.8669 -10.3182 -5.03654 -8.52076 1.39265 -5.28256 -16.0199 1.86986 7.01711 3.83592 -8.97056 19.3904 -0.449195 0.100585 0.625261 -0.761482 -0.484087 0.323813 -1.52301 -0.339825 -0.354032 -1.0844 -1.36775 0.320442 -0.074732 
5.69342 -12.111 -9.18183 -4.28235 -8.3101 1.50062 -7.79534 -14.3009 1.67457 7.72375 3.33831 -9.46004 19.306 -0.588721 0.295154 1.17292 1.08475 0.657602 -0.142787 -2.69522 2.2839 0.708228 0.0823059 -0.629218 -0.643186 -0.0745384 
5.23673 -10.5538 -7.01575 -1.31938 -6.66797 1.29983 -9.06141 -8.37132 4.5942 7.63508 5.28368 -10.8415 18.9986 -0.64135 0.413993 1.65814 2.94071 1.09748 -1.29712 -2.47689 4.31662 1.65563 -0.458977 -1.21553 0.162726 -0.0763956 
4.44127 -10.3126 -5.73272 1.68276 -4.36347 -0.122417 -13.3641 -4.59734 6.87222 9.0024 2.20257 -10.3299 19.0544 -1.1679 0.269733 2.25942 3.23779 -0.249218 -2.80987 -1.5869 4.55285 -0.316145 -3.09624 -1.12362 1.22053 0.0641468 
3.33158 -10.6962 -3.75207 6.68444 -5.00668 -4.28145 -14.8826 0.711458 7.54916 4.0829 -1.67386 -7.72199 19.1342 -1.26119 0.0461454 3.82428 2.72933 -2.40418 -2.86543 0.245746 3.33167 -3.22837 -5.03954 -0.264282 2.73959 0.294133 
0.806515 -10.6912 0.483428 7.90471 -10.3868 -9.75809 -12.8192 3.92193 -1.38363 -5.98135 1.19896 -4.91712 19.559 -1.22826 0.56233 5.69953 1.62603 -3.81859 -1.08679 1.56531 0.860184 -5.39633 -5.31834 0.850804 2.56927 0.297242 
0.748173 -10.1338 8.99756 9.21631 -15.6772 -8.2095 -8.10511 4.02741 -7.41972 -10.0707 4.46408 0.150055 20.217 -0.980676 1.80601 6.15243 0.121781 -2.70981 2.14918 1.13428 -1.87403 -4.64781 -2.93168 0.0850831 1.6413 0.0874397 
-0.408309 -7.78214 16.3901 8.547 -18.1212 -3.59232 -8.9263 -1.95439 -12.625 -10.5125 3.38762 -1.41961 19.9992 -0.628637 3.03312 4.55797 -0.759887 -0.148112 4.12539 -0.0781408 -3.06819 -0.778086 -0.376474 -0.868298 1.67574 -0.240527 
-0.964385 -3.12066 19.0567 6.9722 -14.6885 3.38156 -11.1577 -5.72053 -10.0692 -8.30995 -2.34277 -1.26422 19.3513 -0.825243 3.41564 2.1232 -1.86409 2.10286 3.50132 -0.342623 -2.48655 0.732431 0.428504 -0.771613 1.16456 -0.494105 
-1.48039 0.967834 18.2437 5.22733 -11.6217 5.07334 -11.6837 -6.54505 -3.94933 -8.74411 0.260894 4.16873 18.7892 -1.12548 3.45854 1.02333 -1.70553 4.15827 0.77942 0.302601 -1.63792 0.880834 0.193343 0.948947 1.95516 -0.545166 
-2.842 2.5694 18.6867 1.5557 -8.41258 4.96427 -8.43954 -6.11 -8.09541 -8.81241 2.16938 3.17866 18.3515 -1.37071 2.8178 0.500713 -0.611148 4.47015 -1.54574 1.0546 -1.48801 -0.0833631 -0.10174 1.15854 1.26281 -0.50807 
-5.09691 6.66553 21.6918 2.72759 -0.467822 -0.486573 -8.77236 -9.94925 -9.20773 -9.29455 5.87628 6.13473 17.7733 -1.44795 2.02279 0.482087 0.487489 3.98746 -1.48922 0.382113 -0.638043 -1.62917 0.190631 -0.669262 -0.738291 -0.335254 
-6.0097 8.11947 19.8363 5.16633 2.08527 -1.56718 -7.34032 -11.4585 -7.85681 -8.54343 0.642224 4.06683 17.3189 -0.994983 1.23919 0.0881689 1.06983 2.78913 -0.749283 0.234707 0.102547 -0.410424 -0.53832 -1.83609 -1.98086 -0.162158 
-7.13628 8.30676 20.0794 5.85946 3.06667 0.892948 -10.3227 -7.06102 -12.2145 -7.92545 -2.32184 0.0331964 17.6292 0.138668 -0.414365 0.139478 0.25085 -0.167874 0.760949 -0.019519 1.0748 0.272067 -0.240051 -1.26434 -2.25248 0.110929 
-6.79723 7.94476 19.9338 5.33892 3.76583 0.528097 -6.49084 -7.04138 -8.64416 -12.1886 -2.912 -3.67488 17.6127 1.20649 -1.71704 1.11056 -0.783487 -1.97935 0.276354 -0.55374 1.14545 1.28184 0.605961 0.445645 -0.773971 0.301035 
-4.0098 4.68106 22.3404 3.89554 -2.14747 2.27053 -9.2947 -6.78379 -7.45372 -8.67224 1.33169 -1.25682 18.181 1.7919 -2.45189 0.87804 -1.35535 -4.062 0.192984 0.243131 0.435044 1.75742 1.33057 1.11687 0.419574 0.414757 
-1.5405 1.34712 24.2586 2.23085 -5.20441 -0.874207 -10.623 -5.86986 -3.82797 -5.14023 1.04369 0.841982 18.5482 1.91098 -2.83702 0.0516365 -0.989723 -4.73062 -0.0219637 0.119715 0.702697 0.638687 2.96104 0.903582 1.41528 0.442585 
-0.805172 -0.653882 22.3072 0.636734 -12.7582 2.55902 -7.04095 -5.47156 -5.83548 -4.79677 1.28468 -0.127363 19.2353 1.76895 -2.75996 -1.80271 0.310135 -3.65894 -1.74433 1.7048 0.789677 0.0436454 2.36771 1.09639 1.27545 0.282474 
1.15536 -3.5729 20.2086 2.01971 -14.5819 0.274034 -7.01913 -4.18401 -6.25985 0.678912 1.62941 2.83681 19.2985 1.84104 -2.74949 -3.54832 1.1283 -2.05861 -2.72246 1.52972 2.9547 -0.643324 2.10278 1.53599 1.13119 0.079981 
3.487 -6.65873 15.3519 5.55178 -15.7534 -7.02523 -2.57266 -3.67833 -6.01956 0.256765 6.52077 4.12302 19.2182 1.88386 -2.19318 -4.5659 1.43473 0.317823 -3.65612 0.497345 4.55665 0.807676 2.20957 1.35354 0.120276 -0.236454 
5.51863 -9.39791 9.99462 5.41482 -13.9999 -9.69439 -5.20857 8.007 -6.95255 2.8469 6.1056 4.37273 18.9566 1.7105 -1.53231 -5.06913 0.461115 2.11025 -2.67849 -0.678261 4.78043 2.28744 2.15117 0.831603 -1.65261 -0.351472 
6.43248 -8.70728 4.58468 6.11285 -11.4601 -10.7374 -5.45951 11.2162 -1.45075 5.16707 5.81428 -0.293943 18.224 1.39082 -0.708596 -4.79865 -0.973909 4.05179 -0.670679 -0.92007 2.58148 3.46777 2.71453 -0.0609183 -2.94943 -0.449426 
8.23511 -10.2102 0.246504 4.04475 -6.17728 -11.2623 -8.96702 12.2709 2.89297 8.97959 6.14068 -3.21775 18.0383 1.04124 0.14449 -4.68908 -1.19462 4.31808 1.63074 0.28203 -1.00854 3.24432 1.84028 -0.0945515 -3.19082 -0.467601 
9.08287 -9.79558 -3.76734 1.36727 0.594225 -9.59465 -5.29379 7.09716 6.39654 10.7631 6.19864 -6.82886 17.4303 0.791047 0.802941 -4.11999 -1.94268 3.61949 3.06739 1.83044 -2.38258 1.26909 1.33215 0.118839 -1.84308 -0.411462 
9.39962 -8.13131 -9.27476 1.81448 1.56338 -2.11206 -3.88128 5.02382 5.3454 9.25029 5.44066 -8.31393 17.0155 0.449429 1.40277 -2.83843 -2.31778 2.09004 4.15001 3.08688 -3.2753 -0.525409 0.381065 0.347465 -0.33205 -0.432958 
9.80546 -5.73201 -11.2546 -2.48543 2.767 0.0244445 1.14984 2.9268 3.66847 11.6925 6.75848 -6.96125 16.6781 0.315099 1.67143 -1.75432 -2.38836 0.537717 3.48171 3.13088 -2.76549 -1.97198 -0.00599899 0.0606203 1.76857 -0.36724 
10.121 -5.22811 -10.202 -5.61781 3.18651 4.67817 3.24556 -2.02045 1.62996 10.4202 7.59808 -4.8118 16.2496 0.376537 1.59039 -0.926426 -2.34138 -0.527702 2.01824 3.41308 -2.18436 -1.87535 -0.780849 -0.225065 2.75688 -0.305486 
10.2977 -2.89004 -12.0753 -6.85839 2.47124 4.41878 6.79721 -3.20817 -1.60565 10.1481 5.42303 0.262938 15.977 0.250082 1.74841 -0.975173 -1.73711 -1.12302 1.35326 3.01907 -1.12908 -1.50136 -1.57611 -0.88685 2.5056 -0.25578 
11.0362 -1.60036 -13.4965 -7.70593 -0.927249 5.78199 10.3605 -2.83052 -1.39427 6.11822 4.98306 1.85835 15.8386 -0.103228 2.28372 -1.29059 -1.9974 -0.902897 0.523862 2.2848 -0.130533 -0.527507 -1.71431 -1.75784 2.02432 -0.210646 
10.5983 1.19615 -14.4832 -10.1269 -0.791238 6.23882 12.6878 -2.31356 -2.3262 5.96291 3.63174 2.23167 15.6047 -0.359561 2.03878 -0.900974 -1.72273 -0.476237 0.20221 1.31454 0.845446 0.039915 -1.48858 -1.90406 1.23095 -0.197309 
9.45454 4.14738 -15.451 -13.9705 0.303267 6.38746 11.7243 -3.12042 -0.647303 3.94127 -0.295453 4.32542 15.3825 -0.442901 1.5875 -0.615788 -1.05155 -0.180223 -0.281752 0.300871 0.908376 0.478567 -1.01304 -2.34682 1.24803 -0.186502 
9.29072 4.43002 -15.6029 -12.3397 -0.525203 5.12709 12.688 1.16401 -1.77956 3.7937 -1.45801 5.18414 15.2185 -0.23044 0.762476 -0.125644 -0.41521 -0.462945 -0.0033452 -0.332934 1.29418 0.233217 -1.12028 -1.74039 0.720123 -0.14123 
9.47545 4.72022 -16.0156 -11.8573 -1.96138 4.92909 11.8647 -0.0274248 0.725248 2.13764 -4.20616 6.62225 15.0992 -0.152647 0.40324 0.329268 0.187927 -0.83056 0.0500116 0.161289 0.807465 -0.548553 -0.445704 -0.493251 -0.273964 -0.150452 
9.4356 4.72211 -14.8291 -13.2596 -1.97364 6.95128 10.9529 2.61084 -1.84639 1.26331 -3.11484 4.68387 15.0402 -0.373611 0.851464 0.651322 0.337077 -0.99083 0.034947 0.523074 -0.71809 -0.180882 -0.290716 0.241955 -0.354448 -0.244316 
8.61886 6.01753 -14.1916 -12.571 -3.12531 5.72543 13.3983 0.193489 -3.35665 2.97794 -1.93329 3.20573 14.7194 -0.900834 0.927918 1.28315 0.17437 -1.08676 0.647376 1.03009 -0.931647 0.128707 0.65546 1.01564 0.258777 -0.335514 
7.85096 8.03868 -13.2584 -10.2975 -4.89739 4.90366 14.5366 -2.5369 -0.643023 1.91997 -1.38466 5.12016 14.1868 -1.06607 0.738461 1.13134 0.576927 -0.391437 -0.0286882 0.821153 -1.02924 0.833166 0.944384 0.467074 0.429398 -0.40501 
5.7636 7.70152 -10.3853 -12.4665 -5.9333 9.18978 15.2233 -2.11179 0.7671 5.08662 0.00694489 7.69799 13.8483 -1.07606 0.521743 0.685428 1.06644 0.839495 -1.15566 -1.27653 0.687173 1.19662 -0.0530211 0.0202942 -0.139839 -0.492675 
5.53288 7.57242 -11.0756 -10.4272 -2.52683 5.07566 14.1461 -1.38273 0.257563 4.9309 -1.74959 4.58473 13.4507 -2.19668 -0.418865 0.764418 3.19382 3.82426 -0.922588 -2.85089 2.15057 0.873412 -0.699803 0.176138 0.0172386 -0.682628 
4.39759 8.85938 -11.8558 -7.17393 -0.11312 -0.138852 7.21086 3.05227 2.17615 1.20737 -1.64936 2.77425 12.6241 -2.52131 -0.701794 0.806728 3.67989 4.77375 -0.707937 -2.27393 2.91937 0.937972 -1.3449 0.27634 -0.0531841 -0.698795 
-2.44947 5.36543 -8.70098 3.02534 11.3138 4.95504 4.28834 5.63394 3.01952 0.360572 0.324181 7.66822 11.3858 -2.08057 -0.624674 1.29213 3.30747 4.05887 -0.0500599 -1.12754 2.71175 1.32373 -1.22537 1.15949 -0.0863704 -0.491389 
-2.85176 5.29605 -7.53891 -0.793271 11.0151 5.71041 8.78257 8.97673 4.07598 0.647291 0.35176 5.89032 11.3868 -0.842538 -0.472859 1.12788 1.4792 2.50842 0.950611 1.13983 0.381921 0.0743244 -0.693591 -0.367733 -0.93011 -0.180452 
-1.24529 6.23071 -6.77338 2.91982 12.2034 1.90073 7.72256 9.21381 5.92628 -0.915925 3.04731 2.59484 11.6124 0.353419 0.137597 -0.0263679 -0.34219 0.417224 -0.0449145 1.36835 -1.37848 -0.952279 0.470145 -1.3013 -1.62174 0.0285891 
-0.417189 6.06244 -7.18021 0.27481 11.9842 6.14136 11.1929 3.17194 1.09439 -1.62234 -4.84959 0.660391 11.6085 -0.0172782 0.0483507 -0.515277 0.294282 0.970474 -0.00774513 -0.137467 -0.57312 -0.411772 0.136341 -2.0994 -1.64527 -0.024859 
-1.89965 5.67022 -9.01217 0.780348 12.9154 4.51499 9.9249 1.64396 -0.251079 3.84611 -3.58166 2.17447 11.4179 -0.873824 -0.748665 -0.71702 -0.156851 0.56703 0.932294 0.881947 0.620975 0.0105592 0.857114 -1.91687 -1.16952 -0.0644616 
-2.61096 5.81805 -8.9959 1.74787 15.5115 4.36455 6.99407 9.89606 5.1058 -1.05202 -6.83075 -2.12585 11.3598 -1.40973 -1.09127 -0.854828 0.462644 1.0273 0.436747 -0.171126 1.1316 0.94402 0.408828 0.365749 0.611871 -0.0892188 
-4.51752 2.60958 -9.45063 1.39903 13.2749 7.4506 14.2317 8.95663 3.97337 3.08449 -5.54645 -1.85965 11.4144 -1.25986 -1.18457 -0.788444 -0.732323 -0.78079 -0.11217 -1.48097 0.106723 1.42502 -0.512918 -0.330757 0.156738 -0.00657473 
-6.15692 2.13642 -11.2351 2.27869 16.9409 6.85729 8.18387 5.17359 3.70226 0.802613 -2.03845 5.73681 11.1641 -0.89417 -0.792217 -1.29946 -1.40957 -2.31802 -1.624 -1.71481 -0.887572 0.721047 0.381882 -0.427089 0.410182 0.0426081 
-6.426 1.58816 -11.8348 -3.14668 8.29673 2.70777 1.92513 4.5388 7.5758 0.354203 -7.63159 -0.973169 11.4828 -0.311362 -0.394751 -1.47494 -2.13429 -2.52926 -2.81146 -2.61242 -1.1749 0.640068 -0.0174225 -0.190634 0.12862 0.0255202 
-6.12757 2.36767 -14.3011 -3.02711 6.41047 -1.38405 4.57331 7.66711 6.90982 2.22253 -7.92362 -0.518183 11.5386 -0.0965405 -0.335473 -0.715868 -1.49908 -1.97836 -1.70427 -0.0559723 0.338667 0.389168 -0.72987 -0.775736 0.419898 0.00115194 
-6.089 0.520202 -15.2923 -6.61952 5.89385 -2.48601 2.9749 1.83535 5.56993 2.28742 -3.55703 1.91094 11.3548 -0.237549 -0.796536 -0.57471 -0.325056 -0.0714357 -1.13969 -0.115517 -0.599571 -0.314023 -0.861919 0.281286 0.786955 -0.0674232 
-6.80812 0.993041 -13.0857 -3.48029 8.25058 0.932816 7.37912 8.21865 6.65104 -3.81335 -7.95441 6.39424 11.2339 -0.296123 -0.443317 0.215062 0.74986 -0.0652331 -0.339558 -0.38631 -1.10526 -0.0476941 -1.74923 0.828465 0.946207 -0.0587919 
-7.27347 -1.7072 -15.316 -4.54537 7.0195 -4.14914 -0.0553589 1.26518 6.13508 -0.937454 -6.20977 -0.494606 11.2981 -0.0397257 0.400118 1.29518 2.07164 0.30737 0.137661 0.830649 0.988434 0.468759 0.188462 -0.607036 -0.795776 -0.0290571 
-7.01595 1.26479 -13.2139 -0.314886 5.52148 -2.25028 4.15689 2.42588 6.38877 -4.91119 -2.45494 5.41563 11.273 -0.0120539 0.637888 1.5515 1.06797 -0.347879 -0.159001 0.558188 0.220517 0.49806 2.0894 -0.0433529 -1.11515 0.0463142 
-6.18371 2.38492 -8.75233 2.15599 8.79525 -0.206161 8.73926 9.6739 8.04486 3.77865 -9.34195 -1.57863 11.1899 0.0392935 0.909682 1.45299 1.19412 0.63877 0.495079 1.7267 1.24394 -0.890215 0.933893 -0.242625 0.363704 0.0739589 
-7.41327 2.13642 -8.61006 -1.49113 5.6233 -1.83368 5.77275 5.11687 8.18645 4.27559 -6.60508 1.36049 11.5195 -0.282849 0.24171 -0.034965 -0.62035 0.369322 0.371302 1.08939 0.334243 -1.78033 0.682954 0.756396 0.521439 0.0630445 
-6.87834 2.40539 -10.353 2.01336 10.1624 -1.88204 7.77022 6.13938 0.785168 -0.86138 -5.34782 3.35148 11.5446 -0.234899 0.0136865 -0.760182 -0.373517 0.0483609 0.42699 -0.296675 -0.999421 -1.62991 -0.301687 1.29803 0.92154 0.0188148 
-8.08288 2.4631 -12.5884 -3.34532 6.6845 0.444175 10.0884 5.86436 1.11698 0.823591 -0.670023 5.55777 11.4109 0.0634686 0.0191799 -0.411901 0.461542 0.411034 0.791898 -0.402149 -0.346396 -0.686792 0.429885 0.110001 -0.328116 -0.0568727 
-7.0234 2.29001 -10.5641 1.21551 8.50646 0.78986 5.09808 4.30306 3.43005 3.99621 -5.81932 0.930431 11.3383 0.0769367 -0.0403854 0.160233 0.296511 -0.148999 0.568948 -1.03346 -0.523395 0.760283 1.28878 -0.609231 -0.946944 -0.0485163 
