3.05457 6.97281 12.5216 -1.6742 3.8287 -1.18561 -4.44525 0.561137 3.0494 -10.5523 -1.0189 4.22259 14.1068 -0.166736 0.708764 0.262529 0.176059 0.223648 -0.735309 0.499179 -0.87042 0.404123 0.207674 0.712253 -0.0713173 0.0724953 
2.77829 8.84749 14.5371 -1.44644 3.12374 -6.54075 -4.17474 0.485698 6.9389 -7.6513 1.38291 0.184193 14.3267 -0.448487 1.12091 -0.781917 0.629592 -0.356347 0.535492 0.618727 -0.697785 -0.291126 1.12968 0.718948 0.459646 -0.0219768 
2.35904 9.57928 12.8266 -0.907791 5.29941 -2.18459 -2.08461 -3.75324 3.12527 -10.9644 1.34145 5.8852 14.3593 -0.141024 -0.175399 -2.55091 1.51211 -0.739515 3.17191 1.11803 0.309562 -0.812816 3.16352 -0.567926 -0.502083 -0.479536 
1.15991 11.2741 8.45958 1.09055 1.31161 1.99134 -2.53193 -0.770599 1.55584 -4.69787 1.39566 5.68952 13.8707 -0.0680673 -2.26743 -3.77261 2.84854 -0.82834 4.197 2.10313 1.43641 -0.534021 2.58984 -2.77063 -1.70644 -0.847858 
3.15864 4.88249 2.80581 4.61784 1.03719 10.4079 0.323509 2.7371 1.67685 3.78858 -3.86491 -1.04049 11.9372 -0.508713 -4.07495 -4.18563 1.89611 -2.16531 2.85874 2.49382 1.08746 0.252207 2.37052 -2.83459 -3.01634 -0.902549 
2.03815 -0.141276 0.684404 10.0334 1.11316 8.14802 5.13688 4.42259 4.993 -2.07861 -9.86704 -4.88516 11.2985 -1.17654 -4.86172 -3.78768 -0.169741 -1.80675 1.03051 2.08856 -0.198623 0.256404 0.74424 -1.29066 -1.27159 -0.628629 
-0.623651 -5.08777 -4.21399 4.10134 -5.42793 9.03077 6.55007 -0.912551 2.66773 -0.421483 -7.20016 -3.90915 11.1327 -1.59093 -3.04482 -2.14564 -1.38394 -1.26841 -0.866937 0.811813 0.22262 0.0107355 0.450153 1.8542 0.211212 -0.151259 
-2.83166 -8.04931 -6.96892 0.500098 -4.4896 7.83248 4.7976 0.0611112 2.34242 1.12837 -3.39004 0.765912 11.1298 -1.81868 -0.85078 -0.0605532 -2.50527 0.735246 -0.585859 -0.544843 -0.0158256 -0.794936 1.5364 2.32412 1.05322 0.315998 
-2.36108 -6.38761 -4.09571 2.4648 -2.50349 6.23099 4.55221 6.03094 3.05582 4.43586 2.16757 -2.80996 11.2653 -3.13349 0.42646 0.806322 -2.55286 2.44024 -1.21907 -1.05621 0.762685 -0.0729218 1.07902 1.85642 1.64002 1.49917 
-6.18656 -3.74526 0.322499 -1.67467 3.32717 6.61861 3.41159 0.871719 0.824277 3.17471 -2.93033 -0.168626 12.8122 -3.65791 1.9053 0.235569 -1.73222 1.70038 -0.195062 -0.702825 0.634338 0.392023 0.715042 0.793851 0.706545 2.0183 
-14.6137 -5.10749 -3.82809 -7.57558 2.86486 3.54235 1.96201 2.49557 3.06219 3.95046 1.8521 4.75821 17.7873 -3.8609 2.84889 -1.05157 -1.32108 0.800885 0.80867 0.752871 0.934962 1.09314 -0.199862 0.16055 1.47457 1.83701 
-14.9949 0.837145 -5.92489 -3.1408 1.32813 8.20149 2.57858 5.00049 4.29935 4.94628 0.736948 0.51455 17.9603 -2.4448 3.30732 -0.827109 1.04498 0.706115 1.41649 1.85452 2.49798 0.862689 -0.932669 0.799446 0.135302 1.03053 
-17.2614 5.56565 -6.22987 -3.40754 2.50044 9.4829 8.73308 8.64137 6.78399 2.55077 1.13668 4.22132 17.8763 -0.203303 3.17636 1.24078 1.68204 0.9637 0.791284 0.284159 0.499661 -0.442204 -2.41936 -0.969703 -0.360028 -0.0277853 
-17.0867 7.45479 -2.61216 1.46623 7.03995 10.7308 9.29866 10.2887 3.27683 -0.788787 1.42461 0.776331 17.9204 1.8582 2.23236 3.62328 1.3728 0.740809 -1.97174 -2.54515 -2.69568 -1.82783 -3.53179 -1.51824 -0.165769 -0.244424 
-14.5843 7.46548 0.719444 -1.46889 4.82745 6.23412 0.0227642 2.34975 1.36243 -5.27881 -3.34024 2.82718 17.6683 3.90705 1.8027 4.64996 0.525636 -0.221167 -4.52616 -4.61284 -3.35281 -3.18992 -3.89648 -0.714924 -1.34598 -0.380323 
-7.04246 11.049 8.71687 2.75387 3.86867 -0.0328188 -5.792 -5.33213 -2.12904 -8.79788 -4.6158 0.382773 16.8421 4.2611 1.25341 4.13302 -1.30993 -0.900084 -5.79891 -3.54155 -1.85252 -2.40967 -2.88909 0.0507468 -0.380135 -0.334518 
-2.74828 12.782 11.3554 -1.42318 2.98025 -7.76608 -6.78582 -0.312274 -6.46268 -12.9271 0.582272 -2.31181 16.5138 3.28682 0.0731806 2.86662 -1.24769 -0.425702 -4.53967 -2.10541 0.420673 -0.842015 -0.769865 0.877591 -0.144726 -0.125032 
-1.69917 11.0636 12.735 -5.10627 3.46314 -11.2636 -5.00478 2.35714 -4.85896 -11.4101 -0.282911 1.44515 16.825 1.45893 -1.20521 1.1412 -1.6545 -0.603135 -2.91779 -0.461816 1.16588 0.893412 0.10264 0.553115 1.11568 0.141944 
-0.821846 7.82412 13.0435 -3.77725 2.90171 -10.8488 -10.8979 0.60849 -1.48268 -7.82202 -1.11873 1.57236 17.0517 0.657311 -1.81439 0.565981 -0.35947 -0.759531 -1.63383 0.492293 -0.479742 0.995472 0.499323 -0.0311187 1.70472 0.232861 
-0.711044 7.50193 13.5788 -4.34159 0.892267 -13.0804 -6.04503 0.0368733 -0.151983 -10.8372 -0.999724 4.01909 17.2829 0.525153 -1.55864 0.0421928 1.11268 -1.66367 -1.32219 1.05457 -0.962949 -0.528577 0.626985 0.434909 0.216929 0.133986 
0.0442066 5.49091 13.7634 -3.60287 0.468029 -15.0269 -3.80423 -1.55085 -3.83881 -10.7169 0.785085 4.92481 17.4492 0.637139 -1.27561 -0.290519 1.88507 -2.00695 -1.75198 2.72411 -0.573351 -2.49372 0.92672 1.93681 -0.940152 0.0486948 
0.493565 4.43695 12.586 0.369963 -3.63836 -15.7856 -3.27876 -1.37794 -6.32378 -6.82775 0.939725 0.853573 17.2962 0.996116 -1.67877 -0.944087 2.61504 -1.66301 -1.67144 2.0253 0.00762596 -3.77943 1.36882 2.58738 -1.39595 0.0267952 
1.76155 2.97857 12.0874 3.2923 -4.8677 -18.2561 1.33952 -1.55086 -10.8654 -5.19315 7.5956 -1.54564 17.2885 1.3776 -1.9344 -2.02639 1.67219 -0.840274 -2.37463 0.897695 1.37908 -2.31267 0.261022 1.57704 -1.07105 0.0891937 
3.41086 0.364275 9.69643 5.28601 -4.75494 -19.8229 1.50959 0.0750058 -15.5358 -6.75499 8.53194 0.274579 17.4972 1.65251 -2.06818 -3.4004 -0.0152004 0.638067 -2.47104 -0.998206 2.39632 0.304459 -0.253641 -0.919485 -0.694959 0.158909 
5.47355 -2.14472 5.07625 2.30006 -3.17505 -24.8813 -1.70993 4.6181 -10.7961 -9.44818 4.87418 -0.14097 17.7946 1.56913 -1.63702 -4.30062 -1.69951 1.46649 -0.289039 -3.45744 1.94435 2.45482 1.53275 -3.4668 -2.08855 0.0786009 
6.9001 -3.34231 -0.910487 0.790085 -1.29435 -24.8282 -6.74506 7.51917 -4.83612 -5.96843 -2.29699 -3.32356 17.8377 1.21893 -0.59998 -4.1872 -2.99193 1.93147 2.66967 -2.97946 -0.13509 2.32499 4.0027 -2.36867 -3.17573 -0.0429804 
7.86256 -3.35326 -4.1123 -2.95726 0.734443 -17.1987 -11.8204 4.4488 -3.94118 2.0773 -4.32391 -10.1893 17.5113 0.775054 0.74077 -3.32756 -3.71151 1.71575 5.71141 -0.503819 -3.16738 -0.0567705 5.70686 0.803542 -3.14185 -0.0938269 
8.31101 -2.03136 -6.64532 -7.04499 2.94767 -10.3159 -8.33247 -0.515793 -7.33832 7.49575 1.28762 -10.5799 17.424 0.326049 1.82684 -2.51449 -3.57253 0.799739 5.93151 1.70997 -3.7006 -1.30346 4.22307 3.04918 -1.66486 -0.0762135 
8.64337 0.903652 -8.69415 -12.3399 3.28269 -3.58041 -3.43532 -7.20134 -9.82888 12.354 7.09958 -12.222 17.5324 0.280054 2.16207 -1.87831 -2.85998 0.37462 4.02398 2.13022 -2.12517 -0.397883 1.36378 3.03401 0.224633 -0.0307758 
8.13994 3.66346 -11.192 -12.3812 1.43022 -1.9798 -2.38774 -5.15876 -8.40958 10.0086 7.23717 -10.6315 17.4461 0.293705 1.4433 -1.28727 -1.49665 -0.021085 1.9244 0.329108 -0.655713 1.03968 -0.266486 1.36995 0.829646 -0.0399431 
9.34836 4.60968 -11.2305 -14.589 3.36627 -1.24688 -4.14162 -3.85559 -5.39496 7.63977 7.87135 -9.04035 17.3463 0.4364 0.311775 -0.654257 0.466743 0.375388 0.327043 -0.979515 0.188038 1.40449 0.509065 0.0487167 1.43793 -0.0575991 
9.42704 3.33212 -11.8135 -13.4037 2.80045 -1.86064 -6.33377 -5.46723 -4.35687 8.52044 7.75149 -8.02253 17.3173 0.368074 -0.622924 0.0867769 1.67019 0.743606 -0.966172 -1.47296 -0.684287 1.37556 1.53238 -0.348208 0.936996 -0.0593145 
10.1818 2.6282 -11.6547 -9.49499 4.47451 -2.00477 -6.35987 -6.10691 -4.83277 15.6434 7.08601 -6.33688 17.3088 0.0125153 -0.917349 0.780536 3.44102 -0.117446 -2.23981 -0.764854 -0.948244 1.52196 1.28206 -1.11565 1.12504 -0.106722 
9.56358 1.53958 -10.546 -6.57731 4.59413 -6.43171 -8.64344 -7.45454 -1.81287 13.6686 5.8888 -7.29827 17.1683 -0.314691 -0.867739 2.36651 4.14318 -0.653788 -3.55033 0.672922 -0.392866 1.83029 -1.78662 -1.56912 2.58426 -0.203587 
9.34266 0.919204 -7.96157 -0.79713 1.8822 -10.1604 -6.81106 -7.60316 0.942824 11.476 3.22443 -3.77727 16.8872 -0.713354 -0.705398 4.35967 3.51598 -2.13833 -4.17188 2.14156 0.799182 0.225028 -4.88687 -1.35205 4.44628 -0.29022 
8.27316 -0.152079 -1.82747 2.96329 0.827668 -15.5344 -2.74357 -6.68344 1.90676 1.67105 1.83668 3.61897 16.5101 -0.784852 -0.311987 5.99763 2.53073 -3.03493 -2.28949 3.06952 1.64426 -2.22796 -5.64662 -1.16595 5.25662 -0.418282 
7.26026 -0.0529646 5.7844 3.31461 -4.33393 -18.3128 1.39799 -2.49656 -5.56744 -2.79217 2.35183 10.4359 16.1868 -0.981437 0.830048 5.24866 1.4953 -1.50626 0.565344 1.55101 0.326468 -2.30271 -5.00939 -0.551202 3.94267 -0.594941 
6.68052 0.465735 12.5691 4.0205 -7.47248 -13.803 2.59966 -1.78653 -9.69752 -7.43037 0.495341 11.8782 15.4271 -1.3093 2.01025 3.22129 0.118951 0.337075 2.94086 -0.733992 -0.0267761 -0.501854 -3.71605 -1.23607 1.23278 -0.635359 
5.2318 4.76054 11.0834 6.15079 -1.49905 -8.19943 -1.72762 -8.41927 -4.76857 -9.02028 1.13909 11.8064 14.454 -1.4724 1.28691 0.134033 -0.598699 2.42724 4.54096 -2.11989 -1.30566 1.62452 -1.25896 -2.26976 -2.99161 -0.764877 
2.74091 7.49243 11.6295 2.13995 1.0956 -5.8868 -4.85072 -3.85596 -1.00195 -13.7951 -3.73728 9.0976 14.1997 -1.56033 -0.275653 -2.29961 0.20444 3.00812 5.2577 -0.94507 -0.361789 1.27287 -0.226856 -2.56773 -4.30906 -0.893875 
1.86806 2.86824 6.92439 1.26139 3.51823 0.433933 -5.47629 -7.99013 -1.79262 -5.90457 -6.88064 -3.13186 12.9761 -1.10717 -2.19488 -3.04427 0.0444949 -0.0527505 4.08305 0.264766 -0.102046 -0.379919 2.34162 -1.80601 -4.75912 -0.856381 
0.560727 0.0336168 3.15058 7.4874 5.0595 8.16884 -0.251357 -3.81005 -4.82116 -10.1225 -8.33342 -2.19789 11.6967 -1.05962 -2.9873 -3.90092 0.0988557 -2.18443 2.75212 1.54241 0.52724 0.316972 3.77416 0.258778 -3.0401 -0.746974 
0.786036 -2.48445 0.101504 3.69954 -3.74475 5.188 -2.70348 -8.95246 -4.75856 0.851523 -5.5929 -6.34141 11.4236 -1.05885 -2.07407 -3.13104 -0.764449 -2.43578 1.74968 2.49521 1.64396 1.54792 2.56063 2.00506 0.734027 -0.420364 
-2.01619 -4.76772 -4.46366 1.41515 -6.19504 5.49675 1.47493 -0.738598 2.06588 1.6976 -3.08727 -4.49814 11.2411 -0.746909 -1.27758 -1.77094 -1.16468 -1.16436 0.650525 1.78642 2.07754 2.6775 3.22802 2.43302 1.43542 -0.159562 
-2.13775 -5.10146 -4.92368 0.475265 -3.0334 10.5184 6.1366 -1.30606 2.50345 0.988517 0.521558 1.6884 11.1021 -0.533185 -0.641225 -0.406709 0.0503513 0.609652 1.8636 1.90463 3.09336 2.47866 1.77249 1.01343 2.16691 -0.0577377 
-1.71193 -5.04579 -3.19154 3.27615 -1.11796 8.75628 4.26069 2.75443 4.93531 5.9491 0.774446 0.96429 11.0597 0.0104441 -0.41787 0.0558794 0.414061 0.516077 0.965422 0.347073 0.781128 1.32026 0.844265 0.638248 1.63332 -0.00375643 
-2.03202 -5.55155 -2.5681 3.0208 -3.23503 12.8762 5.4268 4.76784 6.20005 7.58823 -2.45662 1.76191 11.2256 0.0548014 -0.29414 -0.141413 0.585892 -0.226615 -0.520033 0.206788 0.353322 -0.288606 -0.280489 -0.453975 0.799099 0.00777616 
-2.01684 -6.63203 -5.36205 2.21269 -3.51384 9.14492 3.5652 0.130094 6.81886 2.61907 1.59306 3.6317 11.1605 0.132802 0.510934 -0.335672 -0.0429399 -0.524498 -0.376925 0.414742 -1.07394 -1.28153 -1.04303 -0.106546 -0.264718 -0.000165367 
-1.71129 -5.77904 -4.54549 3.93645 -2.96853 7.72389 7.51828 1.77272 0.118647 1.25109 -2.15762 4.35019 11.0905 0.21992 0.299021 -0.144517 -0.302225 -0.256183 -1.45343 0.241044 -0.809535 -1.0099 -0.0537352 1.58605 -0.854463 0.00516272 
-1.20828 -2.37737 -3.88121 2.60362 -3.8737 9.44783 5.28866 -1.1177 1.56838 3.90252 0.0922177 -1.65344 11.1264 -0.272022 -0.652617 -0.661474 -0.0275576 0.0574616 -0.0541909 -0.153311 0.732108 0.852006 0.485339 0.599077 -0.960984 0.046784 
-1.3367 -6.18377 -4.03111 1.31421 -4.33602 5.45763 5.77029 1.34406 3.77578 6.67783 6.22404 0.132164 11.2685 -0.328543 -0.712454 -0.703841 -0.262548 0.720589 0.457671 -0.916426 1.48251 3.11885 0.716363 -1.48641 -1.01732 0.0275479 
-3.56424 -9.69275 -8.92661 3.38603 -2.54279 10.0071 3.67264 4.00496 9.25033 2.33239 0.397612 0.935792 11.3055 -0.595193 -0.801196 -0.330853 0.218096 1.13475 0.600061 -0.95529 0.367007 1.32052 0.565744 -1.97823 1.93126 0.0103791 
-2.17603 -5.68362 -5.54199 2.23251 -0.031041 9.73261 3.74416 6.62392 11.8719 5.61797 -9.74236 -2.03101 11.1387 0.0508444 0.541974 0.451904 0.18837 0.432435 0.509091 -1.06168 -1.30934 0.469037 0.0139048 -1.43581 1.29922 -0.0387567 
-3.76458 -6.63343 -4.78003 3.23494 -0.352457 10.3106 1.52527 -1.92259 4.12289 7.26117 -1.81572 9.08443 11.2432 0.217228 0.361365 0.910154 0.0130124 0.227605 0.249407 0.544817 -1.44154 -1.43526 -0.350019 1.45841 1.04342 -0.0310968 
-0.982305 -5.00356 -3.84488 2.3316 -3.26901 7.85131 1.53558 -2.23884 8.68468 4.28296 0.15164 2.55394 11.1059 0.0145617 -0.449854 0.192649 0.546048 0.170458 1.11308 0.332832 -0.890911 -1.49097 -0.0307387 2.55967 -0.300142 0.0142081 
-3.07496 -8.22595 -5.2244 3.40155 0.214214 12.1948 7.50102 1.22865 3.66764 1.2498 2.74265 3.8604 11.1664 0.295128 -0.0810921 -0.528935 0.298389 0.593323 0.207614 0.258079 1.94191 0.423432 -0.397636 -0.0733048 -2.27052 0.00783796 
-2.44803 -7.13663 -4.35656 4.87945 0.537912 14.3559 2.42045 0.59375 4.64473 8.46996 0.776783 -0.919704 11.2481 -0.0397676 -0.04084 -0.71894 -0.258943 0.201556 -0.216608 -0.0147516 1.15469 0.176567 -0.0213741 -0.878295 -1.52059 0.0383426 
-1.55608 -5.97235 -7.16886 3.45297 0.710698 8.0964 2.37323 6.37065 8.26003 3.17949 -2.49482 -0.531368 11.2112 0.11132 0.709992 -0.177905 -1.31036 -0.894135 -0.69928 0.0287255 1.45228 -0.385556 -0.667021 -1.17499 -0.551664 0.036099 
-1.94058 -6.33456 -6.46735 1.01117 -2.50947 8.81746 4.02571 0.963631 7.27132 3.21124 -1.6211 -2.85313 11.2752 -0.411235 0.0575756 0.0640348 -0.925964 -0.282006 0.521237 1.89608 0.471449 -1.42021 -1.11174 -0.457417 0.538823 -0.0325659 
-2.77209 -5.07703 -5.05853 -1.21614 -2.73277 11.4676 6.84201 8.3051 0.426567 0.544053 -1.93337 2.0688 11.3334 -0.472624 -0.704166 0.197407 0.561912 -0.524075 0.67553 0.560844 -0.0143943 -1.01433 -0.180343 -0.397291 0.585138 -0.036843 
-3.8962 -7.29642 -5.09156 2.58418 0.849616 15.2765 9.66648 1.98377 1.46039 4.22899 -1.79103 0.474329 11.0242 -0.217093 -0.929061 -0.261594 1.56219 -0.301595 -0.436899 -0.782224 0.713345 0.331239 -0.165983 -0.801336 0.582924 -0.0426325 
-2.94139 -9.01225 -6.86972 5.47602 -3.58922 8.24452 2.35707 5.7886 6.09387 1.7689 -4.39631 0.730592 11.1525 0.0616199 -0.958629 -0.540055 1.62762 -0.615175 -1.34782 -1.62793 -0.122816 1.59681 -0.00103862 -0.753116 -0.242015 -0.0233582 
