-7.49507 -4.5342 -4.39425 -0.774724 5.48909 8.23348 0.742995 5.19917 10.4989 10.5709 -1.06083 -3.22558 12.024 0.702301 1.38072 1.10004 -0.385775 -0.922796 0.113891 -0.610363 -0.370403 -1.2677 -2.11377 0.0557457 1.15803 -0.0284808 
-5.07136 -0.931215 -1.14728 -0.215007 2.2088 6.95043 -2.66586 2.57587 6.07392 6.95457 -3.95905 -2.99253 11.8329 0.397034 1.08326 0.902983 -0.275979 -0.0375725 0.707085 0.00565703 -0.888654 -0.580495 -1.86802 -0.092529 1.1094 -0.000440502 
-5.19542 0.567889 -0.517543 -2.98346 2.51526 9.44447 -0.60439 4.65881 6.37287 1.81017 0.667013 2.44802 11.9771 -0.0204166 0.0546065 -0.31591 -0.666418 0.090997 1.15056 1.52571 -0.280483 -0.397532 -0.99798 0.694886 0.852265 0.0096899 
-6.65972 -1.66892 -1.81769 -1.05026 6.78815 11.1634 1.44497 1.02609 9.6594 5.61113 -2.38739 -0.515395 12.0452 -0.675339 -0.879954 -1.07638 -0.464771 0.619995 0.501607 2.26259 1.03232 0.241829 0.337226 0.883809 0.081523 0.0236218 
-6.80297 -3.89231 -5.6386 -3.68919 3.6544 11.8798 6.31613 4.57165 6.71847 6.25268 1.62778 -0.202826 11.9663 -1.01645 -1.14799 -1.36697 -0.911156 -1.06105 -0.297158 2.0271 1.22908 0.205832 0.901524 -0.329376 -0.527122 0.0185677 
-7.64428 -3.10088 -3.96863 -2.18599 4.7392 8.24079 5.18684 7.78106 7.11027 6.41945 -0.0203848 -1.25949 11.9565 -0.764178 -0.818575 -0.788596 -1.4055 -2.31585 -1.3727 0.727656 1.57649 0.0967273 -0.175886 -0.716955 -0.0323974 0.00711136 
-9.78541 -4.4561 -6.27692 -6.97137 -1.76551 9.41999 7.66016 7.42672 8.6766 5.91363 -2.16337 0.184465 12.1143 -0.215128 -0.235739 -0.564905 -1.00896 -1.82078 -1.90132 -1.21568 0.716965 0.180918 0.112523 -0.907737 -0.218786 0.0223511 
-8.98939 -5.4799 -5.44151 -6.43666 -2.08115 5.52985 4.41123 7.48101 9.16397 4.90122 -4.0766 -0.871027 12.0068 0.359604 -0.262809 -0.480545 -0.576372 -0.889406 -1.59103 -1.73547 0.184176 -0.215645 0.111714 -0.0164478 0.218909 0.00670776 
-7.20605 -3.8815 -7.72668 -6.60865 -2.03932 3.72866 0.62554 8.3065 6.59621 7.57441 -0.882805 -1.49099 12.0529 1.31138 1.47026 1.6609 2.06439 0.59722 -1.20521 -3.36241 -1.58843 -1.34487 -0.854275 0.633961 0.68936 0.180892 
-7.13594 -4.70223 -5.64647 -5.24921 0.429082 3.13131 0.0267963 8.26205 7.07224 6.14763 -0.742907 0.67278 12.0207 1.24496 3.17169 3.72441 3.4287 -0.238649 -0.811198 -4.23088 -3.84829 -3.24715 -3.45 -0.0861337 1.58945 0.928529 
-4.15526 2.50636 2.13006 2.75686 -0.0345201 4.5932 -6.95965 -0.905939 2.99811 1.01905 -0.660408 2.85936 13.0118 0.9186 3.5971 4.4642 3.43497 -0.594611 0.323203 -2.82087 -3.85752 -3.85488 -5.12677 -1.44872 1.46919 1.34281 
-4.28998 7.18464 8.25217 6.0241 -4.27679 1.04159 -12.9506 -7.15421 -5.27274 -9.0711 -4.61846 4.90103 16.1699 1.14755 3.41688 3.04965 2.35295 -1.03189 0.705539 -1.05563 -1.87394 -3.59863 -4.74092 -2.19871 0.790174 1.28398 
-4.03603 8.16055 7.64499 4.92954 -2.65944 6.38954 -6.99011 -3.27296 -6.50572 -10.4501 -6.18861 3.74083 16.6923 1.19191 1.97747 1.47244 0.515364 -0.317376 0.523407 1.12793 0.809672 -1.86115 -3.67899 -2.26998 0.759906 0.737662 
-1.45778 9.55509 6.84433 5.42919 -3.41793 5.76084 -5.23612 0.0758817 -6.16902 -11.8224 -8.97233 4.18292 16.6004 1.17088 1.07731 0.555446 0.112525 0.957521 -0.228251 2.04626 1.53923 0.609883 -1.43928 -1.33224 -0.0239388 0.152681 
0.3882 11.2085 10.1962 5.63113 -2.05083 4.85061 -5.17724 -0.472629 -5.8595 -16.0002 -9.83337 7.01795 16.4849 0.650868 0.106076 1.1335 0.0591418 1.2079 -0.623442 0.905872 0.0702487 0.434393 -1.12552 -0.693145 0.0521107 0.218358 
-0.647696 11.0472 9.75379 6.23593 0.206508 0.6698 -3.62571 -0.858249 -2.54644 -13.4924 -9.4573 3.14277 17.0371 0.323673 -0.665902 0.986551 -0.0558018 1.12368 0.0397587 0.585086 -0.822748 -0.0770066 -0.932515 0.519599 -0.481385 0.31354 
-1.18674 7.94486 11.8577 4.82188 1.56786 5.81785 -3.26596 -2.45465 -6.14505 -15.2427 -9.41185 4.52145 17.5658 0.295227 -0.899252 0.408413 -0.282144 0.510262 0.213938 0.582023 -0.802152 -0.620841 -0.339797 0.461106 -0.567799 0.351821 
0.948053 7.85739 10.9463 5.5548 0.39115 5.47601 -3.26633 -3.04685 -6.41128 -16.8638 -6.5851 3.02424 17.6276 0.553603 -0.514095 0.645537 -0.208028 -0.322634 -0.239214 0.294872 -0.377368 -0.910059 -0.572938 0.339329 0.0818945 0.262634 
1.06646 8.30714 11.642 4.56097 0.408157 3.51719 -2.44682 -3.38909 -7.03128 -16.0136 -8.96394 4.23822 17.9487 0.659801 -0.359177 0.692326 0.0681994 -0.843781 -1.53794 0.121489 -0.0464701 0.377369 -0.449741 0.232895 -0.343427 0.217931 
0.993718 8.29562 13.0893 5.32625 -0.82681 0.624054 -2.56093 -2.27787 -6.65361 -15.9717 -7.98461 3.69386 18.1587 0.122229 -0.412557 0.528081 0.0443401 -0.730141 -1.48349 0.218886 -0.64768 0.835821 -0.671229 0.179673 0.0471384 0.259606 
2.08943 5.92986 14.2478 5.27716 -2.04206 0.554103 -3.01122 -3.07149 -4.13704 -17.9374 -7.54761 2.46951 18.3899 0.257461 -0.928005 0.260566 0.200096 -1.14179 -1.41993 0.23923 -1.28154 0.73399 -0.277253 0.531096 0.707285 0.268123 
1.04771 6.98325 12.2838 5.41841 -2.03444 -0.459874 -1.8897 -6.44405 -3.67929 -19.258 -6.39489 4.14428 18.7051 0.560583 -1.43041 -0.0754216 -0.053865 -1.33952 -1.44594 -0.0247848 -1.91312 -0.261398 1.54084 0.417021 1.30193 0.297479 
2.32677 4.3233 13.3476 5.51537 -4.69698 -3.04047 -1.58628 -7.71372 -4.84849 -15.7567 -7.10332 7.54943 19.0162 0.88137 -1.58185 -0.477586 -0.144262 -1.95577 -1.7051 0.134466 -1.5837 -0.88377 3.36141 0.466592 1.64806 0.350678 
3.67797 1.94687 13.1624 4.93781 -6.19694 -4.80834 -3.39732 -9.52233 -7.60488 -9.35787 -6.12165 7.66354 19.333 1.31024 -1.91217 -1.03988 -0.389786 -2.27949 -2.10238 0.327294 -0.189872 -0.477055 4.28226 1.07108 0.712757 0.378314 
5.18116 0.538785 11.4206 4.79615 -9.73969 -5.79714 -1.58508 -9.45083 -6.5931 -6.08039 -5.35127 8.9502 19.8293 1.2538 -1.80527 -2.35259 -0.642249 -1.55717 -2.34351 0.305257 1.24309 0.444806 3.93346 1.93548 -1.01739 0.359385 
6.1717 -0.685363 8.04787 3.8291 -10.9105 -9.59343 -0.253833 -6.52486 -5.19227 -2.68482 -1.91553 7.00769 20.1901 0.990874 -1.36955 -3.53225 -0.582789 -0.0901225 -2.11914 -0.0599595 2.42222 1.57113 2.83806 2.09299 -2.73348 0.236938 
7.34889 -3.38694 4.1419 2.85848 -10.126 -12.3655 -1.63174 -2.99699 -3.83076 0.574099 0.471017 2.79038 20.3846 0.764237 -0.926729 -4.32264 -0.486998 1.72129 -1.53525 -1.0067 2.25428 2.07076 2.11594 1.73909 -3.87665 0.0790251 
7.54847 -2.93801 -0.859521 2.9927 -6.45439 -12.1199 -3.67379 -0.63813 -1.13041 1.5052 1.43217 -2.92397 20.2401 0.857865 -0.481038 -4.32547 -0.516992 2.77755 -0.580196 -1.04517 0.749211 2.2518 1.58816 1.20022 -4.05624 -0.0128004 
8.31396 -2.96853 -5.73888 2.77935 -3.36129 -12.2102 -4.90862 -1.12277 1.72976 2.40429 1.67033 -5.46722 20.1995 0.926084 -0.0248677 -3.57002 -1.12437 3.30974 0.308516 -0.36184 -0.995941 1.6055 1.42024 1.41313 -3.24675 -0.0333815 
9.97849 -3.29976 -8.6391 1.2837 -0.405153 -12.5721 -3.84123 -3.71592 3.28646 4.34088 3.48594 -9.14473 20.2186 1.05878 0.0417354 -2.57483 -1.87856 2.74006 0.950879 0.864429 -2.59028 0.549737 1.37394 2.00086 -2.11619 0.0320936 
10.7643 -3.33041 -9.81843 -1.90889 3.39805 -10.5968 -3.35722 -6.43781 1.98829 6.25745 6.50979 -10.333 20.2283 0.902389 0.11865 -1.6075 -2.35538 1.89354 1.67861 1.63921 -3.13106 -0.382082 1.02329 2.39333 -1.44429 0.0824635 
11.6172 -2.5484 -11.6939 -4.05596 3.86623 -8.17216 -0.127346 -10.932 1.489 6.44829 9.01676 -11.072 20.3861 0.475864 0.275453 -0.905409 -2.04527 0.806589 2.03822 1.57103 -2.33843 -0.737845 0.407357 2.11901 -0.621881 0.0841822 
12.0065 -2.75096 -12.249 -6.32773 3.9707 -6.01709 1.43046 -13.17 0.71808 6.46704 10.8716 -11.725 20.5281 0.254891 -0.0903065 -0.187604 -1.35352 -0.111206 1.57788 1.0883 -1.32311 -0.155051 -0.737037 1.6501 -0.0151055 0.082939 
11.7367 -2.21221 -11.9509 -6.73321 3.34147 -4.6708 1.6201 -12.042 0.232343 6.27287 11.9001 -11.5581 20.4897 0.0151807 -0.698948 0.775194 -0.626312 -0.383886 0.672139 -0.22645 0.063452 -0.0691768 -0.487591 0.558229 0.48687 0.062505 
11.979 -3.95003 -10.628 -7.33784 3.1044 -4.45808 1.21056 -12.4984 1.84137 2.65998 13.3187 -10.1655 20.5912 -0.025557 -0.896672 1.10553 0.618128 -0.348918 -0.806091 -0.992491 1.05137 0.215983 -0.410084 -0.108285 0.51686 0.0448572 
11.7069 -5.44361 -8.62843 -6.68247 2.37995 -5.59098 -1.14964 -10.9506 0.581478 5.91387 10.5844 -9.41745 20.667 -0.298624 -0.944514 1.41416 1.84213 -0.628168 -1.78733 -2.0241 1.21147 0.547799 0.274004 -1.4766 0.306824 0.0454573 
11.8937 -5.61863 -8.38253 -3.26247 2.70687 -9.58747 -2.14712 -8.45887 1.62343 4.59612 10.988 -10.2111 20.6637 -0.681713 -0.224481 1.69245 3.06596 -1.26821 -2.92331 -2.43405 2.46608 -0.347589 0.604257 -2.38198 0.417892 0.00728035 
10.2862 -6.10049 -6.0028 0.439767 0.399392 -11.0428 -6.82156 -8.00435 3.08031 6.67482 5.68242 -10.0012 20.6808 -1.14738 0.366604 2.66572 3.73613 -2.65442 -2.68366 -1.95008 2.46688 -0.911585 -0.274005 -2.57398 1.79535 -0.0335636 
9.28077 -4.744 -3.47852 4.43082 -2.24636 -16.3487 -8.12373 -1.64108 -1.146 5.30079 3.85972 -7.78413 20.6208 -1.41007 0.727022 3.17316 3.43344 -3.46846 -1.77052 -0.205169 2.67508 -2.81374 -1.56479 -1.63565 3.03167 -0.0587273 
7.27645 -4.0479 2.24817 8.15154 -8.41555 -15.6287 -7.91173 -2.02505 -2.59173 4.19151 1.2786 -1.65414 20.5207 -1.57248 1.23589 3.30174 2.39753 -3.54859 0.0376257 2.16344 1.7575 -3.07075 -3.13393 -0.446196 2.71784 -0.124182 
6.34821 -3.00981 3.35779 10.0489 -10.228 -16.1471 -2.62789 1.92687 -9.60927 -1.98618 5.01166 0.773756 20.4501 -1.71847 1.63354 3.1226 0.793665 -2.01147 2.45443 2.75503 -0.731594 -0.873008 -3.0734 -1.29409 1.58431 -0.266373 
3.89014 -0.788122 7.08773 9.61841 -13.3527 -10.9554 1.24773 -1.0008 -8.04182 -5.35137 2.87547 -0.690974 20.1452 -1.63614 2.26389 2.4217 -1.04947 0.705911 3.44221 1.85338 -1.52644 0.912321 -2.70257 -1.87974 0.189292 -0.39547 
2.38157 1.79383 9.7147 7.66571 -9.83513 -6.41318 1.07169 -5.81117 -2.78599 -5.29476 -3.40915 -0.344154 19.4766 -1.51793 2.62779 2.17031 -2.12023 2.84061 3.78054 -0.252956 -1.91809 2.33076 -1.70676 -1.94118 -0.233361 -0.482149 
1.07908 4.86971 11.1782 4.09578 -5.08241 -3.2846 -0.494619 -5.78824 -1.44177 -7.66705 -3.90968 -0.148727 19.03 -1.11801 2.36317 1.4987 -1.5556 3.57585 3.12266 -1.59998 -0.297852 0.873392 -1.47241 -0.220092 -0.085178 -0.463195 
0.164066 7.30022 12.1641 2.20903 -0.160067 -1.07983 -3.02149 -5.26985 -1.25548 -9.36212 -1.30167 -0.664173 18.5969 -1.0367 1.90325 0.829364 -0.684332 3.18422 1.80734 -1.04323 0.865636 -1.00897 -1.49059 1.43373 -0.164792 -0.332447 
-0.591151 8.27453 13.3565 4.56874 -0.311019 1.99118 -4.70558 -2.76072 -4.44012 -10.6797 0.721273 -0.956854 18.2691 -0.773721 1.15878 0.593955 0.249532 2.30561 0.622988 -0.143209 1.04224 -1.33739 -1.20325 0.928908 -0.0202823 -0.279894 
-1.9668 9.60767 12.7724 4.00757 3.70025 -0.0143862 -2.03896 -2.99674 -6.33165 -11.2414 1.44404 -0.764051 18.1949 -0.68839 0.799836 0.333055 0.664098 1.64384 -0.115645 0.760841 0.486241 -1.37631 -1.00549 -0.0896168 0.669302 -0.205632 
-1.72409 9.50986 13.8439 4.44417 4.51546 -0.702382 -1.70193 -1.71357 -5.59062 -12.7437 -0.637996 -0.2002 17.8316 -0.447804 0.668671 0.00107431 0.100448 0.887872 -0.684761 1.56353 0.642193 -0.839279 -0.605226 -1.29836 0.335453 -0.161875 
-2.71141 10.6817 13.5857 5.5918 5.64589 -0.311273 -0.719113 -3.36222 -7.56177 -13.3576 -1.07012 2.30401 17.7875 -0.175106 0.49708 0.187334 -0.133122 -0.202626 -0.283697 1.171 0.920682 -0.373525 -0.887635 -1.27839 0.0420085 -0.120381 
-2.45786 11.0809 12.9552 4.27886 3.15552 -1.28418 2.45213 0.632977 -8.02145 -12.6477 -4.51343 -0.813621 17.6634 -0.101667 0.39597 0.18252 -0.36561 -0.39551 -0.340491 0.831843 0.50725 -0.290951 -0.363981 -0.751865 -0.296683 -0.0553097 
-2.47545 11.3076 14.1534 3.42461 3.36709 -1.14197 1.739 0.433392 -6.98386 -15.7275 -3.0102 -0.247298 17.6771 0.175226 0.0135504 0.255843 -0.309869 -0.722398 -0.0853239 0.659159 -0.273177 0.0400165 -0.559468 -0.562651 0.234273 -0.0219801 
-2.35041 11.1768 14.4727 3.69972 3.67731 -1.98949 1.22823 -1.07512 -7.33433 -13.3786 -3.42729 -0.407961 17.6102 0.459942 -0.85101 0.29696 0.224011 -0.106469 0.179887 -0.194605 -1.84439 0.248854 -0.105855 0.254314 0.406177 0.0640093 
-1.88901 10.7015 14.1062 4.33203 1.77301 -0.385239 3.18863 -3.87405 -7.70525 -15.7895 -4.42645 3.27255 17.7042 0.78053 -1.25953 -0.306106 0.181621 -0.727287 -0.0768469 0.0191185 -2.4851 0.508821 0.631905 -0.114584 0.699204 0.129621 
-0.451368 7.12883 14.4636 4.94521 3.42022 -0.76311 0.754288 -6.43527 -6.41649 -13.146 -2.53374 -0.542657 17.9699 1.13202 -1.54719 -0.43218 -0.349806 -1.93695 -0.878149 0.0669014 -2.07787 0.886657 1.96602 0.0713554 1.00003 0.170559 
0.477682 7.0339 12.6274 3.70997 -0.140799 -2.13939 2.07157 -9.31203 -4.89868 -12.6843 -4.02989 3.31607 18.1454 1.06398 -1.4782 -1.44004 0.739139 -3.41261 -1.20698 -0.778243 -0.261246 -0.266905 3.58591 0.591482 0.478965 0.199288 
2.12636 5.27466 13.0512 2.26171 -5.05054 -5.50316 2.12127 -8.74551 -4.30433 -5.10113 -3.26879 4.57044 18.2424 0.844409 -1.17138 -2.44949 1.493 -3.62366 -1.93114 -0.3049 1.93361 -1.19421 3.63193 0.824387 0.810431 0.237636 
2.14204 4.2376 7.61221 9.36947 -11.0547 -4.05011 -1.38607 -4.02516 -10.0959 -1.8824 -1.10151 3.11082 18.5643 0.718821 -1.8994 -3.08318 1.97889 -1.00923 -3.20533 -1.20882 3.28287 -0.214796 3.34022 0.966244 -1.30465 0.250233 
2.9385 2.67006 4.72375 9.58045 -9.24114 -9.46346 0.958608 0.589345 -9.78897 -0.38735 0.124008 3.61212 18.9486 1.20069 -1.81977 -3.94749 0.940004 1.78998 -2.90656 -1.53418 2.30206 1.9929 2.11666 0.500089 -2.6589 0.189434 
3.66572 -1.16079 1.37517 9.94504 -3.09166 -16.1859 -3.39119 2.43489 -3.23034 1.6599 -0.895071 -2.72801 19.0435 1.99127 -1.26719 -4.02659 -1.42197 4.08528 -1.08121 -1.20234 -0.0388126 4.29685 1.55423 0.410267 -3.60067 -0.0026598 
7.36799 -1.12498 -3.56774 6.67395 -0.0821376 -13.9681 -4.54705 -0.465248 2.22741 3.71102 -0.871565 -5.80466 18.95 2.3517 -0.34934 -3.97148 -2.26704 3.96162 2.39791 -0.551843 -1.13126 2.72183 0.878806 2.01531 -4.07839 -0.227249 
9.88363 -0.200851 -8.37498 3.71288 4.79222 -7.20388 -4.64496 -3.69193 5.38018 3.83957 1.44761 -10.1841 18.5503 2.00848 0.590864 -3.19178 -2.7675 2.68745 4.6021 0.791675 -0.404809 0.0147453 0.427264 3.38199 -2.08209 -0.358947 
11.5881 0.443392 -10.2586 1.36132 6.62503 -1.96488 -1.17372 -2.00354 -0.485067 2.91684 9.02922 -13.0517 18.0589 1.00638 0.489541 -1.71505 -3.19222 1.58169 4.33702 1.16671 0.45815 -2.77785 0.842487 2.9923 -0.268996 -0.409835 
11.5981 1.00934 -11.2383 -1.23615 6.99202 0.823058 -1.11948 1.17999 -1.80038 4.19331 11.0645 -9.5149 17.6943 0.597405 0.219608 -0.236439 -3.22781 0.411582 2.921 1.16497 1.77423 -4.52945 1.36394 0.888332 1.46011 -0.294318 
11.5427 0.717627 -10.7113 -6.81265 6.72641 3.70358 -0.47626 -0.610457 -8.07154 7.74658 9.28148 -7.48426 17.3289 0.210369 0.175639 0.312101 -1.72454 -0.212915 1.8522 1.48477 1.6611 -3.13497 0.741354 -1.72177 2.79537 -0.360188 
12.8933 0.760072 -9.33079 -8.33921 6.79944 4.56686 0.83117 4.4827 -13.4738 8.24437 5.76314 -5.66733 17.4437 0.1276 -0.336567 0.0187824 -0.841604 -1.25257 0.603172 1.86417 0.59046 -2.35538 -0.256939 -1.82513 2.92559 -0.36724 
11.9923 1.44622 -9.65184 -3.70983 5.65674 5.42421 5.2748 4.6506 -10.3232 4.59808 3.07107 -0.998679 16.3833 -0.288596 0.043236 0.396009 0.329554 -0.419311 -0.0197004 1.14029 1.88312 -0.834123 -1.70443 -1.51503 2.35293 -0.416933 
12.0113 -1.03779 -11.6742 -6.99558 1.26399 2.9786 5.32585 1.50176 -12.4514 4.48286 5.04407 1.87027 16.3309 -0.493592 -0.154433 -0.141362 -0.00451527 -0.697011 -0.2013 0.641318 0.448395 0.571375 -2.30747 -0.204684 2.6965 -0.398948 
10.5407 1.83274 -7.55962 -5.8367 7.39758 4.39921 2.97785 10.2956 -12.7534 1.1052 2.06588 0.511568 15.8006 -3.49305 -1.56983 -0.414299 -1.17061 -1.16342 0.600708 0.235246 1.50759 4.73841 1.8384 1.35381 3.27673 -0.862768 
11.1511 -0.205351 -11.0837 -7.29835 2.44397 4.07286 5.18623 3.90218 -9.40188 -1.54652 5.24231 7.06005 15.7403 -4.83308 -1.58606 0.784515 -0.0933665 -1.1462 -0.238738 -1.01189 -0.0126791 6.14611 2.22866 0.0178439 1.83263 -1.21906 
-5.04291 -6.81917 -12.0186 -9.4115 -0.750371 7.88063 6.52083 10.9884 11.8441 16.8048 9.74099 12.7901 12.3647 -4.8869 -1.14141 1.81939 0.720669 -1.76479 -0.336542 -1.01386 -1.36488 5.76043 1.69985 -0.704305 0.583126 -1.10264 
-4.36231 -4.64215 -5.52211 -5.67501 -0.393052 0.0442076 -1.50511 1.09198 5.98036 7.77637 1.29574 4.89417 11.9536 -3.94007 -0.32344 2.35807 0.755886 -1.25526 -0.454336 -0.881515 -0.598291 3.05085 1.95324 -0.989152 -0.469742 -0.759941 
-6.13705 -1.65591 -1.24345 -3.04503 -0.0078373 4.73083 1.25424 4.87628 8.35765 4.94299 0.517643 4.51014 12.1808 -0.969691 0.394082 1.29566 0.670492 0.459443 -0.0177715 0.170804 -1.43836 -1.99011 -0.325413 -1.29678 -0.8145 -0.0593689 
-8.00212 -4.40418 -4.68091 -6.70216 -4.20358 3.37608 3.41196 3.96677 7.59557 14.1506 4.90823 8.8513 12.0326 -1.14476 -0.901145 -1.36072 -0.0778514 1.56971 1.40244 0.553669 0.382731 -0.451758 2.10224 -0.0564982 0.238444 -0.0252603 
-8.07146 -4.96774 -5.96084 -5.54546 3.45211 6.12583 4.91632 2.35916 1.08589 11.9906 1.45083 6.73899 12.0284 -0.59823 -0.937822 -1.06834 -0.662213 1.0119 0.144401 1.03093 0.996455 -0.156638 -0.310941 -1.08504 -0.782562 -0.0769974 
-9.11893 -7.49196 -9.967 -4.81405 5.72551 6.35888 -0.567809 4.26419 7.35745 14.7638 0.546656 4.97197 11.9035 -0.268771 -0.0842035 0.135134 0.143653 0.406714 0.86639 1.41252 2.04343 0.319592 -3.39649 -1.2897 -1.04666 -0.0410014 
-8.5698 -4.80113 -3.94211 -7.30015 0.0871148 3.96143 8.39878 9.70984 7.69352 3.08169 -2.72676 2.53699 11.8604 -0.348598 -0.429385 -0.173457 0.43544 -1.1784 0.262561 0.40676 1.58404 1.79843 -2.13195 -0.679878 -0.801576 -0.0210357 
-9.09681 -4.9085 -5.0146 -5.10655 -0.487513 8.79023 8.73332 10.5086 5.88972 1.62259 0.548533 5.71898 11.9116 -0.0672321 -0.405934 0.306831 0.704622 -0.621148 1.24078 1.17757 1.07498 1.13831 -0.129353 -0.586885 -0.835911 0.0065155 
-9.82551 -8.40639 -9.30433 -3.22201 0.666627 6.22296 2.29956 7.15714 10.8119 7.90144 -1.9495 2.35761 11.9192 -0.164789 -0.615849 0.12121 0.821226 0.683942 0.853194 -1.1152 -0.789681 -0.27351 2.12831 -0.327103 -1.59648 0.0234411 
-8.82723 -7.719 -5.75174 -3.33001 2.33001 11.432 8.36963 10.9155 11.4898 11.7071 -2.7764 0.882103 11.9067 -0.387912 -0.577125 -0.0112352 -0.619004 0.0895558 -0.573444 -0.936982 -0.478946 -0.431417 0.612712 -0.243484 -1.81624 0.0552484 
-9.52854 -6.47512 -2.96749 -4.08229 2.09806 6.90651 3.00463 5.558 3.52593 8.68097 -2.69981 -3.02697 11.98 0.105411 0.48784 0.379485 -0.805592 -0.580254 -1.36099 -0.0206273 -0.233213 -0.936655 -0.606497 0.392707 -0.560458 0.0417842 
-11.1849 -8.75976 -8.23919 -7.77144 -0.755452 5.58124 3.69587 8.91343 7.37562 4.29638 -0.29373 -0.669931 12.1574 -0.23969 -0.129076 -0.538908 0.0627851 -0.246781 -1.33235 -0.573547 -0.788333 -0.383436 -0.572135 0.637596 0.61465 0.0175041 
-8.11964 -5.44681 -6.16318 -5.02926 -0.691912 2.34338 4.5333 6.99209 8.18572 8.57433 -1.2273 0.331334 12.0027 -0.00404434 0.21838 -0.533052 0.657725 1.5106 0.508568 -0.129344 -1.50085 -0.534724 0.291161 0.155375 0.968947 0.00771313 
-10.7301 -8.87854 -6.84844 -2.5426 2.4911 7.05183 4.73756 6.25676 7.24272 8.89977 -0.324672 2.2762 11.9828 0.335915 0.535859 0.7277 0.599984 1.3951 -0.32014 -0.668851 -1.40646 -0.414127 1.45323 0.352484 0.551437 -0.021936 
-9.77612 -5.32384 -6.32813 -3.40808 8.0278 8.71406 1.83707 -0.617922 0.918766 7.83508 -1.90747 0.344702 12.1058 0.0552445 0.157918 0.613993 -0.213366 -0.727843 -1.2056 -0.932292 -0.33573 0.00523024 -0.648719 0.153532 0.473874 0.0196542 
-8.67704 -6.14195 -4.51822 -5.58211 1.86017 0.795195 1.69973 5.68615 8.93847 11.9321 1.80877 2.08057 11.9961 0.550419 0.610698 0.634225 -0.221416 -1.01389 -1.44838 -1.33612 -0.384583 0.02368 -0.471061 0.15686 0.373684 -0.0128432 
-8.86996 -6.02551 -4.25833 -4.57633 -4.01566 -0.556306 1.39075 5.59874 7.364 3.81455 -1.52636 2.79852 12.0943 0.428896 -0.180621 -0.103829 0.914203 -1.31549 -0.0677153 0.154655 0.638327 0.686297 -1.38517 -0.971269 0.697852 -0.0692429 
-8.43111 -5.47421 -4.71222 -3.06556 3.4434 4.44513 -1.71988 1.22551 4.13851 8.55473 0.269072 2.91771 11.9244 -0.201188 -0.0693705 -0.928076 0.461502 1.09575 2.08564 0.614339 0.614368 0.750427 -0.51579 -0.65671 0.145269 -0.00986767 
-7.75461 -6.56081 -6.75027 -0.0953432 0.658763 6.55052 4.32015 4.80403 6.75023 2.59792 -5.99396 3.41539 11.7955 -0.255255 0.543054 -0.486967 -0.468967 1.09608 1.06542 0.855777 1.3728 1.2047 1.67573 0.225347 -0.598398 0.0605081 
-10.2407 -6.22115 -7.91262 -5.51509 5.0017 7.66998 3.30673 9.15535 12.9975 9.9615 0.759021 2.49848 12.0962 -0.198363 0.0317943 -0.359237 -0.839274 -0.884056 -0.499721 0.69511 1.63558 1.7146 0.88874 0.763908 -1.01118 0.0785997 
-9.24147 -2.93677 -5.09296 -5.6964 0.685582 3.15834 3.15633 8.49784 8.95799 11.4898 -0.6446 0.0161471 12.311 -0.0423413 0.0559532 -0.438102 -0.844949 -0.798391 0.253013 -0.565169 -0.0655257 -0.145168 0.692862 2.07856 -0.81093 0.0411174 
-8.6795 -7.12726 -7.33706 -4.4614 -0.990293 3.64261 2.33758 7.55653 11.6076 8.55249 1.41393 -0.438544 12.0596 0.34821 -0.21049 -0.676749 0.218578 -1.17006 1.09895 -0.383316 -1.09811 -1.4795 -1.11126 1.13407 -0.252535 -0.0445223 
-8.74689 -5.82799 -9.22856 -4.84693 -0.337195 9.82927 1.97888 5.27582 6.71933 6.76673 4.07137 0.829252 12.0194 0.0921743 -0.448318 -1.01627 0.131339 -0.139246 1.95285 -0.271362 -0.872476 -0.93656 -1.12319 1.20894 0.289401 -0.0623408 
