-7.98789 -5.34381 -4.25122 -4.83339 -3.82799 6.71888 5.57185 5.47975 4.61029 4.02461 4.94473 1.28416 11.9029 -0.495209 -0.221063 -0.448729 -0.18402 0.593348 0.0134388 0.477454 0.189592 2.44763 1.89104 0.525519 1.29316 0.0394697 
-9.81442 -6.16898 -6.21597 -7.14754 -3.12662 3.708 3.65715 8.97282 14.9386 11.184 8.44348 2.02971 12.0952 -0.254749 -0.0414837 -0.344506 -0.415555 1.16501 0.36204 0.534532 -0.585257 0.594309 1.11564 0.275599 1.26279 0.0413129 
-9.55067 -6.03654 -5.51249 -4.59642 -1.21194 8.29151 8.91648 4.68117 11.6843 9.90011 5.82296 7.37719 12.0041 -0.1358 -0.0133718 -0.0048831 -0.0986535 0.398651 0.35448 0.500246 -1.23451 -1.40331 -0.512705 -0.419717 0.642377 -0.00291424 
-8.48025 -5.20486 -5.34312 -7.02965 0.689026 7.74276 6.5722 2.95275 4.04483 6.66508 5.88362 4.55159 12.0589 0.37197 0.415277 0.455859 0.988955 -0.688526 -0.831598 0.109904 -1.46054 -2.3927 -2.27851 -2.10173 -0.388338 -0.0262053 
-9.33397 -5.89272 -4.71206 -5.3856 -3.74256 6.4739 6.61555 2.31723 3.0406 3.72054 4.12608 3.2351 11.9065 0.11407 0.018995 -0.0360459 0.765955 0.312971 -1.48185 -0.428091 0.320157 -0.659841 -1.72838 -1.50503 -1.34815 0.0265678 
-8.06291 -4.1645 -4.33689 -1.80817 -5.30394 0.458812 5.35713 2.85208 7.2969 2.8812 -1.21672 2.15906 12.013 0.113983 -0.154222 0.0331478 0.609777 -0.124874 -0.869567 0.479042 1.10132 1.3424 0.0904498 -0.768336 -0.706707 0.0423905 
-9.18899 -6.46174 -6.19583 -3.37738 3.3494 4.52424 7.38356 6.33229 6.75905 3.15013 1.84797 1.83272 12.1599 0.112793 -0.0302975 0.459666 0.651878 1.28489 0.681667 -0.0244865 -0.319672 1.03054 -0.00905365 -0.562894 -0.754689 0.0379826 
-7.98282 -5.69146 -4.43549 -4.98488 -3.48132 4.36976 8.58341 6.45183 8.89759 7.40253 3.18099 1.71925 12.1441 0.829152 0.734895 0.933234 0.883144 1.41434 0.19988 -1.78476 -1.69883 -0.559854 -0.201201 0.13436 -0.276593 -0.0123815 
-8.81005 -5.28073 -2.36443 -0.537857 1.77055 7.92676 4.87998 -1.08101 7.39298 1.41461 -0.887247 -0.318439 12.0308 3.00135 1.33858 0.503051 2.35911 0.433131 -3.38275 -4.25031 -3.26152 -2.98606 -2.74418 -1.25009 -0.0221094 0.328868 
-4.10662 -1.08053 -1.58642 1.18778 2.55718 -0.243049 -2.31489 -1.93544 4.18067 2.74295 0.822685 1.85168 12.0156 3.67373 1.76254 0.378076 3.73996 1.76285 -4.26641 -5.25201 -2.76934 -3.98169 -4.58958 -0.982436 0.673827 0.614766 
3.87965 -2.07429 -5.10511 5.33184 2.49581 -10.0831 -8.41885 -5.78166 -5.81281 -8.24096 -3.22335 1.65596 13.8685 3.49457 2.24502 0.660864 2.94595 0.324194 -3.77403 -3.20207 -1.28845 -3.22534 -4.0409 -0.69327 1.33233 0.710196 
4.04096 1.51801 -1.17477 10.7801 4.97031 -7.95739 -11.0272 -5.04456 -4.40797 -10.7176 -0.563143 4.10119 14.2991 2.19644 1.86235 0.421236 2.35759 0.750459 0.263778 0.2771 -1.19045 -1.98971 -2.82935 -0.963928 0.412561 0.638971 
4.58902 4.64511 0.734064 9.39576 2.18496 -7.0862 -6.7742 -5.96871 -4.43941 -12.0596 -3.66068 5.21847 14.4401 1.28047 1.38948 0.651913 0.745038 1.44238 2.24352 1.80043 -0.115376 -0.773761 0.204312 0.216221 0.341984 0.351232 
6.5209 4.87155 -2.39983 10.9438 6.4649 -0.422604 -1.75171 -7.79415 -6.45461 -9.49445 -3.77829 2.13323 14.9247 1.80223 0.169202 -0.531544 -0.540413 1.03196 1.41361 2.17818 0.0308007 -0.602585 1.07278 0.987591 0.290228 0.343441 
9.04205 3.19636 -1.23302 8.97519 8.96043 -2.63288 -4.05446 -4.98375 -8.6583 -7.83097 -0.534669 4.34986 15.3119 1.79218 -0.825388 -0.683764 -0.864446 1.2304 0.745455 0.527862 1.20459 -0.21193 1.3325 1.64246 0.733916 0.406433 
10.8256 3.0884 -2.84895 8.28831 6.74236 -3.116 -1.49619 -5.38304 -5.31145 -7.46802 2.81181 5.98663 15.5804 1.26563 -1.24772 -0.0574933 -0.896415 -0.512705 0.451343 -1.13949 0.929719 0.69778 1.35764 0.57067 1.26072 0.425399 
11.3976 1.40974 -2.46019 6.40126 8.1982 -2.01223 -4.26265 -1.15131 -6.07064 -6.41035 1.25655 6.96135 16.1444 0.542727 -1.12902 0.118799 -0.5611 -1.19451 0.130799 -1.17718 0.766631 0.0109322 2.65402 -1.30837 0.045247 0.472476 
11.6713 -0.473762 -2.07371 7.74867 4.28249 1.52378 -7.34509 -5.06177 -4.25953 -3.41657 -1.82055 7.1311 16.6354 0.260897 -1.27155 0.341399 0.393583 -2.04071 0.276881 -2.53773 0.865299 0.440521 1.32391 -1.13307 -0.298136 0.523736 
11.3328 -0.667644 -1.02664 6.43951 4.21781 -4.29878 -7.01589 -1.31123 -9.12959 3.41338 -4.76033 4.00386 17.1467 0.366956 -1.53475 0.789519 0.614669 -2.59312 -0.573709 -1.69235 -0.0720746 1.70275 -0.0234856 -0.36548 -0.0866409 0.49593 
12.1624 -2.23065 -1.85873 10.2371 -1.47099 -0.588323 -12.8082 -0.976592 -1.57936 -5.76031 0.154867 5.9747 17.6979 0.694371 -1.69082 0.940983 0.336785 -2.30556 -1.3937 -0.648748 0.785656 1.66916 -1.3701 0.13084 -0.108395 0.445973 
12.9868 -5.38556 1.37991 8.23039 -1.89067 -3.82472 -9.99281 -3.55428 1.10302 -5.3559 -1.55856 7.10634 18.0928 0.725531 -1.64697 1.04213 0.730875 -2.14004 -1.12615 -0.581479 0.451556 1.57311 -0.966521 -0.0782471 -0.657369 0.353255 
14.3161 -6.56892 1.42793 8.53715 -4.19106 -5.68175 -9.10037 -0.0119659 -1.03003 -5.88241 -2.76723 5.03788 18.3923 0.219294 -1.07812 1.33253 -0.2576 -0.497321 -2.04227 -0.306539 0.767861 -0.244112 1.51675 -0.568496 -2.44499 0.268011 
13.8836 -6.73337 2.54069 10.9439 -5.12234 -7.38279 -11.7772 0.464242 -1.5387 -1.35818 -3.69051 1.18543 18.5658 -0.274122 -0.204628 0.882682 -1.31234 0.48011 -2.09091 -0.933973 1.43513 -1.22201 2.40145 0.328077 -3.3239 0.251254 
12.8105 -6.94733 4.22354 7.59237 -2.34176 -9.02063 -13.4487 0.853454 -1.47907 -0.175436 -1.62163 -3.28981 18.8014 -0.780215 0.435645 0.296036 -2.23422 0.638167 -1.43623 -1.32537 1.34325 -1.2357 3.92459 0.192259 -2.27602 0.28286 
12.369 -6.2195 4.39551 2.1411 -0.414772 -12.6098 -12.4885 3.18865 -4.78253 3.79786 -0.490975 -5.34929 19.1445 -0.730692 0.60116 -0.548346 -2.77374 0.218196 -0.744191 -1.01192 1.8507 -1.11512 4.12112 -0.512091 -0.855613 0.311967 
11.1724 -4.64763 1.9807 1.76742 -3.35401 -10.2494 -15.3716 5.34209 -5.58661 11.1625 -3.4057 -3.07487 19.5173 -0.634601 0.647754 -1.17701 -1.93025 -0.410264 -0.235981 -0.636249 1.559 -0.0339733 3.96187 -1.51056 0.471925 0.292326 
11.0492 -4.87742 0.920387 -0.0123856 -3.52524 -10.4894 -15.8754 7.4734 -5.06051 13.5784 -5.35893 -3.20011 19.7677 -0.558767 0.349819 -1.29658 -1.1246 -0.561887 0.15461 0.215091 0.758232 1.05809 2.53582 -1.7369 0.66775 0.229889 
10.2974 -4.3796 0.0760323 -0.982118 -2.83785 -11.2608 -14.9365 6.50607 -1.50994 14.7437 -6.74047 -2.00478 19.9514 -0.405136 0.013406 -1.0385 -1.19689 -0.0825266 -0.444179 1.68725 0.0288167 1.32317 0.719358 -0.932229 -0.183939 0.149525 
10.0127 -4.60441 -1.13505 -2.10713 -3.48229 -11.3311 -11.6306 6.39782 -1.53042 14.6864 -7.50809 -2.54559 20.0768 -0.422834 0.118262 -1.02852 -0.92011 -0.304176 -0.582302 2.59616 -0.279162 1.25967 -0.24599 -0.626804 -0.449865 0.0569565 
9.66498 -4.7171 -2.18411 -3.16965 -3.78812 -12.0494 -9.05777 6.02397 -0.735831 14.2054 -6.99227 -4.32183 20.1103 -0.587073 0.32404 -1.03 -0.645249 -0.535351 -0.104948 2.32284 0.127182 0.814451 -0.938631 -0.147907 -0.642179 -0.0204199 
9.25126 -4.11736 -3.09215 -3.51917 -4.57098 -13.0065 -5.834 6.31864 0.850809 12.6176 -8.36705 -4.2909 19.9731 -0.717775 0.457999 -0.877895 -0.129291 -0.432508 -0.0303499 1.87879 0.230239 1.15977 -1.30871 -0.271502 -0.199105 -0.056625 
7.74272 -3.00293 -4.09541 -3.50234 -4.97026 -10.9478 -6.22063 7.18157 1.3717 11.0849 -7.05053 -4.34302 19.9012 -0.600062 0.257863 -0.744037 0.28222 -0.430812 0.2163 1.95411 -0.409098 1.19878 -1.31599 -0.340116 0.152188 -0.0539276 
7.38494 -3.1715 -4.56887 -2.58724 -5.05377 -12.0337 -3.65519 6.97021 3.21468 9.70309 -8.83647 -3.53052 19.8983 -0.229217 -0.304827 -0.43254 0.120668 0.33229 0.00914116 1.746 -0.861023 0.796541 -0.79944 -0.455789 -0.16401 -0.0183634 
7.59782 -3.90072 -5.16593 -2.22451 -5.70079 -11.4544 -0.376595 3.65269 4.07615 9.08268 -8.45814 -3.94108 19.8781 0.2365 -0.809773 -0.0641554 -0.156863 0.7827 -0.411053 1.83041 -1.14063 0.477462 -0.598564 -0.493698 -0.693952 -0.002244 
8.17762 -5.1926 -4.71959 -3.55475 -2.54427 -12.7075 -0.0260043 3.77797 3.48129 9.62152 -9.94219 -5.31192 19.8928 0.300718 -0.77178 0.0292428 -0.42081 0.87685 -0.00774689 0.769558 -0.532765 0.149359 -0.761655 -0.0211277 -1.11999 0.00785694 
8.52888 -6.04124 -4.34083 -3.80291 -2.31151 -12.6661 1.11684 3.07456 3.62571 8.13284 -8.96616 -6.92207 19.8927 0.115132 -0.384874 -0.130071 -0.105088 0.515364 0.243604 -0.313768 0.562456 0.0771159 -1.02408 -0.0625458 -0.781638 0.0174393 
8.423 -5.96014 -4.83521 -3.90209 -2.36415 -11.4665 -0.554122 4.59545 4.1867 6.36973 -8.6881 -7.63998 19.9302 0.00528665 -0.0467811 -0.236747 0.266479 -0.197202 0.609074 -0.513537 0.641998 0.29979 -1.69062 0.667053 -0.642253 0.014645 
8.05079 -5.44132 -5.75848 -2.57628 -3.21402 -10.8569 -1.68138 6.05623 4.10902 5.58815 -9.39791 -6.68524 19.9466 0.0418973 0.126582 -0.346356 0.460808 -0.123796 0.548005 -0.709326 0.586504 0.261172 -1.94567 1.13892 -0.669994 0.000494003 
8.4431 -5.72647 -5.1945 -2.83567 -3.07902 -10.5668 -1.19458 5.49712 4.73858 2.44077 -6.39105 -8.6416 19.9391 0.320667 -0.055917 -0.221322 0.511732 0.123999 0.407634 -0.442823 -0.107108 0.391172 -2.23422 1.85107 -0.996431 -0.0213146 
8.72832 -5.52517 -5.89297 -2.03208 -2.57305 -10.3759 -2.10956 5.55624 4.65563 0.368962 -4.42007 -9.77123 19.8908 0.351022 0.128888 -0.461377 0.561633 0.867757 0.452858 -0.674994 -1.00736 1.13466 -2.80055 2.30275 -0.343831 -0.0456219 
9.68757 -6.1978 -5.87457 -1.61553 -2.06464 -9.66882 -2.55414 4.3099 5.86926 -2.19177 -1.92166 -11.0791 19.8516 0.124287 0.674961 -0.76882 0.730241 1.7223 0.48909 -1.23507 -1.78641 0.727844 -2.15867 2.51745 0.872208 -0.0877924 
9.18366 -4.56121 -7.72533 -0.378184 0.617571 -9.04155 -4.37656 1.61306 9.21699 -6.09833 -0.118845 -7.18563 19.7622 0.911099 0.803318 -0.644955 1.16618 1.96148 0.800336 -1.0311 -2.34571 -1.53089 -0.706329 2.9739 0.961686 -0.259408 
8.83686 -2.83364 -8.12243 -0.0114093 3.93715 -8.78853 -6.2364 -1.46333 6.09712 -5.11894 4.0456 -5.57336 19.5644 0.731599 1.06161 0.497372 1.18607 1.42609 1.34424 0.289346 -2.53897 -5.25253 0.385642 2.42511 0.960737 -0.555741 
13.7092 -3.19066 -7.99382 2.99676 4.23347 -6.81439 -5.42391 -3.28567 -3.11273 -1.69909 7.46581 -7.71569 18.7373 -0.00970325 1.04302 1.88151 1.79781 0.379076 1.45244 1.35282 -1.55236 -7.18239 0.130389 0.886685 0.0255198 -0.734832 
11.0828 -1.575 -3.25347 2.62737 3.25783 -4.06122 -0.58374 -5.93556 -14.2285 -2.46317 6.41156 -6.01043 17.5853 -0.544407 0.749352 2.05171 1.23609 -0.583286 1.45084 2.18984 -0.254892 -5.46469 -0.510184 -1.1939 -0.270508 -0.630303 
8.01217 0.0245604 -0.752266 7.2915 2.85261 -4.14301 -0.438791 -3.91262 -16.5321 -6.77427 3.1316 -6.8395 17.0776 -0.622142 0.466912 0.74654 -0.409457 -1.45011 1.34836 1.45658 0.318848 -1.8297 -0.712221 -0.764813 -0.0201549 -0.171707 
8.96332 -0.694491 -1.48463 4.02167 1.71115 -2.86999 2.22023 -2.42431 -14.5166 -5.13227 0.243225 -7.364 17.2427 0.911065 -0.216386 -1.55321 -1.27151 -1.55656 1.46102 -0.182166 0.46322 0.893353 0.379056 1.63851 -0.728976 0.34913 
11.6582 -1.29635 -5.14553 0.252318 -2.24374 -0.668213 0.456977 -3.44705 -12.1172 -3.92565 6.72591 -7.13968 18.0501 1.96567 -0.643995 -3.04072 -1.99836 -0.725977 1.68891 -0.655388 0.324088 1.31841 1.15333 3.43483 -0.904023 0.634602 
13.8151 -1.99648 -8.8229 -0.210573 -1.97677 1.50648 -1.94246 -3.85224 -11.9692 -1.9922 12.8069 -9.50522 18.8448 1.52798 -0.526654 -3.21669 -0.93238 0.412376 1.48321 -1.01699 0.338788 1.83087 0.0898825 3.43165 -1.13037 0.636464 
15.4146 -2.54442 -12.2867 -0.58415 1.06669 2.1133 -1.63439 -1.57822 -11.2138 -2.57763 14.0239 -10.289 19.4496 0.491396 -0.274191 -2.62156 0.210285 1.63983 0.864244 -0.362002 0.940533 2.27126 -0.69825 0.857679 -0.946995 0.43951 
14.725 -2.70372 -13.9975 -0.22199 2.11782 3.15532 -1.81905 -1.66479 -5.81396 -5.35687 13.7525 -11.4412 19.7253 -0.337097 -0.174472 -1.63852 0.840278 1.21343 0.66677 0.0396594 1.49548 2.34695 -0.824353 -1.25159 -0.655547 0.220428 
13.6602 -2.31369 -15.6661 1.30945 3.90813 2.82859 -1.41474 0.161885 -3.83849 -5.73456 10.5415 -10.9067 19.8073 -0.831827 -0.232378 -0.541413 1.35263 0.367124 0.216819 0.187263 1.52538 2.22298 -0.274024 -2.67354 -0.286856 0.0437021 
13.0068 -2.9842 -15.3258 3.04402 2.66968 4.48269 -1.85398 2.75512 -3.92215 -4.5355 8.29017 -12.4741 19.768 -0.973442 -0.411194 0.494696 1.30054 -0.313196 -0.242366 0.343762 1.82966 0.852435 1.21441 -3.57633 0.466998 -0.0646849 
12.1146 -3.56607 -14.3296 4.54601 2.62638 2.53371 -0.680606 3.83874 -1.04478 -4.35844 3.38734 -11.2068 19.6467 -1.25771 -0.8831 2.61131 0.990413 -0.218817 -0.399917 0.291862 0.756529 0.4791 2.94197 -4.69021 1.69108 -0.217296 
10.6306 -4.1335 -12.1922 4.66241 1.19272 2.09093 -0.467306 5.64511 -2.94864 0.0271225 -0.552094 -8.95612 19.4822 -0.989604 0.390322 3.56824 0.995599 -0.173177 -1.81747 1.49155 1.01888 -0.404565 3.0602 -4.19417 2.49707 -0.502301 
8.55979 -6.15454 -4.17631 5.45232 3.55253 2.02488 -0.648766 2.49954 -1.92975 6.694 -8.48837 -4.21028 18.8638 -2.52518 1.84079 5.35865 0.281756 0.481299 -1.34709 1.93672 0.715122 -0.856941 3.15207 -1.97099 1.84516 -0.550263 
9.83621 0.26164 -2.56129 7.56885 1.34072 -4.35026 5.58784 8.51913 -5.50249 5.23927 -6.74283 -3.48705 17.648 -4.91658 2.96852 4.9485 -2.09367 0.76949 0.755468 1.3324 1.25522 -0.233266 2.57617 1.04453 1.97726 0.018644 
-0.114119 3.44029 7.64815 4.50156 4.95887 -0.981126 5.97542 5.97734 -4.05256 8.79582 -3.37223 -4.71557 17.8125 -6.37886 4.25922 1.68488 -4.02656 -0.242992 1.99844 -0.570314 0.13544 0.938267 -0.284432 2.59206 0.903366 0.763308 
-9.61533 5.9117 6.63802 -5.33056 4.337 7.37127 2.88258 10.1823 -3.05356 11.8571 2.1125 1.18284 20.101 -6.96599 3.29805 -1.20237 -4.41933 0.10642 2.99017 -2.25011 -1.27375 1.74187 -1.51221 2.00414 0.713062 1.29226 
-13.6087 12.3166 -0.351558 -8.23078 0.83943 6.1563 -2.14771 2.34514 1.53713 1.96294 0.0442517 -2.02839 21.4538 -5.26601 2.22523 -3.49053 -2.00622 -0.0820078 1.68578 -2.88481 -2.23779 1.43993 -3.2923 0.245845 -0.573501 1.17815 
-18.2464 12.3137 -4.57328 -8.16164 3.93254 7.03185 -1.60116 3.96647 0.412037 1.09465 1.56963 -1.26532 22.2886 -3.3963 0.49122 -2.13753 0.811661 1.04315 0.783392 -1.06116 -2.51515 1.26942 -2.17752 0.149231 -1.69719 0.479385 
-22.1286 11.3654 -4.19885 -4.114 4.75106 7.61749 -6.20674 -2.1037 1.4143 -2.28447 -1.87157 -6.35899 22.6094 -2.41599 -1.21057 0.101088 0.184526 1.73702 1.50464 0.310761 -1.42172 1.20622 0.506264 0.518319 -0.940253 0.026952 
-22.3369 8.84336 -2.12601 -3.33064 7.59692 10.5576 -0.393704 -0.168981 3.35492 3.09316 3.81656 -5.13779 21.9201 -1.4513 -1.53859 1.31826 -0.424342 1.18361 1.28187 1.24988 -0.412465 0.955741 0.302886 0.252446 -0.155573 -0.184949 
-23.6434 7.9989 -1.06975 -9.72365 7.69232 11.9166 -1.19763 -2.69573 6.09677 3.495 1.51238 -4.79342 21.7728 -0.872725 -1.8921 1.49569 -1.91592 0.463588 0.809981 0.93138 0.203297 -0.00837581 1.2814 0.81495 1.20156 -0.163228 
-24.7455 6.30403 0.45345 -7.47853 8.37997 11.2917 2.14367 2.20016 2.84951 -0.280661 1.13988 -2.82597 21.7822 -0.437253 -1.39379 1.06358 -1.32736 -0.433776 -0.236561 -0.22461 0.43337 -0.451633 0.118533 -0.703635 1.28575 0.0621519 
-25.2879 3.17459 1.98989 -11.6197 6.67747 11.3004 -2.81853 -2.27179 1.62513 5.80946 3.54151 -1.50708 21.8623 -0.00804443 -1.07434 1.70933 0.251009 -1.33493 -1.30554 -0.0740512 0.555578 -1.15507 -0.652382 -1.21524 0.479063 0.191328 
-23.7009 4.28658 1.66208 -9.01941 5.93546 9.68293 -0.706307 1.7859 3.33258 2.5286 -0.716179 -0.352191 22.1862 0.804271 -0.236431 1.64757 0.388342 -1.61435 -0.936331 0.597918 0.138585 -0.226275 -0.483305 -0.390101 0.251749 0.17456 
-24.206 3.63591 6.87259 -7.69816 2.2399 6.19326 -0.1429 0.289288 0.0798843 -1.17154 -3.63579 -3.635 22.5275 1.15661 -0.101736 0.891023 0.0447407 -1.73559 -0.352751 1.41881 -0.575644 0.0418305 -0.125415 0.978143 0.688859 0.012792 
-21.2651 4.89121 6.24997 -7.49757 2.52699 9.16358 3.79544 1.61254 2.49076 0.793315 2.77803 -0.503268 22.3224 2.36852 0.491569 1.58146 0.126195 -0.761722 0.490787 -0.097856 -2.19485 -2.15212 0.319342 0.763463 1.04625 -0.334645 
-20.7227 2.3636 4.15106 -12.1569 -0.296251 9.7963 2.02463 -5.06333 2.2552 6.05003 6.68512 2.01275 21.8581 4.70901 1.44392 1.13579 1.49177 -0.267223 -0.851111 -1.8656 -1.41756 -2.59357 -0.662155 -0.111884 2.10982 -0.818799 
-13.5999 7.38058 10.9301 -6.15907 3.39493 10.3353 -2.27935 -6.51205 -8.51565 0.514531 -2.05932 2.05517 20.8476 5.39215 1.47411 1.8381 2.52188 -0.925365 -4.0135 -2.0234 -0.421021 -2.26352 -2.24719 -2.35758 0.77924 -0.925204 
-4.49354 9.61082 10.2115 -0.908575 0.469817 1.35182 -6.43349 -2.73623 -7.38475 -4.34292 -1.77654 5.63486 19.1709 5.41497 0.883009 1.58791 2.75042 -1.41876 -4.6607 -0.237139 1.08301 -0.823774 -3.17144 -2.46319 0.0673671 -0.800077 
-2.41898 8.63816 12.4102 -0.512336 -2.48288 -6.68168 -2.09252 -1.65611 -4.00688 -5.24618 -4.77904 1.58188 19.04 3.32432 -0.67068 0.674975 1.3046 -1.35486 -4.33148 1.26339 0.706323 0.887635 -1.84426 -0.192023 0.0514821 -0.448101 
0.761641 6.14985 11.3506 -1.22818 -4.45117 -4.99871 0.745518 -2.07624 -4.11806 -6.9268 -4.27098 2.58624 18.7616 1.31604 -1.15593 0.703056 0.501499 -0.0415188 -1.50368 1.59876 -1.00358 0.297428 -1.20514 0.552196 -0.174725 -0.10978 
0.394089 5.75767 13.7355 0.523713 -0.918896 -8.14678 0.448076 -3.31042 -5.71082 -7.41482 -1.77221 3.8369 18.8118 0.42525 -0.820665 0.693961 0.653572 0.486941 0.768884 0.461959 -2.06473 -0.32021 -0.699099 1.44887 0.0982552 -0.0356827 
0.680109 5.27144 13.0641 1.0809 -0.519767 -5.43403 0.290029 -6.92699 -5.04564 -9.28432 -0.518973 3.63372 18.7361 -0.254385 -0.0812354 0.746224 0.953952 -0.132592 1.44257 -0.0342793 -1.6196 -0.317661 -0.827991 1.3027 -0.325198 0.00232735 
-0.251958 4.97404 15.0233 1.60098 -2.01387 -2.6196 0.44502 -9.55441 -5.14414 -7.56291 0.589313 1.54941 18.8743 -0.100319 -0.00973458 0.482005 0.78413 -1.15018 1.87813 0.140503 -1.20649 -0.312 -0.498097 0.382081 -0.328801 -0.048921 
-0.187262 6.13549 14.4378 3.00294 -4.56664 -0.549466 0.57565 -7.05225 -5.98971 -10.9927 1.06177 2.10399 18.7419 -0.150941 0.466183 0.406169 0.668737 -0.704146 0.649635 -0.249489 -0.259778 -0.555447 -0.121196 0.312539 0.18944 -0.0904678 
0.326179 5.27697 15.4587 3.48334 -4.64636 -1.19843 1.00778 -9.28027 -6.79879 -9.05111 -0.652182 2.95776 18.5643 0.0241547 0.576689 0.169145 0.978623 -0.0409251 -0.649713 0.210671 -0.913172 -0.23718 -0.424698 -0.119928 0.96069 -0.149251 
-0.363665 7.45088 14.8773 3.4834 -2.72425 -2.89645 -1.2388 -8.36294 -6.99555 -9.1462 1.66447 3.87675 18.4388 -0.0575391 0.487764 0.304925 1.01323 0.149236 -0.834454 0.326225 -1.52084 -0.273748 -0.0453971 -0.669517 1.2294 -0.145517 
-0.0429835 7.19979 15.6492 6.25386 -3.13969 -4.69467 2.4056 -13.4649 -5.82712 -10.6097 -0.311678 5.46648 18.2796 -0.136745 0.460775 0.0707755 1.00746 0.0563733 -0.547979 0.414612 -0.7443 -0.32999 -0.268499 -0.959207 1.03282 -0.136327 
-0.290376 7.6129 15.8671 6.68383 -4.5738 -2.97361 1.50787 -12.5641 -7.84429 -10.4404 -2.45606 6.99664 18.1566 0.190138 -0.0263022 -0.186898 0.214713 -0.0107374 0.0907933 1.22133 -0.20912 0.347558 -0.549581 -1.57711 0.816047 -0.170287 
-0.394192 7.49984 15.3176 6.92045 -3.43972 -3.89974 1.70751 -10.9012 -8.02437 -9.7465 -3.38795 6.56192 18.0237 0.383254 0.128144 -0.566139 -0.236115 0.43382 0.496997 1.42667 0.706401 -0.119851 -0.509906 -0.641397 0.687392 -0.27721 
0.762629 7.16935 14.1086 4.22368 -2.62793 -2.83995 5.21692 -10.6904 -4.15914 -12.3257 -4.68296 7.40926 17.7153 -0.00479603 0.46864 -0.176413 -0.0394679 1.11285 0.135099 1.51809 -0.118336 0.416344 -0.223259 -0.681962 0.625688 -0.347334 
1.34678 8.06228 13.6978 6.30337 -1.94353 -2.27652 7.68444 -10.8698 -8.26895 -12.2166 -2.40521 8.69713 17.1143 0.352871 0.471263 -0.237562 0.634066 0.497455 0.155917 0.765876 -0.443403 -0.0278527 -0.124994 -0.338243 0.254169 -0.539991 
-1.18484 9.67488 15.795 6.79504 0.242363 -3.10973 6.10986 -13.1715 -5.64028 -10.3217 -6.35724 9.05747 16.8747 0.750073 -0.619263 0.553487 0.638288 -0.593563 0.818725 -0.278083 1.33188 -0.70896 0.480743 0.196266 -0.396091 -0.606288 
2.3439 8.60338 13.2866 8.8051 -2.38759 -2.98527 5.09042 -11.8776 -7.42306 -11.3735 -4.24203 7.00866 15.744 0.573201 -0.358045 0.405833 0.35146 -0.423141 0.927454 -0.95796 2.05557 1.10901 1.91345 1.20344 -0.804364 -0.830376 
4.01444 3.80248 17.0816 6.16425 -5.37371 1.60805 5.12351 -3.52708 -8.12688 -10.3435 -2.78323 6.27304 15.369 -0.158529 -0.554755 -0.444091 -0.234572 1.01705 1.20699 -1.1312 -0.24368 0.746814 1.80553 1.68075 0.42713 -0.752416 
1.61315 9.20825 15.0836 8.37606 -1.2512 0.00186253 3.38781 -5.41414 -1.4806 -2.63839 1.82498 6.06753 13.7152 -1.61345 -0.678579 -1.92371 -1.3206 2.20887 1.63685 -0.345593 -0.16784 2.68934 2.99173 2.22107 1.82019 -0.698563 
-1.61212 6.59867 12.676 5.8367 4.7594 1.43166 1.30517 -17.6217 -4.87744 -5.66157 -0.987011 11.6637 14.127 -0.948538 0.0240604 -2.81888 -1.20214 2.28493 1.99159 -0.619889 -0.519631 3.11827 2.8802 0.869091 -0.0423214 -0.606849 
-2.9101 3.8124 5.87089 2.3659 3.5902 5.28719 5.27162 -5.66956 4.39893 1.2442 5.96522 13.4143 12.8722 0.137424 -0.663322 -2.18406 -1.1765 0.787162 1.80689 0.369065 2.35713 2.61265 0.5555 -1.057 -2.32682 -0.359775 
1.53337 6.62072 7.59359 3.15862 3.63026 8.92331 1.08216 -5.99753 4.52471 2.11617 -0.507895 2.38805 12.7562 0.588843 -0.223242 -1.4575 -0.258331 -1.258 0.820965 0.726545 3.95654 2.34921 0.831479 -1.08466 -3.05794 -0.410498 
0.727528 5.88062 6.70455 3.83261 3.24918 5.2905 5.34464 0.559465 6.88155 -3.74976 -3.6996 -0.928734 12.6017 -0.210968 -0.49229 -1.18063 -0.382863 -0.327967 0.39919 0.58721 2.40486 0.916422 -0.0896668 -0.760054 -2.12677 -0.214543 
-0.486715 4.44835 4.97171 3.81169 -1.36011 5.53483 4.90139 -0.953468 5.6273 0.992804 -1.57788 3.54551 12.2098 -2.11543 -1.68331 -1.69098 -1.12907 -0.451433 -0.553292 1.43406 2.85677 1.41987 2.05884 1.53786 0.0123551 -0.138922 
-2.95489 2.43713 1.27869 0.125052 4.44554 8.97738 6.29806 3.83273 8.42974 1.35754 2.69994 2.20173 12.0727 -1.9101 -2.02973 -2.05882 -1.3653 -0.223879 -0.0918488 0.757038 2.08624 0.134735 1.3664 2.74815 0.281853 -0.112079 
-7.20259 -0.0740884 1.85163 -0.632954 0.774914 4.31342 7.77575 6.6497 10.85 9.8567 3.98164 0.88459 12.3261 -1.65329 -1.83385 -2.05679 -1.15419 -0.626502 0.0644716 0.882355 1.79642 -0.203882 0.323376 1.97149 -0.272867 0.0110719 
-5.46503 -2.0068 -2.02951 -0.77157 1.06227 5.44197 7.69265 7.18908 4.9439 -1.34971 7.2614 1.81099 11.9832 -1.25685 -2.0081 -2.06565 -0.580764 -1.78873 0.308487 0.196851 -0.0192387 -0.901154 -0.401946 0.253191 -0.480628 0.0375932 
-7.49812 -2.49896 -3.65814 -1.51096 -2.80098 7.6249 8.61587 6.35046 6.35081 3.96331 5.99885 2.37655 12.3099 -0.628561 -1.34628 -1.34516 -1.16602 -1.1328 1.05675 -0.500436 -0.728093 0.266242 -0.228518 -0.719035 0.0483592 0.0262175 
-9.0914 -6.39091 -6.29465 -2.33977 -2.71014 8.86408 6.86226 3.88616 6.17355 2.29451 2.95729 -0.947382 12.2688 -0.871827 -0.556339 -0.485064 -1.6392 -0.195127 0.549373 0.240222 -0.383235 1.84479 2.1878 -1.06341 -1.0342 0.0699524 
-8.53221 -4.61341 -2.7416 -5.67895 -3.0029 7.8861 5.68877 4.6607 11.5663 6.892 2.53852 2.50557 12.3144 -0.0404282 -0.139969 -1.0548 -1.61487 0.838105 0.416379 -0.211539 -0.178267 1.84367 1.64596 0.268977 0.0107501 -0.0145041 
-9.30712 -3.73127 -4.9131 -6.88358 0.187598 8.05823 10.3573 6.11779 11.5601 8.12495 3.67452 -3.42452 12.3307 -0.0585074 0.470057 -0.433502 -1.13809 0.0957552 -0.0347936 -0.470187 -0.285142 0.0960818 0.829624 1.13799 1.5053 0.00333891 
-7.5924 -4.52863 -9.62293 -7.31341 -0.0593252 10.1097 5.81065 4.34331 12.8759 9.2779 6.98513 3.66887 12.2065 -0.321773 -0.133488 -0.677831 0.332915 -1.02247 -1.23002 -1.23128 -0.0634085 -0.541447 -0.484785 0.650937 1.98379 0.00681877 
-9.85384 -4.08302 -5.0215 -7.21296 -3.70315 7.5783 4.45038 2.61914 5.99919 5.24967 6.42395 5.99745 12.3395 -0.266003 -0.345676 0.223277 0.890805 -1.52134 -0.748877 -1.40384 0.0789962 -0.384737 -0.59747 -0.414723 1.77107 0.00871229 
-9.86771 -5.10498 -6.07656 -3.84968 -6.16986 1.97597 2.48585 6.09298 11.6396 5.9057 4.41849 7.71355 12.3441 0.215277 0.215627 0.691883 1.31579 0.462465 -0.418187 0.313657 0.425891 -0.422295 -1.73311 -2.05274 -0.587194 -0.0149117 
-9.49948 -5.17148 -5.5699 -4.16142 -4.36384 8.38072 5.0005 5.63794 10.2546 6.8237 2.88423 3.40849 12.3054 1.10826 0.214479 -0.875111 0.704545 1.86249 -0.215533 0.618324 -0.420651 -0.714777 -2.79807 -2.19988 -1.52044 -0.0578388 
-6.69319 -2.90626 -5.88931 -2.26022 2.58334 7.61757 7.10387 4.96336 8.6367 -0.174637 -1.50869 2.02737 12.1489 1.07636 0.292845 -0.89888 -0.813426 1.478 1.04064 2.41468 0.962328 -1.04687 -2.23078 -0.27965 -1.37579 -0.0152573 
-5.8998 -4.10998 -9.49067 -4.48497 1.23271 3.67983 5.23299 1.08069 3.92673 -5.70052 -1.61186 1.23835 12.1479 0.544513 0.0379081 -0.575352 -0.83507 0.372098 0.195575 1.55692 0.565884 -1.2253 -2.14533 -0.136179 -0.20109 0.011939 
-6.28577 -4.1715 -8.61057 -7.75504 -1.57814 9.52962 14.443 13.1832 9.56915 1.01392 5.26828 1.91965 12.3466 0.213556 0.192866 0.746885 -0.6854 -1.11669 0.045945 -0.507451 -0.531538 -0.811555 0.124802 -0.201569 -0.508567 0.00954704 
-6.98063 -4.34932 -7.08604 -5.58936 -0.422606 8.40257 9.1155 4.35742 3.66186 -4.49724 -1.18516 2.4569 12.2663 0.396796 0.358087 1.42761 0.533896 0.144084 1.03936 -0.315733 -1.50291 -0.797996 1.54076 0.215399 0.597294 0.00548544 
-5.085 -1.82226 -3.35721 -5.13502 -2.17244 5.48593 2.62536 0.66731 4.71136 -0.152265 -2.72989 -1.12474 12.1374 0.553477 0.266435 1.0233 0.203307 -0.396417 -0.382189 -1.34324 -2.69636 -2.19579 0.594297 0.0529795 0.620742 -0.00370178 
-4.51621 -3.49416 -4.97929 -3.1255 2.25028 10.8985 9.56316 -0.17591 2.36565 2.58638 3.46422 5.74701 12.2799 0.329367 0.298198 0.569991 -0.499822 -1.65404 -0.871946 -1.35179 -0.852988 0.216221 0.429863 0.548442 0.82508 0.0489714 
-4.7506 -3.2669 -4.54744 -7.97044 -4.89667 6.37072 7.50301 1.96809 -0.761697 0.443595 3.20849 3.37831 12.3213 -0.181678 0.0730668 0.0770813 -0.661675 -1.98975 -1.1069 -1.50608 -0.283244 1.06501 -1.02194 -0.224086 0.949481 0.0702935 
-5.50099 -2.13601 -3.64096 -6.67076 -7.33071 3.60044 -0.0822911 -0.557912 7.47949 -2.64586 -1.41214 4.33078 12.4192 -0.271996 0.384721 0.358313 -0.579085 -2.1596 -1.73664 -2.68762 -0.329001 1.84689 -1.35539 -1.43734 -0.187999 0.0376659 
