-6.29258 -3.37435 -5.95889 -4.47853 2.69048 4.37412 7.67365 9.85061 8.75459 14.0268 4.02463 3.2104 11.3097 -0.461646 -0.143734 0.442818 0.822993 0.328427 0.603269 0.515047 -1.94254 -2.18469 -2.54715 -0.409422 0.183462 0.0237198 
-7.0645 -2.33343 -2.5858 -1.34157 3.22665 7.00703 11.5428 6.94007 6.92135 11.3586 5.75516 6.13701 11.4117 -0.70653 -0.224438 -0.105788 0.926685 0.874858 0.724748 -0.422163 -2.14154 -2.25858 -4.54649 -2.02658 -0.332691 0.0114303 
-8.21486 -4.61348 -5.43135 -1.93205 4.06453 6.07401 8.31432 1.59317 -1.25225 2.6252 1.11225 2.66441 11.3774 -0.686216 -0.52993 -0.878911 -0.220988 -0.558255 -0.351894 -1.6365 -2.45532 -1.38364 -4.2586 -3.26126 -0.917103 -0.0108095 
-8.8641 -3.87697 -6.7516 -1.11835 6.37774 7.14792 5.24249 3.27161 2.46513 -3.00484 -4.65208 1.81994 11.3331 -0.252386 -0.519174 -1.16091 -1.13455 -1.16311 -0.831043 -1.88278 -0.751462 -0.433629 -1.9119 -2.08319 -0.353124 -0.00744476 
-8.82386 -5.25223 -8.27054 -5.69508 -1.67635 2.54421 2.64129 -0.591733 4.0645 -0.0844474 -7.07803 0.783418 11.295 0.269531 0.197984 -0.172593 -0.90093 -1.24529 -1.04424 -0.704913 0.294877 0.661911 0.711751 0.123741 -0.440455 0.0109219 
-8.02193 -4.60993 -6.97077 -5.13279 0.281513 4.61672 4.96538 4.27522 2.09483 3.15392 -0.565624 5.31188 11.4156 0.156742 0.0453085 0.731439 -0.502078 -1.08186 -1.40104 -0.14826 0.768689 -0.162453 1.48211 1.31395 0.397425 0.0361916 
-7.28829 -3.25708 -6.18473 -4.42948 0.886194 2.1184 4.92831 2.56575 2.24245 3.10457 -0.312268 -1.28384 11.3907 0.198056 0.274991 0.874018 0.543668 -0.275384 -1.31856 -0.852705 0.525216 -0.0842043 1.01213 1.58015 0.147002 0.00589867 
-8.84818 -4.648 -4.13731 -4.26154 -0.312819 0.355628 3.35769 5.53631 2.56388 2.81118 -1.46522 4.84069 11.4662 0.6998 1.20557 2.16766 1.67957 1.17619 -0.873751 -0.522032 -1.55834 -0.966846 -0.238465 -0.28722 -0.201757 -0.00360489 
-7.42046 -3.85823 -5.31718 -3.41237 -2.7561 -1.91805 -0.818388 1.4038 3.40895 5.14756 1.27251 1.75402 11.2992 2.3679 2.93067 3.56199 2.38593 1.70798 0.716575 0.407662 -2.26899 -2.98275 -1.79273 -0.185269 1.91294 0.122022 
-4.45684 1.71847 3.43377 2.7565 7.98359 2.2662 5.22857 -2.9355 -3.32265 0.940105 -2.79411 2.78416 11.4434 4.19098 4.35609 3.07064 1.76899 1.71603 1.15052 0.615885 -2.77733 -2.5342 -1.81164 0.651196 2.06008 0.401279 
2.35556 8.21304 7.83968 3.99113 5.2779 4.74599 6.03117 -4.54329 -9.72805 -4.92352 -0.574166 9.30914 12.0122 4.51747 3.40435 1.30303 1.21392 1.18304 1.28986 0.286238 -1.7008 -2.10464 -2.16623 0.622683 3.07687 0.693769 
7.21871 11.0968 4.63747 0.881684 4.25033 2.77622 3.01233 -5.37679 -3.53859 -1.21146 2.7141 11.3635 13.1161 3.84193 0.695133 -1.79183 0.250946 -0.215367 -0.139147 -1.63816 -0.219953 -0.96512 -0.469943 1.80937 1.50316 0.844764 
9.32909 8.47436 0.596132 3.59463 5.02574 4.27626 1.72092 -5.87953 -7.00626 -4.60782 1.63182 12.8487 13.9317 2.34521 -1.37251 -2.87896 0.391028 0.962326 -0.500304 -3.10796 0.823427 -1.25276 1.36199 0.8406 -0.293915 0.870083 
11.266 5.06348 -1.90361 4.20948 7.03284 1.80533 -0.807092 -3.36714 -9.50915 -1.56746 5.14976 8.53016 14.7074 1.23759 -1.87532 -1.92141 0.931567 1.62648 -1.227 -3.68624 1.57858 -1.63147 1.13936 0.357312 -1.33754 0.747893 
12.0579 4.36719 -3.28457 4.28237 8.69828 2.72992 -7.59893 -1.43097 -13.0066 2.06444 2.411 9.25624 15.567 0.550444 -1.3726 -0.863637 1.03371 0.397004 -1.44989 -4.37041 1.28123 1.85916 1.1858 0.101307 -2.29678 0.618017 
12.0422 3.77381 -3.02921 5.19565 10.5465 -2.5856 -10.7589 0.291844 -8.69575 1.14923 4.11107 6.47202 16.0379 0.180834 -1.22751 -0.165904 1.37604 -0.790526 -1.61006 -3.49858 0.747506 4.13414 0.259334 -1.33154 -1.1281 0.452325 
11.6932 2.2562 -3.15926 8.27011 5.25394 -0.777718 -15.1552 -1.30288 1.88285 -0.0371623 2.6577 2.39387 16.3566 0.129249 -1.25786 -0.21372 1.14967 -0.508156 -1.90862 -1.84725 0.373346 5.23171 -0.968359 -1.82626 -0.213823 0.243925 
12.3526 -0.018572 -2.79579 9.09579 4.80237 -4.49116 -14.5219 0.306347 3.71682 0.780015 -1.63127 6.32082 16.5743 -0.631325 -0.724261 -0.24886 0.392173 -0.119749 -1.12985 0.219681 -0.960249 4.57107 -0.967924 -2.41166 0.027719 0.0263847 
12.549 -0.0259171 -4.46988 8.08064 9.02954 -5.86039 -14.9537 0.428505 6.94569 -2.59275 -3.84912 8.26273 16.5184 -1.24723 -0.397537 -0.153417 -0.197547 0.374686 -1.30443 2.42374 -1.70208 2.57555 -0.588113 -1.58272 0.154298 -0.113849 
8.45771 1.29357 -3.61819 7.25125 8.05993 -5.6935 -9.76126 -5.3751 11.6282 -2.4126 -4.69382 3.67619 16.0889 -0.891441 0.0454225 -0.220819 -1.29914 -0.329846 -0.0620427 2.34375 -1.58905 2.27849 0.599595 -0.294484 -0.524961 -0.115035 
7.40449 -0.387558 -3.51514 8.20464 5.4986 -6.69867 -5.41677 -6.97259 10.8049 -1.38142 -3.72463 4.48767 16.03 0.460513 -0.526584 -0.821171 -1.69838 -2.04838 1.23429 1.74321 -0.0680226 1.53168 1.42754 1.4969 -2.26099 0.120197 
10.4676 0.389361 -4.37726 2.53808 4.91862 -4.38223 -7.57161 -3.93835 13.1797 3.17233 -3.16594 5.58354 16.2433 1.68139 -0.980272 -2.05337 -1.87022 -2.51947 1.29209 1.47817 0.923674 0.901996 1.70609 2.35369 -3.65856 0.425341 
13.8466 -2.20673 -8.19621 1.94531 0.358293 -0.344594 -7.3325 -0.629982 13.8283 1.7525 2.87143 -3.99588 17.0422 1.27224 -0.583676 -2.47757 -1.78352 -1.92756 0.556653 2.50968 -0.0853951 0.959785 1.92314 1.77624 -5.29598 0.494845 
13.6436 -2.6982 -11.5445 1.02979 -1.96729 -2.41008 -1.41255 -3.92803 14.6265 4.55088 3.77658 -10.3748 17.7095 0.0850718 -0.495572 -2.04365 -0.490412 -1.12244 -0.615712 3.64286 -0.527376 -1.06986 1.60852 0.907494 -5.72468 0.346092 
12.1777 -1.76215 -12.3193 0.0411814 -0.696225 -4.90148 4.05208 -7.40472 14.8804 7.54501 1.68529 -14.013 17.7711 -0.672764 0.0281902 -0.901192 -0.692782 0.578179 -1.28305 3.32381 -0.414447 -1.71926 0.991835 -0.88735 -3.04618 0.0731947 
11.7274 -2.31079 -12.534 1.03808 -0.166329 -5.18235 4.95039 -3.18786 7.30428 8.31866 1.9646 -18.0313 17.6093 -0.772966 -0.0839269 0.288799 -0.968753 1.18466 -0.648925 2.0031 0.712997 -1.73556 -0.835064 -0.899259 -1.25584 -0.0796532 
11.4409 -2.25949 -12.2074 -1.52274 2.34871 -5.37369 6.10506 -3.07231 8.8931 4.82778 -0.65933 -15.3985 17.4583 -0.745464 -0.622461 1.39034 -1.53226 1.07858 -0.464119 0.866272 1.74462 -2.10957 -1.12319 -1.10489 0.258318 -0.0497066 
10.1472 -2.86917 -10.1565 -3.03201 2.43355 -5.4186 7.57646 -2.52925 8.94235 1.73417 0.4526 -15.9613 17.4677 -1.02196 -0.648088 2.03552 -1.78506 0.524062 -0.614723 0.322478 1.45725 -1.14599 -0.986618 -1.28522 1.30993 0.0246731 
9.24052 -4.59527 -6.55639 -5.58507 3.39673 -7.10395 7.07041 0.989082 3.51354 5.22129 -3.08315 -13.7564 17.5934 -1.13074 -0.622123 2.1993 -0.817024 -0.683128 -0.815267 -0.127675 1.32224 -1.27958 -0.328238 -0.903457 1.12351 0.0797338 
7.71784 -4.38334 -5.1819 -5.85607 1.92997 -7.39083 6.08011 2.06772 4.26409 3.18882 -3.24959 -12.3027 17.6651 -0.932792 -0.309899 1.71548 0.0778151 -1.18135 -1.14354 -0.770209 1.26977 -0.812597 -0.162812 -1.05154 1.47763 0.0900406 
7.00184 -4.61302 -3.69825 -4.19583 -0.815142 -8.46391 6.21486 1.2404 4.83432 2.45927 -3.32552 -11.6103 17.7582 -0.721997 0.0699356 1.08227 0.814198 -1.41329 -1.19629 -0.697564 0.514707 0.337968 -0.978455 -0.381892 1.04095 0.0697109 
6.60257 -4.40979 -3.00811 -3.33755 -1.36727 -10.4563 4.15319 3.69392 4.21897 2.30112 -4.68391 -9.64621 17.8354 -0.381352 0.126653 0.787925 0.859572 -1.32167 -0.748338 -0.605291 0.334709 -0.0141105 -0.493999 -0.437269 0.933024 0.0290024 
6.18817 -4.23236 -2.23193 -2.77334 -2.02112 -11.5526 4.54605 2.74952 5.22594 0.772859 -4.27545 -9.87994 17.8568 -0.121201 0.116935 0.767272 -0.0181743 -0.792773 -0.096765 -0.42601 0.407637 -0.0996299 -0.83327 0.0399226 0.813931 -0.00196304 
6.21791 -3.9404 -1.97544 -2.26945 -4.07538 -9.58816 3.88806 2.98671 3.99772 1.56203 -4.96097 -8.50274 17.7608 -0.025418 0.0769763 0.650857 -0.433214 -0.823113 0.921928 -0.247553 0.171253 -0.494636 -0.515577 0.225728 0.561259 -0.0105606 
6.58817 -4.26303 -0.378228 -4.82075 -3.42495 -9.38181 4.21737 3.6322 4.4468 -1.33753 -2.98738 -8.11233 17.7857 0.106618 0.0739765 0.36112 -0.595012 -0.471764 1.29087 -0.328388 0.242655 -0.770057 -0.0869967 -0.0125604 0.678851 -0.00668507 
6.27548 -4.00958 -0.680676 -4.47991 -4.78091 -6.93208 3.07976 4.10885 2.13537 0.77843 -4.1993 -7.72372 17.8182 0.140148 -0.00346584 0.0884851 -0.539669 0.231391 1.01464 -0.428842 0.215748 -0.617328 -0.0780492 -0.404479 0.378495 0.0222708 
6.69247 -3.8279 -1.07371 -4.64316 -4.02717 -6.42633 3.30826 3.40173 2.30684 0.729675 -4.71908 -6.8752 17.7947 0.277852 -0.101668 -0.476774 0.338241 0.503274 0.950539 -1.04157 0.559245 -0.524121 -0.177774 -0.854624 0.0489384 0.0100159 
6.8665 -4.1753 -1.18527 -5.05659 -2.61731 -5.99272 2.19841 4.18069 1.98106 0.138181 -6.11751 -7.22883 17.8677 0.430539 -0.30422 -0.617537 0.897888 0.974945 0.652807 -1.28534 0.942541 -0.361553 -0.883307 -0.755255 -0.122101 -0.00261135 
7.68192 -4.68851 -2.5098 -2.84121 -1.99038 -5.09879 -0.549803 6.3925 1.90334 -1.90627 -6.30139 -8.11509 17.811 0.430813 -0.284782 -1.0518 1.764 0.927992 0.810891 -1.92275 1.65129 -1.00182 -1.19437 -0.279542 -0.15403 -0.00188293 
7.93345 -5.10037 -3.05031 -0.891449 -0.924578 -4.33181 -1.41791 7.32616 0.52935 -2.32013 -7.18442 -7.71429 17.7969 0.469388 -0.213851 -1.14389 1.98439 0.742888 1.04636 -2.28004 1.67577 -1.74351 -1.23261 0.996396 -0.303188 -0.0137617 
8.31306 -4.78928 -5.4002 2.09428 -0.233576 -3.20233 -4.49731 10.0854 -1.97641 -4.01302 -5.58334 -7.40262 17.8207 0.733513 0.0372927 -0.962644 1.5455 0.729339 0.652907 -1.87463 0.874632 -2.51533 -1.10535 3.55315 -1.25306 -0.0385754 
8.89787 -5.19418 -5.45952 2.39762 0.218727 -1.70914 -7.22806 10.7131 -4.79662 -4.97149 -1.49455 -9.101 17.7941 0.9151 0.673693 -0.742637 1.1939 0.629269 -0.300354 -0.496085 -1.33413 -3.16208 -0.521402 5.45426 -1.04682 -0.11112 
10.8673 -4.45515 -6.11842 3.24173 1.08466 -3.14559 -7.01787 9.07221 -8.01034 -6.10735 8.61941 -13.687 17.6196 0.980313 1.07218 0.200493 0.899303 -0.410858 -0.93096 1.00823 -3.34003 -3.62149 1.33906 4.60501 0.722112 -0.153696 
11.2318 -1.89896 -6.40439 4.50433 1.56265 -5.86195 -2.63805 1.16211 -12.2641 -3.87998 12.9855 -9.80619 17.3419 0.745996 1.29502 0.693992 0.788434 -1.25203 -1.12318 2.00819 -3.50142 -3.3648 2.25301 2.37398 2.54599 -0.10964 
12.0476 -1.076 -3.9253 5.53744 -2.95983 -5.78073 -1.75117 -1.83925 -16.3501 2.13651 10.2017 -3.43946 17.2783 0.269751 0.642017 0.72932 0.00726542 -1.33002 -0.314905 2.28718 -2.43054 -2.20154 1.2698 0.0303979 3.11029 0.00648479 
12.0377 -0.408642 -3.08612 5.19194 -4.01917 -6.00745 0.17952 -1.33833 -17.4507 2.17161 9.58418 -1.49481 17.4165 0.0834453 -0.489683 0.155413 -1.08617 -0.532725 0.801151 1.64973 -0.123532 -0.924463 -0.542714 0.0100705 0.740592 0.121337 
11.8131 -1.99022 -4.13095 2.93426 -2.77453 -4.64736 3.00924 -1.83025 -16.4248 -2.78416 10.4721 -2.29125 17.6147 -0.0279756 -1.01886 -0.922476 -1.59657 0.568512 1.40404 1.10242 0.873729 0.17521 -1.5553 0.718981 -1.05917 0.166644 
11.7663 -3.89027 -5.5245 0.375092 -1.19362 -2.42287 3.23038 0.539944 -16.8491 -4.13321 12.9007 -6.67734 17.7804 0.173694 -1.24456 -1.63338 -1.38262 0.684626 2.0788 0.205402 0.808037 0.925276 -1.00851 0.573036 -1.84628 0.16323 
12.0434 -4.42948 -7.31849 -0.036963 -1.53004 -0.552834 2.23551 1.59026 -15.7749 -2.48758 12.1384 -6.14403 17.9296 0.248432 -0.748016 -1.79697 -0.791102 0.964128 1.79294 -0.676637 0.66943 1.45198 0.234102 -0.408448 -1.70509 0.131158 
12.791 -5.4118 -9.65926 -0.235536 -1.21829 2.33927 1.5934 0.991602 -13.1493 -3.01922 11.6162 -8.79979 18.0752 0.0774274 -0.346613 -1.37953 -0.293605 1.11802 0.971786 -0.481333 -0.0349231 2.01518 0.538557 -1.32156 -1.53149 0.0897451 
12.543 -4.96953 -11.0484 -0.715935 2.05845 1.93629 0.444547 1.29107 -11.0148 -2.17064 9.07204 -9.75546 18.123 -0.0792616 -0.417587 -0.758528 0.302491 1.24479 -0.256014 -0.0024296 0.224021 1.72091 0.369362 -1.24904 -2.32776 0.0368618 
11.9037 -5.3533 -10.5572 -0.753445 2.60221 1.19149 1.71919 0.514921 -9.15326 -1.59889 7.82604 -12.5291 18.1324 -0.319794 -0.108146 0.181034 0.66671 0.94439 -1.20764 -0.170396 0.660962 1.90918 0.406572 -1.83436 -0.791278 -0.0617338 
12.0908 -6.54666 -10.6622 1.73444 2.78366 -1.25902 2.16047 2.94871 -9.16832 -1.35093 7.78826 -15.9182 18.0853 -0.615271 0.864958 1.42652 1.06838 -0.123172 -0.382273 -1.04426 0.409489 3.32769 1.13705 -3.55533 1.73169 -0.300441 
11.4181 -5.16397 -8.94722 1.87283 3.14106 -2.10129 -0.116539 3.4676 -4.52663 -1.39622 3.08628 -9.67481 17.7854 -1.65702 3.028 3.42556 0.157707 0.0359451 -0.623674 -1.42197 0.679572 2.96528 2.26834 -5.06887 4.09292 -0.496869 
9.70939 -0.739415 -4.7208 3.31283 1.17316 1.67132 -3.8589 1.86218 3.31035 3.41328 -6.33471 -2.52416 16.7943 -4.58168 5.01893 4.9465 -1.07432 2.18391 -0.102839 -2.00936 0.0423966 1.95768 2.77726 -3.58572 4.74415 0.0125874 
4.80929 6.88305 3.59996 -0.7541 3.58718 -3.39205 -2.381 4.45605 -0.566219 7.36072 -10.4568 1.23852 16.2935 -7.19002 5.05656 4.24036 -1.78344 3.57304 1.82236 -0.185262 -0.320933 0.0682405 1.85211 -1.32653 2.79747 0.74186 
-7.51323 12.5245 7.79671 -2.3237 13.4801 -1.12784 -6.75409 2.66646 -1.36013 8.1569 -3.3688 2.34587 18.8942 -8.44783 2.56884 2.00742 -2.16087 3.00607 2.27537 2.718 1.83822 -0.158716 0.96088 1.30359 0.798129 1.36299 
-15.9207 13.4869 5.99583 -4.22612 14.8528 8.41008 0.404746 1.46079 -1.85019 5.4925 -5.02931 1.87755 20.4448 -7.0781 0.262608 -0.876307 -2.41773 0.533135 2.15847 2.4833 2.97743 1.12665 -0.0685579 2.35263 -0.617999 1.3728 
-22.1648 8.80288 4.11839 -5.75551 10.5707 7.14712 8.33821 12.5509 3.15875 9.15179 -2.53049 1.14698 21.5336 -4.04532 -1.49164 -1.55523 -2.13971 -2.4999 1.12084 1.9606 1.36569 0.105141 -1.1603 1.38828 -0.234114 0.689047 
-23.2554 10.0569 1.05759 -11.1268 7.70757 3.26283 2.48933 14.401 2.80757 6.52049 0.887152 -1.25203 21.8378 -1.74536 -1.19768 -0.789811 -1.5291 -1.96713 1.00577 -0.00529664 -1.56737 -0.737471 -0.421856 1.98409 -0.184824 0.266196 
-24.0724 6.7813 2.48966 -9.5719 4.55325 7.04998 2.00661 3.0248 -3.1633 1.84139 0.614369 2.74009 21.6429 -0.728664 -0.881866 0.0303248 -1.19942 -0.772261 3.09158 -1.63019 -3.82926 -0.746104 -0.190584 0.701848 0.0909316 -0.0227167 
-23.6936 8.50926 2.86114 -9.96344 8.02583 13.4875 3.54406 -1.61298 -2.37652 7.03842 3.31872 0.156873 21.7211 -0.209142 -1.01039 1.03319 -0.115707 -1.29502 2.11626 -0.0515748 -2.40743 0.344089 1.26306 0.119251 0.0170274 -0.145105 
-25.589 5.16737 3.36824 -12.3343 6.55029 17.4927 -0.34008 1.41161 2.02028 7.9399 -0.237034 0.897186 21.4784 0.105201 -1.01029 1.49611 -0.124338 -0.947947 1.05954 0.037084 -0.104584 0.369301 0.0929663 0.463505 -0.246124 -0.166986 
-23.5429 5.8119 5.78423 -10.3242 0.233963 8.62278 3.40481 3.17042 1.93623 9.78654 1.90911 -0.245438 21.1945 0.420807 -1.43652 1.40789 -0.244839 -1.65393 -0.536721 0.92778 -0.162923 0.326214 -0.703023 -0.644 0.26701 -0.35317 
-23.6218 3.07854 8.50864 -10.0132 3.70944 14.7801 2.26166 0.110175 -3.47317 0.93216 3.6367 1.71062 21.0713 1.22038 -1.60406 1.22452 0.971527 -1.41626 -0.940264 1.07551 -0.760616 -0.737188 -0.757323 -0.538232 0.331763 -0.525353 
-22.5732 2.37105 7.33037 -12.3482 1.17662 12.1602 6.88209 -1.77687 2.00128 7.02718 -1.83815 1.0852 20.1588 3.20992 -0.256147 1.91937 1.36335 -0.408312 0.0939134 -1.7662 -1.11688 -0.520522 -1.76664 -1.52007 0.651385 -0.679449 
-19.972 -1.13252 8.71778 -6.46466 -1.00235 11.0226 3.29882 0.0821784 -1.69819 5.53297 -1.05457 1.89068 19.3695 5.86672 0.953983 1.5636 3.21886 -1.29209 -3.05535 -3.34022 -1.1045 -0.463429 -1.57033 -2.03943 1.1378 -0.973245 
-9.3182 6.6367 15.2765 -5.28171 0.548298 10.9711 -5.94477 -2.39997 -1.55387 -1.34708 -3.34562 2.92146 18.6482 7.00184 0.945719 1.3976 3.85903 -1.88167 -3.21427 -3.79747 -0.44507 -0.463988 -4.67171 -1.27633 1.28901 -0.893939 
-0.915682 5.71563 12.3536 2.54787 -2.43683 0.0979176 -8.02601 -5.10077 -4.01274 -2.73236 -5.8067 6.4815 16.9604 5.69489 0.615519 0.854856 3.32251 -2.90763 -2.31741 -2.352 -0.308121 0.72136 -4.90594 -1.14572 1.35032 -0.621885 
2.90788 3.67557 12.5005 2.44075 -7.51446 1.55122 -6.44284 -1.41075 0.838614 -12.1987 -5.84374 5.23487 16.8937 2.78116 -0.894249 0.184022 2.66902 -3.15175 -1.30141 -0.42935 0.110831 0.750826 -3.65834 0.34618 0.738583 -0.301252 
2.38946 3.42564 14.3801 6.28665 -11.5091 4.1455 -8.21214 -1.95304 0.712366 -13.5709 -5.53411 7.48559 17.1373 0.829414 -0.403732 0.895742 1.04434 -1.90064 0.377519 0.0297984 -0.211983 0.837293 -2.42159 1.27272 -0.156986 0.0306173 
2.93502 3.31045 15.1834 6.19399 -10.6743 2.44024 -7.99845 -3.41968 -0.162295 -14.2195 -1.75102 6.11233 17.0535 0.164 0.0498495 0.741046 0.697579 -0.340876 -0.672578 0.730885 -1.37783 -0.333908 -0.270056 1.59753 -0.170643 -0.00260906 
3.21782 3.87953 15.4908 5.89295 -10.3601 1.541 -7.09921 -5.15622 0.674179 -13.8299 -1.48945 5.25784 17.0336 0.287246 0.0381909 0.394675 0.0486376 0.0534271 -0.95056 1.16041 -1.00495 -0.668512 -0.191847 1.50177 -0.141632 -0.0643295 
3.31371 3.69787 15.6503 6.12549 -9.79334 -0.509419 -3.34488 -6.69831 -0.81183 -13.4195 0.121562 5.49553 16.9325 0.223168 0.082522 0.0864037 0.287237 -0.0404994 -0.931456 1.00588 -0.47553 -0.731676 0.0392315 1.11587 -0.180281 -0.071538 
3.63635 3.42289 16.12 6.56409 -11.6825 0.867533 -4.73687 -5.33848 -2.30542 -14.9302 1.03846 7.08583 16.8761 0.0737091 0.0966697 0.246421 0.355547 0.181627 -1.1575 0.693964 -0.631009 -0.639462 -0.759148 1.57634 -0.130732 -0.041469 
3.8416 3.95138 15.3008 7.29461 -10.2156 -1.8803 -4.15023 -5.7062 -2.33087 -13.4732 2.56436 4.29693 16.7745 -0.0527742 0.383007 0.185966 0.338016 0.481777 -1.03338 -0.374856 -0.426768 0.011753 -0.650081 1.17201 -0.932951 -0.0291655 
3.32242 4.23613 16.8977 7.08612 -9.24087 -3.56108 -3.22671 -8.80732 -1.76361 -17.5988 5.17086 5.20348 16.9053 0.0158171 0.381534 -0.135382 0.464773 0.798657 -0.77354 -0.459511 -0.9558 0.14874 0.163328 0.268474 -0.605378 -0.0551142 
3.2068 5.20629 16.1913 7.55455 -8.60526 -3.46203 -5.97424 -7.09774 -1.02397 -15.3356 3.91541 1.77195 16.7721 -0.0177805 0.634651 -0.530563 0.569085 0.640742 -0.0363513 -0.481556 -1.13093 -0.224689 1.13615 -0.758262 0.0284248 -0.126362 
4.03283 4.7031 14.9978 8.75798 -8.49435 -2.2093 -6.12242 -9.42171 -2.21518 -13.1823 1.70531 5.32143 16.6017 -0.115995 0.898907 -1.10123 0.558159 0.300601 0.794143 0.0320871 -0.314756 -0.994645 1.8594 -1.18772 0.309027 -0.231833 
3.39749 6.89115 13.5979 9.30411 -7.38515 -2.73795 -5.11015 -11.0536 -3.22854 -10.0007 0.505825 4.38008 16.2945 -0.493975 1.04008 -0.524313 0.240108 -0.104365 0.786904 0.474191 -0.207272 -0.792042 1.29403 -0.691131 0.595927 -0.261776 
2.6471 7.88824 12.6882 9.00214 -8.34792 0.0475931 -3.49832 -8.40315 -5.63455 -10.9692 0.937064 5.44455 15.9849 -0.946481 0.959342 0.26524 -0.453319 0.156567 1.57738 0.118606 -1.25501 -0.548747 0.814195 -0.353572 0.681924 -0.241556 
1.42979 8.81415 14.7245 8.63301 -9.20031 -0.655963 -4.91534 -8.64338 -3.27449 -9.97197 0.843875 4.69002 15.7717 -0.16398 0.707919 -0.410283 -0.642647 1.55984 0.162911 -0.372991 0.00985508 -0.605604 1.18998 -0.560604 0.576708 -0.385457 
0.284271 8.53831 15.7607 6.82693 -6.80394 4.63662 -5.6268 -16.9019 -4.93593 -9.12571 -0.231578 8.57608 15.6554 0.507374 0.335856 -1.0725 -0.498741 2.29014 -1.51922 -0.438923 -0.186241 -1.11287 1.94837 -0.0702483 -0.00463687 -0.483373 
3.759 10.1057 10.0103 7.17848 -0.357918 -4.21791 -5.91086 -6.75499 -6.60587 -4.97253 -1.71287 5.69785 14.532 0.432186 0.116795 -1.16038 -0.59067 1.20191 -0.513205 -0.529869 0.6297 -0.737489 0.929201 -1.05714 0.170515 -0.486803 
4.01937 8.92174 9.68285 7.2357 -1.31839 -5.76752 -5.19517 -10.2785 -9.5332 -3.7271 1.8642 4.91745 14.1879 -0.675498 -0.139459 0.00842838 0.214367 0.391648 0.22708 -0.411675 1.54143 0.471331 0.221615 -1.38953 -0.485212 -0.513956 
1.72318 9.20641 11.9616 5.47527 -5.93353 1.98009 -7.7805 -8.80654 -4.66331 -8.02527 -5.48969 7.37191 14.0714 -1.49119 -1.11931 -0.213774 -0.569224 0.598327 2.4006 1.65219 0.956278 0.791694 -0.569936 -0.946652 -0.635262 -0.646021 
-2.07531 8.29067 14.8272 8.75037 -2.0579 2.67303 -6.75036 -8.16894 -3.55056 -6.49127 -5.2908 5.31299 13.3159 -1.00064 -1.02082 -0.791182 -0.445471 1.6759 0.913483 1.50705 2.21373 2.31031 1.39306 0.0439045 0.101133 -0.75316 
-0.6496 4.82466 6.36923 3.57502 3.00347 3.56483 3.1277 -3.0284 -5.63872 -6.44012 -2.86864 2.32377 11.7379 -0.211298 -0.543334 -1.65173 -0.904006 1.30355 -2.46724 1.2743 1.16465 0.824561 2.52014 1.76551 -0.593173 -0.599373 
0.202539 6.00849 8.5231 5.95847 2.5926 -1.99248 -3.11405 -2.09897 2.50607 2.44564 0.773191 7.94718 11.5889 -1.05212 -2.87822 -2.53182 -1.59036 -1.08466 -2.98563 -0.0191073 0.357454 1.18153 2.08558 -0.152021 -0.955433 -0.168279 
-0.472238 7.63083 6.85498 2.35119 -1.74104 -8.02336 -3.22714 -6.01826 -3.56882 0.106972 0.305886 3.08895 11.938 -3.01035 -5.05227 -1.54678 -0.214066 -2.12583 -1.53912 -0.251648 1.84673 2.44984 2.47441 -2.6604 -0.672202 0.518222 
-7.42459 -7.50354 1.92524 1.41051 -5.10892 -6.46105 -3.66848 -4.88674 1.32216 0.663104 -7.63816 0.153241 12.3744 -2.7541 -4.10762 -3.16646 -1.14513 -0.0395762 1.5984 1.51898 1.7238 1.8449 1.34136 -1.59286 -0.855318 0.161256 
-11.8878 -13.6807 1.93427 4.77868 -3.7749 -1.89647 2.14668 7.59914 7.20244 6.82321 -11.965 2.85973 13.9362 -1.7247 -1.89373 -2.80283 -0.885519 1.6156 2.9177 1.04271 1.67799 2.28447 1.49351 0.782394 0.449445 -0.192568 
-7.8602 -3.87385 -4.84885 -0.980907 3.41165 2.93605 1.79392 -0.288697 6.34493 5.79431 -1.05571 3.7852 11.396 0.028384 1.72499 -2.40643 -1.52663 1.06981 1.03979 0.99888 1.15637 0.646205 0.646969 2.09925 0.0306253 -0.467373 
-8.87794 -3.65268 -3.7721 -0.880703 2.07666 1.86659 -0.744783 0.0726473 5.34213 5.00891 0.926629 3.52019 11.4643 0.677935 1.82387 -2.09079 -2.54839 -0.343963 -0.666022 0.154787 0.252592 -0.23513 -0.229795 1.80216 -1.29496 -0.562113 
-8.78759 -3.89257 -7.25371 -3.39294 -2.68564 -3.14361 2.77165 4.65835 5.48334 4.8051 -3.58769 -0.0238609 11.2735 -0.205463 -0.651817 -0.560703 -1.05446 -1.06378 -1.26961 0.857531 1.11233 -0.293185 0.690945 1.32061 -0.0776735 -0.0562105 
-8.03442 -4.55198 -7.31727 -6.75726 -2.44607 -2.18675 2.43175 6.38858 6.45759 6.16884 -1.68818 -1.71054 11.1869 -0.0988028 -0.885281 -0.0338038 -0.0651052 0.35885 0.84125 1.21935 -0.266283 -0.69385 0.131024 1.06023 0.877531 -0.0298176 
-9.30928 -6.68329 -5.87979 -3.31494 0.354115 -1.38531 4.49331 2.11501 4.32128 8.66907 6.85472 6.0122 11.2537 -0.167731 -0.98709 0.100672 0.108316 1.16341 2.28716 0.0986739 -1.27108 -0.336511 0.759223 1.63514 1.84207 0.030115 
-9.11111 -6.68373 -4.62808 -1.24523 2.35103 5.19369 4.49115 0.0129035 2.45391 3.73205 1.00659 4.88982 11.3251 -0.529641 -0.617224 0.136128 0.277962 0.543728 1.36709 0.0718741 -0.642993 -0.400868 0.188231 -0.252832 0.605678 0.142242 
-9.0879 -7.76214 -8.09494 -5.60737 0.732881 4.60199 2.23532 1.4908 5.80262 9.81961 3.24061 5.88629 11.3549 -0.668709 0.499069 -0.587379 -0.576916 -1.27115 -0.338082 0.508851 2.39714 0.834319 -0.150244 -2.03246 -0.783792 0.312664 
-10.7933 -7.09868 -5.52905 -4.22123 0.0831907 1.65504 3.92011 3.48572 3.71257 6.53473 -1.14529 1.38081 11.8475 -0.314178 0.677191 -0.735264 -1.14714 -1.72286 -1.20683 0.189851 1.03317 0.179252 -1.27116 -1.53325 -1.04927 0.188123 
-11.8117 -3.98047 -8.3662 -4.71152 -4.86771 -1.3064 7.32308 12.3643 7.86354 6.51651 -2.23164 3.84774 12.5558 0.292238 1.03791 -0.107664 -0.288726 -0.780151 -0.275254 -0.582332 -0.78021 0.282131 -1.08244 -0.856948 -0.767681 0.0163284 
-9.32008 -5.18861 -8.16877 -7.42888 -3.46295 2.11374 2.89652 -0.258004 2.31971 -0.972203 -3.92353 0.66273 11.6653 0.661684 0.456157 -0.316303 -0.507797 0.27278 1.21087 -0.642255 -1.4902 0.548256 -0.10366 1.075 1.05462 -0.132951 
-8.36332 -3.52762 -7.3134 -5.44717 -1.3948 2.99638 -0.164541 -0.53839 7.90971 8.16086 0.344995 2.40693 11.5277 0.723176 -0.0050539 0.734807 -0.0310142 0.287269 1.31019 -0.0720013 -1.08415 -0.817083 -0.517085 0.948783 0.437494 -0.233321 
-9.2091 -5.04431 -7.63696 -6.39239 -0.289363 5.55801 4.45265 2.48605 6.43077 5.19425 2.9414 7.37432 11.6968 0.171444 -0.0834435 1.03986 0.910841 0.370213 0.677799 2.08109 1.85331 -0.587061 -0.767531 0.511555 -0.0748991 -0.0941355 
-8.25134 -4.07789 -4.95807 -5.38483 -5.01816 3.52241 6.18501 5.5715 1.72259 0.847863 -0.920192 2.67941 11.3735 0.171602 -0.216905 0.520974 0.779974 0.375322 0.10865 1.99106 1.08976 -0.981513 -0.945233 -0.0268438 -0.879509 -0.0600731 
-8.51886 -5.3307 -4.14715 -2.90584 0.19979 5.23971 10.1272 5.95359 2.47796 -1.15336 -0.733162 0.151992 11.2717 0.0994471 0.00500803 0.704535 0.620822 0.669393 -0.11844 0.923685 0.44223 -0.238027 -0.118234 -0.972345 -0.277585 -0.0795755 
-7.85043 -4.46896 -6.45343 -3.29058 0.237231 3.69878 6.9535 3.17666 4.97855 6.60851 2.04806 1.62055 11.4399 0.0888598 0.133062 0.490382 0.481598 0.945433 -1.26011 -1.16973 -0.64615 0.350376 1.56946 0.390039 0.686466 -0.00622177 
-8.91231 -4.82374 -3.36661 -4.33541 0.42991 4.87763 8.68683 5.89462 3.61265 1.72276 -3.40445 6.51583 11.2658 0.114297 0.434551 0.485983 0.897586 0.338203 -1.32293 -1.16514 -1.46015 -1.27618 1.37376 -0.198349 0.301944 0.044012 
-7.61031 -3.66606 -2.89643 -2.26206 -0.406053 -2.59711 1.05654 2.37023 2.90713 7.25708 2.36565 2.92982 11.3453 0.0410866 0.308348 0.578625 1.412 0.573296 -0.695614 -0.0843863 -1.50797 -2.21715 0.123373 -0.634276 -0.673571 0.0471684 
-8.06744 -3.55939 -3.49574 1.06783 2.21244 1.77301 7.24999 -0.943932 -2.86723 5.39117 -1.8837 1.00707 11.5391 0.123262 0.263535 -0.0857581 1.41364 0.618357 -0.183911 0.331975 -1.69913 -1.87341 0.54709 -0.120784 -1.29403 0.0740293 
