-8.17608 4.80712 4.50831 7.52228 1.76422 9.02892 4.32253 -2.59539 7.818 2.9675 3.69411 -0.789932 12.6381 0.0598616 -1.22729 -0.278727 -0.515241 0.163334 -0.0614552 -0.75694 1.58865 0.375941 1.32255 -1.28609 0.501296 -0.304321 
-8.16239 1.21153 7.628 7.42766 4.79084 11.6876 1.54822 2.19607 9.73049 5.3351 -2.67928 -0.604211 11.5838 -0.238102 -1.41654 -0.592528 -0.517055 0.342634 -0.119242 -0.640367 2.13771 0.543773 0.541329 -1.28781 1.355 -0.206666 
-7.88362 0.468462 1.55483 4.99339 1.06758 7.39231 1.92498 2.95214 8.74146 8.39644 0.450373 1.62369 11.6436 -0.139338 -1.82155 -0.406534 0.558707 0.19272 0.0591355 0.155175 3.24444 0.0213453 -0.809223 -0.922053 2.58861 -0.137332 
-9.51283 -0.106226 3.02241 6.20146 3.82571 9.25102 2.31947 5.3194 10.0751 2.95968 -1.12309 4.77825 12.102 0.0240308 -0.752404 -0.221441 0.548283 -0.857567 0.439142 0.551031 1.99599 -1.13416 -1.22243 -0.585301 0.540398 -0.0125434 
-8.19755 -3.64174 4.77844 10.9289 3.21038 10.5429 4.71278 12.0651 7.7524 0.109096 -1.69425 9.46191 11.6923 -0.165038 -0.317654 -0.487228 -0.131335 -0.67908 1.36431 0.630715 1.23133 -1.19089 -0.1476 -0.307402 -0.12387 -0.0079073 
-7.88527 -0.495387 4.90899 7.20131 -0.568402 12.308 2.90948 7.6195 4.55421 3.36664 -4.53347 -1.82133 11.4968 0.14132 0.132352 -1.28323 -1.79598 -0.722547 1.00523 0.529401 -1.26382 -1.33689 0.599724 -0.238179 -0.278088 -0.109904 
-9.52259 -0.925227 -1.8246 3.83679 -0.130769 12.6854 4.78355 7.95875 5.54747 7.45496 0.618555 4.30413 11.9067 0.292343 0.826979 -0.911219 -2.1197 0.526108 0.23318 0.545604 -2.99607 -0.155948 -0.224169 -0.316875 -0.849256 -0.0475466 
-8.14371 -0.802725 -0.0922475 0.76763 1.88355 13.2059 4.93109 1.05349 4.49313 2.28537 -3.47039 5.9667 11.4453 1.67833 1.8972 1.6971 0.753351 1.36108 -1.42184 -1.04042 -2.72214 -0.437357 -1.94577 -0.696846 1.38544 0.0307193 
-6.60662 0.64682 2.72296 3.54725 4.61495 11.2598 6.42999 0.367808 7.0032 -0.471113 -3.81017 1.32161 11.4803 3.04706 2.6609 3.40331 2.80067 0.913584 -2.0957 -3.21609 -3.3155 -1.69801 -2.73895 -1.67017 -0.325488 0.204726 
-0.951581 8.2046 11.1207 11.1128 3.86412 5.91159 -3.11585 -2.19574 1.63957 -2.39916 -5.80334 6.59715 11.8635 2.98614 2.10199 2.78842 3.76719 0.761046 -2.54646 -4.72732 -2.6264 -0.827791 -1.49454 -1.59183 -0.623194 0.475327 
2.11663 7.8756 9.58548 12.6676 3.44687 5.85402 -7.27343 -6.99413 -1.51578 -3.89753 -6.5658 2.36146 12.7212 2.21929 1.01361 1.18705 2.44291 1.33748 -1.85928 -4.56867 -1.93183 -1.75949 -1.25748 -0.976033 -0.239964 0.488856 
2.42538 6.09282 10.4186 15.0434 6.27282 3.17649 -11.8538 -8.39753 4.61367 -3.47411 -10.0517 2.3308 13.2015 0.76393 -0.354996 -0.320438 0.604137 1.66394 -0.694463 -1.89978 -0.575863 -0.979077 -0.0703706 0.522929 -0.929354 0.27454 
2.80136 6.77077 9.00928 13.7965 10.098 3.33098 -12.0444 -6.19044 -3.28128 -6.22104 -6.56615 2.25496 13.2556 0.0217124 -0.242546 -0.153149 -0.913896 1.21278 1.25435 0.412959 0.73093 -0.601924 0.183714 1.39374 0.321912 -0.0560336 
2.52571 6.98204 9.80661 13.569 8.85826 3.7008 -10.2292 -5.4769 -2.37307 -1.58926 -3.18852 2.00362 12.969 -0.092409 0.146164 -0.734555 -1.38611 0.309693 2.14524 2.39856 0.995693 -0.123573 1.71948 1.11287 -0.0664335 -0.261439 
2.17503 6.21826 9.12573 8.83526 8.21803 11.8636 -6.02089 -4.79979 -1.03203 -3.92139 -3.02868 4.13461 12.5573 0.115558 -0.49457 -1.93192 -1.67763 -0.152202 3.40012 3.31811 -0.014398 0.376741 1.97659 0.327152 -0.295133 -0.239019 
2.2765 7.09989 6.6876 10.5935 8.76127 9.63638 -2.87274 -4.11439 2.87118 3.97345 -6.2561 1.05881 12.2435 1.24464 -1.89284 -5.1123 -2.09087 1.15437 1.90608 3.09071 0.37443 -0.846146 1.7018 -0.442203 0.427379 0.50859 
3.50375 4.23899 0.909185 6.89611 9.38548 17.3638 0.867914 -6.94369 -4.0197 0.880571 -3.3966 1.2517 12.4233 1.0995 -1.10509 -4.9621 -1.6965 2.6062 -1.84692 1.24836 -0.0837953 -1.47494 2.21315 -0.723742 1.38104 0.8473 
8.08457 -1.49252 -11.6466 4.08427 14.0464 10.4811 1.77991 -2.5328 -5.10996 4.51876 -5.21558 5.58197 15.579 0.519588 0.168632 -2.53392 -2.22295 2.26394 -3.34992 -0.688227 0.429909 -2.26422 0.940571 0.121414 2.73302 0.894648 
4.7685 4.98903 -6.51766 3.60739 18.6065 2.20664 -2.10542 -6.00956 -4.41617 6.87168 -7.16765 8.77823 15.126 0.106181 1.48075 -0.120458 -1.22642 1.12809 -3.45881 -1.84938 -0.0571042 -1.36286 1.91048 0.104199 3.2498 0.687669 
4.24206 7.56803 -2.26858 1.12311 15.4705 0.465324 -4.82721 -2.43191 -8.2517 5.68075 -3.7635 10.9607 15.3654 0.512101 1.44349 0.522449 -0.336576 -0.237466 -1.23663 -1.53054 -0.503918 -0.495743 0.79483 -0.0348237 1.64646 0.365252 
5.95591 7.11249 -4.38213 2.24457 14.3139 5.07764 -5.07541 -7.27965 -9.26314 9.852 -3.60164 14.8114 15.9685 2.11313 -0.420246 -0.561102 0.560783 -1.32711 0.0343551 -0.689157 -0.637367 0.663362 -1.60273 0.917441 0.98405 0.674526 
10.0514 4.66319 -10.1022 3.0828 15.0053 2.86244 -4.38782 -4.41734 -5.16519 7.00276 -7.1727 10.7977 16.984 2.72348 -1.08281 -0.642454 0.766077 -1.64794 -0.447155 0.554115 -1.49721 2.23489 -4.49275 1.31512 0.60913 0.7927 
12.4295 4.34023 -5.40638 5.43146 12.2035 1.17985 -5.7709 -8.20367 -2.64261 -1.80296 -0.875847 13.78 17.6893 2.55491 -0.719653 -0.0428738 0.173518 -1.81857 -1.46745 0.840002 -1.20202 2.12283 -6.19921 3.48793 0.40929 0.742686 
14.6227 3.54009 -4.96872 3.36006 8.28597 0.178444 -1.70889 -9.45594 -0.38752 -10.9555 1.44921 14.522 18.4684 1.67157 -0.347687 0.66899 -0.365751 -2.67872 -0.67195 0.130354 -0.762927 1.00207 -5.3224 4.66846 0.622263 0.558324 
16.4448 4.07577 -7.16322 2.97353 8.58072 -0.917602 -2.21486 -10.7704 -1.03784 -12.1649 9.52707 14.9957 18.9397 0.629362 0.00649364 -0.727197 -1.05025 -2.62288 0.713619 -0.875146 2.24609 -1.34237 -1.39729 2.68928 0.424652 0.391915 
16.4016 3.05699 -5.87879 2.48301 3.42315 0.551424 -5.51407 -6.94859 -0.957213 -14.4283 10.9681 13.3012 19.1505 0.35011 -0.551503 -0.796086 -1.13665 -2.25009 1.02074 -1.0989 3.16625 -2.5292 1.11951 2.15519 -0.808099 0.255517 
14.6869 4.61425 -8.58734 0.618708 1.52052 4.56146 -8.24404 1.77312 -9.06961 -7.05303 7.81111 16.5136 19.3079 0.202385 -1.38018 -0.219197 -1.93227 -1.54082 0.603844 -0.121101 2.7921 -2.29095 1.73611 1.48988 -2.23667 0.211207 
17.2522 0.513342 -8.23709 -1.14579 0.565634 2.54262 -4.18879 0.103534 -9.01765 -7.91387 13.0831 9.72253 19.5619 0.272706 -2.05131 -0.0815452 -2.42724 -0.255585 -0.0347366 0.65568 1.42709 -1.51354 1.52218 2.53501 -3.29053 0.243066 
17.0314 -1.55331 -7.08005 -4.87339 2.30536 1.10602 -3.48301 -0.335997 -8.46237 -6.74158 15.919 5.60162 19.79 0.246034 -2.64331 0.390604 -2.07897 0.171401 -0.448477 0.916442 -0.28503 0.547912 0.249321 3.13177 -3.54276 0.300368 
16.5928 -4.11579 -7.04016 -6.90716 1.75281 2.10546 -4.61618 1.2414 -8.82851 -6.97314 19.5893 2.30455 20.1247 -0.528419 -2.24332 0.492407 -2.14892 0.379148 0.0351133 0.235636 0.220394 -0.111296 1.4785 1.92274 -1.74634 0.350137 
16.2467 -6.28772 -7.23278 -6.89546 1.78394 2.53765 -3.44813 -0.220968 -6.42462 -6.27679 20.2169 2.50883 20.5283 -1.46665 -1.71667 0.529369 -1.52581 -0.819655 0.954847 0.564852 -0.36469 -0.166613 3.14709 -0.0430061 -0.821451 0.364729 
15.0024 -8.33607 -5.69869 -10.8793 2.72209 2.00237 -3.02805 1.14799 -10.593 -0.753784 20.5479 2.53723 20.9434 -2.18697 -1.06565 0.560725 -1.17556 -1.40328 1.1686 1.67562 -1.17578 1.05029 3.99785 -2.71706 -0.578044 0.304573 
10.4934 -8.02649 -5.10394 -10.5164 -2.27755 5.9318 -1.45281 -2.11274 -8.41319 5.8842 15.2246 1.37802 21.2043 -1.99003 -0.346339 -0.346637 -0.668296 -0.858394 0.663937 1.67741 -0.844932 2.81642 2.72449 -3.69901 -2.4446 0.165089 
8.53463 -8.57465 -5.30095 -10.9745 -3.23287 6.25139 2.76428 -3.69159 -2.58278 6.93562 8.5001 -0.0202646 21.3096 -0.914358 -0.0803712 -1.18252 -0.340048 0.777528 -0.774542 0.914836 0.557804 3.65215 0.204575 -2.90695 -5.06191 0.0106657 
9.53048 -7.90012 -9.16484 -10.1893 0.469452 3.73282 2.04277 -2.02584 3.65235 3.50094 7.7457 -8.43544 21.1707 0.357556 -0.354169 -1.25624 -0.606371 2.3364 -2.02259 -0.14967 2.39022 2.35302 -1.23419 -1.70441 -5.56133 -0.0863659 
10.9121 -8.80111 -9.58086 -12.7431 5.23623 -0.77085 -0.201667 3.89356 1.63496 1.46072 9.75256 -17.8656 21.0136 0.726633 -0.683726 -0.646319 -0.366973 1.89951 -2.00392 -0.786158 2.57457 0.871296 -1.18544 -0.434333 -5.48931 -0.1144 
11.0924 -9.68411 -9.24517 -12.6639 5.16988 -0.670036 -0.718193 6.0458 1.24305 2.45072 6.07635 -17.506 20.9205 0.200286 -0.597111 -0.0259294 -0.0593624 0.737131 -1.22095 -0.174317 1.37949 0.69465 -0.466079 -0.725331 -3.45871 -0.0765875 
11.3868 -11.1013 -8.49238 -11.5721 3.91448 -1.5668 0.213973 5.14545 2.97835 1.53354 7.16312 -22.9316 20.8627 -0.257399 -0.311587 -0.188696 0.62952 -0.146853 -0.712827 0.505613 -0.107944 1.45575 0.0319203 -1.60656 -1.4956 -0.0335011 
10.2945 -9.73559 -9.83873 -11.0716 4.81598 -1.97397 0.963369 4.24565 6.45391 1.13414 5.41377 -23.196 20.8632 -0.598425 -0.00474577 -0.417216 0.740268 -0.072441 -1.45073 0.904759 -0.619078 1.83632 -0.467486 -1.55704 -1.16742 -0.0147238 
10.024 -10.3333 -10.2276 -10.3916 4.67891 -3.68302 1.48562 4.25391 6.3083 2.27862 2.05105 -22.4986 20.8747 -0.695708 0.176521 -0.291544 0.777244 -0.041461 -1.62228 0.558861 0.206924 1.33695 -0.373178 -2.01722 0.128368 -0.0259493 
8.7817 -10.0918 -10.4637 -9.55283 4.42546 -6.86556 3.16978 3.39618 8.75966 -0.259243 0.847209 -23.5595 20.8409 -0.657788 0.122532 0.397004 0.678524 -0.218207 -1.97384 0.408847 1.0463 0.717149 -0.307266 -2.14772 0.720836 -0.0395428 
8.6647 -10.0406 -9.63764 -8.44528 3.90243 -7.23239 1.90507 6.6048 8.51023 0.364341 -0.639696 -22.108 20.7441 -0.716352 0.328679 0.592581 1.0573 -0.632246 -2.25434 0.325627 1.36474 1.22855 -1.2622 -1.08489 0.425493 -0.022957 
7.68527 -9.2693 -8.14867 -8.6522 4.11318 -10.0685 2.79788 8.3017 8.93869 0.554944 -3.97946 -19.7871 20.7308 -0.722255 0.360128 0.980336 1.23991 -1.2366 -2.6187 0.56633 1.16723 1.18503 -1.16881 -1.0001 1.65643 -0.0168793 
6.99049 -9.10118 -8.42216 -5.55542 1.67381 -13.3533 3.2997 8.62488 12.3615 -4.43947 -0.960093 -22.2573 20.815 -0.588634 0.169522 1.51108 1.46402 -2.07686 -2.97678 0.457257 1.10038 0.418453 -0.938055 0.145261 2.75919 -0.00131302 
6.00752 -8.76089 -6.16972 -4.79822 -0.643252 -16.8986 5.30411 8.2223 12.7592 -3.7014 -3.99311 -15.2027 20.721 -0.476875 0.262415 2.40465 1.43975 -2.60794 -3.05653 -0.175625 0.921548 -0.72134 0.218578 0.752327 4.18611 -0.0529646 
6.5604 -9.44717 -3.07172 -3.05215 -4.10365 -18.7012 2.93824 12.1464 8.69224 -2.19776 0.093435 -10.6042 20.7424 -0.423951 0.558703 3.50859 1.32189 -2.79016 -2.16503 -0.767939 1.23922 -2.508 1.35104 0.077922 4.86096 -0.191219 
5.51594 -7.78423 1.19936 -2.7051 -6.03776 -22.6772 2.10048 11.1487 7.16662 0.526979 -0.744586 -4.68315 20.5022 -0.762815 1.4516 3.20984 1.47763 -3.07685 -0.524905 -1.06615 -0.121209 -3.17766 0.891263 0.698399 3.05649 -0.285322 
5.11653 -6.79599 5.43628 0.00744057 -9.57972 -21.2892 1.06182 13.3578 2.61781 0.20156 -2.19474 -3.21229 19.9683 -1.08482 2.10622 2.6335 1.4436 -2.98687 1.10391 -1.07748 -1.94949 -3.72801 1.18456 0.317493 2.32257 -0.263257 
2.91539 -2.82848 5.62551 1.06014 -13.2895 -18.2292 0.911564 7.01056 -0.0919065 -0.444746 0.642978 -3.61621 19.6815 -1.30576 2.10315 2.07017 1.45189 -2.50005 1.96142 -1.33427 -3.55743 -3.92455 0.643366 1.48136 1.59768 -0.115515 
2.4366 -1.39397 7.88269 2.28321 -15.4122 -15.4056 -1.85471 4.46801 -6.31856 4.21089 0.987117 0.47519 19.8365 -1.54863 2.05133 2.08062 0.647478 -1.34893 1.19994 -0.946496 -3.61109 -2.91455 0.0945303 1.38693 1.05475 -0.00681019 
0.327101 0.0305182 10.327 3.41646 -15.6218 -15.8118 -3.11261 -2.19359 -7.98793 1.73915 5.07128 1.46149 19.9906 -1.43145 1.75409 2.21648 -0.146192 0.258869 0.70202 0.00942767 -1.34927 -2.3601 -0.951421 0.20143 0.289879 -0.0376957 
-1.33249 2.03114 13.4886 2.06667 -15.1582 -16.4982 -1.65857 -0.0955858 -8.00691 -0.417734 2.52574 -0.477392 19.7797 -1.42928 2.15196 1.37585 -0.813942 1.25469 1.06351 0.696125 -0.473294 -0.731781 -2.78256 -0.540989 -0.704753 -0.14504 
-2.35731 4.2294 13.905 0.437456 -12.1221 -14.1728 0.860632 2.54602 -11.0483 -2.88754 0.880816 -1.69052 19.5214 -1.04807 2.11756 0.484704 -0.798281 1.45913 1.83485 0.841498 -0.0136321 -0.387385 -2.77173 -1.34868 -0.755485 -0.198915 
-3.36758 7.26637 12.973 -0.296996 -10.8886 -10.9076 -0.360708 -0.268271 -8.44731 -7.38859 0.377402 -1.47257 19.3459 -0.744266 1.69095 0.0682764 -0.168315 1.52305 1.94098 0.381067 -1.11236 -0.580958 -2.32027 -0.846831 -0.394765 -0.163643 
-3.89569 8.00068 13.0084 0.606889 -10.461 -9.43288 0.445943 -2.17541 -9.70466 -8.63408 -0.59798 -1.81835 19.2129 -0.407164 1.43089 0.337831 0.10347 1.64997 1.34532 -0.715034 -1.49528 -0.161072 -1.31127 -0.998432 -0.451166 -0.191583 
-4.28464 8.60027 14.2783 1.14038 -8.37354 -9.16323 0.454111 -3.29669 -11.5835 -9.14583 -0.96902 -2.3873 19.1157 -0.157272 1.1992 0.575086 0.596731 1.82391 0.771122 -0.583796 -0.904005 -0.287836 -0.386502 -1.61602 -0.400589 -0.277457 
-3.9346 10.7169 14.9414 0.236117 -5.12976 -8.31844 -3.12195 -3.41617 -10.2855 -8.56525 -3.43813 -3.48898 18.6786 -0.165366 1.62689 0.379832 0.634548 2.35648 0.474532 -0.411067 -0.580058 -0.2931 0.105276 -1.51133 -0.818953 -0.339827 
-4.13448 11.9042 14.8818 2.87204 -4.43461 -7.60922 -1.49574 -4.16792 -9.59606 -9.35551 -6.28262 -2.6402 18.2258 -0.218719 1.97643 0.354479 0.374748 2.34848 0.446339 0.135855 -0.888697 -0.401409 1.11579 -1.76279 -0.768314 -0.429086 
-4.79759 14.4831 14.6058 2.9138 -0.648091 -7.83723 -0.634468 -4.64008 -12.1639 -8.00286 -5.49783 -5.78666 17.9588 -0.481572 1.74909 0.321214 0.605488 1.90495 -0.236418 1.21971 -0.378214 -1.41398 1.7254 -1.05486 -1.04413 -0.449633 
-4.94674 16.5993 16.2185 1.67528 1.12801 -7.17213 -0.110353 -7.12822 -12.6514 -3.84806 -8.75312 -5.08003 17.3302 -0.365419 1.30965 -0.187622 0.0302709 1.48745 -0.810046 0.574553 -0.550041 -1.52946 3.0476 -0.538958 -0.655552 -0.46416 
-5.93633 17.1148 15.8792 3.86194 1.61371 -9.71907 2.28392 -3.82709 -15.8278 -2.692 -7.47721 -7.48973 16.8782 -0.864821 0.0418381 -1.73572 0.422877 1.17993 -0.963182 1.03293 -1.18111 0.797917 2.72768 -0.460885 1.0191 -0.498333 
-5.39221 17.1367 13.307 2.54933 1.87176 -10.7185 -0.0821738 -7.32462 -15.4114 3.22706 -7.98772 -5.06642 16.4452 -0.958514 -0.486241 -2.11296 0.845927 0.558448 -1.28501 1.69848 -1.50134 0.845653 0.894376 -0.219642 1.7167 -0.398376 
-8.89896 14.4236 7.3829 4.59116 4.87969 -10.8799 4.51607 -10.4474 -6.79427 2.098 -8.18495 -0.697944 15.9096 -0.170693 -3.44033 -2.43921 0.061471 -0.842119 2.46269 0.549311 -0.813167 1.71585 -1.58444 -0.707709 1.76966 -1.07617 
-8.25799 15.5137 9.90188 5.54031 2.28726 -13.0168 7.26595 -11.3248 -12.9399 -1.77118 -9.49746 0.107578 15.8226 -0.37576 -5.64274 -3.11811 -0.182653 -2.09968 3.91838 -0.484824 1.57764 3.60313 -1.3811 0.00764513 1.84934 -1.37639 
-5.35691 0.724633 5.38567 2.67381 -2.80464 3.74352 1.35642 -5.89285 -8.48433 -8.11506 -10.2609 -1.22843 11.8086 -0.305979 -6.02276 -3.38222 -1.42952 -2.2458 4.27232 -1.91047 2.80418 3.92118 1.00153 0.739739 0.0494464 -1.32999 
-9.04204 -4.22752 -1.28491 2.59474 -4.78448 1.56163 -0.926468 -1.71374 3.44924 1.42812 -6.91153 4.44553 11.6138 -0.969526 -4.99832 -3.5401 -1.54527 -1.75205 3.59328 -0.787074 3.97108 5.6791 3.26383 1.58204 -0.300344 -0.963467 
-10.0368 -5.81958 -3.93478 -1.08364 -2.81346 3.19244 -0.940071 -1.23205 4.61711 5.50601 -5.77922 -2.61969 11.3641 -1.14882 -1.41177 -1.65072 -1.08666 -0.664919 0.933391 0.775439 2.86346 3.39113 1.93763 2.323 0.61098 -0.0966699 
-10.7657 -6.20583 -3.13837 -0.307296 -6.4686 5.22519 4.47883 6.20026 8.90494 7.73744 -3.82811 -0.698513 11.2276 -0.0582327 0.265877 -0.174602 -0.693926 1.40478 1.78059 0.433123 0.90068 0.429316 -0.782879 2.47283 2.12852 -0.036289 
-10.2392 -5.34504 -1.94122 -1.30849 -5.28717 6.5787 2.53097 4.46745 5.74346 -1.58156 -0.187577 4.39849 11.5184 0.0283171 0.36376 0.260378 0.281702 1.49729 0.897661 0.394546 0.194637 0.236513 -1.78507 0.796609 1.80776 -0.0155415 
-9.23201 -3.13541 -3.15471 -0.762472 3.47626 8.77147 -0.496373 -0.0600934 5.03264 1.05751 2.65677 11.579 11.3552 0.0314484 -0.294075 -0.171217 0.348199 1.65688 -0.0563345 -0.803679 -1.38589 -0.257496 -0.660441 0.245764 -0.139011 -0.0728539 
-10.6621 -5.536 -2.62473 0.552454 -0.299433 5.90761 3.52026 2.87131 7.73582 -0.0793641 -5.03862 0.280353 11.2226 0.156457 -0.251263 -1.1212 -0.167871 -0.00811991 -0.667226 -0.298713 -2.28542 0.233535 1.62134 -0.668977 -0.426891 -0.108403 
-10.397 -7.58072 -3.6527 0.503225 -0.678059 5.27906 -0.0342155 0.068891 6.62128 3.68414 -0.173768 0.665502 11.0112 0.555219 0.0128292 -1.1941 -1.02758 -2.47365 -1.48543 0.617828 -0.219631 -0.00220116 1.08953 -0.280211 -0.384738 0.00694113 
-8.87444 -4.3787 -7.29824 -2.78069 -3.25062 4.98877 0.80632 -7.02416 6.11682 5.21181 -2.11719 7.72081 11.1483 0.890333 0.734966 -0.997655 -2.16148 -3.04283 -1.23054 0.117585 0.125333 -0.352596 0.177217 0.60056 1.11027 0.109886 
-7.34974 -3.64991 -6.78847 -4.23379 -7.41641 1.80373 3.94974 3.78948 5.83114 3.85956 -0.204993 5.93512 11.427 0.684471 0.760202 -0.549211 -1.6686 -2.84257 -0.122755 0.556126 0.993649 -0.0496764 -0.826062 0.663258 0.549697 0.129649 
-7.73403 -3.82657 -6.04512 -7.88646 -12.1444 1.49255 2.11621 1.63768 6.36791 0.71901 -2.02021 3.19688 11.5641 0.0262451 -0.200174 0.525755 -1.01341 -1.86457 0.24013 -0.601378 0.616369 -1.74546 -1.03348 0.937566 -1.09921 0.0326509 
-7.54483 -4.05578 -7.02532 -5.28689 -10.444 6.41339 2.09147 0.706216 6.24735 1.80023 3.09403 5.67595 11.4516 -1.51987 1.55858 -0.662994 1.10168 0.662362 0.562147 -0.739992 -1.85827 -0.195552 -0.825062 0.654443 -0.562252 0.664981 
-8.64566 -5.17663 -4.55104 -7.3212 -11.0596 3.88459 -1.27144 -2.40068 -2.8186 1.07408 0.921129 2.35435 11.2993 -2.29718 3.34069 -1.01727 2.42446 1.9088 0.814231 1.02656 -0.712569 1.87462 -0.305352 0.109248 0.506917 1.14953 
-14.4932 4.81803 -10.8505 0.992 -4.64698 3.41845 1.9436 -3.48268 9.44664 -0.44328 1.59656 3.54512 14.8843 -1.04401 1.5226 1.1157 1.54642 0.548191 -0.36264 1.3633 0.737056 2.14846 -0.22575 -1.15357 0.177091 0.4554 
-15.7457 8.43999 -9.21889 1.09641 -5.49891 7.06118 7.32295 0.169278 14.1414 0.314007 -0.725227 6.79687 15.5954 0.446895 -0.350317 2.13718 0.828694 0.46994 -0.298373 0.727515 0.700098 0.806096 0.452428 -1.99032 0.811729 -0.306485 
-9.21483 -3.25109 0.887085 -1.76362 -10.4834 3.0119 4.6108 3.10651 8.50968 1.05151 -1.85064 4.34015 11.5805 1.57462 -3.4008 2.75128 -0.319401 1.20468 1.2128 0.155004 1.46984 -1.46657 1.29197 -1.89701 -0.860854 -1.13473 
-9.0504 -2.89366 0.266056 -1.79993 -5.79173 2.596 1.03254 -2.19479 1.68036 2.58882 -7.30688 6.01549 11.4188 1.15557 -2.68575 1.10221 -0.389592 2.05253 0.684536 -0.757952 1.41605 -2.35173 2.3149 -0.0968354 -0.999773 -0.830002 
-9.96779 -6.51916 -1.83655 0.843164 1.52285 11.715 5.86383 5.04854 8.34428 4.87915 -4.59766 -0.368453 11.2989 -0.178005 -0.235138 -1.61076 -0.92996 0.547408 -0.0879872 -0.528471 0.954144 -1.99749 1.14295 0.888731 0.300984 0.0254187 
-9.59141 -3.35472 -2.34604 -2.15494 -1.23941 6.13229 2.90668 6.27851 2.46541 9.97469 0.164102 4.15231 11.5862 -0.113158 -0.0162094 -1.35264 -1.30173 -1.13664 -0.716559 -0.105165 1.51635 -0.810726 1.20547 2.30241 0.201494 0.0900845 
-9.83435 -4.19625 -5.86067 -6.23591 -10.0225 0.803812 1.03137 3.64058 -1.87031 3.07334 -1.14248 6.77666 11.6239 -0.189166 -0.0559154 -0.753808 -1.80763 -2.12649 -2.20202 -1.43203 -0.795198 -0.847762 0.533266 2.18469 0.562047 0.0957682 
-9.68291 -4.13616 -4.48506 -4.76905 -5.70224 4.46881 2.92294 6.09095 2.73402 9.51905 2.47759 3.4504 11.7067 -0.358645 -0.831836 -0.305549 -1.0118 -0.813324 -0.845837 -1.07581 -1.26986 0.885297 0.0297168 1.63214 -0.670307 0.035632 
-10.8679 -6.40801 -4.53608 -6.88794 -6.8782 1.53668 -1.30446 1.16633 3.97116 7.77329 5.16904 2.79274 11.7175 -0.325202 -0.669538 0.259815 -0.342294 0.511272 -0.14664 -0.889907 -0.987313 1.29201 0.765416 1.53145 -0.862551 0.0198017 
