-8.68677 -5.93605 -6.90403 -2.93908 4.02961 8.48306 -1.30552 -2.65244 8.84248 2.89559 -2.10351 5.56165 12.0778 -0.158457 0.572791 0.620336 -1.05369 -0.191117 -0.946157 2.32714 1.62485 -0.566803 0.0651732 -0.214945 -0.838405 -0.010529 
-9.58482 -5.12202 -5.1907 -5.54085 0.654264 5.34265 5.8308 4.21681 9.8934 0.848866 -4.49782 4.4856 12.0403 -0.0279808 0.448562 0.78282 -0.998769 0.115801 -0.768047 2.72067 0.723679 -0.711131 0.867952 0.5666 -1.05009 -0.0146708 
-9.03003 -3.47911 -4.65901 -6.90665 4.7617 5.32248 6.76202 2.03718 5.483 4.24482 -1.98108 1.90765 12.0439 0.448 0.429521 0.45282 -0.446896 0.674483 0.0900881 2.58539 0.0542485 -0.84148 1.58453 1.0376 -0.937384 -0.00722122 
-8.65504 -4.92171 -4.11244 -5.94913 4.24257 6.22312 8.26405 -1.37886 6.96656 6.56074 0.668279 2.13818 12.0214 0.72591 0.214232 -0.215967 0.246258 -0.178774 -0.504002 0.958722 0.802501 -0.433607 0.671136 1.51614 -0.125499 -0.02255 
-6.91165 -3.88859 -5.17906 -4.96941 5.60787 8.49327 10.4048 0.416635 6.09849 7.96229 0.501422 2.04844 12.0512 0.529931 0.264661 -0.204823 0.423986 -0.320319 -0.492626 -0.834404 0.832563 0.472139 -0.272374 0.756042 0.908828 -0.0401456 
-7.01445 -3.84611 -6.01051 -5.27818 -0.662693 1.23725 8.80303 9.03959 7.41762 2.34581 1.84162 3.78771 11.924 0.252421 0.60351 -0.499954 0.801962 -0.54201 -1.14092 -1.63971 0.274428 1.0291 0.461006 0.499404 0.270416 -0.0334643 
-7.20067 -2.6936 -4.73409 -5.1222 5.61274 5.35229 2.32051 0.990769 7.61817 4.99041 1.21246 5.62702 11.8919 -0.24658 0.181275 -0.229296 -0.0351483 -0.962714 -1.6173 -1.88933 -0.660621 1.01549 0.366095 0.63631 0.389374 0.0269812 
-7.24843 -2.50166 -6.83469 -1.86293 1.53009 2.08902 4.10764 -0.293785 11.3522 10.3517 2.80978 1.70097 11.9337 0.218509 -0.122131 -0.481039 -0.14704 -0.137338 -0.412561 -1.53873 -1.71602 0.614571 1.09713 0.673233 0.548263 0.0210121 
-8.02757 -3.65445 -5.91345 -6.85278 -0.30209 -0.019114 3.30582 1.78022 9.20867 5.78981 3.19889 5.03868 12.1812 1.33682 0.630668 0.575107 0.227098 -0.817077 -0.634728 0.373057 -0.779172 -0.297976 0.539076 -0.134734 0.587673 0.0117066 
-5.50846 -3.97634 -7.82603 -5.14809 1.60803 1.86015 0.616734 0.0647595 9.69522 7.43178 4.21457 6.82319 11.8844 3.58849 2.70913 1.63601 0.193584 -0.612575 0.650638 1.31609 -1.33829 -3.23733 -3.0006 -2.197 0.306683 0.400631 
-1.38654 1.19708 -1.36288 -2.34413 1.48838 2.29309 5.93125 -3.08437 6.95678 9.14575 -0.163604 6.00427 11.9751 4.92474 3.00126 0.76385 1.14935 -1.29012 -0.0231667 2.6059 0.297735 -4.96463 -4.55819 -2.13668 -0.939351 0.845355 
7.37352 8.61825 -0.929944 -3.14933 -2.42802 4.18611 9.37537 -4.55294 -3.70848 -6.32929 -6.49395 2.75159 14.0399 4.58697 1.87313 0.165198 0.260635 -2.33989 -1.54893 3.37161 2.58744 -5.56613 -5.92279 -1.65137 -1.63856 1.1958 
10.1552 5.05457 -5.54224 -2.10539 -4.73465 -1.29793 11.956 5.57774 -8.91265 -10.1206 -2.13023 2.37773 15.3302 3.2399 -0.465816 -0.953367 0.130756 -1.69586 -2.05018 2.49548 3.05412 -4.17235 -3.90752 -0.992594 -1.47899 1.09744 
11.6556 3.46057 -4.91036 -3.96429 -6.9799 -4.08898 14.4624 8.67091 -10.2007 -12.549 -3.05898 0.443661 16.1858 1.37129 -1.81378 -0.31099 0.293397 -0.636389 -1.79871 1.22023 2.57903 -2.33433 -0.342595 0.2173 -0.95366 0.672288 
12.6719 1.44684 -4.13951 -1.28287 -4.71495 -3.82029 15.8652 5.57433 -10.6589 -7.28201 -6.84406 -0.236687 16.3893 0.908086 -0.740478 0.713958 0.435068 -1.06941 -0.129296 0.328439 0.0948839 -1.09509 0.568037 -0.614491 -0.96363 0.446711 
12.9716 1.35323 -3.18626 -2.09361 -5.61981 -3.54625 13.522 8.34394 -14.507 -9.46155 -3.05053 -0.709497 16.8718 0.617487 -0.122208 0.732871 0.524775 -0.73436 0.153149 -0.407522 -0.927885 0.114568 0.17358 -0.547642 -0.463928 0.340105 
14.0376 2.40585 -2.8345 -0.86539 -10.7618 -2.21577 14.0684 6.21565 -12.2349 -8.82413 -5.20691 -1.86384 17.2208 0.207356 0.299077 1.31455 0.442598 -0.877112 -0.00769062 -1.61304 -0.489008 0.801112 -0.00559587 0.102916 -0.752786 0.274623 
14.0602 2.37002 -1.89851 -1.54916 -7.62829 -4.12549 13.3231 3.71082 -8.83982 -10.91 -6.61577 -1.0624 17.4706 -0.523439 0.216464 2.07419 1.4467 0.605506 -0.913959 -2.19928 -1.84654 1.75724 1.05284 0.0244706 -1.10755 0.166891 
13.1644 2.43384 1.78937 0.657893 -8.09627 -3.56912 7.89936 5.44584 -9.4869 -6.58575 -4.54686 -3.82416 17.463 -1.01019 0.182577 3.11633 2.18769 1.15367 -1.52519 -2.90784 -2.1597 1.22573 1.85433 1.37265 -1.18975 0.0853172 
10.791 2.42156 4.87275 4.37826 -3.92503 -7.43937 5.61012 -0.503871 -7.09484 -5.31654 -3.2582 -5.26711 17.5851 -1.08723 -0.0605017 3.17506 2.48685 1.27974 -1.41929 -3.02463 -1.97664 0.460475 2.50734 2.03724 -1.68156 0.0549212 
10.6212 3.29297 9.36151 7.10938 -6.84506 -8.1848 3.38577 -2.47549 -6.97876 -2.3492 -0.0224221 -5.71024 17.5901 -0.699765 -0.503368 2.43476 1.77875 1.1456 -0.664311 -2.17264 -1.34776 0.0619224 1.47121 1.13613 -1.77189 0.0984577 
9.89561 1.63795 10.1907 7.65933 -1.85522 -8.91411 0.456797 -2.21169 -7.79151 -0.491632 1.3082 -8.52716 17.6817 -0.120487 -0.783086 1.28001 0.742588 0.411926 0.0123791 -1.41603 -0.00937937 -0.328115 0.899713 1.03646 -2.45496 0.142782 
10.1133 0.308802 11.3042 7.91111 -3.40318 -6.15331 -0.3872 -0.439034 -8.82895 -1.64214 -1.1494 -11.0536 17.907 -0.00208199 -0.704814 0.0938634 -0.330256 0.0352053 -0.0249664 -0.867757 0.913397 -0.875611 0.373686 0.816385 -2.5468 0.202079 
10.4425 -0.0017848 10.3015 7.69033 -3.58633 -8.39322 0.416458 -1.569 -7.81032 -1.17151 2.48761 -14.8702 18.1405 0.142148 0.0389599 -0.651019 -0.833631 -1.62581 -0.0206134 -0.550043 1.32515 -0.595664 -0.214978 1.34804 -1.82103 0.215778 
10.3374 0.588762 9.77545 5.44259 -5.80348 -8.57008 -0.93285 1.77015 -11.3474 -0.140831 3.4698 -15.2727 18.3711 0.202175 0.412342 -1.27059 -1.64576 -1.82134 0.0330327 -0.0436746 1.86945 -0.663577 -0.0885277 1.15112 -0.551777 0.192232 
10.4943 1.69277 7.69999 4.72543 -8.78412 -7.80879 -2.02059 3.30947 -9.5106 -2.31717 5.7388 -15.5227 18.5286 0.394122 0.156947 -1.74639 -2.28633 -1.46599 1.08866 0.577584 2.20021 -1.13818 -0.816726 0.25681 0.786896 0.174307 
11.0983 1.52324 6.25193 1.16476 -9.91099 -6.28036 0.612952 6.46898 -11.2967 -1.51194 2.98058 -13.4862 18.6742 0.571041 -0.27848 -2.29459 -2.13184 -0.464662 1.73526 1.68504 1.15569 -1.46806 -1.57097 0.68588 1.85159 0.158409 
12.0327 0.315712 3.33129 -1.60239 -8.86252 -4.09479 2.53148 7.08266 -13.5266 -4.56958 4.01628 -11.829 18.8605 0.718766 -1.02184 -2.49469 -2.06346 1.53125 2.05942 1.10121 -0.149407 -3.0949 -0.767028 1.77351 2.45509 0.145998 
12.4234 -0.115108 0.486848 -2.05269 -8.08759 -1.75076 5.2163 5.66202 -16.6797 -6.86949 7.76047 -7.86165 18.9971 0.566558 -1.14495 -2.85723 -1.05338 2.68124 1.91676 -1.25703 -1.36223 -3.20581 0.837814 2.58727 2.46805 0.127176 
13.4256 -2.59727 -1.89092 -3.98316 -2.03959 0.223492 1.18378 2.96592 -22.2936 -3.47354 12.2164 -6.05959 19.0971 0.0464253 -1.17125 -2.34206 0.633913 2.76688 1.71988 -3.20391 -2.34734 -1.41748 2.82953 1.90205 1.89637 0.100989 
13.2346 -2.74503 -5.42314 -2.91176 0.0837302 1.14432 -4.99833 1.71622 -22.9423 2.12911 11.8169 -4.03066 19.1918 -0.452511 -0.784935 -1.85862 2.28661 2.43225 0.783063 -3.82616 -1.99717 0.681248 3.73014 0.227222 1.3956 0.0311195 
11.8592 -4.22559 -5.42402 1.99671 0.886201 3.0571 -8.38074 -2.68115 -17.4827 5.07877 11.4983 -4.26261 19.2682 -1.00838 0.585362 -1.19796 2.86567 1.14453 0.232139 -2.44302 -1.16266 3.67705 3.06029 -2.73395 1.35297 -0.156849 
10.944 -3.22563 -7.03969 6.39042 2.61079 0.747751 -9.13226 -1.5003 -15.6789 7.50504 9.25562 -1.78215 19.0672 -2.42468 2.21904 0.889389 1.45523 1.08134 -0.573754 0.669728 -1.12736 4.71455 1.11957 -4.12705 2.03762 -0.336513 
9.52899 0.569833 -7.07245 5.69409 2.41953 1.58247 -8.96435 -1.23912 -7.54002 9.13994 -0.172735 -0.419006 18.3751 -5.08467 3.5727 2.89606 -1.32599 2.04442 -2.14887 2.93708 -0.0517926 3.93451 -0.0535816 -3.86408 1.9896 0.0207174 
2.27631 5.95245 -0.15198 2.51568 4.72374 -0.98714 -1.35788 -4.64159 -4.34084 5.69638 -2.98287 4.23565 17.9557 -7.00878 3.81076 3.43148 -4.18239 1.29064 -0.849371 2.98669 0.904893 4.59967 -0.616138 -2.26293 0.084214 0.539704 
-9.23029 9.04885 5.61244 -2.69589 10.0518 -6.81981 2.41746 -1.36946 -3.47921 5.71519 -1.70282 2.67647 19.9275 -7.0015 2.76708 2.98114 -3.97343 0.890531 0.540964 1.64674 1.26928 1.30649 -1.86742 0.13453 -0.499434 0.953054 
-14.7202 11.5887 3.77528 -10.3265 5.24783 0.702034 0.110271 3.08934 5.28905 6.13673 -1.294 -2.90882 20.9895 -5.29009 1.48706 1.02107 -2.91585 -0.539044 1.68706 -1.85498 0.680664 0.393482 -1.47977 1.33205 -0.445753 1.03611 
-16.9803 11.5871 5.86963 -7.75197 6.61014 3.4427 -1.46472 1.24181 -5.82249 -0.417339 -0.344517 0.65606 21.6235 -2.89909 0.684984 -0.276215 -1.54549 -1.67185 2.58633 -2.11991 -1.43499 -0.0363009 -0.850893 2.09372 1.20166 0.579177 
-20.2991 12.1186 4.82477 -9.53553 3.74937 2.31692 -8.69169 -2.54391 -1.20178 1.36378 2.99823 3.0171 22.2883 -2.06052 -0.87818 -0.070049 -0.616718 -1.13589 1.72773 -0.460484 -1.51306 0.0515873 -0.105468 0.812242 1.68839 0.311565 
-20.9363 12.2088 3.70662 -10.8188 2.44179 5.30438 -3.78112 -5.72781 -0.415298 3.8472 6.61966 5.72182 22.174 -1.50387 -1.69273 -0.469474 -0.866253 -0.234219 1.40962 1.37087 0.116894 3.32893 0.199352 -1.01892 -0.807554 0.130612 
-23.0448 6.88692 4.50654 -11.8767 1.65254 8.40983 -1.03394 -0.991132 2.84339 3.47712 -0.714877 3.00025 22.2721 -0.638861 -2.39612 0.562401 -0.626622 0.228776 1.78943 2.71425 0.461822 1.97547 -1.61743 -2.24011 -3.29152 7.267e-05 
-23.1267 5.7393 3.68137 -10.9127 6.48746 7.44435 1.56077 1.04989 8.79957 -0.477247 -3.58254 -3.37329 22.2846 -0.354646 -2.75308 0.920132 0.00802126 0.130847 0.820939 1.45966 -0.111437 1.51568 -0.626507 -1.74844 -3.18011 -0.0278822 
-22.3982 3.37276 7.6494 -12.6217 2.87042 10.1941 2.20859 -3.62365 4.06812 -4.56114 -3.10121 -8.89296 22.2333 0.141013 -2.21831 0.527039 0.537319 -0.404326 0.786594 0.603134 -1.17378 0.501983 0.582666 0.795795 -2.14415 -0.224989 
-23.0328 0.200475 6.73585 -10.4062 2.48709 8.51695 1.89591 -4.96873 6.55076 4.7338 -0.929387 -4.23212 22.054 1.65502 -0.987728 0.754852 0.888076 -0.793936 1.88457 1.65833 -1.70463 -1.24367 0.715611 0.363204 -0.978795 -0.57476 
-22.3867 -1.43519 5.61449 -9.44332 1.6311 11.8065 1.81416 -3.85071 6.47771 3.78492 1.93752 -7.29109 21.2625 4.5531 0.725147 0.570149 2.45567 0.40349 -1.39161 -0.765874 -0.782656 -0.452846 -0.75426 -1.07672 0.788034 -0.919713 
-14.8574 3.20463 8.47308 -8.06148 3.13743 16.061 10.0497 -7.35971 1.37644 -1.07223 -4.28588 -9.0682 19.8962 6.94862 0.755865 0.290827 3.74586 -0.79541 -3.12658 -2.90614 -0.44276 -0.787055 -2.01182 -2.46263 2.32717 -1.0156 
-3.72043 5.49642 9.63153 -1.51576 4.56269 -0.535998 -5.69766 -6.34144 4.39105 -5.42943 -6.80654 -2.53475 18.7136 7.28329 -0.467507 0.34114 4.50099 -2.09608 -4.40245 -4.40153 -0.187461 -0.910484 -0.511761 -2.61858 3.79887 -0.779855 
2.37712 0.513994 6.18147 4.3593 -2.95576 -0.944705 -8.87887 -5.93716 3.65881 -0.71814 -8.87053 5.02555 18.2504 5.26916 -2.45582 0.349707 3.96654 -2.91519 -4.19651 -4.32968 0.0838733 0.00817847 1.06099 -1.62777 3.16595 -0.388591 
5.41246 -2.42741 8.466 6.85127 -5.8027 -1.70289 -10.7292 -5.49928 0.784103 1.04908 -8.86306 4.65639 18.1861 1.52514 -1.94222 0.799215 1.87205 -1.61049 -0.860121 -0.078611 -1.28488 0.433671 0.542542 -1.2046 0.78425 -0.146852 
6.92198 -5.11254 10.8044 7.58773 -6.25582 -4.33807 -9.08297 -7.36142 3.22081 0.99347 -11.3965 3.166 18.217 -0.802227 0.218667 0.734914 0.667668 0.454904 -0.780373 2.57275 -2.19756 0.355617 -0.147036 -0.485106 -1.29001 -0.278025 
1.63282 -1.4014 11.3161 6.23028 -1.83975 -3.13992 -5.98866 -12.0537 6.7784 -3.57252 -11.5666 2.31628 17.9961 -1.53219 0.533647 -1.05139 0.818505 1.02861 -0.150055 3.74431 -1.22641 -0.434251 -0.382044 -0.276312 -1.22199 -0.396832 
0.255803 1.09433 8.43097 8.00813 -2.66271 -4.12806 1.61459 -13.6478 2.43975 0.857481 -9.94431 -0.254457 16.9553 -0.450254 -0.242719 -2.14197 1.03498 0.0898953 0.16182 1.45082 0.109129 -0.396478 0.0562341 0.711604 0.0120457 -0.188855 
1.08458 -2.8626 4.39577 10.7336 -2.45619 -2.55818 2.64355 -8.48815 -0.996623 -0.793147 -10.9707 0.256681 16.8328 2.15795 -1.54207 -3.17367 1.16778 -1.38843 -0.348921 -2.22006 2.9185 -0.644343 1.59216 1.52334 0.706012 0.233118 
4.94483 -5.59553 3.5547 10.511 -5.49812 -3.81984 -6.14497 -8.59855 5.12593 -0.115047 -8.13636 4.25603 17.8544 2.91127 -1.74126 -3.32419 0.00851927 -1.123 0.373752 -5.45443 4.3978 0.0597115 1.47996 2.6027 0.209638 0.588409 
10.0781 -5.76682 -2.11407 10.8178 -7.36418 -5.03863 -13.2092 0.0142126 2.2136 4.87453 -4.85381 3.5911 18.7121 2.50279 -0.61744 -3.02978 -1.39164 -0.461342 1.07384 -5.12345 3.61831 -0.436656 2.04213 4.02532 -1.20551 0.53192 
10.3154 -6.15987 -4.93507 8.00864 -5.82373 -1.01907 -17.7312 4.09003 1.13319 5.42345 0.0107572 -0.873475 18.9577 1.40576 0.194657 -2.75833 -2.16347 0.692378 1.93299 -2.58495 2.79298 -2.18081 1.15915 5.2533 -2.39051 0.255924 
10.9133 -5.66763 -6.50826 5.02658 -4.6001 1.41066 -17.1806 3.25913 -1.18354 6.64824 5.08236 -3.2061 18.9407 0.383308 0.567002 -1.73918 -2.60091 1.15388 2.04356 -0.339109 0.502394 -2.13623 -0.0617251 5.51664 -1.77482 0.0954021 
11.5561 -4.67184 -8.03986 2.58925 -3.41827 2.62049 -17.084 3.74392 -4.07954 4.79384 13.1621 -4.29795 19.0197 0.35056 0.719385 -1.22409 -2.31661 1.04717 1.04675 0.905161 -0.448217 -2.21864 -0.280897 4.95115 -0.470957 0.0870117 
11.3743 -3.67583 -9.25755 0.522907 -2.79749 3.35937 -15.2283 2.69924 -5.86117 4.88071 16.1537 -3.57077 19.1582 0.239464 0.517361 -0.505588 -2.27659 1.1166 0.351289 0.965668 -0.368508 -1.72099 -0.276288 3.45505 0.293739 0.102528 
11.8377 -3.55885 -9.68088 -1.32257 -1.48916 3.24035 -14.1816 2.12889 -7.62118 4.90273 19.2308 -3.04593 19.2841 0.130499 0.327664 -0.0622848 -1.76182 0.916884 0.156744 0.752752 -0.269844 -1.22917 0.262265 1.4468 0.681699 0.0841845 
11.9698 -3.63732 -8.2157 -4.40048 0.0183382 2.85718 -13.8035 2.2241 -8.01767 5.21235 19.3232 -2.36342 19.3212 0.202392 0.010989 0.287376 -1.15597 1.27602 -0.762065 0.5291 -0.39001 -0.257663 -0.119442 0.372096 0.860509 0.048941 
11.9108 -3.05277 -8.87221 -3.75815 -0.241762 3.6553 -14.0327 2.63227 -9.14713 5.93934 18.8113 -1.49312 19.3591 0.0728546 -0.148172 0.675588 -0.558864 1.78776 -2.19457 0.765044 -0.794666 1.21182 -0.731849 -0.679528 0.562773 -0.0222942 
12.3497 -3.87392 -8.225 -4.03914 2.95893 -0.658434 -12.6572 0.497499 -6.38651 3.76519 18.224 -0.0446248 19.3654 0.0251624 -0.44276 1.00328 0.7244 1.78657 -3.41855 0.537081 -0.75557 2.39179 -1.72725 -1.29568 -0.0423456 -0.0998652 
12.012 -4.18141 -6.29828 -4.29756 5.97934 -5.97471 -10.9294 -0.981139 -2.37766 1.96706 16.3828 -1.39146 19.1505 -0.175612 -0.496592 1.5369 1.92563 1.51024 -4.55286 0.376375 0.220989 2.8686 -3.01217 -2.09879 -0.26969 -0.177123 
12.045 -5.28681 -4.48627 -0.508773 5.84063 -9.42055 -12.6697 0.252958 0.556522 -1.43778 14.0591 -2.62598 18.9262 -0.575825 -0.345851 2.21724 3.29744 -0.0204588 -4.23662 0.570332 1.38104 1.99495 -3.61063 -3.2803 0.380434 -0.200608 
11.1851 -4.82929 -3.05706 4.10482 5.8686 -14.728 -12.1446 3.85949 1.72436 -6.52 10.3998 -1.55089 18.6931 -1.2795 0.273678 2.65588 4.32488 -1.75267 -2.66549 1.26945 1.81786 -0.0307195 -3.84447 -3.66955 1.65788 -0.170133 
9.88401 -5.27924 1.24059 8.24686 2.91201 -17.4649 -9.19799 4.98237 1.53722 -10.0444 4.81399 1.93726 18.591 -1.93605 1.13248 3.09508 3.60815 -2.93643 0.177547 2.34641 0.313268 -0.863953 -3.23133 -3.45725 1.44742 -0.238923 
6.69501 -2.8168 4.1177 12.949 -1.31969 -15.28 -6.31803 5.74343 -3.02161 -12.952 2.65762 4.61632 18.4674 -2.32005 2.03666 3.01941 1.97279 -2.8625 2.90596 2.4325 -2.02341 -0.789069 -1.83023 -3.16323 0.901691 -0.330257 
4.60978 -0.630641 7.40173 13.1099 -5.2474 -8.25681 -3.85091 0.877327 -1.39026 -14.3784 0.64393 1.52752 17.8444 -1.95586 2.4502 2.51666 -0.0421541 -1.53491 3.53849 1.86064 -3.4363 0.508257 -0.449688 -2.28467 0.210377 -0.416505 
2.22197 3.02971 8.95941 11.5373 -4.36419 -4.80219 -2.65561 -4.20505 -0.757244 -13.5041 -3.33132 3.16243 17.4151 -1.18425 2.2706 2.08985 -1.27852 0.0694304 2.99368 0.430005 -3.15682 1.02501 0.0580181 -1.73379 0.790493 -0.457681 
2.34124 4.04852 11.403 8.74196 -3.24029 -5.01136 -1.726 -7.2249 2.94632 -12.0168 -3.61488 3.71609 17.0346 -0.934083 2.12154 1.56692 -1.22069 1.44756 1.36467 -0.211355 -1.69034 0.34629 0.00438328 -1.32768 1.62622 -0.39906 
1.90805 6.1966 12.5663 8.74036 -1.97609 -1.93429 -5.23046 -5.98955 -0.0648293 -13.8427 -3.88192 7.4745 16.5839 -0.873699 1.90383 0.712601 -0.767195 1.50196 1.07151 -0.177809 -0.866536 -0.290719 -0.315929 -0.353849 1.02858 -0.381535 
0.0963206 8.39363 13.4329 8.4049 0.796346 -2.86741 -3.62026 -6.6821 -0.00501394 -14.1872 -5.71916 7.50261 16.2647 -0.834722 1.84444 -0.351221 -0.219006 1.30156 1.11526 0.885949 -0.0562631 -1.4568 -0.578558 -0.34733 0.130673 -0.368737 
-1.02407 10.3763 11.5075 7.86983 1.12731 -0.516642 -2.59753 -8.80913 -0.73517 -13.9985 -4.04843 6.41206 15.8924 -0.774336 1.24235 -0.751213 0.1978 1.30243 0.802883 1.58445 -0.132924 -0.845957 0.259709 -0.213404 -0.459328 -0.352007 
-0.366308 11.1809 10.1763 8.0822 1.71582 -0.143886 1.38728 -6.09643 -4.00249 -14.8316 -5.26827 4.90068 15.5367 -0.705882 0.3697 -1.55399 0.320184 1.16625 0.318857 -0.503883 -0.424044 -0.780497 1.72128 0.0435584 -0.28561 -0.497471 
-1.73232 11.0147 10.4385 9.89071 4.07634 0.718363 0.188041 -6.94701 -2.29588 -12.222 -5.17438 6.47883 15.1878 -0.807182 -1.53935 -2.17378 -0.130629 2.34442 1.19025 1.44327 2.3283 2.04444 4.25109 -0.393374 0.243445 -0.809023 
-3.07897 9.92291 6.19741 8.99538 5.15306 -1.89062 -7.53246 -9.73339 -3.12715 -6.46912 -4.93839 6.04117 14.1296 -0.0353306 -1.50702 -0.989138 -0.665535 1.40784 0.453611 1.02265 1.68008 2.27364 2.85166 -0.329585 0.379526 -0.71289 
-3.70365 3.30857 2.62806 6.76009 11.1308 6.30796 9.07867 4.65086 9.04938 3.07566 -6.18024 7.05904 12.5508 0.348227 -1.68087 -1.20799 -2.09246 -1.24746 -0.0869243 0.443734 0.290728 0.683051 1.09917 0.158298 -0.16848 -0.661284 
0.442705 7.49889 9.13586 6.31983 5.22782 -0.670629 2.0552 -3.49498 1.6931 -8.22214 -6.41327 6.5082 13.2907 -0.26856 -2.39654 -1.95977 -2.68006 -2.11119 0.665999 0.30014 1.07446 0.287498 0.606508 1.01452 -2.0618 -0.478441 
-1.75202 3.82241 2.92931 0.766171 -2.19833 -0.326256 -2.38712 -8.61257 -1.29074 -5.84957 -3.64545 5.40292 12.3009 -1.26088 -2.69068 -3.23103 -2.95433 -3.50835 -1.40953 -1.68457 -0.140263 0.570398 0.243837 1.05319 -2.54461 -0.268691 
-5.39758 -2.31671 -3.75206 -1.40795 1.26168 4.75648 -0.298867 2.27064 3.4804 1.02604 -1.13321 -3.43977 11.8624 -1.75498 -3.16923 -3.9343 -2.37328 -0.42286 1.02144 0.378939 2.33447 2.63974 2.94608 0.527282 -1.69505 -0.306742 
-7.08788 -5.23706 -7.08314 -4.14769 -4.42792 -3.45323 1.83283 1.06673 11.0077 -0.329239 -3.55432 -0.690017 11.9215 -0.921526 -1.11923 -1.76799 -0.800754 1.60282 0.888552 1.27329 2.48107 2.81477 2.99301 0.466447 -0.713344 -0.0788138 
-5.66425 -3.81755 -5.5294 -3.08962 4.22831 6.00007 1.83992 3.3377 8.74257 3.74812 -3.82243 1.0794 11.9467 -0.130935 0.321896 0.0926307 -0.137555 0.699996 0.150527 1.21633 0.43787 1.35319 1.35825 0.238367 0.380902 0.00208483 
-6.22631 -1.02332 -5.02195 -2.39676 4.33243 3.49471 2.90994 3.25924 10.152 7.75443 0.0313914 -0.423394 11.8647 0.235841 0.97577 1.12207 1.18966 1.00638 0.591051 0.662131 -0.0396962 -1.33132 0.500004 0.660613 0.390152 0.0188699 
-6.48304 -2.8141 -4.3195 -2.97119 0.381483 2.03515 5.24422 3.36374 10.6742 3.77545 -1.73423 -1.66858 11.9013 0.117328 0.1635 0.277797 0.0579555 -1.13879 -1.2003 0.324918 -0.420722 -1.2076 -0.803619 -0.143 0.729013 0.00516958 
-5.49928 -0.859938 -2.07775 1.74137 2.52741 1.48449 3.44134 0.855228 3.38529 2.15711 -1.29535 2.63473 12.0386 -0.166944 -0.614813 -0.509858 -0.826011 -1.02421 -0.287529 -0.0144494 -0.990018 -1.01749 -0.795259 -0.633026 1.28551 -0.00238123 
-5.44113 -3.08175 -5.61251 -4.86891 -0.563111 1.00366 3.19881 2.43609 6.08794 2.52868 -3.87405 3.19541 11.8856 -0.382058 -0.730001 -1.33944 -0.817917 -0.0706397 0.723436 0.558179 -0.384151 -0.711465 0.326511 -0.359583 0.846052 -0.0208035 
-7.58199 -3.96356 -6.92473 -5.57795 -0.316301 2.57281 3.86039 -1.22702 7.35773 4.40152 -2.06383 3.57216 11.8606 -0.492404 -0.871752 -0.946319 -1.17004 0.288068 1.18762 0.602985 0.228731 0.53023 0.45349 -0.595439 -0.928473 -0.064871 
-7.35198 -4.91229 -8.59319 -3.40111 1.45014 5.10817 7.82559 2.48412 5.13067 4.2858 -3.14791 2.09297 11.8863 -0.368648 -0.116265 0.317897 0.420783 1.77542 1.09822 0.21844 0.398424 0.682285 0.504568 0.208388 -0.763563 0.0137221 
-7.00587 -4.30342 -5.31901 -4.84275 2.96113 5.37035 4.14288 1.97487 6.51508 3.546 -4.63562 -1.45641 11.7139 -0.0534584 0.305733 0.290801 0.698694 1.3193 0.751825 0.896 1.95 0.546273 -0.348314 -0.490005 -0.953214 0.0166098 
-7.57243 -3.49314 -4.82589 -3.1326 6.67527 5.09596 4.14977 2.82726 9.9207 5.47928 -1.54622 1.89188 12.0275 -0.113978 0.33811 0.216482 0.628136 0.903436 -0.422844 -0.0896886 1.28617 0.716605 0.227614 0.477801 0.0510139 0.0257874 
-7.73906 -3.14448 -7.35437 -2.21874 3.66765 6.33804 10.1783 8.3514 7.69409 2.06321 -5.3147 -1.09336 11.873 -0.47857 0.0482722 0.00851467 1.48571 -0.369894 -1.18507 0.648682 1.25293 0.494535 1.66985 0.144988 0.588559 0.0564018 
-7.55528 -3.80122 -6.49309 -1.57243 5.61406 2.5101 4.35943 5.72668 8.12419 6.16527 -0.41936 2.16651 11.9356 -0.316056 -0.0680453 -0.0429066 0.473778 -0.829722 -0.948843 0.235443 -0.897047 -0.207632 1.29193 -0.593166 0.694463 0.0115036 
-9.4073 -3.90802 -4.44283 1.80573 1.64226 0.737945 7.28146 6.78981 9.886 11.5523 -4.47411 1.34907 12.0419 -0.166475 -0.0747106 0.0743811 -0.46374 -1.03014 -0.667678 -0.276417 -1.84692 0.00258107 1.59625 0.0957468 0.719723 -0.000369358 
-8.31859 -3.45159 -6.49619 -2.77594 3.53936 3.1518 6.77541 -0.877178 7.78658 7.19439 -4.93234 4.14298 12.0006 -0.0824885 -0.194551 -0.212049 -0.99468 -0.908783 -0.396542 -0.0365331 -0.946942 0.935866 0.968602 0.564282 -0.288979 -0.0393533 
-8.18978 -3.69284 -6.98092 -3.93568 -0.44568 2.6788 7.58823 2.41873 7.8758 9.52989 -2.57947 1.51702 11.8387 0.00702133 -0.643444 -0.559227 -1.46876 0.491601 0.637264 -0.497152 -0.847089 0.0768437 -0.147513 1.11971 0.101495 -0.0722013 
-8.57648 -4.88157 -6.28429 -3.67513 2.11412 -0.443034 4.02338 3.17751 13.8086 12.0195 1.45473 0.637643 11.8405 -0.278231 -0.203047 -0.446459 -1.23486 0.122277 0.352545 0.156528 0.476389 1.13921 0.0461428 0.563247 0.147591 -0.00174732 
-9.24324 -6.41026 -7.34492 -5.08847 4.81289 5.72168 6.17171 0.52702 7.2592 8.40218 -2.06911 3.60921 11.7609 -0.185607 -0.168813 -0.603581 -0.963802 0.352346 0.185536 0.685553 0.853949 0.843751 -2.16883 -1.10016 1.55772 0.0635981 
-9.18301 -3.10812 -8.54649 -8.37386 1.52146 3.39308 8.26631 2.45063 13.7909 7.98896 -2.37129 3.83484 12.0308 -0.00474319 -0.00974979 -0.668967 -0.677726 -0.420398 0.0229656 1.24651 1.42737 0.143373 -3.03381 -1.93422 1.82366 0.0742641 
-8.81454 -5.42363 -8.86773 -6.40533 1.61238 1.68842 8.89453 7.05192 12.1034 0.701019 -6.16728 7.70702 12.0615 0.122587 -0.0342251 -0.336685 -0.0665185 -0.631009 -0.977117 0.607386 1.76511 0.800083 -2.26903 -1.19923 1.20678 0.0631897 
