-5.65167 -0.683128 -13.5294 -3.9073 4.09372 7.36365 11.7806 6.56818 0.329613 4.27487 -0.104171 -0.662199 11.7943 -0.583585 0.749145 -0.689733 0.697338 -0.0198303 -0.117553 -1.86984 0.428339 -0.339823 0.419957 -0.563994 1.25152 0.165981 
-6.77976 1.42692 -14.5288 -1.29601 2.41557 4.86314 5.16027 6.0378 -0.796299 7.66976 -2.40449 3.88659 12.3436 -0.555133 1.01353 -0.0971621 1.05993 0.1192 0.0344489 -2.45761 -0.620582 -1.33172 -0.681677 -1.09192 0.426305 0.157146 
-8.00556 2.00757 -16.4784 -1.72625 4.83365 8.02614 5.74164 8.97507 -0.806546 4.67721 -1.77398 3.32101 12.3495 -0.121924 0.712857 0.520518 0.218491 0.773049 -0.573785 -2.12635 -0.99206 -0.803908 -1.2628 -1.02859 -0.0623077 -0.0147826 
-7.25039 3.03919 -12.5407 0.301832 4.31976 7.20465 2.51211 2.26183 -5.7609 0.665315 -4.72885 -0.522278 12.3024 0.303418 0.039302 1.26055 -0.182749 -0.424398 -2.1962 -1.47736 -1.74097 -0.608469 -1.09371 -0.18794 0.144882 -0.156504 
-6.02597 2.07502 -11.9209 -3.61377 7.00687 3.32397 2.47299 3.49587 -1.20763 1.46311 -4.08494 1.2307 11.741 1.29731 1.26974 2.98042 0.693394 -1.11614 -3.61427 -2.14123 -2.39018 0.254429 0.444342 1.34675 0.0549842 -0.13511 
-6.25246 1.58971 -10.5048 -1.266 -0.793029 -3.76676 -0.592182 0.0725312 -3.6381 3.80828 -2.18872 5.65616 11.8654 2.36751 1.24204 2.59289 1.62198 -0.479725 -3.489 -2.44027 -0.988798 0.935145 1.04205 0.679061 -0.167111 0.0279675 
-2.01795 9.08101 -2.5943 2.52463 1.80932 -4.55953 -3.41236 -1.88117 -0.595801 5.32744 3.6897 0.506714 11.8925 2.76872 0.714035 2.22764 2.58722 0.521384 -2.45458 -2.63904 -1.3215 0.120815 0.738926 0.234161 -1.45641 0.279852 
2.58316 5.74638 -4.2396 5.34253 4.51991 -6.29862 -6.74655 0.00635743 -1.39109 3.9434 -5.22086 -0.99584 12.3665 2.94636 -0.26674 1.27852 1.22575 2.12826 -0.50001 -2.24792 -0.766528 0.189763 -0.558085 0.431053 -2.17148 0.487189 
3.39981 3.56686 -3.91527 6.01806 6.95732 -7.68302 -7.64501 -3.07857 -1.72706 5.09018 -1.39806 -2.72537 12.8897 2.14096 -1.83275 -0.062259 0.388864 1.45087 -0.70193 -1.48615 -0.172727 -0.217878 -1.21294 1.10665 -0.882908 0.655888 
5.77046 3.01308 -3.45175 3.11604 7.27427 -4.70506 -9.71544 -3.16141 -2.12366 1.13648 2.51043 -3.58519 13.8027 1.33277 -1.27184 0.478755 0.673301 0.79194 -1.0271 -0.339747 0.389864 0.199399 -1.77418 3.05695 -0.319975 0.666781 
7.09319 1.2839 -3.29952 5.5822 7.68649 -8.86595 -9.35869 -1.16092 -1.3189 0.666192 5.35733 -2.61315 14.4538 0.915055 -1.45919 0.986307 1.14463 -0.564873 -0.895811 -0.0275773 0.972837 1.03012 -2.19144 1.81728 0.431981 0.685498 
7.40034 0.528673 -2.1537 8.92697 8.11502 -10.8427 -7.58844 0.996855 -0.59817 -2.71552 6.6862 -2.65182 14.9183 0.469623 -1.86517 1.42778 1.10721 -1.55843 -0.76403 -0.339877 1.17824 2.06802 -2.0585 1.01943 0.721457 0.653992 
7.16015 -2.48687 0.367242 8.83574 3.71258 -9.09328 -8.8464 -0.293515 2.66078 -3.941 5.60047 -1.03215 15.7594 0.299565 -1.974 1.65042 0.30347 -2.76311 0.614219 -0.405822 0.371842 2.17014 -0.985716 -1.12168 1.53334 0.612403 
8.0851 -4.42739 1.85375 7.0253 1.46905 -8.41155 -11.671 2.29606 6.22659 -6.8524 7.486 -0.768409 16.4199 0.213367 -2.18291 1.32666 0.674207 -3.41076 0.40365 1.16023 -1.82377 1.40908 1.36634 -2.65191 1.50397 0.547322 
8.24864 -6.10804 2.94886 8.05038 -2.80608 -7.01042 -9.34653 0.0486872 6.1194 -2.19395 -0.650978 4.11184 16.765 -0.120107 -1.5936 0.505933 2.08017 -2.74203 0.0287772 2.71994 -2.11019 -0.868535 3.47595 -2.72233 -0.12593 0.346208 
7.92293 -8.57529 3.18879 12.6907 -5.67946 -9.86584 -1.53723 -8.29311 4.71792 3.24264 -3.44762 2.29602 17.1521 -0.0789324 -1.21393 0.126861 1.58539 -2.35537 0.219681 2.75075 -1.88852 -1.42669 3.92162 -2.20439 -0.0247337 0.275737 
6.64069 -8.38091 2.22938 16.4039 -6.42333 -8.22224 -0.313551 -5.54987 -0.927564 8.39123 -2.54439 -3.19401 17.1243 0.440634 -1.13741 -0.264683 -0.559123 -2.06526 0.958692 0.561002 0.171186 0.253242 1.59409 -0.0853921 0.0862451 0.313071 
8.49441 -9.36059 2.8478 10.7755 -8.49916 -6.70723 -2.43372 -4.34727 2.61664 7.4631 -2.58924 2.76085 17.6189 0.834127 -0.896772 -0.785657 -2.93176 -2.09296 2.46631 -1.54981 2.56496 1.9111 -0.756219 1.12959 0.658741 0.341241 
10.1661 -11.4024 1.79594 6.21236 -11.7225 -3.79626 -6.09327 -1.0683 8.43626 3.66625 -1.50713 4.31065 18.097 0.738987 -0.567984 -1.45362 -3.54659 -1.7447 2.34806 -0.538125 1.67528 3.59752 -2.61812 1.93758 0.0827795 0.342999 
10.3309 -11.5484 -0.522772 3.12765 -13.4946 0.252708 -6.39643 2.29093 9.59151 1.82403 1.68169 1.8374 18.372 0.106553 -0.0696484 -1.96888 -2.20763 -0.321972 1.47308 1.22225 1.05638 2.80189 -2.76206 1.82784 -1.9125 0.178637 
9.41739 -10.1269 -3.35341 2.49486 -12.6491 0.0380702 -1.02282 -0.492576 13.5726 -1.87984 5.00804 -2.31839 18.4628 -0.431993 0.250063 -1.40927 -1.47051 1.0812 0.424701 1.87033 1.24545 0.769292 -1.3462 0.857143 -2.45235 0.07166 
9.40151 -10.3466 -4.42191 1.59609 -9.64576 -1.25897 1.1423 0.646771 14.0579 -3.57417 3.29236 -3.48713 18.3292 -0.773739 0.255686 -0.600127 -1.0248 1.75511 -0.718592 1.78462 1.32641 -0.459509 0.0572723 -0.383804 -1.62093 0.0409737 
8.47079 -10.753 -3.30082 -0.374411 -8.24099 -0.916918 -0.51097 5.98103 10.0495 -0.365642 1.97326 -5.28882 18.4766 -0.862089 0.131619 -0.06395 -0.749347 1.26396 -1.05472 1.31701 1.43144 -0.959523 0.692246 -0.682548 -0.935922 0.0610649 
6.93549 -9.95692 -3.5497 -0.561698 -6.92314 -2.86276 2.27072 5.68617 9.05551 1.3533 1.28007 -4.78202 18.5699 -1.08066 0.54992 0.0776061 -0.22588 0.460983 -0.885689 1.26825 1.08066 -0.54645 0.457463 -0.277902 -0.672361 0.0807999 
6.33996 -9.66367 -4.10927 -0.172982 -7.69058 -4.43366 4.99805 4.14494 11.2762 -0.882342 2.60145 -6.35055 18.6478 -0.646156 0.548396 0.0796098 0.0181337 -0.0643295 -0.813055 1.49237 0.325687 -0.241139 -0.549451 0.0332778 -0.444777 0.0367872 
5.06365 -8.14165 -3.62966 0.365978 -7.61604 -3.92905 4.72906 6.96812 10.7123 -1.02851 1.58875 -6.31807 18.6477 -0.10515 0.121054 0.849424 -0.528834 -0.0615061 -0.919635 1.14874 0.514792 -0.766337 -0.355123 -0.404818 0.140809 0.00910969 
6.17593 -8.91867 -2.8628 -0.747581 -8.21619 -4.44905 5.7217 6.96849 8.0154 -1.92199 1.9853 -6.74468 18.6217 -0.155306 0.105231 1.19828 -0.857578 0.0572885 -0.284209 0.363208 0.966738 -1.43813 0.332509 -0.765756 0.759035 0.00236664 
6.49176 -9.72415 0.0741844 -2.91857 -6.96787 -7.45324 7.6526 6.84835 6.85422 0.0975065 -0.435954 -3.88091 18.6285 -0.0571193 0.0377057 0.867067 -0.592691 -0.162023 0.320767 0.0291687 0.604045 -1.05298 -0.0226285 -0.34923 0.790214 4.82559e-05 
4.84938 -8.34627 0.0301862 -2.8186 -7.72823 -4.09261 5.35232 9.03851 6.01458 0.217195 -0.214981 -3.77395 18.6692 -0.216975 0.20863 0.507635 -0.340305 -0.138442 0.515359 -0.485956 0.649834 -0.275663 -0.32515 -0.0657882 0.595064 -0.00322323 
5.44133 -8.23933 -0.740817 -1.56197 -8.67014 -2.50343 5.0596 8.95333 6.44787 -2.21124 0.942746 -3.85236 18.6242 -0.320233 0.103668 0.321577 -0.285102 0.0698914 0.123896 0.0837135 -0.0887814 0.225955 -0.593396 0.0433482 0.312452 0.030172 
5.61626 -8.61793 0.0828812 -3.1274 -8.05726 -4.34716 4.58843 9.16517 6.84026 -2.39337 0.967012 -3.78364 18.6077 -0.15103 -0.19615 0.268433 -0.487057 0.695806 -0.431834 1.00478 -0.548222 0.428762 -0.528042 -0.312933 0.134946 0.0391121 
4.50715 -9.06998 1.65572 -4.18967 -6.45389 -6.70649 8.45311 6.34111 7.57115 -1.56419 -0.81021 -2.31381 18.8101 -0.494258 0.0569491 -0.228848 -0.387574 1.40816 -0.412248 1.1406 -0.769332 0.553097 -0.606578 -0.328474 -0.437003 0.030632 
4.56132 -8.91169 0.174081 -3.94003 -5.35732 -4.15025 8.67945 7.60351 7.59675 -2.74654 -0.903167 -3.8685 18.7718 -0.14972 0.0623182 -0.872962 0.186482 1.55844 0.271995 0.27027 -0.378692 0.00955019 -0.493674 -0.463255 -0.548485 -0.0327776 
3.49751 -7.8077 -1.93066 -3.09352 -2.97933 -4.66312 8.7171 5.8875 8.83511 -5.06755 0.235463 -5.99494 18.6953 0.593814 -0.0781919 -1.58036 0.579466 1.46655 1.09481 -1.77286 0.241858 -0.648151 0.150495 -0.38667 -0.9233 -0.152411 
5.37248 -8.93748 -2.48874 -2.74307 -2.00236 -4.00887 5.80779 7.49851 6.25603 -3.11006 -1.8721 -4.6855 18.5012 1.08405 -0.196738 -1.50945 0.331361 1.77862 1.39422 -2.74296 -0.457789 -1.03946 1.52548 0.0974961 -0.782339 -0.249977 
7.07063 -9.44804 -4.91466 -1.89082 -0.798609 -1.30312 1.02463 7.6029 5.00076 -0.629953 -2.25909 -6.52181 18.1833 1.34635 0.248931 -1.35277 -0.0270154 1.8028 1.91009 -2.56832 -1.23355 -2.12414 2.70562 1.69015 -1.06497 -0.379487 
8.19498 -9.07521 -5.88118 -2.88457 2.44543 1.14082 -1.18913 4.45687 4.3166 2.66206 0.831591 -7.51676 17.7779 0.563002 1.22224 -0.914144 -0.0734985 1.35693 1.59288 -0.586689 -2.32275 -2.80447 2.17518 3.02421 -0.347761 -0.467315 
8.81802 -6.49418 -6.9983 -3.15785 3.81078 2.31247 -0.626058 1.24059 -0.815858 5.57451 7.33438 -9.90414 17.1595 -0.135117 1.7381 -0.469319 0.205649 0.258643 1.06675 1.0623 -2.19913 -3.15137 0.877004 3.16325 0.739511 -0.43619 
7.3138 -4.30318 -6.01764 -2.47705 2.47761 2.14775 3.69968 -0.934065 -4.85803 4.66361 8.45221 -4.73313 16.6765 -0.216315 1.32303 -0.269205 0.0133133 -0.887552 1.10194 1.5534 -1.17331 -2.48784 -0.169328 1.74564 1.61748 -0.261157 
6.83565 -3.14358 -7.19303 -1.06634 0.478516 3.52715 3.89174 -0.697295 -6.16878 2.75429 9.74687 -4.21607 16.553 0.0288987 0.278503 -0.231927 -0.843088 -0.862445 1.32656 1.16323 -0.265043 -1.17963 -0.449575 -0.227298 2.03723 -0.00157623 
8.10459 -4.13538 -7.12984 -3.86376 -0.326199 6.0432 4.31899 -0.440718 -5.44613 3.22553 8.35353 -2.27339 16.7754 0.552446 -0.718688 -0.427586 -1.79268 -0.050168 1.60354 0.183211 0.0318937 0.0597044 -0.111936 -0.805466 0.764616 0.205756 
8.56711 -5.18557 -7.60183 -6.67993 0.900461 6.99752 4.88043 -0.331296 -6.41997 4.04568 6.24723 -0.947844 17.1022 0.36813 -1.05267 -0.461052 -2.03975 1.12265 1.17959 0.0388198 -0.408239 1.18279 -0.195877 -1.1115 0.17517 0.287486 
9.21029 -6.87563 -7.95117 -8.63366 2.0158 8.43028 4.12139 -0.957597 -4.43391 3.45823 6.17469 -2.54417 17.4307 -0.145195 -0.738025 -0.46409 -1.14971 1.37605 0.78997 -0.166123 -0.829228 2.13539 -0.674437 -1.02988 -0.782407 0.250703 
8.12344 -7.03683 -9.08763 -8.88016 4.92077 8.23159 4.18464 -2.48005 -0.760917 1.65855 5.27878 -3.20483 17.6628 -0.46806 -0.360557 -0.271236 -0.369584 1.03032 0.0198767 0.0801204 -1.24927 3.02714 -0.80917 -1.06689 -1.2146 0.169478 
7.60045 -6.89988 -8.70739 -8.51222 4.54391 9.37602 3.83627 -3.51248 2.40129 1.04691 3.68836 -5.05694 17.7486 -0.585726 0.0319338 -0.131493 0.460073 0.383837 -0.690852 0.215646 -0.989794 2.92424 -0.736178 -1.0748 -1.46589 0.0653065 
7.03173 -6.97623 -8.5799 -8.58857 4.78799 6.62404 5.42359 -5.30022 5.29812 1.20549 2.15596 -5.76448 17.7907 -0.557107 0.466302 0.140292 0.889573 -0.327481 -1.12765 0.026192 -0.208494 2.06818 -0.300827 -1.40282 -1.24719 -0.0472179 
6.82752 -6.74626 -8.8625 -6.47909 4.00137 5.77979 4.58015 -4.49648 7.1578 0.0038743 2.36209 -8.5938 17.6933 -0.319787 1.06484 0.283718 1.49998 -0.422094 -1.34076 -0.554464 0.790698 0.838262 0.334237 -2.13818 -0.82672 -0.225051 
5.72437 -4.78213 -8.30862 -5.44887 3.55463 4.39145 3.94366 -3.03052 7.20172 0.675934 -1.0722 -7.67235 17.4543 -0.162134 2.50002 0.388887 1.92723 0.263442 -1.46753 -0.690353 1.61621 -1.19813 1.958 -3.65543 -0.397967 -0.559127 
6.6552 -2.67273 -7.42445 -2.58215 3.05012 3.78854 1.80392 -0.693839 5.6408 2.98287 -5.38844 -8.2366 16.7915 -1.89581 4.87954 1.90224 0.774613 2.33709 -1.02791 -0.573918 2.78093 -2.87319 1.95731 -3.66428 0.621452 -0.591618 
6.30722 3.48708 -7.35449 -0.900898 6.58083 0.282031 3.35994 0.879504 0.0659828 9.50598 -12.2459 -7.93291 15.4459 -5.10739 5.03453 2.23514 0.139942 3.7754 0.178908 0.0331032 4.2333 -2.86115 1.88483 -1.05143 2.20823 0.0144082 
-2.94297 13.5168 0.171656 -4.88001 14.1737 2.69494 2.00241 7.45317 -3.6403 5.3754 -10.3725 -5.35626 15.7394 -7.96502 3.54213 1.24804 -1.14332 3.62136 -0.0308598 0.444152 5.05752 -1.58686 0.862089 1.7672 2.18164 0.775598 
-15.0135 12.2957 -0.930986 -3.60023 16.8698 5.83279 4.00993 14.0625 -2.46349 8.9038 -3.83731 1.92864 18.0524 -7.80343 1.22479 -0.209062 -0.711396 1.87278 0.176654 0.484562 2.98335 -0.369329 -0.467398 3.30699 1.4847 1.15664 
-22.5095 10.6336 -4.39601 -6.94908 16.0124 0.858862 3.69969 18.0023 -1.02877 7.59441 -0.75675 -2.25919 19.3663 -4.74058 -1.00198 -1.90315 -0.62704 -0.355551 0.716469 0.503886 -0.55305 0.449006 -0.644899 2.24194 0.474401 0.839004 
-22.9267 11.0527 -6.11597 -3.42334 15.0254 2.08334 4.93411 10.5217 -3.08643 6.05948 -0.518797 -2.05793 19.4157 -1.44951 -1.02408 -0.171216 0.00210419 -0.670022 -0.205904 -0.113764 -1.80314 0.219144 -1.86136 0.549609 -0.0884605 0.217365 
-22.6893 9.12846 -6.7516 -8.10365 13.3182 8.15201 4.05975 6.45831 -1.0838 3.57306 -0.822032 -0.990968 19.2528 0.00450249 -1.26816 0.675592 0.0721879 -0.765914 0.852978 -0.951961 -3.03492 -0.786042 -2.48174 0.600688 2.00323 -0.108786 
-22.1712 7.9279 -0.609273 -3.01242 14.8668 1.15669 3.26108 10.8188 -1.34025 1.60768 -1.05662 0.852224 19.196 0.0338108 -1.53287 1.46708 -0.817548 -0.427285 0.301161 -1.21203 -1.44188 -0.397508 -1.91497 1.35533 0.679248 -0.113963 
-22.8648 5.85517 -3.7714 -6.7936 12.2622 5.58708 -0.223597 2.67914 -5.83207 -2.58841 2.5156 6.3019 18.9322 0.222218 -1.52213 1.14765 -0.518474 -1.35574 -0.322764 -0.0322652 -2.62914 -0.45477 -1.22123 -1.22105 -0.735286 -0.137962 
-22.6699 5.02499 -0.270665 -8.16611 13.417 4.87161 1.01565 5.2019 -2.69984 -0.434623 4.58901 -2.30813 19.0062 0.48169 -1.10659 0.349596 -1.02057 -2.20583 1.0918 1.31966 -3.28319 0.0297102 0.514544 -1.76809 -0.424459 -0.205802 
-21.3289 2.96925 -1.18266 -8.11918 7.2644 4.68073 5.02114 -3.87893 -2.67786 -1.51192 -9.75008 -3.08722 18.6579 1.7037 0.831372 2.15413 1.12618 -1.11696 -0.483349 1.38158 -1.35839 1.19915 1.60465 -0.373684 -0.25096 -0.28317 
-20.5307 3.83791 -0.155664 -7.45251 6.33656 7.06886 7.23702 -2.31817 -2.76881 3.64216 -3.76423 3.42449 18.3041 3.39043 2.46652 2.77604 2.01255 -0.763455 -1.30231 -1.29951 -0.674737 -0.0732966 -0.775197 0.614816 1.43369 -0.493747 
-15.4159 10.6056 6.94176 -1.51949 10.2176 2.07171 3.57362 -0.352773 0.198173 3.39648 4.8238 2.18079 17.8674 4.38085 1.9012 3.16654 2.70742 -0.639308 -2.62605 -2.45029 0.00510893 -0.591511 -1.46553 1.90283 1.25422 -0.54102 
-8.67419 13.5394 9.54734 -1.40319 8.12312 -0.335447 -4.75816 0.0651317 -4.50434 -6.76481 0.376154 2.22632 16.9327 4.44274 -0.660579 3.40475 2.10119 -1.73976 -3.01312 -2.13503 -1.29167 -0.882359 -2.67869 -0.801273 1.14905 -0.304872 
-5.35286 7.62447 9.79854 2.39327 3.17458 -4.74736 -1.23274 -5.04504 -4.76765 -3.63611 -2.30613 3.78297 16.6385 3.36471 -2.9944 2.41631 0.972382 -3.98849 -1.73971 -0.135541 -1.86234 0.269647 -3.05415 -1.98036 1.8953 -0.020097 
-3.34846 2.02556 15.4397 1.09707 1.15927 -4.5872 -1.03496 -6.4304 -4.69769 -6.23502 -4.20563 8.36867 17.3942 2.31556 -3.53935 1.97347 0.693213 -3.89557 -0.109599 0.778959 -1.81838 2.01108 -1.28266 -0.00654792 1.21207 0.189602 
-1.2552 1.39054 16.0771 2.09229 -6.24295 -4.50097 1.03432 -6.4167 1.64308 -12.1392 -2.78709 8.58611 17.5361 2.1111 -2.42483 1.32912 0.319973 -3.03506 1.63648 -0.384927 -0.157406 1.86413 -1.56254 0.283918 -0.167193 0.103471 
0.854763 -1.04032 16.2754 2.21337 -6.64596 -1.00664 -1.99689 -8.34092 2.34572 -8.92657 0.583894 5.88509 17.4319 1.66572 -1.25924 0.164096 0.691274 -2.13756 1.87154 -0.671867 0.0998861 1.22236 -0.987821 0.632 -1.61662 -0.114794 
3.10103 -2.96672 16.0263 3.43499 -8.09808 1.64478 -2.67641 -4.87681 1.03128 -10.103 -3.28131 4.18879 17.137 1.04962 -0.769116 0.153753 0.536464 -0.873631 1.72844 -1.1647 0.213017 -0.290902 -0.0737865 0.420147 -0.998755 -0.148533 
2.80203 -2.09201 16.2856 3.88209 -8.60097 1.69764 -2.53893 -6.70092 1.71999 -12.1922 -0.798523 2.48424 17.0198 0.353928 -0.0781486 0.149514 0.576494 -0.387474 1.45688 -0.610996 -0.0164279 -1.44049 -0.742564 0.444549 0.659214 -0.129483 
3.01927 -1.9292 16.8408 3.94025 -9.63361 2.78907 -4.51816 -6.17162 0.501441 -10.8753 0.00485146 5.29276 16.9995 -0.199577 0.461295 -0.277032 0.0621654 -0.117381 0.531159 -0.219538 -0.455408 -1.07569 0.137395 0.96774 1.07425 -0.0815418 
2.66528 -1.94983 16.6157 4.84321 -7.81557 5.7056 -4.131 -7.77565 -4.59179 -12.2533 1.16356 8.62918 16.8532 -0.180554 0.41923 -0.17089 -0.293088 -0.237817 -0.0640574 -0.00723715 0.199572 -1.00816 0.681914 0.544372 0.960297 -0.0830185 
2.17151 -0.73134 14.4761 3.26526 -9.07769 2.29659 -2.97807 -6.61648 -1.19127 -9.38552 0.576351 6.48757 16.8126 -0.271811 0.48865 -0.177078 -0.372673 -0.213925 -0.425583 0.053047 0.719517 -0.392865 1.11029 -0.0521265 -0.307889 -0.0915976 
2.32314 -0.59479 16.6135 2.75415 -10.068 1.62359 -3.34516 -5.48063 -2.47447 -9.52751 1.63759 6.68832 16.6982 -0.0868373 0.670422 -0.364127 -0.264847 -0.605594 -0.426112 0.0540822 1.00737 -0.114849 0.903562 0.247966 -0.874679 -0.173678 
1.83128 -0.163466 15.9565 3.12141 -9.57701 2.70216 -4.64584 -3.72155 -2.52154 -6.68671 -0.492795 4.72374 16.6191 -0.0154799 0.650412 -0.534799 0.25282 -0.189939 0.263618 -0.239279 1.14448 -1.25271 0.720353 -0.20949 -0.428234 -0.249911 
2.40121 1.11835 14.0549 3.59089 -10.5939 3.37225 -3.0267 -4.18628 -4.5009 -9.08485 2.93797 5.1377 16.0816 -0.0949133 0.671383 -0.658537 0.393746 0.300888 -0.296562 -0.708759 1.32535 -1.12217 1.27762 -1.08947 -0.723748 -0.269546 
2.05507 1.66415 13.0814 4.11098 -9.76445 2.74035 -4.33369 -1.54123 -6.4416 -6.00509 -1.12129 5.12171 15.8713 -0.0797475 0.822773 -0.391304 -0.259121 0.46652 -0.617103 -0.424479 0.698149 -0.377263 0.467012 -0.479757 -0.175504 -0.244594 
1.73667 1.84832 14.7584 4.2281 -8.46985 0.121689 -7.04503 0.0559633 -6.1253 -3.48022 -3.4955 2.87059 15.7243 -0.288378 0.647278 0.355607 -0.559411 0.732288 -0.260658 -0.813529 0.154682 0.117331 0.79331 0.07246 -0.250683 -0.0986109 
1.76482 3.58541 13.6482 1.50721 -8.30642 1.24193 -4.75907 -2.35192 -3.59566 -7.15397 0.325156 4.97977 15.5747 -0.22745 0.761367 0.937735 -1.00904 0.484208 0.0909346 -0.771726 -1.24098 1.10157 0.697001 1.3424 -0.486309 -0.0565713 
1.10445 3.39411 15.5495 2.09573 -7.66146 2.81817 -6.88165 -3.00752 -5.33722 -4.54387 2.57704 3.95525 15.7368 -0.121771 0.782758 0.780912 -0.55049 0.0731707 0.493822 -1.16278 -1.92772 0.973267 1.28927 1.31019 -0.358436 -0.100826 
1.23394 4.69809 17.3745 0.131975 -7.74761 1.84678 -8.27401 -6.21441 -1.32777 -1.98827 2.55446 2.14784 15.5822 -0.167187 0.572801 0.191419 0.323469 0.0718197 0.412544 -1.27332 -1.75882 -0.360007 1.13971 0.0798582 -0.32223 -0.199078 
1.39326 5.20577 16.7998 2.16326 -8.38341 2.28837 -11.1015 -7.65141 -2.39291 0.383276 1.94078 2.49438 15.2165 -0.141843 0.5093 -1.22802 0.695857 0.172186 -0.285653 -0.0658879 -0.959131 -1.2511 -0.341579 -0.655632 -0.140998 -0.30607 
0.784473 5.54359 13.9802 3.09078 -7.58635 3.56955 -9.01578 -8.82408 -6.86785 -3.91897 1.04258 4.09906 14.8395 -0.16573 0.527638 -1.66456 1.60218 0.44103 -1.45014 0.944274 0.729735 -1.7104 -1.51823 -0.73086 0.441141 -0.353397 
0.619963 5.51786 11.1066 4.09561 -6.88116 0.528521 -6.84021 -6.49834 -8.82267 -5.28641 0.0548257 2.27465 14.5778 0.135039 0.905877 -2.0503 0.259506 1.1235 -1.68533 2.79648 1.98885 -0.915507 -1.96768 -0.0850441 0.108003 -0.456272 
0.791935 7.18024 11.8983 7.17669 -6.29358 -4.524 -5.68328 -3.14227 -6.66488 -6.74459 -0.156864 4.46341 14.1345 0.271065 0.917954 -2.12323 -0.105588 1.76181 -1.42661 2.17531 1.86688 -0.39342 -0.280452 0.0309835 -0.290949 -0.541521 
2.06472 8.91683 7.58924 1.41784 -3.41228 -2.0915 1.21465 -0.548065 -7.07193 -8.0423 2.11528 2.85222 13.2876 0.15592 1.1012 -2.12381 -0.699668 2.6302 -0.600348 0.825817 0.102978 -0.908074 0.802896 0.909254 -0.360897 -0.495426 
1.41742 8.43387 5.12269 3.90173 -0.511721 -2.25351 -2.16664 -2.46482 -9.71032 -3.94328 0.167265 2.35553 12.777 -0.0119594 0.698447 -1.87626 0.130612 2.2602 0.393002 0.33721 -0.515265 -0.129058 2.61682 -0.457998 -1.19154 -0.460142 
1.08682 10.397 3.87532 2.23475 3.37892 -3.60846 -4.46944 -6.32217 -11.8403 -2.67258 4.43903 1.52411 12.7795 -0.372512 -0.0116207 -1.4648 0.690289 1.31011 0.183807 -0.670018 -1.10226 -0.580391 2.21352 -1.87382 -0.223359 -0.333314 
1.22109 9.93238 4.37399 7.42129 1.61182 -1.80051 -1.15518 -2.83154 -4.92597 3.65466 -3.60873 -0.830227 12.0879 -0.333897 -0.226 -0.903051 0.660648 0.405209 0.674255 0.171525 -1.07367 1.59278 1.74861 -1.83283 -0.101624 -0.223146 
0.300327 8.10948 0.639597 3.1095 2.07648 -1.39897 -2.64117 -5.87601 -12.3661 -0.773699 -5.36582 3.3283 11.9656 -0.480287 -0.636594 -0.615293 0.393481 -0.615633 0.140263 -0.338681 -1.54124 2.06057 0.85416 -1.78873 -0.0889231 -0.139695 
0.141179 8.44765 2.22529 6.76759 2.16555 0.0130115 -2.22315 -8.05624 -1.48354 3.85032 -4.09445 0.945315 12.0682 -1.70436 -1.44387 -1.9398 -1.3929 0.817158 -0.441642 0.339889 -0.0264695 0.888281 -0.353331 -0.972545 -0.0015398 -0.0868149 
-0.774662 7.95642 1.87321 4.52901 0.0238914 -3.81391 -5.62886 -11.416 -3.2587 1.50039 -4.26177 0.19172 12.0908 -1.36766 -0.872438 -1.28365 -0.406375 1.41679 0.244963 1.94019 1.64918 2.0321 1.13468 -1.31426 -0.349941 -0.157928 
-6.76319 2.78955 -5.94183 -0.252954 6.7239 -2.80125 2.03811 -0.193885 -5.03825 0.750956 -9.02348 0.730364 11.5912 -0.262809 -0.53173 -1.5434 -0.790157 1.12087 0.345256 0.535039 1.41412 0.0546315 -0.200799 -1.01872 1.1505 -0.155005 
-3.08578 6.57633 -1.69509 4.5879 6.88124 1.23298 4.92917 -1.5613 -0.428226 6.44936 -9.47259 1.68607 11.4145 -0.368795 -0.656815 -1.67841 -0.56715 0.136323 0.3559 0.243983 1.17395 0.651223 0.965608 1.48661 1.7768 -0.0997051 
-0.0173082 6.47904 -3.70755 2.78736 4.34125 -0.784151 -4.82697 -5.91299 -2.62562 0.371836 -6.58266 5.95066 11.6314 -0.519218 -0.385089 -1.78479 -1.44395 -0.0682968 0.488828 -0.451071 -0.596003 0.800386 0.911633 2.79175 0.886344 -0.00328836 
-5.99158 2.8276 -7.63597 0.173102 1.89684 -3.04296 -0.97641 -2.6867 -1.2089 6.51799 1.95085 6.46557 11.5722 -1.63852 -1.56076 -2.72626 -2.17048 0.100669 -0.865548 0.214558 1.78786 1.17069 0.502556 2.74704 -0.492667 0.00605726 
-7.90638 2.73847 -11.8953 -5.26532 8.87462 1.78086 2.73555 -2.6112 -0.645981 5.2748 -0.77643 2.77233 11.4959 -1.09105 -1.06018 -1.89316 -1.12595 -0.0319647 0.223317 1.6747 2.10799 0.898653 2.0589 0.857834 -2.01026 -0.0329127 
-7.33385 0.642799 -11.2325 -2.23816 5.11789 -4.37727 2.2207 5.72709 4.43541 6.51065 1.35949 0.811899 11.5125 0.155228 -0.381178 -0.427511 -0.711552 -0.228345 1.33899 0.454616 0.257792 -0.928601 0.00795334 -1.23812 -0.883638 0.00646992 
-4.80141 2.27057 -11.3751 -1.63674 2.57089 0.999587 1.94795 0.420058 -0.954506 10.67 -1.99781 -1.27378 11.4967 0.703224 0.568553 0.488586 -0.528172 -0.876598 1.43705 -0.483732 -1.18085 -1.66145 -0.260032 -0.683853 0.450007 0.0124044 
-6.76792 1.15567 -10.0337 -5.19895 3.90697 4.04264 1.69047 -2.91337 -5.69764 3.86015 -3.62909 4.07044 11.6042 0.241057 0.962988 0.473186 -1.28506 -0.725361 1.21435 0.400844 -1.48963 -1.71926 -1.13436 0.864662 0.731972 0.0590954 
-4.67322 5.3248 -10.0518 -6.42579 5.09709 4.75616 0.582002 -4.19523 -3.88673 5.29989 -1.70141 3.3931 11.5121 -0.16662 0.419539 0.139937 -1.11361 -0.733479 -0.304144 0.19272 0.50264 0.88491 -0.664278 2.26271 0.318663 0.0213381 
-6.19266 3.93062 -9.52817 -6.26892 0.227992 -0.183785 4.9079 0.586593 -2.69477 3.5239 5.5346 2.13832 11.8003 0.268569 -0.0978795 -0.47615 0.202362 -0.122385 0.106471 1.10347 2.14801 2.18486 0.499267 0.642775 -1.12864 -0.0473424 
-5.92214 2.98078 -10.9281 -6.66981 0.742987 1.59208 1.30284 1.18328 1.96861 7.51675 4.73388 1.2856 11.5053 0.113725 -0.906539 -0.629693 0.692511 0.599412 0.914258 1.44703 2.32161 1.73652 0.16205 -1.30304 -1.04816 -0.0711924 
-4.80062 1.83828 -11.9762 -4.06513 5.4721 6.15704 6.84739 5.13742 2.29898 5.24806 -3.63285 -0.519028 11.3708 0.390561 -0.53272 -0.594426 0.701227 1.52173 1.72466 0.942355 1.30558 1.03179 0.117963 -2.67016 -0.711933 -0.0993287 
