-5.83128 -3.95407 -5.90275 -0.976405 5.9864 3.5663 8.20222 0.914489 3.68715 10.3883 1.61327 3.0995 12.1826 0.121263 0.632991 1.04481 2.00912 -1.08858 -0.346906 -1.61548 -1.28725 -0.212366 -1.35798 0.18571 0.361102 -0.0460434 
-5.36212 -3.15337 -4.80033 0.849887 -0.251379 -0.420537 5.10641 -5.23842 1.48489 8.39165 -0.493931 4.7009 12.005 0.351242 0.493757 0.873226 2.24946 -0.751144 -1.10977 -1.07625 -0.190466 0.0829055 -2.56536 0.044178 0.351867 -0.0443973 
-5.45955 -1.18947 -1.22992 8.15607 3.6624 3.82519 1.6727 -2.44532 3.72646 4.59671 3.59543 4.1043 12.0412 -0.00901661 0.189736 0.706443 1.98193 0.588739 -0.79712 -0.917435 0.852391 -0.00771747 -1.27009 0.604657 1.26552 0.0291927 
-4.26094 -2.86759 -3.87304 5.70467 3.39267 -2.112 6.08575 1.64206 4.08203 0.457238 0.843088 4.35643 12.0314 -0.162066 -0.25506 -0.0286418 -0.0477835 0.798091 -0.400798 -0.438297 1.44496 -0.209673 -0.694371 0.0684049 0.0947721 0.0294368 
-6.42696 -3.14828 -2.83419 6.50585 7.10807 0.426426 3.12538 1.7362 2.35 8.00503 3.96805 9.59935 12.3154 -0.159406 -0.900759 -0.84898 -1.36113 -1.31129 -1.10729 -0.435341 -0.011168 -0.482142 0.0344678 -0.552325 -0.81457 -0.0238721 
-5.68875 -3.44926 -4.14141 1.43608 2.01624 -0.725147 2.18859 -0.104393 1.12476 3.21564 -0.338219 2.42724 12.0151 -0.0875032 -0.414802 -0.206205 -0.607186 -1.54263 0.148201 -0.118739 0.25074 -0.17906 -0.136773 -0.924556 -1.50365 -0.0594603 
-5.54268 -5.40242 -5.34063 3.48472 -2.20583 -2.40469 1.44457 -1.62793 2.79438 3.38985 1.42445 0.996045 11.93 0.371423 -0.139467 -0.20043 -0.566844 -1.55565 -0.968665 0.938379 0.656471 0.0462523 -1.29886 -0.636795 -0.797796 -0.0605761 
-5.1406 -3.81453 -3.65084 4.1793 0.336464 0.0445669 6.33246 4.57783 2.96454 2.08096 -2.5079 1.13984 11.9268 0.175317 0.518899 0.900056 0.893978 0.291171 -0.976777 1.27787 1.96354 0.844249 -0.125958 0.610478 1.20257 0.0278486 
-4.84392 -3.66298 -4.08162 2.30002 0.1697 -4.80175 5.74535 2.67745 1.66137 2.07808 1.86892 6.25406 12.0567 1.65173 2.26701 1.58561 0.122845 1.54707 0.677731 1.73501 1.95494 -0.099331 -1.31099 -1.60539 0.653724 0.0770973 
-5.16154 -1.72448 -0.270635 6.49832 2.28433 -4.4105 6.42758 7.56063 5.91251 3.24174 2.49194 5.81107 12.091 4.12179 3.58928 0.830178 -3.06758 -0.650004 2.07485 -0.100743 -0.159981 -0.532102 -2.13132 -0.77987 -0.721195 0.708925 
2.72647 4.88762 0.897313 2.93943 4.55557 3.2115 10.0721 6.65535 0.823741 -3.74549 -9.10243 1.92905 12.2334 5.17454 3.85757 0.263075 -4.95742 -1.76002 3.44457 -1.19039 -1.07373 -0.478079 -2.20217 -0.995776 -1.88389 1.1271 
11.6832 9.85657 -1.98941 -11.4783 -5.10649 6.41217 3.66537 1.78898 0.722846 -5.66386 -0.921571 -0.303627 15.3831 4.50401 2.64106 -0.0847834 -5.02586 -3.00987 1.84051 -1.78573 -2.21863 -0.89046 -1.64841 0.4187 -1.32234 1.19847 
12.6064 9.83435 -1.90686 -13.4987 -4.93501 7.00974 1.17448 0.19462 1.8658 -4.47996 -1.40321 -0.108054 16.0462 1.77085 0.794957 0.472167 -1.53549 -3.83177 -0.055698 -1.43859 -2.1323 -0.0898228 0.174652 2.34869 -1.18544 0.858403 
12.4185 9.00744 0.707535 -10.4119 -8.01974 2.89292 1.94771 -0.302136 0.939178 -4.63308 0.735829 0.217931 16.177 -0.93393 -0.66809 0.88564 2.83626 -1.20945 -0.401309 0.0304599 -2.0677 -0.787822 0.707256 0.801286 -1.38629 0.0892855 
11.213 9.28697 1.90967 -5.27123 -13.1466 4.69264 3.73794 -2.96062 0.266461 -3.38762 1.8123 -4.25891 16.1285 -1.97059 -1.17207 0.436576 4.19584 0.423357 1.0208 0.732119 -2.36956 -1.848 -0.0186217 0.163025 -1.67286 -0.11655 
7.71022 6.78981 0.530517 -1.41073 -7.04792 5.56418 2.53593 -6.97191 -2.41659 -2.67375 1.47711 -5.15964 15.7883 -2.18553 -1.48599 -0.16321 3.55579 2.96936 2.57418 1.48706 -2.32529 -2.87529 -1.29759 -1.3064 -1.37893 -0.13696 
5.10764 5.08281 0.364526 2.97987 -3.30414 10.7781 4.54096 -8.3183 -5.6963 -5.55273 -0.958727 -5.78355 15.6577 -1.60723 -1.40325 -0.314495 1.99368 3.44569 1.9907 1.53027 -1.22861 -2.48778 -2.11744 -1.51513 0.209583 -0.0530097 
4.54357 3.67956 0.664058 3.24151 1.90582 12.7211 8.98149 -9.24976 -10.4559 -10.0385 -4.41066 -5.91439 15.7275 -0.268708 -0.930521 -0.189673 0.301034 2.01687 0.142355 1.03227 -0.00509043 -0.652511 -1.59811 -0.784728 0.643471 0.0310647 
4.76022 3.82584 0.270429 2.37108 -0.395071 11.0677 8.1665 -7.96472 -8.15278 -10.2924 -2.81949 -2.83362 15.8938 0.823451 -0.257552 -0.872928 -1.20417 0.382909 -1.86104 -0.730653 0.212103 1.88212 0.328175 1.18802 0.00528016 0.0811586 
6.54039 2.76569 -0.370798 0.398837 1.58188 6.13115 5.88452 -7.17415 -4.4509 -8.29444 -1.51615 -3.41725 15.8256 1.32714 0.660986 -0.870898 -1.92294 -2.38526 -2.73693 -2.22708 1.16092 4.27813 1.10189 2.36009 -0.607714 0.236803 
8.22649 4.25199 -3.48269 -1.61966 -1.22762 4.76787 2.43618 -8.29559 0.711789 -4.78388 3.53412 -7.00572 16.0145 1.67846 0.916675 -0.624554 -2.7495 -3.6768 -1.08019 -2.27975 3.09147 3.88091 -0.0145092 2.04403 -0.744712 0.52139 
9.44615 6.77142 -1.81387 -4.37783 -9.60418 2.18635 0.711272 -3.27972 6.50246 -7.28329 4.21297 -6.8669 16.8512 1.56727 0.333304 -0.278995 -2.94536 -4.09931 1.84651 -2.1138 4.78059 2.17089 -2.15408 0.799018 1.05547 0.729868 
11.6997 6.40635 -2.1308 -8.98807 -13.186 7.63917 -0.645604 5.54541 5.77509 -10.8706 4.53611 -4.83235 17.988 0.95005 -1.10578 0.278242 -3.31399 -1.81377 3.5998 -1.4658 3.87971 -0.484886 -2.91007 -0.577109 2.89619 0.722916 
12.6401 3.35503 -2.44171 -10.6438 -12.9355 13.928 -3.1436 9.8083 3.87191 -16.0215 1.97795 0.773407 18.4882 -0.0814963 -1.84186 -0.311767 -2.45348 1.55887 4.72534 -1.06191 -0.0145623 -2.66768 -0.640924 -0.413969 3.60265 0.535769 
11.3797 0.431304 -1.77756 -15.0566 -8.63083 16.896 -2.96536 4.55893 -0.397368 -14.9651 1.76609 3.65507 18.8105 -1.56965 -1.39789 -0.424922 -0.710554 3.54091 2.44195 -1.04566 -3.58569 -2.39246 2.46343 -0.54367 2.22845 0.287692 
9.19863 0.549653 -3.54933 -13.6109 -4.08744 21.1846 -3.4384 -2.85929 -3.74971 -8.44064 3.52814 6.90264 19.1188 -2.48748 -0.549933 -0.271097 1.52838 4.56565 -0.600834 -1.22572 -4.40253 -0.575903 4.89877 -0.949945 -0.848037 0.12732 
5.57218 0.81961 -3.70161 -11.0573 0.0945101 16.2206 -5.72651 -6.04923 -2.37641 -2.34383 1.04266 3.24527 19.1112 -2.47952 0.359265 0.435936 3.36481 4.03673 -3.77417 -1.43615 -2.425 1.90854 4.51284 -2.53457 -3.35834 -0.100178 
3.10652 0.411207 -2.83517 -5.00159 5.5301 11.2616 -7.89161 -6.90026 1.98191 2.16168 -2.41006 -3.26188 18.9745 -1.91469 1.02018 1.045 3.94837 3.70893 -6.40647 -0.770546 0.67124 2.02055 2.99863 -3.32543 -3.7464 -0.354298 
2.02818 2.29685 0.0450452 -2.53722 6.74405 2.9867 -7.91951 -5.54558 6.27953 2.29795 -7.93764 -8.05436 18.3818 -2.71189 2.34468 1.32793 4.24866 2.54429 -7.66931 1.16955 2.38996 0.673023 1.17222 -1.88891 -1.99517 -0.0298998 
1.39716 4.91192 -0.197654 1.87088 11.1324 -4.23077 -6.19463 0.24508 2.02508 4.23159 -8.60887 -6.17955 17.712 -4.03694 2.15525 0.303838 2.83001 0.76237 -5.58851 3.79999 4.082 -0.724965 -0.00281859 0.871784 0.162881 0.484809 
-7.13258 10.2927 1.61926 6.74983 10.0148 -14.3798 -0.727251 2.3279 0.967119 2.48232 -5.30246 -5.27172 19.5929 -5.15135 1.17172 -1.09729 1.36064 0.546821 -1.46577 4.25405 3.39186 -1.45066 0.586495 3.00197 1.5897 0.878663 
-12.4978 7.18954 -2.10309 4.50495 7.70656 -7.99773 7.5122 9.57301 1.0133 2.05541 0.631269 -3.83879 20.793 -4.78595 -0.264215 -2.07724 -1.05994 0.220961 0.872673 3.36807 1.93854 -1.142 -0.834351 2.4477 1.59021 0.795219 
-16.7811 7.01665 -4.4887 2.94894 11.1911 -2.45867 6.49733 6.74975 -0.467866 6.31852 2.45217 -1.27622 21.2346 -3.27111 -1.72039 -3.26124 -2.57477 1.08216 2.36408 1.56389 0.949419 -0.592493 -1.36185 0.147377 1.82492 0.265412 
-17.7084 5.22885 -7.52985 -1.52839 11.6491 -5.82796 7.03341 7.72687 -2.96744 -1.85826 -0.247682 -0.226266 20.8672 -2.43266 -1.6108 -2.20658 -2.75935 1.5921 -0.0307308 -0.835795 -0.693719 -0.770636 -1.58637 -1.45637 1.15287 0.0446093 
-20.8828 2.67108 -11.9736 -3.10734 13.4543 -3.64424 7.3316 7.99806 -0.00497693 -2.3701 -4.1261 2.04663 20.8829 -0.83967 -0.874232 -0.548023 -1.85499 -0.0622323 -1.0067 -0.960176 0.357793 0.74396 -1.48301 0.296459 0.171415 0.0122429 
-22.6102 1.30834 -9.39355 -6.26366 14.5354 -7.5586 2.9161 5.48026 -3.07133 -1.53214 -3.36147 0.264126 21.1919 -0.432454 -0.472621 1.20613 -0.459646 -0.3959 -0.109245 -0.294739 0.726155 0.412837 -0.560922 1.37504 0.487747 0.0688753 
-18.5285 4.60574 -6.29696 -3.95839 9.43676 -6.62686 3.75511 9.66201 3.30388 -1.2596 5.49136 -0.66434 21.1335 0.573071 0.639431 3.16354 0.166889 -1.39782 -0.238933 -0.372277 0.168851 -0.188287 -0.996624 1.34706 0.256974 -0.115859 
-21.0478 1.89841 -4.33749 -3.4011 11.6784 -4.88288 7.34796 10.5257 -2.55768 -5.21812 1.81878 3.56795 21.0863 1.43951 1.00288 3.70395 0.731882 -1.19313 2.08102 0.388709 -0.211346 -0.789178 -1.54149 -0.263579 -0.201864 -0.442594 
-18.7987 5.5732 1.3161 -3.70418 7.89376 -6.17676 3.25428 6.31961 -1.20324 -5.51023 0.0190623 1.67959 20.3564 3.7496 0.33086 4.32938 2.27517 -2.96848 0.0756839 -1.27377 -2.65613 -1.02103 -1.51508 -2.32609 -0.548911 -0.764799 
-15.2776 5.839 5.31966 -2.73135 9.34126 2.62145 5.11006 6.09473 -4.76366 -7.11426 -1.94322 -1.91716 19.3675 5.73081 -0.565592 4.22064 2.98683 -4.75856 -1.34525 -3.06135 -3.00931 -0.471043 -0.246102 -1.553 -0.597652 -0.592558 
-2.6656 4.28975 10.5214 7.08261 -4.23709 -10.0006 -1.49478 -1.40317 -0.698305 -7.88694 -4.25811 -0.666337 18.1689 5.41736 -2.00061 2.42174 2.89502 -4.11626 -2.33065 -3.1099 -2.41655 -1.15558 0.384735 -1.01158 0.85931 -0.257879 
-0.460319 -0.287824 12.1631 6.13965 -6.04897 -9.69723 -5.58425 -0.65951 -5.16536 -5.26027 -3.80762 1.75266 19.2172 3.91545 -2.28835 0.722676 1.75464 -2.79815 -2.98808 -3.68529 -1.52286 -0.837691 1.10947 -0.416287 1.87636 0.0225332 
0.879475 -1.36642 10.0031 6.33542 -4.99242 -11.6707 -6.94806 -2.38602 -6.78026 -4.51355 -4.10665 4.14123 19.1421 2.07365 -2.33979 -0.935383 1.08259 -1.20431 1.19308 -3.07023 -0.83843 0.455417 0.476722 0.177571 0.62339 0.0362026 
2.5271 -2.77465 9.19217 6.41542 -4.27181 -11.4839 -10.5898 -1.02816 -5.91114 -3.25363 -4.10038 5.06087 18.9935 1.87713 -1.50807 -2.46823 2.43986 -0.38161 0.504699 0.373319 -2.626 3.11976 -0.0917608 0.0805884 -1.47212 -0.362129 
6.20895 -6.16579 7.32989 12.3577 -11.1472 -3.14188 -14.3432 -5.411 1.95167 -6.50665 -3.22387 0.796506 18.4618 2.49327 -1.40817 -3.4253 2.60894 -0.622854 0.616788 1.85534 -3.7874 4.55572 0.0069581 0.0823004 -1.77063 -0.334895 
6.2606 -5.4285 1.15854 15.3278 -4.8796 -11.4381 -0.020093 -12.277 6.06748 -4.72252 -3.84606 -3.93559 17.7468 2.68885 -0.931473 -4.15195 0.955272 -0.839752 1.39708 1.91174 -3.9194 3.56178 1.12578 0.614168 -0.749433 -0.13783 
11.4791 -7.08035 -3.10658 14.9239 -7.80279 -8.60961 -2.95618 -15.6986 10.009 -3.74431 -3.82231 -0.21371 18.091 2.08404 -0.311026 -3.35835 -2.11791 -0.248413 2.41383 0.504995 -2.06101 0.520098 2.09506 1.81106 0.392697 0.0831488 
13.3363 -6.97474 -6.34936 9.90866 -10.1428 -1.76463 -6.7246 -15.4814 7.86908 0.994087 -0.730324 1.81881 18.4898 1.51202 0.0700691 -1.46605 -4.01355 -1.08295 5.35344 -2.23937 -0.116879 -1.53053 1.50589 3.26252 0.212169 0.186934 
13.0913 -6.9478 -5.70789 4.47768 -9.75771 4.09054 -8.46595 -14.1139 3.65136 1.11034 4.27357 -0.11721 18.506 0.361259 0.41597 0.128868 -4.19405 -0.577794 5.2129 -1.72675 1.23407 -2.75268 1.03475 3.80742 -1.06547 0.105041 
13.0146 -5.14443 -4.87103 0.483215 -9.31691 8.97899 -8.46205 -13.6538 1.59368 0.379586 8.41861 -2.923 18.4739 0.0513249 0.438845 1.08616 -3.33657 -0.0190905 3.29099 -1.09522 1.09078 -2.19936 0.642503 2.89901 -1.12325 0.0518799 
13.4462 -5.91565 -3.20141 -1.33364 -11.1047 12.0831 -10.7212 -10.442 -0.616636 1.73671 10.6403 -3.17015 18.6241 -0.0225123 0.546468 1.32738 -2.34729 -0.183989 1.29327 -0.466551 0.946982 -1.08291 1.33566 1.18686 -0.346299 0.0407364 
13.4155 -5.29659 -2.17179 -3.86853 -9.56475 10.694 -11.0731 -11.8634 -0.993722 3.89342 10.5813 -2.27094 18.6901 -0.37777 0.652346 0.725465 -1.23102 0.260513 -0.430351 -0.55436 1.63657 -0.94586 1.92636 -0.0371077 -0.356971 -0.0361031 
12.7783 -4.13938 -0.42063 -5.08292 -10.5537 9.69937 -9.4932 -10.2742 -0.469498 6.03171 9.12654 -2.17473 18.6016 -0.525132 0.507678 0.147444 -0.519644 1.83797 -1.10621 -0.761496 1.83484 -0.443271 1.06294 -0.857538 -1.36089 -0.148643 
11.4597 -2.77084 -2.63409 -3.79724 -8.28983 8.0191 -11.8478 -5.55484 -3.20919 7.86391 8.98997 -5.20556 18.3047 -0.692118 -0.0637962 0.19256 0.539869 2.11597 -1.59212 -0.566316 2.3081 -0.667606 0.631438 -1.29945 -2.34229 -0.207205 
11.7984 -4.64014 -2.23304 -3.9675 -2.55233 7.88952 -14.1413 -4.42209 -1.72525 5.06616 7.14833 -8.50731 18.0736 -0.489474 -0.50465 0.341155 1.29681 2.08024 -2.92664 -0.159772 2.4285 -0.113421 -0.862485 -1.16281 -2.36412 -0.219012 
10.4448 -5.36519 -0.302789 -1.7269 -2.98561 3.63835 -11.5806 -3.24892 -3.70387 7.53338 5.07316 -10.8161 17.9181 -0.569682 -0.54632 1.49542 1.72204 1.4782 -5.11265 0.202198 3.3311 -0.0759272 -1.6676 -1.34926 -0.798035 -0.157091 
10.8384 -5.36545 0.119492 0.365965 -2.80467 -2.74345 -10.4257 0.715393 -0.789263 1.88454 5.27089 -11.19 17.6998 -1.03637 0.180579 2.15795 1.81314 0.0467436 -5.78037 0.0986098 4.06712 -0.637055 -2.22748 -1.24216 1.05272 -0.133397 
9.09134 -5.13978 3.66676 2.64623 -0.772648 -12.2276 -12.6946 8.5319 -4.05682 1.11671 3.18237 -7.85438 17.7061 -1.24164 0.572133 3.04444 1.15123 -0.503531 -4.16884 0.197492 3.0878 -1.52446 -3.15386 -0.908288 2.3362 -0.149291 
7.2933 -3.84995 6.57196 2.91162 -3.4251 -13.0793 -13.0912 10.0231 -4.73406 -2.86291 1.88291 -4.72457 17.5126 -1.95701 0.991938 4.15579 0.299433 -1.23979 -1.70633 1.24528 0.299241 -2.8784 -1.73152 -1.15037 2.06976 -0.0583914 
6.00915 -3.26228 11.6932 2.75643 -5.19305 -12.0379 -9.26038 7.53623 -9.35375 -5.86221 2.22571 -2.36784 17.2652 -2.31303 1.62545 3.82377 -0.585012 -1.08886 0.122267 2.12873 -2.52195 -2.87357 -0.686713 -1.17207 1.64427 -0.0484035 
2.59442 -1.34452 16.8852 1.80803 -6.79342 -11.37 -5.91641 2.70944 -12.5328 -3.28358 -0.00263429 -3.58451 17.6283 -2.15692 1.65396 3.0004 -1.12276 -0.160472 0.165864 1.26491 -2.68569 -2.66797 -0.023363 -1.08723 1.15425 -0.0087389 
-0.124358 1.73477 17.629 0.272969 -4.53277 -12.471 -5.63839 -0.421043 -14.5253 -2.10652 -1.73523 -0.203079 17.4062 -1.92393 1.6102 1.61055 -1.22207 1.20596 0.83463 0.725056 -1.61143 -1.53972 -0.0568729 -2.13078 0.996868 0.0472651 
-0.424527 1.92132 18.6061 -1.46047 -4.55759 -12.0335 -8.57767 0.573269 -15.4881 -4.85758 -1.57277 -0.0356796 17.3984 -0.941263 1.11162 -0.0752281 -1.16303 1.77852 0.478159 -0.910148 -0.887159 -0.493404 -0.841258 -0.930158 1.01826 -0.414004 
-2.10103 3.15579 18.8855 -1.71965 -0.281165 -7.533 -4.30448 0.547164 -15.5747 -5.35958 -7.64313 0.842084 17.6165 -0.531586 1.00958 -0.500333 -0.907198 2.11631 1.49435 0.3529 0.312331 0.147771 -0.240674 -0.760549 0.725478 -0.390044 
-1.12356 3.50308 15.8808 -3.01083 -0.0266347 -11.4482 -11.1341 -2.21047 -14.4751 -5.86334 -1.69947 0.984214 15.4532 -0.10045 0.966743 -1.19968 -0.301965 2.01117 0.920497 0.337439 -0.192723 -0.0465499 -0.304783 -0.249265 0.351677 -0.659702 
-2.43277 5.99178 16.4899 -3.48784 3.78331 -5.29188 -2.59567 2.53248 -14.293 -2.807 -5.47463 2.91436 16.4286 -0.613535 -0.367113 -4.14646 0.23274 1.02201 1.10416 1.03397 0.47457 2.18382 1.61179 0.572302 0.870904 -1.03688 
-0.760905 5.33704 13.8054 -2.0862 3.46601 -8.55155 -7.74488 -1.383 -16.3617 -7.65778 -3.90335 0.686565 14.6938 -1.85713 -1.7658 -5.1644 0.470342 1.61331 3.01899 4.61731 2.55762 4.52701 2.96456 0.921422 0.339866 -0.829156 
-5.35003 0.403249 -0.809107 -1.01827 3.08258 -3.46053 -0.829231 2.50629 -3.71233 3.5966 -3.67968 5.34543 12.8118 -1.91165 -2.17637 -5.0348 0.439344 1.15422 1.68289 3.28158 1.6072 4.05806 3.65912 1.38218 0.257968 -0.79241 
-8.95058 -2.53166 -1.29164 -1.89391 8.39029 2.73108 11.0692 10.5907 2.86959 5.75765 2.01017 1.46801 13.1158 -1.522 -2.14518 -2.6246 -0.0606282 1.13706 1.9796 3.52069 1.75798 3.47187 3.57594 1.20457 -0.559513 -0.278406 
-7.89621 -0.955697 -1.13552 -1.38727 7.09225 -2.51872 4.4052 4.58163 -3.61833 8.7809 -1.52049 3.81348 13.2556 0.305392 -0.930366 0.395662 -0.127866 0.314501 1.01657 0.251704 -0.712404 0.160154 0.780147 -0.131157 -1.08233 -0.0126701 
-7.09781 -4.70939 0.845649 -2.20484 7.14646 0.87553 7.24133 6.36925 0.95064 7.62978 1.03988 -1.34503 13.0799 1.26088 0.847221 2.97149 -0.171494 -0.469333 -0.303285 -2.1581 -3.03407 -1.66577 -0.858477 -2.26704 -0.715856 0.255788 
-4.74945 -3.15972 0.100563 -1.50213 5.277 2.55009 2.34322 1.05501 -1.95208 6.56127 -3.85032 1.34032 12.7664 1.39772 1.15326 2.1627 1.57529 -0.0436093 0.610865 -0.757282 -1.99657 0.591336 -1.87079 -0.84251 -0.220966 0.0116805 
-4.21954 2.80645 12.9478 -2.69395 6.95125 -1.31975 1.30968 -2.81628 -6.29238 2.57508 -8.1601 -0.874686 14.6394 1.08458 0.883669 0.344334 2.88237 -0.389934 -0.0136077 -0.0526046 -1.28505 1.41166 -1.92978 -0.82892 0.482477 -0.222972 
-2.34674 1.05267 3.62688 6.73372 6.97182 1.63325 3.58462 -0.808455 2.95987 1.95429 -1.13305 2.47348 12.5343 0.0694208 -0.358755 -1.75244 2.28532 -0.756016 -0.768653 0.487064 0.888884 3.89717 0.870861 1.80857 0.127207 -0.402347 
-2.87626 -2.39724 0.804159 8.08911 4.34939 1.26591 6.35761 0.875735 5.55295 0.284363 -4.46336 0.500773 12.0811 -0.351207 -1.01612 -3.36067 1.22082 -1.07599 -0.915114 0.200743 2.33923 3.34888 1.9465 1.65775 -0.0421377 -0.593383 
-5.07398 -2.35165 -2.58983 4.53293 2.79785 -2.58601 2.25457 3.65342 11.6111 12.0609 3.34417 1.28862 12.0338 -0.687254 -0.501202 -1.76771 -0.703136 -0.817675 -1.37856 0.789895 1.06132 0.259543 0.414951 -0.0303455 0.231391 -0.103287 
-4.61195 -0.572006 -0.747212 4.51057 3.65829 -3.78569 2.97841 6.64891 6.12637 7.25426 -2.10996 -0.492944 11.9227 -0.342028 -0.183712 -1.61134 -1.00786 0.237336 0.289197 1.12892 0.456798 -0.504096 0.270475 1.16812 1.70395 -0.00363922 
-4.91516 -2.36596 -4.436 5.00731 3.22899 -2.73373 9.22369 1.61156 3.97087 0.544096 -2.46147 4.12729 12.097 0.254757 -0.388761 -1.35623 -1.67965 -0.187401 1.56287 1.10299 -0.529881 -0.550139 -1.703 0.195677 1.44923 0.0508857 
-4.66581 -3.30864 -6.32947 2.81264 5.3205 2.78575 8.51766 4.18065 6.85259 7.39516 4.28004 7.6012 12.0313 0.232625 -0.629888 -1.47518 -2.47515 -1.32543 1.54549 0.0414696 -0.605864 -0.335129 -0.0421729 0.666654 1.62902 0.0768851 
-3.77327 -2.92713 -6.57987 -3.01634 1.02974 1.94264 4.99989 2.23814 8.49731 3.4755 1.12756 4.4877 12.2339 0.208935 -0.374622 -0.646944 -1.30525 -0.776852 1.66347 -0.746554 -0.152615 1.29574 1.04205 -0.562229 -0.151143 0.0613946 
-4.01978 -3.44086 -7.05117 -3.85335 -1.86925 1.60357 5.29766 3.3063 2.18751 5.57769 -0.571203 7.47196 12.2387 0.167703 -0.219631 -0.34452 -0.156943 0.212529 0.860335 -0.330111 -0.574196 0.622863 0.0821433 -0.606188 -1.19252 0.0150623 
-4.1935 -4.17296 -7.30988 1.81405 2.9396 6.17473 7.10092 1.28566 12.7821 6.66306 -2.84699 3.4362 12.3003 0.178095 -0.247083 -0.396996 0.421874 0.640583 0.42815 0.324803 -0.45399 1.09768 0.957352 0.154147 -0.88576 0.010298 
-3.61718 -3.78388 -7.68707 -0.38727 5.42822 4.97138 5.81659 1.78591 7.8245 6.2121 3.23638 2.16433 12.0734 0.057175 0.352763 -0.0284411 0.169407 0.418282 -0.443439 0.26393 0.262655 1.53173 0.436451 -0.495806 -0.195738 -0.0365719 
-3.08409 -3.99103 -8.2469 -2.64001 0.583927 2.39948 6.36444 0.728389 11.1672 7.94506 -0.00550246 2.71271 12.3681 0.171324 0.282398 0.193812 -0.361691 -1.3906 -1.64032 -0.293031 0.512371 -0.0866138 -0.168185 -0.786687 -0.0599294 -0.00461159 
-4.28861 -1.76801 -6.72486 -0.779285 1.4 1.274 6.98555 4.89821 10.6536 7.11894 -4.47098 6.85501 12.0219 0.284433 -0.24364 0.223883 0.00962696 -2.01183 -1.41975 0.0832082 -0.462872 -0.911759 -0.654243 -0.991638 -0.183468 0.0117553 
-3.00117 -3.76891 -6.82192 0.20161 -1.99931 -0.178166 5.05128 2.29136 10.9345 5.36871 -2.92675 0.791209 12.303 0.0366408 -0.355662 -0.0232278 0.485433 -0.38523 -0.823641 0.0328804 1.23653 -0.268232 0.3008 1.24296 0.191638 -0.0328717 
-2.23648 -5.11315 -7.28014 -1.75995 -3.33931 -0.838536 6.88921 -1.30993 3.38207 4.22906 -0.261187 2.20774 12.1647 -0.0202472 -0.498539 -0.398454 0.218941 0.228161 -0.435719 0.0708661 1.79575 0.814381 1.30754 2.41819 0.348239 0.00500755 
-3.92695 -4.09677 -8.08539 0.277482 1.02743 -0.662453 6.57702 10.0151 13.4618 10.894 4.10439 5.99454 12.1323 -0.354204 0.0360648 -0.33322 0.218917 1.04202 -0.0792491 0.273927 2.67725 1.51344 1.77155 1.84279 1.41935 -0.0373755 
