-7.49819 0.190904 -6.66751 -0.185678 6.08452 0.876718 3.87558 -2.03074 5.49726 1.99064 -2.65941 3.93567 12.2493 0.164864 -0.876895 -0.656892 1.07049 -0.320261 -0.31998 -0.298065 0.0117425 1.04424 -0.150992 -0.199143 1.81869 -0.0565781 
-7.57059 -3.05552 -8.99705 3.80124 5.29832 2.07106 3.50181 -4.6981 7.2439 1.10558 -0.82206 8.92126 12.2096 0.247633 -1.06727 -0.704526 0.493997 -0.486233 0.410112 1.09448 1.25153 1.63217 0.648809 0.640922 0.850914 -0.0901125 
-6.63768 -2.57036 -8.7872 3.17331 4.87631 -1.32036 2.57214 -0.638347 9.84515 1.6782 -4.57379 10.5363 11.9862 0.1771 -0.518153 -0.2703 0.155615 -0.717936 -0.723755 1.24573 1.37317 1.62238 1.70817 0.431218 -0.256584 -0.119155 
-6.69029 -3.76479 -9.1303 0.604811 4.25745 4.02581 9.9997 3.5307 11.4842 5.3909 1.5024 4.88991 11.9302 -0.0224181 0.17822 0.294583 -0.7298 -0.522077 0.267717 0.529262 0.478822 -0.774871 0.174648 0.108325 -1.68819 -0.0672849 
-7.05284 -2.04523 -7.95239 2.19061 3.01527 -3.71943 6.85529 0.720706 11.489 8.38883 -1.66554 4.66843 11.7932 -0.0797858 0.910914 0.598603 -0.513405 -0.717777 -0.422747 0.0754285 -1.0328 -2.13398 -0.743766 0.449194 -1.79802 0.0135418 
-7.47509 -2.42699 -7.94154 0.643589 3.61845 4.60919 4.00655 -2.98352 2.54761 -1.37649 -1.73456 3.41424 11.9697 0.0151464 1.02971 0.325535 -0.241315 -0.580117 -0.457217 -0.776512 -1.16485 -1.07452 -1.39833 -0.82627 -0.275391 0.0205024 
-6.6442 1.31531 -6.38856 0.586896 1.60693 -3.72578 5.94586 -2.54525 3.64351 1.34307 -0.709342 2.28404 12.0342 0.204868 0.388424 0.320092 -0.121136 -0.316506 0.857333 0.652598 0.0990634 -0.0540376 -0.858981 -0.738652 -0.348991 0.0942669 
-6.81888 -0.2965 -8.28454 0.20009 2.06104 1.7429 6.57185 -0.660592 10.0343 1.92211 -3.10705 4.70515 11.9122 1.32689 1.67268 2.47599 1.16908 0.216035 -0.508434 -0.427225 0.648594 0.592339 -1.64631 -0.937212 -0.764614 0.236402 
-6.35661 -1.16835 -6.18043 1.80668 2.21145 2.00038 8.83563 0.0545608 7.47547 2.44462 -4.67256 2.27802 12.2932 1.53648 2.19914 4.32956 0.551649 1.30599 -0.312654 -2.48311 0.785743 -1.30039 -3.75074 0.366223 -1.03133 0.61814 
-0.984422 7.17827 4.33434 5.8791 4.39637 -0.796059 0.425539 -1.04045 3.59332 -10.1588 -4.43901 -0.405814 13.0222 1.64793 2.89117 5.24556 -0.414302 1.46423 -1.99829 -3.87972 0.364259 -2.34957 -3.65011 1.37538 -1.01788 0.854622 
-1.87901 8.57365 8.9498 0.505633 6.96922 -4.01957 -3.39654 1.5734 0.362084 -11.3702 1.78775 -0.317124 14.5699 1.06908 2.14481 4.4744 -1.3946 1.50881 -1.68059 -4.01013 0.520458 -2.43125 -2.75381 2.15028 0.153179 0.898129 
-0.818027 9.28835 10.3782 -1.2209 7.00328 -5.23858 -6.71066 0.401286 1.84318 -9.42106 0.53968 0.91332 15.047 -0.0275532 0.36923 2.03158 -2.37989 0.224704 0.360923 -0.755769 1.05303 -2.52283 -0.41811 2.23007 -0.0507413 0.794704 
-1.09442 8.50064 13.1697 -1.61634 8.45205 -4.18131 -7.64692 1.93598 -3.80571 -11.6933 3.58951 2.38435 15.7715 0.0407079 -0.123086 1.18478 -0.924943 -0.715693 2.11542 -0.0990199 1.01584 -2.05735 -0.480906 1.5768 -1.20796 0.576375 
-1.51448 9.06092 12.3823 -4.95936 4.77847 1.08943 -1.22811 4.04343 -6.93695 -12.0878 5.81045 -2.01026 16.3949 -0.443784 0.22071 1.59739 -0.409351 -1.368 0.453439 0.256214 2.55106 -0.945368 -0.121075 0.704771 -2.02239 0.543136 
-1.32724 8.07193 13.8716 -2.24985 4.50316 3.39352 -6.63292 4.83151 -5.53462 -12.4413 7.03637 -4.89513 16.7778 -0.639017 0.532503 1.44073 -0.22414 -1.58429 -1.20073 0.32762 1.91334 0.180145 1.08704 -0.0699789 -1.20003 0.446614 
-2.92054 10.6063 18.0141 -2.9509 2.13771 -6.7588 -5.9366 11.7088 -2.01921 -9.65242 2.3401 -5.55887 17.2595 -0.61471 0.161591 1.11229 0.332882 -1.2115 -1.91499 -0.491957 1.23675 1.05997 0.973506 -1.2422 0.448285 0.38147 
-3.58648 10.3905 17.5574 -3.74127 1.85096 -6.26082 -3.65458 7.67002 -5.36385 -7.47577 4.97479 -1.84148 17.5722 -0.601365 -0.245985 0.363847 0.670837 -2.33397 0.103585 0.00485535 -0.0914882 0.454718 0.586776 -0.939437 1.43304 0.340695 
-3.45842 8.70959 16.1009 -2.54924 0.0470853 -3.65833 -5.17707 8.80791 -1.7225 -9.70305 0.630219 -1.29566 17.9051 -0.11061 -1.23907 -0.580065 0.649558 -2.70692 3.65831 -0.047424 -2.42469 0.381792 0.177704 -1.49555 1.70069 0.267033 
-4.06513 7.79033 16.6475 0.903505 -6.12137 2.36121 -6.98841 5.82452 -3.40938 -9.48213 3.19413 0.138465 18.1585 0.56684 -2.04595 -0.639828 0.674089 -2.88999 3.34662 -0.14185 -2.76645 0.602014 0.189767 -1.80305 0.874811 0.251594 
-3.23426 5.71098 15.5688 -2.0255 -7.41072 7.22174 -4.50681 0.508125 -1.08748 -7.76073 -4.24729 1.95462 18.3015 1.39169 -2.89199 -0.955838 1.19948 -3.4646 1.59264 0.314502 -2.6427 -0.850387 0.771767 0.136826 -0.0267224 0.227955 
-0.864357 1.66007 14.6244 -0.632694 -8.87011 5.03223 -4.69896 -2.01235 -2.67129 -7.4981 -1.60169 0.907436 18.632 2.12014 -3.6257 -2.19295 2.00321 -2.25425 -2.05337 0.342039 -0.299592 -1.73458 0.910309 1.37956 -0.587379 0.256419 
1.89963 -2.6852 12.3333 4.21624 -15.9015 2.96934 -4.74928 -0.487174 -6.34348 -6.83622 3.71226 -1.81376 18.8081 2.12565 -3.30072 -3.84586 3.55483 -0.882187 -4.97378 -0.364281 1.50013 -1.19657 0.752308 2.4264 -0.399252 0.259043 
3.96864 -6.14008 7.30046 7.79868 -13.1472 -5.77943 -5.15698 4.82421 -9.45428 -5.39283 6.11213 -0.914241 19.1873 1.62148 -1.83369 -5.25276 2.24867 1.61487 -4.53567 -1.09559 0.48361 1.14334 2.53258 0.145804 -0.349613 0.150393 
4.97749 -6.89257 0.00141907 11.533 -9.68312 -12.2413 -6.0992 4.59049 -3.67885 -5.05182 4.02779 0.869197 19.3191 1.67597 -0.528334 -5.88781 0.198514 3.11212 -1.50362 -2.83565 -1.27754 3.08027 3.69433 -0.681319 -1.46357 0.0922619 
5.70411 -5.40471 -5.47352 6.9523 -3.90496 -10.0408 -9.50195 -2.13313 1.71308 4.2726 -1.03043 -2.18211 19.1285 1.89439 0.413982 -5.44711 -1.06488 1.5984 2.45293 -2.26626 -3.6254 3.45834 3.66984 0.712362 -2.48354 0.0704792 
9.41175 -5.69455 -10.7188 5.63199 -4.96204 -2.41807 -16.755 -3.39621 3.47419 6.80272 3.87695 -8.49767 19.2988 1.77275 0.696491 -4.03547 -2.17049 0.00475369 4.23049 -0.647735 -3.72047 1.45242 2.81734 2.6763 -2.56417 0.121127 
11.2235 -4.66917 -14.575 5.42476 -7.51574 1.57358 -11.1604 -9.30942 4.26091 7.02909 9.74936 -8.64848 19.5498 1.33667 0.440949 -2.6482 -1.88888 -1.45844 3.34015 1.58071 -2.51193 -0.656653 0.925932 2.86733 -0.724916 0.183577 
11.0815 -3.77788 -15.6252 1.44431 -7.85395 3.10396 -8.50867 -10.4237 2.30934 7.65661 12.0194 -8.71844 19.714 0.562843 0.663178 -1.29748 -2.1187 -0.315969 1.07339 3.73321 -2.00792 -0.918867 0.588849 1.47517 1.02975 0.138517 
11.5525 -4.1583 -16.2613 -0.398251 -9.75118 3.899 -5.72161 -11.179 -0.98776 8.47532 9.23501 -5.6963 19.8388 0.230572 0.456438 -0.500719 -1.98139 0.362157 -0.336896 2.37483 -0.966445 -0.977719 0.426328 0.0289902 0.749059 0.0482029 
12.0614 -2.6341 -16.363 -2.05 -5.42417 1.78615 -0.808352 -12.501 1.5042 9.02386 11.51 -4.82502 19.8469 0.188277 0.332715 0.123285 -0.968259 0.803764 -0.399285 0.835493 -0.470681 -0.0198354 0.188844 0.316198 0.327142 -0.0332935 
11.8864 -2.95888 -16.7097 -2.73501 -6.91985 0.548001 -3.1364 -13.103 -0.225114 8.47711 10.149 -6.8499 19.7244 -0.20459 0.305734 0.268897 -0.0411583 1.00426 -0.400207 -1.49639 0.0773991 -0.0680884 0.559058 0.553957 -0.777842 -0.103049 
11.856 -2.71402 -14.7846 -2.2286 -5.2508 2.78303 -5.62381 -11.8151 1.82884 8.59994 13.1434 -6.50593 19.6047 -0.475911 0.00349169 0.702506 0.885101 0.902269 -1.0911 -3.33697 1.34119 -0.308934 0.599463 -0.135971 -1.94581 -0.1863 
10.6323 -2.58967 -15.706 -0.514742 -4.81656 1.39953 -10.7958 -11.1349 -1.49052 11.4826 11.1881 -8.74505 19.4446 -0.587546 -0.175651 1.22449 1.94547 1.88125 -2.77363 -3.2698 1.96872 0.751005 0.595549 -1.16652 -2.42417 -0.22263 
10.3089 -2.80125 -13.3523 1.26537 -1.96447 -4.09513 -13.6635 -6.77909 0.592234 10.5184 10.3106 -13.6065 19.0553 -0.93643 -0.374434 2.15954 2.69357 0.954562 -4.17192 -1.60125 2.28496 0.856961 -0.939752 -3.17798 -0.976391 -0.318064 
9.72221 -3.79352 -11.3033 5.24534 0.84322 -9.88109 -15.4656 -5.77741 4.14822 10.4956 5.73283 -15.4205 18.8859 -1.25236 -0.839573 3.97087 3.02591 -0.677976 -3.49968 0.942291 2.67676 0.477811 -3.44437 -3.68031 1.60313 -0.326972 
7.6289 -3.98426 -6.18822 8.3592 -3.30788 -12.4362 -11.2952 -3.06909 3.29427 4.39466 -0.0188761 -8.05016 18.2938 -1.45057 -1.15887 5.59672 2.18061 -3.18901 -0.66205 2.82828 2.05288 -2.03293 -4.0708 -2.87477 3.04722 -0.161154 
5.71054 -6.19603 0.566292 11.0679 -7.53474 -11.9283 -7.26852 0.393839 -0.452489 -2.67738 -2.04875 -3.50757 18.1905 -1.63428 -0.636171 6.6492 0.000182569 -4.06299 2.15501 3.96573 0.876712 -3.00646 -3.57329 -1.42739 2.37976 -0.0142441 
5.06193 -7.39433 8.69646 9.25717 -13.7205 -6.38178 -3.6206 0.399681 -7.27205 -3.24905 -0.172506 -4.32681 18.5972 -2.00605 0.8611 5.93318 -2.15197 -2.43275 3.75002 2.37841 0.688373 -2.50756 -2.10816 -0.129084 0.538986 0.11755 
2.83432 -5.26934 14.5003 4.79727 -14.2654 -2.13327 0.525811 -3.12824 -5.60094 -3.54897 -1.32731 -5.38336 18.663 -1.97553 2.01653 4.60129 -3.01102 -0.49075 4.0474 0.148109 1.09849 -1.052 -1.37153 -0.197558 -0.0113992 0.118454 
-0.96323 -0.142103 16.5107 0.734637 -12.1063 1.41636 -3.30031 2.13381 -6.66931 -5.71033 -1.02502 -4.41734 18.6453 -1.76647 2.58612 2.3755 -2.35505 1.38864 2.94375 -1.25077 1.90584 0.432693 -1.48947 -0.610263 0.243791 -0.0403971 
-1.15453 0.260495 19.6656 0.274064 -10.7956 4.40965 -6.68812 5.01921 -6.01386 -8.30439 -2.61029 -3.5193 18.7588 -1.21154 2.56341 1.0796 -1.03084 1.7837 0.939257 -1.4588 2.74415 0.0322897 -1.58805 -0.373915 0.357516 -0.167663 
-1.776 2.77136 17.9913 -0.256466 -8.51225 5.06553 -6.26749 5.85517 -4.90212 -8.3187 -2.58233 -4.03989 18.3474 -0.590864 1.69068 0.252349 -0.30098 2.5607 -0.0470246 -0.612757 1.2861 -0.274495 -0.87405 -0.189517 -0.157623 -0.196017 
-2.817 6.09095 19.158 0.138618 -7.14394 0.738425 -5.28459 8.73183 -6.32308 -10.185 -2.41823 -3.7845 17.9736 -0.66289 1.41 -0.207261 -0.607277 3.07872 -0.00212351 0.0134417 0.541481 -1.4241 -0.906091 0.172228 -0.0534191 -0.137877 
-3.08632 5.39605 18.0263 -0.702539 -1.12863 3.01685 -7.06586 6.708 -7.88717 -9.14025 -2.06863 -5.07285 18.0578 -0.600391 0.855792 0.078492 -1.47232 3.04417 0.075315 0.419698 0.591804 -2.43463 -0.954016 0.277091 0.645753 0.0325205 
-3.81382 5.99814 18.6119 -2.53929 0.906196 5.42337 -6.22173 7.3002 -11.6418 -12.4241 -2.006 -3.26992 18.2142 -0.361311 0.216302 -0.0718596 -1.70843 2.44636 0.301877 0.386292 -0.191428 -1.85439 -0.729068 0.595775 0.569348 0.0892731 
-4.27954 7.09672 18.6568 -6.27912 2.68354 3.09963 -3.70043 9.53001 -14.4159 -11.9693 -1.40299 -1.06841 18.3897 -0.170006 -0.0265496 -0.10466 -0.962403 1.05594 -0.599397 0.187745 -0.406435 -0.392758 -0.951879 0.757149 0.332951 0.0438904 
-4.02694 6.32213 18.4834 -5.61523 3.1818 2.20642 -5.03584 6.36368 -12.3307 -12.4159 0.227826 -2.93998 18.254 -0.0346519 -0.412113 0.429556 -0.285543 -0.460597 -1.07397 -0.30418 -0.974657 0.457409 0.113577 0.491994 0.112834 0.0162172 
-3.82979 5.10131 17.5672 -3.97658 3.01329 1.62835 -6.72008 5.14408 -9.50654 -13.9037 0.600201 -3.57306 18.2573 0.0144501 -0.77881 0.67798 0.63103 -2.44775 -0.604323 -0.974331 -1.04623 0.394639 1.18356 -0.361794 0.166413 0.000921249 
-4.21196 4.93528 21.3045 -5.11827 -1.56166 0.789181 -6.23281 4.61988 -11.8095 -10.8889 -0.547626 -1.45342 18.3615 0.404636 -1.31785 0.562273 1.00519 -4.23456 -0.416852 -0.61487 -0.912785 -0.233311 2.25295 -0.669349 0.668593 -0.0103315 
-4.11478 3.89609 20.6362 -3.37246 -7.18346 0.786638 -7.97361 5.17076 -12.7033 -6.81492 -2.82423 -0.979628 18.3406 1.01154 -2.21844 0.0538939 1.08025 -4.17638 -1.67205 0.282071 -1.00835 -1.00385 3.50648 -0.34898 1.03869 0.000756264 
-1.86126 0.335507 19.7603 -0.891367 -12.8926 0.543017 -7.48343 1.78642 -11.8988 -4.69553 -1.4067 -0.893731 18.1607 1.57511 -2.96223 -1.49894 1.33635 -2.43975 -3.3532 1.05784 -0.240831 -1.48297 3.8474 0.376086 1.32626 0.0245401 
0.0525589 -3.69102 18.6087 -0.688808 -12.2031 -6.60883 -4.68441 1.51904 -14.4811 0.531976 -0.715163 1.34056 18.3614 1.80128 -3.05456 -2.79867 1.40446 -0.172789 -4.20532 0.888126 1.3702 -0.630065 2.19396 0.703636 1.99355 0.0289209 
1.57992 -6.0823 14.8235 0.221643 -11.2506 -12.2791 -2.5882 5.24158 -18.3354 4.67462 0.278272 4.01778 18.4737 1.28124 -2.05705 -4.14115 0.948666 1.99962 -3.52312 -0.847094 2.25135 1.32895 2.38096 -1.79774 1.30758 -0.0370863 
3.17104 -8.16783 9.11121 3.09335 -8.86843 -13.8289 -5.98059 10.2942 -12.6354 -0.530186 -0.148539 6.53236 18.3287 1.12051 -0.753937 -5.17705 0.195138 3.33455 -1.62105 -2.45572 1.18946 3.2106 2.32313 -2.48276 0.0237787 -0.281088 
2.98569 -7.71132 3.80328 1.96088 -4.56187 -13.4625 -11.0708 8.65562 -6.17696 7.74035 -10.6787 3.04826 17.9917 0.976397 0.361398 -4.75434 -1.57218 3.8052 -0.231587 -2.61855 -1.30412 4.04609 3.44523 -1.15862 -2.10802 -0.398475 
4.95223 -6.6462 -1.76641 -0.582739 1.12528 -14.1223 -12.7217 5.75932 -4.50736 10.6148 -7.65047 1.94421 17.197 0.945154 1.4324 -3.89742 -2.91146 3.19864 1.71304 -1.50151 -2.39972 1.82997 4.11688 0.980897 -3.59154 -0.366119 
5.57131 -5.03613 -3.5094 -5.8012 2.7786 -13.2903 -12.3104 0.988408 -2.16896 16.3283 -1.76387 -4.22827 17.0472 1.11671 1.40484 -3.0463 -2.64162 1.32567 2.99263 1.5881 -3.46248 0.412836 1.21756 3.51578 -2.77663 -0.37248 
6.604 -2.34342 -6.71956 -7.5829 3.45454 -5.34983 -12.8683 2.12917 -5.48948 15.7602 0.298516 -7.78708 16.9704 0.63144 1.20013 -2.34215 -2.2764 -0.270779 3.26441 2.59635 -3.24512 -0.387986 0.195401 3.51291 -1.71304 -0.229234 
7.74335 -2.83852 -8.95163 -7.74714 0.901863 -2.88561 -3.05701 -6.84172 -3.62171 11.2554 2.92566 -5.96927 16.2426 0.158291 0.48142 -1.77694 -0.937203 -0.438555 2.86649 3.79115 -2.96847 -0.595474 -2.61339 0.729556 1.25285 -0.308629 
7.02341 -1.74438 -10.756 -10.9917 0.709755 -3.00265 -4.36666 -6.55122 -5.72091 14.1282 7.5693 -5.75052 16.4531 -0.133257 -0.372261 -0.733234 -1.27467 -0.574383 0.826168 3.62735 -2.419 -0.0615574 -1.55514 -0.0740885 2.58222 -0.179677 
6.15306 -2.92855 -10.3759 -8.78279 1.95821 -0.131447 2.3945 -9.51374 -5.03061 4.07735 -1.75149 1.0177 15.7627 -1.67359 -1.32807 -0.922029 -0.840719 0.103063 0.544692 3.76629 0.725655 0.334336 1.12298 -0.724623 2.98279 -0.232155 
6.73286 -4.15971 -9.67362 -13.4384 0.0544443 -2.59607 2.54266 -8.6298 -5.09282 11.5736 2.26665 1.63054 16.3119 -1.33851 0.658644 0.473391 0.968915 0.559985 0.842339 3.35395 0.681878 1.49756 -0.934166 -1.84758 2.53646 -0.666536 
-0.479331 -8.27121 -14.103 -10.7274 1.74483 -0.365443 12.3198 -2.17415 -2.26408 18.1477 1.95387 5.25414 15.1524 -1.09855 2.0713 0.708018 2.06064 -0.176999 0.169123 1.28188 0.434765 1.8693 -0.607543 0.00176516 1.22243 -0.832997 
3.64706 4.22017 -6.52551 -5.17487 3.61637 1.32604 7.44046 -6.81162 0.383603 2.42222 -3.52128 4.81355 13.4256 -1.87368 2.18513 1.156 3.62491 1.23801 1.73647 1.97362 1.46722 2.61595 -3.5193 -1.02759 0.09025 -1.03175 
2.20323 3.23802 -8.40982 -2.61134 -0.707744 -1.24689 6.35499 -8.249 1.5777 5.61532 1.1513 5.53832 13.0409 -0.546176 2.00815 1.32293 2.1296 0.991394 1.42664 0.642447 1.07555 1.68116 -4.38422 -2.6328 -0.322426 -0.620174 
-3.9768 1.01133 -6.74021 0.628103 7.47081 6.52701 15.3932 1.74374 6.06605 0.243257 -2.47001 1.9397 12.209 -0.966952 -0.277207 -0.206508 -0.427632 0.549092 1.73492 1.13991 1.30339 0.733099 -1.56049 -1.31207 0.469599 -0.154206 
0.601722 3.37394 -7.38098 -2.9809 4.77459 4.16725 11.5557 -1.07409 3.30047 -2.68399 -11.7358 5.07894 12.6599 -0.419303 0.0411251 0.0886487 -0.426835 1.34191 1.68474 0.420121 -0.12287 0.0912825 -1.18969 -1.54633 0.721495 -0.0815632 
-0.386948 2.76618 -8.07247 -7.12825 3.62066 7.29358 10.5396 -3.8821 3.18771 -1.2306 -3.63809 7.39124 12.845 0.898551 0.347403 -0.775823 -0.472157 0.0941113 0.633209 -0.657203 -1.05698 0.0146197 -0.939287 0.163048 0.667879 0.0710916 
-1.68822 2.56623 -7.30044 -0.867333 7.9269 6.79352 10.8823 -6.05043 3.47328 0.403787 -5.9963 6.42003 12.315 -0.379359 -0.437159 -0.710772 0.441663 0.797385 1.02751 0.0489233 -0.084247 0.0911714 0.250409 1.0597 -1.22906 -0.0752821 
1.66092 3.1522 -10.6596 -2.78946 6.36521 8.37992 12.4438 -1.05297 6.05275 -5.99706 -4.5245 4.60855 12.7369 -1.21592 -1.35633 -0.645625 0.779701 0.5106 0.0570963 0.889228 1.74328 0.48956 1.08584 0.497963 -0.180631 -0.0983445 
-2.31901 0.995133 -9.64128 -2.94197 7.38924 8.76163 10.8482 -2.9099 2.32381 0.951292 -5.99407 0.32497 12.3376 -1.39184 -1.60381 -0.967816 -0.0552575 0.644005 -0.348923 0.963849 2.21583 0.492394 0.537177 0.681003 0.647516 -0.0470482 
-6.15117 -3.22992 -10.1302 -2.19243 6.44249 6.59501 15.0028 3.26404 6.21025 3.92483 -1.14939 9.53562 12.342 -1.81458 -2.13241 -0.708802 0.466752 0.843339 -0.460572 -0.41692 0.657264 -0.0706413 0.280111 0.775797 1.04299 -0.0718246 
-4.74136 -2.26177 -12.4042 -1.44214 11.1083 5.94136 14.4221 2.87024 5.8565 -1.87127 -4.27884 7.19407 12.2772 -0.403947 -1.27425 -1.01995 -0.104931 0.434961 -0.724773 -1.54089 0.243424 0.229516 -1.23608 0.751394 1.16756 0.0186313 
-6.20081 -5.88141 -12.8221 -1.20562 8.72238 7.48719 8.57228 -0.656718 3.93319 -3.18523 -1.50313 6.38897 12.4079 0.227289 -0.336836 -0.846174 -0.546645 -0.330845 -0.293477 -1.61517 -1.39766 -0.273287 -1.11543 -0.0582122 -0.472318 0.0156452 
-4.31392 -4.05036 -13.3951 -3.96003 8.4241 4.69167 6.35906 0.267606 4.60992 -1.67409 -2.06023 7.73609 12.3978 -0.357444 -0.129607 0.408651 0.458816 -0.618794 0.647302 0.220266 -0.844727 1.37417 -0.542947 -0.130567 -0.311784 0.0828173 
-5.22845 -4.01981 -13.8656 -3.66671 6.13036 5.75247 10.9585 -2.42292 5.46711 -1.75094 -2.54976 6.90302 12.36 -0.221629 0.597648 0.66855 0.272484 -0.710061 0.288435 0.942054 -0.5944 2.14712 0.322215 -0.562273 -0.901152 0.0213356 
-7.01477 -3.8406 -9.83922 2.08248 9.31032 10.0452 14.3303 -0.470298 11.9604 -5.30315 -4.40837 5.37813 12.7152 -0.364162 0.32389 0.689495 0.954017 -1.10562 -0.932764 1.15968 0.950169 2.53495 1.72565 -0.129519 -0.801319 -0.0610963 
-5.95853 -2.99805 -11.2573 -2.86446 4.72896 6.25259 9.29694 -3.25977 10.9935 0.240379 -3.14043 3.06219 12.3559 0.0231721 0.421863 0.943802 1.5796 0.643396 -0.76146 0.198325 2.15301 2.39703 1.96933 -0.608871 -1.78784 -0.14605 
-5.76969 -2.94179 -11.2518 0.408929 3.59668 -0.222208 12.9882 5.43688 14.5214 5.9585 -2.41249 5.64991 12.0943 0.471202 1.35203 1.14033 1.06004 0.319651 -0.391356 0.506618 2.31452 1.06023 1.96392 -0.906562 -1.50573 -0.10826 
-5.73513 -2.3599 -8.44034 5.06809 12.2042 7.07889 12.6212 5.38852 16.1718 2.46489 -6.59205 -2.17208 11.9402 0.294736 0.920433 1.4222 2.11123 0.841794 -0.459606 -0.488175 1.30001 0.574583 0.603784 -0.989323 -0.893897 -0.010243 
-4.77046 2.60049 -5.54606 3.41641 7.17098 7.6753 15.2013 6.77816 14.6725 3.4042 -7.21536 0.46659 12.3818 0.306019 1.0145 1.99906 1.84299 0.075216 -0.51528 -1.07486 -1.80104 -0.772213 0.782072 0.24035 -0.00868458 0.0119389 
-4.98446 -1.16702 -6.99916 6.18797 7.15078 0.00580382 5.74955 2.56964 13.7909 4.53645 -5.68561 1.18436 12.1609 0.552835 1.57065 2.46626 1.52502 -0.977547 -1.6707 -0.232766 -2.30197 -2.14028 1.38214 1.57988 2.14872 0.00657463 
-4.61492 1.53426 -1.97706 9.06396 6.49945 0.737934 11.0497 -2.15891 11.8508 8.83308 -1.66396 3.92827 12.0437 0.672114 1.3311 1.57172 1.36317 0.862727 0.152175 0.779846 -1.38977 -1.60287 -0.453281 2.13399 2.09612 -0.0329944 
-3.04872 6.02648 2.10647 9.86939 7.65219 2.19408 13.5331 -1.65279 6.88118 6.66115 -1.46836 6.84069 12.1421 0.417057 1.68661 1.03798 0.725026 0.879306 2.60882 2.54721 -0.0681423 -1.31172 -1.02001 0.967869 1.15162 0.015564 
-2.37776 5.65924 -2.24029 8.39155 11.2339 7.34204 15.2087 1.9405 10.113 0.0754479 1.34594 8.11904 12.2262 0.0225284 0.651558 -0.318529 0.24506 0.688915 2.55736 1.35857 0.650827 -0.627904 -1.28816 -0.225735 -0.015603 0.0212975 
-4.01776 5.20353 -1.67764 10.1493 9.18008 9.74784 16.4061 0.179223 8.10124 3.81522 -2.35121 4.84707 12.1475 -0.357807 -0.210163 -0.700559 0.231758 0.100196 1.75133 0.694341 0.190274 0.042835 -0.195207 -0.546284 -0.725923 -0.00680408 
