-4.13126 -2.12752 -6.30592 -1.70105 -2.3436 0.03993 10.8242 6.12936 5.68953 10.8495 -2.74934 2.85572 11.6077 -0.11804 -0.634352 -1.19491 0.174089 1.71772 -0.689217 -0.194096 -0.194869 0.650253 -1.32958 1.53479 -0.400483 0.0305758 
-4.91261 -2.8314 -8.07707 1.39933 2.20319 -4.67276 6.09812 4.71963 7.49086 7.51624 -1.6906 -1.93113 11.7629 -0.084935 -0.695286 -0.824718 0.761423 2.02982 -0.423487 -0.754979 -0.180151 -1.01293 -3.2979 0.850218 0.00420247 0.0136396 
-4.33079 -4.94735 -11.3949 -2.38079 3.97162 -1.04981 12.2167 5.85988 8.04012 5.8682 4.39522 3.24673 11.6829 0.111979 -0.262367 -0.168422 0.588204 0.51252 -0.271821 -1.47123 -0.971373 -2.02487 -2.47604 1.10037 1.15786 0.0559467 
-4.45617 -4.19404 -7.88503 2.44594 4.64788 -1.53263 6.35299 5.36335 -0.550417 -3.14934 -2.07053 2.68123 11.6383 0.0727461 0.403655 0.909422 -0.115992 -1.52921 -0.570302 -1.06561 -1.43521 -1.876 -0.509758 0.741376 1.96176 0.0482029 
-3.79959 -2.75804 -7.24405 0.716666 -1.00334 -2.88924 3.34057 0.950644 -0.414194 3.80208 2.94246 6.33882 11.9498 -0.225911 0.670963 1.11016 0.00640152 -1.05633 -0.614734 -1.26551 -0.593393 0.537671 0.85688 -1.09785 -0.109142 0.0658947 
-4.81448 -1.90778 -5.60537 -0.729363 -2.95536 -6.60456 5.20814 -0.00178695 2.33801 6.00051 2.74266 6.33164 11.8705 -0.353654 0.189528 -0.0210634 -0.0610265 -0.0127211 0.356394 0.193203 0.859437 1.21916 0.743216 -1.35346 -1.38676 0.0526198 
-5.28119 -2.73566 -6.98391 -0.76113 2.49159 -1.58752 6.46157 5.57549 9.28426 5.57767 -3.50064 0.875816 11.8963 -0.0888901 0.14032 -0.228458 0.039632 1.36683 0.901881 1.19235 1.81123 1.49711 -0.309911 -2.22568 -1.36154 -0.0605871 
-5.48364 -3.2576 -8.12042 2.87971 2.83681 -0.401526 5.7585 7.34812 0.696168 -0.32106 -5.61627 -1.52108 11.9281 0.233793 -0.11357 -0.772931 -0.760232 1.48637 1.43205 0.521446 0.980777 0.318651 0.759306 -1.19567 -0.29646 -0.0193736 
-3.90945 -1.38153 -7.12881 -0.889709 2.93472 -1.48135 9.02713 6.33185 7.89229 5.41331 -4.00646 3.45745 11.618 1.23063 1.73947 3.33079 -1.52125 0.540658 -0.37366 -1.47471 0.213105 -3.0309 0.331949 -2.26562 0.647948 0.49773 
-4.33138 -3.1527 -9.39757 -4.46623 4.25495 0.502615 6.5326 4.52392 4.62726 9.87922 -2.98277 3.55852 11.9128 2.3005 3.86533 6.43643 -1.97832 0.110124 -0.678626 -4.41673 -0.45009 -2.60687 -0.109506 -2.25932 0.590013 0.982188 
0.295822 5.90925 10.3086 -4.69441 4.48581 -3.90789 -1.29901 8.05311 -7.83579 2.13728 -16.1455 1.57576 14.3926 1.92441 4.23253 7.28857 -1.58442 -0.0544995 -0.446287 -5.49768 -0.335298 -5.15564 -1.36277 -0.944957 -0.259731 1.53136 
3.91621 12.4237 15.343 -5.10955 2.61188 -2.58139 -11.1621 4.23704 -4.47412 0.769423 -10.8433 2.36984 15.4518 1.33645 2.94502 5.88759 -0.36822 -0.425303 -0.00211385 -3.04092 -0.302483 -3.33397 -2.27328 1.6528 0.329721 1.4565 
1.58878 11.9929 16.9437 -8.49014 3.48376 -2.17078 -9.61392 4.7988 -13.3352 3.15435 -4.80097 2.75314 17.5054 -0.0478968 0.481006 0.840465 0.57639 -1.01444 0.79028 0.948413 -1.21624 -0.56377 -1.71657 4.37358 1.41807 0.853057 
1.70436 8.53056 16.7228 -4.40947 2.62946 -0.376506 -4.51455 4.63866 -9.29287 -1.99572 -0.391041 4.61843 17.6389 -0.935216 -0.133957 -1.49782 1.91037 0.260613 0.0309649 3.34014 -1.15249 0.508665 -1.92172 2.85181 1.18642 0.30167 
1.16226 10.2608 13.821 -2.1625 -0.59519 -1.05893 0.119288 1.7711 -8.24527 -5.06302 0.496231 7.5418 17.5643 -1.1679 0.745906 -2.06146 2.88281 0.891556 0.111467 2.44808 -0.792955 1.48883 -1.82465 1.5329 0.93079 -0.216121 
-0.546605 12.6199 9.41526 1.27847 5.95442 -2.98249 0.672026 -0.0115552 -4.47577 -4.7305 0.767118 5.90759 16.9306 -2.00826 1.90194 -2.94837 2.65036 2.84076 0.678679 0.75732 -0.0436909 0.474747 -0.0072238 0.782256 -0.565295 -0.268934 
-3.12523 13.6778 10.2902 3.07993 6.27905 -0.310458 0.0331941 3.15913 -8.29963 -4.6015 2.28445 6.76251 16.7789 -1.61058 0.871338 -3.22328 1.67419 3.01252 1.38675 1.16769 1.60899 2.2929 2.2509 0.0960383 -1.62951 -0.703997 
-6.19319 16.3318 3.74638 6.2211 13.3961 2.64265 -0.684902 3.72619 -6.89196 -2.2626 2.62613 2.1816 16.6869 -0.674332 -2.24192 -3.00084 0.567764 0.676901 2.2848 3.36019 1.19268 2.54335 2.62683 -1.30782 -2.08864 -1.28844 
-4.06736 12.7616 0.539092 3.73713 10.7466 3.06223 6.63622 7.94716 4.42735 4.95753 0.0469155 1.25723 14.1662 -0.0458173 -4.75631 -4.21872 -0.546318 -0.235792 1.97961 3.3709 0.155604 4.25492 2.29076 -1.42172 -1.22783 -1.51505 
-3.4472 1.8684 -0.713349 3.78869 7.10517 6.75519 14.1714 3.55782 1.87748 3.62413 -4.65322 -1.78296 11.7948 -0.181627 -5.92017 -3.48498 -1.60106 -1.60524 -0.184228 2.00537 -0.401852 2.4966 2.41252 -0.250782 0.388467 -1.23014 
-4.72731 -2.87207 -8.57351 1.56455 8.24558 7.53133 9.45952 4.02134 8.59027 3.90892 -1.18448 2.60566 11.6497 -0.278622 -3.98458 -2.86229 -1.14203 -1.06339 -1.91826 -0.640155 -1.93266 0.634992 1.44176 1.1865 1.15595 -0.521519 
-6.77135 -5.45222 -9.12223 -0.697916 6.62044 -0.513039 7.93029 3.67984 3.50959 10.3243 1.98792 3.44972 11.7945 -0.287261 -1.09771 -1.48251 -1.03083 -1.55413 -2.40305 -1.77168 -0.715292 0.487723 0.346714 1.31566 1.31688 -0.0147593 
-3.7984 -3.50099 -9.56789 0.270296 5.672 -2.89495 6.55603 -1.77715 6.78625 8.81624 2.65884 4.42065 11.5587 -0.0741259 0.18148 0.0102999 0.0884508 -0.715116 -0.414555 0.283623 -0.475254 -0.82805 -1.33132 -0.517418 0.321513 0.0236256 
-5.34796 -3.30568 -7.6287 -0.718337 0.621282 -0.0469364 6.76481 2.8806 5.2181 2.90404 0.00344324 3.89395 11.7665 -1.99696 -0.0464333 2.06395 -0.90285 -0.459787 1.72627 -0.334193 2.29375 1.34543 -0.740208 -1.25972 -2.90457 1.27551 
-5.80963 -3.03795 -9.26877 2.01701 7.66958 5.2255 11.4604 2.04469 3.59576 0.962464 -2.77933 3.99111 11.7818 -3.02654 -0.334519 2.3571 -1.83187 -0.23305 0.788043 -1.69907 2.45037 0.548645 -0.0806701 -0.907623 -3.22226 2.14033 
-15.7505 -5.91591 1.04795 -6.08552 3.32272 4.0581 3.80715 13.2376 11.832 10.5502 -1.59159 -10.8583 18.0605 -2.31185 0.245732 1.15565 -1.04783 1.04912 -0.536934 -3.08199 -0.991237 0.01174 -0.114119 -0.0311982 -2.35125 2.21153 
-13.7298 -3.86847 -2.12072 -6.20548 3.15603 -1.00725 -0.46051 5.29618 6.22253 4.58982 -1.08175 -4.31449 19.1134 -1.40152 2.59773 -0.903876 -0.306708 -0.159469 -1.91979 -2.62579 -2.76772 -1.1104 -1.48341 0.704461 -0.673171 1.55948 
-12.9471 -1.66176 -5.42446 -1.84624 8.12365 0.384772 -2.68472 -3.70133 3.96342 0.51977 -1.00133 -3.7095 19.1583 0.672927 3.69039 -2.7661 0.508103 -0.548951 -1.39708 -0.430918 -3.76023 -2.57967 -3.01562 0.420267 1.89918 0.145483 
-14.2189 7.82362 -10.552 -1.63617 4.47176 -2.5368 1.57733 -3.32444 1.97806 -1.4394 0.447851 -2.94916 19.0303 0.372207 3.79076 -0.226766 -0.142066 -0.360075 0.187052 1.49636 -1.91553 -1.57797 -2.07129 -1.57937 0.242976 -0.158751 
-12.1413 6.69001 -8.56694 -5.82966 -0.0799046 -2.16254 0.633642 -1.25318 1.05589 -1.51333 -0.255052 -2.04512 18.8294 1.5127 3.58641 3.39039 0.637153 -1.33243 -0.260589 1.60418 -0.694221 -2.33564 -1.62579 -2.52713 1.58904 -0.173291 
-12.2717 10.9095 -1.68331 -4.9241 5.45744 1.20166 5.36213 -5.50554 -0.213552 -4.75008 -9.35172 -3.9318 18.4841 3.09686 1.07803 5.97669 2.63847 -1.90863 0.199309 -0.0642667 -1.56145 -2.40234 -2.78477 -1.86632 2.25916 -0.188901 
-6.35725 14.7274 7.09318 2.98349 0.968658 -2.7874 3.44379 -6.08188 -6.619 -5.95382 -8.73721 4.72702 18.5649 4.33112 -1.10238 5.96779 3.37866 -2.68213 -0.174298 -1.17501 -1.48797 -2.9096 -2.5139 0.107249 0.822161 -0.194142 
-1.62669 9.19508 11.5015 7.14959 -5.59566 -1.22782 -0.149079 -8.71736 -6.19621 -13.143 -4.64266 4.96057 18.218 4.59475 -3.72069 4.04291 2.44289 -4.17253 -0.879432 -1.86506 -0.109308 -2.69352 -1.80717 2.65672 -0.629373 0.0028429 
4.19179 2.03532 14.6796 5.02681 -7.96403 -1.81929 -2.48581 -7.08713 -10.5008 -9.88634 -2.07334 -2.3805 17.9918 3.37663 -4.67909 1.10486 0.577612 -2.94213 -1.13014 -1.20237 0.708359 -1.40409 -1.12533 3.14751 -2.96992 0.186031 
5.42756 -1.34798 14.738 6.26867 -10.9389 -3.67956 -0.998365 -5.54945 -11.7403 -11.8197 0.599951 -3.52491 18.7849 2.75431 -3.82538 -0.887493 -0.21235 -1.40237 -1.61191 -1.38954 1.71241 -0.533153 0.830077 2.72668 -2.896 0.310675 
6.99876 -3.39655 10.9992 6.31201 -11.0704 -7.21222 -2.1434 -4.12404 -10.8674 -12.2421 4.37906 -5.87985 19.2117 1.99915 -2.43835 -2.67385 -0.151072 -0.110307 -0.441406 -2.61283 0.957704 2.12958 1.36983 2.18607 -2.18075 0.213917 
10.7414 -7.2159 8.90421 5.44524 -11.0543 -6.59091 -7.268 -1.63684 -8.67865 -7.81473 5.76453 -7.76974 19.1615 1.94126 -1.47824 -3.53145 -0.832871 0.994551 1.63415 -3.72431 -0.768841 4.12933 2.31772 1.68353 -1.99196 -0.0273249 
11.5306 -7.22245 4.22728 4.68317 -8.45783 -2.57064 -12.4151 -4.25492 -1.38369 -5.03969 6.27472 -11.1618 18.8731 1.38459 -0.403938 -3.62225 -1.23474 1.08906 3.40069 -3.43827 -1.69561 3.85099 2.25921 1.40574 -0.771655 -0.120265 
12.8679 -6.82625 0.466705 2.91874 -7.27238 2.17042 -14.4841 -9.32822 4.16451 -3.83228 8.06979 -10.8437 18.8176 0.793458 0.576088 -3.5163 -1.71976 1.16463 3.35838 -1.71316 -1.67157 1.3475 1.24574 2.16924 1.18784 -0.0457966 
12.8585 -5.61106 -2.89328 1.40156 -7.51606 5.41054 -15.7267 -8.75638 1.96593 -2.93729 10.2551 -8.20114 18.7823 0.803811 0.612409 -2.44994 -2.33553 0.836725 2.34093 0.149961 -0.798831 -1.72764 0.896589 2.83778 2.37386 0.0719652 
14.0448 -5.14116 -5.11702 -1.51276 -5.70203 6.21041 -14.178 -7.74394 -3.61598 -2.63721 14.6206 -3.31087 18.9779 0.452721 0.638233 -1.3372 -2.33948 0.106839 0.874379 1.5633 0.390304 -3.18894 0.762055 2.11019 2.01453 0.0961157 
14.9613 -5.00295 -5.23058 -4.77873 -5.05938 7.11404 -11.8183 -9.04121 -6.13165 -1.15428 17.1883 -3.05896 19.1527 0.206707 0.299866 -0.46525 -1.87302 -0.772997 0.525599 1.86764 0.58107 -2.7774 0.737617 1.31607 0.640051 0.121165 
14.0801 -3.93914 -5.05067 -5.6885 -7.96653 5.69056 -8.62177 -7.23429 -7.73139 -0.913507 15.1542 -3.34213 19.1129 -0.226626 0.165328 -0.0416701 -1.1571 -1.10096 0.207425 1.32839 0.0585855 -1.00516 0.73964 0.265779 -0.630996 0.104833 
13.8743 -4.71274 -5.25271 -5.87565 -10.2488 8.29846 -9.16662 -6.10586 -9.86338 -0.111052 16.5686 -4.98526 19.3206 -0.401239 -0.0916542 -0.121323 -0.400373 -0.581896 -0.0474239 0.371198 -0.336934 -0.254666 1.11797 0.132301 -1.11495 0.133332 
13.4551 -4.45962 -5.3143 -6.74978 -8.61215 6.65533 -8.86192 -8.91869 -6.77591 0.539376 16.2593 -5.5027 19.4181 -0.381665 -0.604387 -0.231381 0.287584 0.73372 -0.145547 -1.06554 -0.848235 0.631957 1.51745 0.624209 -1.37322 0.197016 
13.2676 -5.20098 -5.70537 -6.24995 -7.64605 6.39454 -9.84227 -9.88368 -7.88272 3.70911 17.2972 -7.55341 19.6668 -0.510045 -0.802551 0.297997 1.02254 1.1751 -1.34604 -1.87635 0.216486 1.86609 0.848183 -0.462215 -1.17353 0.136543 
12.4752 -6.71696 -5.98124 -4.06343 -5.5993 5.91479 -13.6116 -9.58655 -5.56193 4.76364 17.9109 -8.92417 19.9249 -0.559089 -1.2161 1.16414 1.77488 0.900541 -1.85201 -2.76506 1.8577 2.89437 -0.272744 -1.9895 -0.574248 0.103369 
11.8141 -7.59683 -3.42926 -2.10615 -5.87974 1.93856 -16.1735 -4.68949 -1.13993 2.01773 13.4317 -9.14216 19.7499 -0.668664 -1.38027 2.33465 2.11935 -0.05063 -2.03227 -2.89285 2.33933 4.16148 -2.11853 -3.76599 0.489578 0.0682606 
11.3864 -9.3422 -0.631646 0.0527437 -4.9926 -0.376749 -19.5216 -2.2273 4.32454 0.021347 8.2445 -7.57957 19.8934 -0.93888 -0.817331 3.4526 1.85103 -1.16881 -1.73212 -1.21837 1.29728 3.66593 -2.80317 -4.49293 1.17126 0.0763561 
10.4686 -10.7897 3.29307 2.28869 -8.20255 -0.621059 -21.3516 -1.86663 7.98142 -4.51241 3.30048 -5.77783 20.0239 -1.21153 -0.14629 3.81137 1.31977 -2.08626 -0.0973188 1.01077 -0.683507 1.62265 -2.56206 -2.73147 1.13496 0.135664 
8.45347 -9.20718 7.9206 2.99431 -10.2819 -1.46599 -17.1145 -4.51159 8.20704 -5.98713 0.511921 -4.75007 20.1697 -1.37733 0.48059 3.95015 0.426895 -2.53331 1.2464 2.52808 -1.32887 -0.422133 -2.35856 -0.699963 0.83169 0.139444 
7.22289 -8.39578 11.3514 3.02191 -13.6664 1.99658 -12.3232 -6.96488 5.03209 -7.78835 3.64068 -4.8821 20.2901 -1.45259 1.09531 3.5821 -0.668084 -1.29087 1.56446 3.0235 -0.833214 -1.73958 -1.63163 0.373922 1.20715 0.102793 
6.1226 -8.1362 15.0899 1.82061 -14.9272 4.54644 -11.3954 -6.32255 3.68853 -10.1335 4.57458 -3.86898 20.4575 -1.48114 1.53862 3.12854 -1.33725 -0.0565926 1.84699 2.00701 0.182209 -1.78541 -1.45868 0.389622 1.86332 0.0617235 
4.3711 -5.84862 17.6189 -0.46488 -12.3342 4.19502 -9.0936 -5.12722 1.54277 -10.5974 3.13876 -0.182642 20.3939 -1.40585 2.34409 2.45903 -1.16607 1.17879 1.13098 1.07253 0.619857 -0.676876 -1.30291 -0.15057 2.1538 -0.157239 
2.47367 -2.78766 20.4296 -1.94856 -11.231 6.66975 -8.69425 -4.51937 1.02466 -11.876 2.71099 2.21679 20.4264 -0.582416 3.36472 1.05476 -0.445505 1.73211 -0.0469541 1.35926 1.33977 -1.40357 -0.284358 -0.739983 2.26575 -0.763181 
2.0181 0.650411 20.9767 -0.923839 -9.62055 6.58982 -8.31113 -4.76719 2.97965 -13.4316 3.81963 2.844 19.5194 0.243242 3.12407 0.097208 0.106701 1.67249 -0.746836 1.36963 2.16872 -1.83457 0.0760462 -0.962563 1.51649 -1.07641 
4.38702 5.43789 18.6848 -0.177435 -7.62351 3.11428 -4.9903 0.196294 -4.04777 -10.1381 0.534231 5.94644 17.0788 0.416543 2.47397 -0.43293 -0.611058 2.05046 -0.794941 1.20599 1.41456 -1.98468 1.01645 -0.459966 0.254416 -0.984659 
4.63063 5.65895 18.9773 -0.816936 -5.77551 2.23858 -4.09742 3.35853 -5.09384 -11.0861 -0.585677 5.53497 16.6856 0.19415 1.87491 -1.23381 -0.0467083 2.04644 -1.71768 0.658343 1.07033 -0.638638 0.923887 -1.02526 -0.98068 -0.843562 
3.25012 7.07794 19.2646 -5.0573 -2.90115 4.87066 -4.77119 -1.50946 -4.86201 -7.96652 2.61381 2.14339 16.92 -0.238972 1.12331 -1.59533 1.1746 3.03348 -1.22608 0.0627263 -0.531627 0.135679 -0.0925734 -1.30913 -1.83653 -0.659985 
3.5573 9.20491 14.5178 1.28255 -1.74953 -2.87677 -5.12897 1.43732 0.193579 -9.89801 -2.34647 -0.157871 15.3811 -0.00792837 0.780275 -3.44308 3.25273 3.88371 -1.05038 2.08266 -1.70662 -0.146485 -0.3922 -3.03209 -2.00736 -0.95655 
3.72883 9.28147 12.9379 4.6458 5.53088 -0.458455 -4.16089 -1.50124 -6.01308 -11.195 -5.13104 -0.389769 14.4312 0.187797 -0.368775 -4.42569 3.91884 2.93414 -1.72244 2.37032 -1.81249 -1.39654 -0.583557 -4.17775 -2.13815 -1.01426 
4.35164 8.45856 4.92529 10.5952 9.42704 -0.348779 6.01074 -5.17869 -5.25073 -11.4328 -11.8737 -3.23526 13.1473 0.109882 -0.704921 -3.57712 1.52769 2.33844 -0.547085 1.13459 -2.55343 -2.03101 0.0901344 -3.65783 -1.87058 -0.578018 
3.79193 5.60725 1.93245 9.88058 6.18126 -5.00552 1.51054 -7.26388 -9.12257 -10.1169 -13.5113 -7.00866 12.9656 -0.3706 -0.512542 -1.09885 -0.939525 0.112569 -0.317502 -1.45977 -1.51975 -0.177353 -0.692184 -1.69265 -0.0357902 -0.151123 
4.07516 7.51742 2.13492 6.30363 9.61748 -3.33866 -2.29175 -8.44848 -8.4067 -9.9864 -16.4455 -6.20133 13.2238 -1.02659 -0.519204 0.178114 -2.05314 -0.717274 1.2247 -1.33276 -0.231163 0.173818 0.682843 1.11659 1.42656 -0.0701821 
2.01407 7.18933 8.83888 2.09394 5.9985 -0.551025 -7.30847 -7.46508 -5.32186 -15.3792 -11.3084 0.914317 13.6374 -1.67648 -1.29277 -1.37136 -1.54759 -0.420493 0.917805 1.58387 2.05346 2.12431 3.3579 2.29014 3.0207 -0.286475 
0.107621 5.0715 2.36264 4.22276 5.93205 3.54749 3.75642 -6.2339 -6.28199 -5.38747 -7.3922 -0.0639632 12.4605 -1.92647 -2.01924 -3.53707 -1.77461 -1.88238 -0.439574 2.69071 3.28457 3.61531 6.04568 3.90219 2.58162 -0.454189 
-2.60668 0.366337 -5.03823 3.18305 5.92151 -3.85957 6.40581 1.89612 0.436611 4.37314 -6.5873 5.02616 11.9149 -1.78052 -1.74544 -4.36188 -2.02944 -1.33871 0.115051 3.0564 3.1818 3.4217 6.19476 3.79361 0.120222 -0.350395 
-3.24683 0.832745 -8.61188 -3.11399 0.244071 -3.88226 4.30466 3.29376 6.79059 10.3658 0.704916 4.65082 11.814 -1.3092 -1.37782 -2.06294 -1.2302 -0.304713 0.226974 0.587865 2.13341 1.23974 2.31753 2.16331 -0.0971041 -0.0888356 
-5.21129 0.581521 -7.48323 -4.38488 2.14896 3.73911 7.69941 3.6801 5.25037 7.71799 3.61112 -0.841964 12.2086 -0.336539 -0.744626 -0.920911 0.417226 0.710512 1.932 1.02273 -0.245026 0.0312516 0.706657 1.30272 -1.30569 -0.00758209 
-5.1361 -1.92519 -6.72955 1.85575 6.29475 0.883022 6.04895 3.54115 -2.49018 4.52776 -1.67485 2.38458 11.8695 0.0423605 -0.88079 -0.292265 1.43729 1.28242 0.373727 1.52503 -0.613298 -1.14547 0.134425 -0.26139 -0.328809 -0.0119566 
-3.34474 -1.97782 -10.5839 2.78431 6.44872 3.41781 10.6473 0.5473 5.23325 10.8255 1.11617 -0.369194 11.8493 0.380399 -0.584954 -0.350626 1.00111 0.337114 -1.56686 -0.247648 -0.283522 0.550641 -0.122222 -1.2658 1.00999 -0.0577738 
-3.9683 -2.29153 -8.52285 0.487857 4.50628 -1.85297 10.4559 1.79367 1.07179 9.48423 0.645442 2.77039 11.9339 0.190909 -0.233534 -0.0331257 -0.793136 -0.440768 -0.764274 -0.538689 0.943287 1.27568 -0.129185 -0.961207 -0.0176926 -0.0173813 
-3.89319 -2.16008 -8.33971 1.30463 4.72877 -2.7272 4.25771 3.13623 6.22259 4.62865 -3.878 4.01509 11.8875 0.0938996 -0.106138 0.10786 -1.17134 -0.569919 -0.884426 -1.01734 2.05647 0.660973 -1.41998 -1.087 0.156416 -0.063309 
-3.90733 -3.00174 -8.01729 -1.37008 4.95089 0.134158 6.55031 6.96312 3.39356 6.98025 -3.9838 0.103971 11.7634 -0.0356359 -0.207539 -0.593249 -0.40302 -0.22838 -0.440164 -1.18723 1.45772 1.07257 -0.555974 -0.107125 -0.00383891 -0.0365356 
-2.90573 -2.15341 -10.2974 -2.14341 3.37682 -1.99788 7.5134 8.24492 7.37723 4.97757 -2.00418 1.7461 11.618 -0.122816 0.0178119 0.178973 0.188979 -0.647128 -0.161942 0.417419 -0.598258 -0.932295 -0.392919 0.0267332 0.286544 0.0110015 
-4.64021 -3.33256 -10.5102 0.196779 4.04035 -4.41845 2.89186 6.52794 5.85732 6.5299 -0.827089 3.88569 11.886 -0.529464 -0.436536 0.0492194 1.03022 -0.378672 -0.547753 0.512707 -3.07229 -1.56757 -0.345262 0.0939781 0.826589 0.0389137 
-4.14083 -1.90561 -6.19838 1.46609 1.9484 -1.2606 8.17404 0.362526 0.329231 2.88923 -5.32269 3.55695 11.8812 -0.329566 -0.326843 0.913044 0.268321 -0.492765 -0.0669642 1.41256 -2.34984 -1.64631 0.384287 0.447212 0.351683 0.0142394 
-5.9371 -5.30832 -9.82072 1.97626 3.77174 -2.97324 8.78353 -4.45714 -0.9203 6.29811 -1.85466 3.33149 11.8264 0.0391446 0.270263 0.750153 -0.666883 -1.3342 0.264059 1.78405 -0.703722 -0.670284 0.530486 0.912222 -0.347948 0.00206451 
-3.90512 -2.79975 -6.07696 -1.69155 1.0473 -3.05531 11.6304 1.98824 2.53449 7.0149 0.74566 3.78161 11.719 0.189175 0.491496 0.073177 -0.750915 -0.757601 -0.461948 -0.332607 1.01726 1.13021 0.855957 1.28135 -0.0335042 -0.0132024 
-4.56235 -1.53418 -6.82018 -1.55881 -2.18009 -2.20081 10.084 2.19648 1.40327 7.1195 0.699845 2.03362 11.9775 0.424008 0.699974 0.292343 -0.73378 -0.644387 0.505251 -0.993632 2.49202 2.08156 -0.602055 -0.307055 -0.547292 -0.0208979 
-3.88233 -1.3352 -7.33276 -0.520941 1.13631 -3.95656 5.86079 2.12202 4.81849 6.75831 -0.193185 4.03837 11.7397 0.0031064 -0.325974 -0.455585 0.117896 0.248002 -0.168553 -1.60485 1.75177 0.584415 -0.959009 -1.13016 0.637613 -0.0806311 
-3.82845 -2.54072 -7.73111 -2.27794 0.505296 0.00363895 6.70016 7.93608 8.34551 3.41612 -2.92051 0.466655 11.7116 0.212126 -0.0304086 -1.19095 -0.719904 0.935447 -0.65504 -1.35937 1.5032 0.318669 -0.132837 -1.52438 0.766654 -0.0646396 
-4.25653 -3.92634 -7.89942 -0.742506 0.944618 -5.0003 5.298 7.87729 1.98545 4.07154 -3.09496 7.75316 11.4488 0.0388052 0.580965 -0.157852 -0.804295 -0.445913 -0.454801 0.392188 0.423153 -0.410276 1.35908 -1.56428 -0.0594972 0.0690475 
-3.31461 -0.390651 -12.4916 -5.04755 2.59299 -4.95414 3.5685 6.83486 4.41314 7.7987 -5.47115 4.00949 11.7997 0.0803429 0.392795 0.300349 0.385658 0.187998 -0.370225 -0.0135246 -1.73028 -0.752478 2.17812 -0.523995 -0.343295 0.0836202 
-3.94522 0.494587 -5.74179 -3.15761 -2.1371 -3.75168 9.38756 4.78839 4.73329 11.3624 -6.73927 1.96946 12.0408 -0.0111974 0.126247 0.522608 0.613192 0.440786 1.35991 0.759509 -0.0881502 -0.165777 0.407888 -0.699294 -0.697134 0.06034 
-3.58239 -2.78721 -7.30818 0.8579 2.98614 -2.4718 4.58776 0.829109 3.20919 10.6613 -3.71833 1.64203 11.8336 -0.349488 -0.563943 0.956612 1.6397 0.708092 1.09319 0.757595 -0.234444 -0.15113 -0.514523 -0.839549 -0.582748 -0.036702 
-4.17863 -2.09682 -7.87808 -0.629274 2.95197 0.558066 8.58592 10.4394 1.75854 4.67969 -7.46784 5.45122 11.7335 -0.33632 -0.394594 -0.112935 1.11176 1.20548 0.504594 -0.00910014 -0.189452 0.275883 -0.768377 -1.0717 -0.751633 -0.0605752 
-4.94534 -1.91466 -6.64037 1.88677 3.58891 -1.64307 7.75729 2.83712 5.14487 8.56745 -9.30461 -0.645125 11.7698 -0.349262 0.192727 0.257334 0.457377 0.184249 -0.0543681 0.551043 -0.358627 0.725768 -0.0299929 -1.30093 -1.06707 -0.00912619 
