-8.66164 -0.0559111 -9.276 -1.44422 6.05411 -0.704368 10.5591 1.13675 3.51163 9.92591 -1.13655 -0.647565 11.9541 0.525867 -0.0535685 -0.338399 -0.120823 -0.808942 0.390051 0.942692 1.0062 -0.490792 0.487708 0.109486 0.362452 -0.0577198 
-7.40239 -1.03625 -10.3908 -1.09694 4.84815 2.61511 15.0944 7.71365 4.14745 8.5255 0.626657 3.82044 11.7987 0.487517 -0.290151 -0.134581 0.150998 -0.162821 0.274219 0.463622 1.23858 -0.468603 -0.491747 -0.347502 1.18136 -0.00989532 
-6.66192 0.166418 -10.4106 -2.22198 2.61239 -0.413853 13.0049 2.87931 0.739759 13.0647 -1.47072 -1.06931 11.7432 0.523088 -0.0191108 -0.140861 0.413646 0.341809 0.0747847 -0.618355 0.22069 0.234543 -0.863965 -0.680477 1.06043 0.0214097 
-7.22391 -1.61783 -9.38162 -0.300355 6.96087 0.521468 11.6543 6.45836 2.55455 5.8978 -2.70697 5.47011 12.0101 0.17177 0.232058 -0.207772 -0.0181494 1.24315 1.00793 -1.73457 -0.809083 0.161971 -0.871852 -1.38396 -1.18304 0.0151425 
-6.13544 0.139322 -10.4849 0.225717 6.70679 0.716375 9.18733 2.86784 5.48079 6.91993 -2.87212 3.82974 11.9555 -0.0268627 0.556926 -0.38537 -0.525911 0.798826 0.575421 -1.83645 -0.392919 0.274809 -0.990847 -1.13706 -0.497809 0.00440273 
-6.80679 0.137584 -11.3925 -2.41154 9.01671 7.08963 8.33029 3.67397 2.58679 7.2386 -5.59244 -4.54429 11.7683 -0.160671 0.858214 0.393696 0.116001 -0.381552 -0.603547 -1.07328 0.229487 0.146646 0.403968 -1.13891 -0.78285 -0.053042 
-7.0048 2.07334 -11.332 -3.79594 5.5786 -0.82083 5.48461 2.30691 2.09769 7.44002 -5.71329 1.44885 11.8861 -0.269135 0.169031 0.705085 0.81928 -0.616401 -0.860392 0.346373 0.885 -0.0354039 -0.715533 -1.21645 -0.0749799 -0.00598469 
-7.59258 1.70623 -6.98962 2.29048 5.61721 -1.72766 8.13925 7.88626 4.97933 7.65759 -6.98092 2.7463 11.7796 0.0375433 0.0850107 0.963188 1.00513 -0.493666 -0.21056 1.10539 -0.377324 -0.922532 -1.16229 0.738451 1.15969 0.0618008 
-7.08821 0.200151 -9.16095 1.97111 5.32454 0.823061 11.0147 5.18669 4.1075 3.13277 -8.26014 -0.190455 11.9199 1.3843 1.66618 2.98441 1.62536 0.413755 0.712839 -0.191621 -3.36097 -3.18623 -2.38759 0.153721 -1.38846 0.109372 
-6.57736 1.49923 -7.6621 -0.269421 6.67541 5.21489 11.0922 0.347458 -3.03078 3.58075 -0.626761 2.07382 12.0604 2.47161 3.28586 5.19734 -0.0991887 -0.521745 0.230442 -3.16755 -3.28121 -3.0889 -3.73857 -0.235251 -1.0963 0.547993 
-0.590913 10.5077 3.92633 5.6108 7.11827 -0.727912 3.05002 -10.7285 -9.82841 -2.45951 -8.12177 -5.15723 12.2926 2.27749 3.57291 6.72653 -0.912805 -0.16007 -0.475201 -5.42716 -0.284804 -1.64315 -3.04717 1.66533 0.0437708 0.964678 
1.51683 12.9817 12.4535 -0.0253112 2.11162 0.200031 -3.71617 -0.562178 -3.49719 -8.23912 -8.22636 -0.251823 14.3332 1.53025 2.43165 5.00497 -1.53113 0.304108 -0.380507 -4.62889 1.5666 0.483085 -2.77752 2.30769 0.487893 1.12695 
0.252128 12.3235 14.4139 -2.71497 6.80608 0.954482 -8.71689 4.21749 -3.87503 -6.19316 3.86632 1.19122 15.6069 0.314305 0.0710834 1.70452 -1.67737 0.248229 0.31268 -1.40868 2.66732 1.93312 -1.15428 2.99054 0.933566 0.906728 
0.652368 12.7496 12.1189 -3.76219 8.35205 2.47116 -6.16877 0.707442 -3.59204 -8.44002 4.91763 1.33905 16.038 -0.129184 -0.938851 0.291222 0.232839 0.0685243 0.0401378 0.810283 0.658206 0.982057 -0.786838 1.13181 -0.373181 0.475346 
1.41285 10.9792 12.6162 -0.907588 5.2392 -0.300074 -2.76708 1.97326 -0.115392 -8.13045 0.258915 -1.28484 15.9738 -0.27576 -0.926325 0.385906 0.973873 -0.821468 0.0841126 1.87937 -0.0919249 0.563505 -1.75586 -1.27674 -0.0219439 0.270051 
0.290553 8.9596 14.8084 0.23519 3.23768 1.028 -2.63966 3.85097 -0.466721 -11.2047 -0.763628 -0.879698 16.5265 -0.712117 -0.744185 0.939271 1.13073 -0.166786 -0.168934 1.35295 0.355398 -0.240906 -1.40188 -0.956262 0.370366 0.195901 
-0.945765 9.58685 14.9987 0.155703 5.25593 2.09662 -1.08461 2.18611 -2.62017 -13.5901 0.323236 2.19088 16.7129 -0.674474 -0.474409 0.24003 1.31549 1.11317 0.288841 0.509847 -0.498406 -1.18879 -1.4461 -0.71213 0.446123 0.0517504 
-1.72891 9.72489 15.624 1.35983 7.50975 0.42814 -0.245249 2.37801 -3.54418 -12.7196 0.104162 1.45303 16.648 -0.418995 0.0203235 -0.149007 1.01725 1.257 0.456805 -0.844431 -0.541627 -1.43173 -0.753902 -0.9702 -0.472968 -0.0499655 
-0.94979 8.22452 13.4085 5.10753 8.66903 1.44406 -1.41506 0.217712 -4.52061 -14.6035 -3.73563 -0.220593 16.1719 0.145363 -0.661558 -0.175438 0.817758 -0.362506 0.54343 -1.2385 -1.04616 -0.484986 -1.05611 -1.99183 0.0239235 0.0473309 
-1.80241 9.74238 14.8585 2.84553 7.81611 3.63831 -6.6966 2.12703 -6.67516 -14.4675 -3.58519 -2.0388 16.5472 0.543052 -1.468 -0.0432367 0.623515 -1.92462 0.0866314 -1.30678 -1.76515 0.0553052 -1.1638 -2.6774 1.31904 0.284639 
-0.182199 6.27031 14.5043 3.50164 3.29022 3.20869 -4.05143 -2.91922 -3.47961 -17.9967 -7.79121 4.05641 17 1.18953 -2.35226 -0.0630325 0.848055 -3.77305 -0.625465 -0.803493 -2.19026 0.638361 -0.0194632 -1.60092 1.53515 0.49536 
0.602555 3.36201 14.86 5.28035 0.576066 -0.0210187 -5.46097 -4.8793 -3.78816 -16.842 -11.2551 5.90971 17.6571 1.9694 -3.60568 -1.0878 1.37095 -4.7979 -1.72162 -0.743289 -1.70738 0.948274 1.24331 -0.0845958 -0.0165436 0.543696 
3.79539 -0.346605 13.0927 8.1304 -6.57619 0.146401 -6.05033 -7.23043 -2.7723 -13.5136 -7.90529 3.48088 18.0937 2.21176 -3.77746 -1.91886 1.06189 -4.00766 -2.14374 -1.71423 0.481004 0.664816 2.84084 2.11331 -2.33146 0.506399 
6.05582 -4.97758 10.1253 7.3859 -11.2402 -3.43865 -9.41359 -4.25426 -2.28744 -10.4925 -3.95113 -1.83376 18.7188 1.98907 -3.15024 -3.17974 0.620348 -2.4993 -1.53428 -2.13111 1.53211 1.45063 3.11762 3.1054 -2.70317 0.378196 
8.14995 -8.44718 7.27733 7.75832 -10.8399 -5.80118 -10.6463 -0.826714 -0.905892 -6.96726 -0.876624 -3.72916 19.0011 1.47762 -2.06047 -3.39207 -0.598213 0.199532 -0.867414 -2.04979 1.16915 1.94146 3.02581 3.02909 -2.06702 0.233303 
8.37063 -8.33891 1.86892 8.56814 -9.78855 -4.71864 -13.8185 -0.420582 2.5318 -4.52702 0.757576 -4.0011 19.0944 1.08715 -0.757367 -3.13672 -1.39204 1.77871 0.389357 -1.27982 -0.282209 1.24005 3.11746 2.89106 -0.858706 0.0849369 
10.0261 -8.96829 0.260509 4.54821 -6.30436 -3.55067 -14.0968 -3.30152 4.52537 -1.36726 4.88582 -5.77054 19.0724 0.727454 0.246945 -2.64461 -1.97042 1.49791 1.59722 -0.739921 -1.15474 -0.113916 2.68019 3.12388 -0.545347 0.0495672 
10.5535 -8.50386 -2.04984 2.03076 -4.61443 -2.61712 -14.0874 -4.4279 1.1972 2.2948 7.62293 -5.1066 19.1078 0.535064 0.374514 -1.55259 -2.23923 1.16856 1.59539 0.194373 -0.978977 -1.59304 2.29341 2.92205 -0.209413 0.0865353 
10.6958 -7.12998 -3.98632 1.17492 -5.93745 1.13414 -14.2114 -4.59674 -0.808172 3.02279 11.3101 -5.90315 19.2422 0.0482637 0.347123 -0.927483 -1.54157 0.566738 1.18616 0.270434 -0.182525 -2.09148 1.53201 1.89357 0.134441 0.131819 
10.7111 -7.3855 -3.77059 -0.941356 -4.12921 0.915889 -12.7894 -4.66785 -2.76662 4.74498 12.1557 -4.98186 19.4422 -0.191504 0.0431978 0.00283929 -0.92444 0.332645 0.230839 0.152063 0.161585 -1.04515 0.811426 0.520091 0.00320311 0.117532 
10.1886 -7.79185 -3.51653 -1.67358 -3.71328 0.613598 -13.3937 -4.09417 -3.95012 5.0677 12.0873 -5.1607 19.5644 -0.410085 -0.334696 0.665623 -0.186359 0.397023 -0.825096 -0.719917 0.649938 0.0356677 0.182071 -0.710244 -0.447858 0.0826319 
9.84955 -7.95693 -2.27054 -1.16719 -4.06329 -1.20266 -13.736 -3.87126 -2.45758 5.32947 9.8348 -5.46181 19.5344 -0.717822 -0.359092 1.22689 0.713735 0.143001 -1.46881 -1.35911 1.36171 0.756729 -0.636497 -1.55663 -0.510198 0.0576588 
9.07615 -8.51774 -1.40823 0.356044 -3.98529 -1.93207 -17.3377 -1.74535 -0.784354 3.6409 8.91934 -7.90246 19.6092 -0.919375 -0.472166 2.13729 1.17448 -0.191081 -1.92852 -0.963834 1.93154 1.02072 -1.92983 -1.88583 -0.0819045 0.0864103 
7.67822 -8.81801 1.30973 1.61251 -3.27819 -5.15534 -17.6129 0.966266 -0.56586 2.2759 5.95647 -6.16197 19.708 -1.1855 -0.565464 3.12787 1.20299 -0.961021 -1.34454 0.215799 2.25202 -0.0871093 -2.94078 -1.25867 -0.0116583 0.145747 
6.67739 -9.72214 5.37977 2.80899 -5.06123 -7.05263 -16.2744 3.14474 0.207644 -3.05468 4.59731 -5.22014 19.9096 -1.40474 -0.327533 3.81221 1.06489 -1.62809 -0.363894 2.24504 1.05391 -0.867766 -3.38346 -0.810191 -0.0090919 0.204556 
5.12141 -10.1821 9.97481 3.62131 -8.33042 -5.36508 -13.1887 4.94378 -3.38913 -6.02662 5.70246 -6.86126 20.113 -1.48218 0.110792 3.80716 0.382549 -1.37689 1.3209 2.75417 -0.364434 -0.889873 -2.98319 -1.20672 -0.0317303 0.20635 
3.33088 -9.47339 13.3203 4.67611 -9.59961 -3.64667 -8.3246 1.53542 -3.71155 -9.12517 4.99539 -7.59828 20.4296 -1.50569 0.792143 3.2184 -0.415632 -0.311247 2.44005 2.17849 -1.24489 -0.761917 -1.76311 -1.81656 0.36624 0.143594 
1.94058 -8.38843 16.3753 2.59169 -7.89346 -0.253801 -7.81696 -0.0512445 -3.05563 -9.60481 -0.276189 -5.13155 20.4798 -1.22866 1.25249 2.40718 -1.0329 1.04728 2.34219 1.2744 -1.2278 0.100346 -1.39701 -2.46298 1.18134 0.0203684 
0.739367 -6.65824 18.2716 1.24564 -6.83595 2.592 -8.06778 -0.582218 -3.76869 -10.0811 -1.49618 -4.2538 20.4442 -0.861133 1.50194 1.63563 -1.24188 1.77161 2.15676 0.090073 -0.241456 0.228245 -1.13323 -1.81549 1.32319 -0.109111 
0.273881 -5.32719 19.5351 0.172068 -4.47586 3.22654 -6.9451 -0.136384 -2.85883 -12.5337 -3.36665 -2.6268 20.2075 -0.760515 1.80079 0.54123 -0.437166 1.64428 1.55254 -0.180533 0.739984 0.425492 -1.30442 -0.843236 1.16343 -0.172861 
-0.141437 -3.49431 19.9185 -0.323461 -2.45036 5.39697 -8.31017 0.370713 -2.66873 -13.3269 -2.53681 -2.23468 20.0201 -0.657009 1.79305 0.0516037 0.269946 1.12291 1.27707 -0.424986 1.05415 0.4243 -1.10728 -0.141735 0.843379 -0.232529 
-1.4216 -0.966458 18.2579 1.19041 -1.86483 6.1064 -8.59844 3.17221 -1.47815 -14.504 -3.97205 -0.323985 19.8275 -0.544567 1.7014 -0.235988 0.299733 0.787352 0.70277 -0.0658682 0.755832 0.503241 -0.779812 0.103911 0.384067 -0.267162 
-1.69794 0.126655 19.1681 2.0862 -2.52692 7.53743 -9.36604 3.03424 -2.33753 -14.6324 -1.90215 -1.18831 19.4715 -0.340769 1.3783 -0.308674 0.259646 0.493102 0.0164895 0.460664 0.602935 0.365977 -0.583773 0.225446 0.372409 -0.283059 
-1.6707 1.36931 18.7303 0.4659 -0.500819 5.67017 -6.7465 2.31101 -0.508218 -15.78 -3.16443 -1.22965 19.146 -0.0361801 0.725541 -0.259574 0.0499766 0.434111 -0.413873 0.526337 -0.210662 0.147125 0.0877087 0.255476 0.244003 -0.25883 
-1.72073 2.22932 18.139 1.33702 -0.666858 5.69754 -6.93282 3.81599 -1.32381 -15.6078 -1.8134 0.0802046 18.9456 0.159938 0.214492 -0.570734 0.201872 -0.0405415 -0.609532 0.727505 -0.621012 0.101052 0.453626 -0.359849 0.8962 -0.172482 
-1.5911 1.60991 17.4746 1.81488 -0.624309 4.95698 -7.18336 1.72803 -1.24939 -13.5778 -2.73905 0.26177 18.7963 0.535965 -0.533012 -0.603668 0.495832 -1.03632 -0.0430979 -0.0784904 -0.458215 -0.611449 1.20862 -0.367608 0.653971 -0.0927662 
-0.938046 1.07882 16.9423 2.42107 -2.66788 4.84636 -5.51009 0.220675 -1.46168 -13.4653 -3.91408 2.54697 18.784 0.855179 -0.970174 -0.903584 0.605511 -1.94298 -0.327455 -0.129361 -0.744478 -0.314586 1.42195 -0.329939 0.199632 -0.0536364 
0.61778 -0.720494 16.3103 2.40304 -4.68188 5.88026 -7.85032 1.8176 -3.49652 -10.8081 -3.95212 0.806817 18.763 1.20172 -1.07095 -1.71463 1.17828 -2.38737 -1.18792 0.101326 -0.678915 -0.594903 1.95283 0.0261942 0.307699 -0.104944 
1.45072 -1.45635 14.2032 4.0705 -8.35297 3.59862 -7.24615 0.0488136 -1.77317 -9.88284 -2.85655 0.805842 18.6941 1.68369 -1.30066 -2.34739 1.11689 -2.14035 -2.23947 -0.0188469 -0.433904 -0.879476 2.76667 0.491785 0.110193 -0.173551 
3.22312 -2.47723 10.271 6.88154 -9.71862 -0.358761 -5.8087 -1.58062 -4.06816 -5.60489 -3.13684 2.67083 18.3165 2.03563 -1.16182 -3.67399 1.13645 -1.12969 -3.17002 0.328536 -0.273228 0.274771 2.67526 0.335847 0.392316 -0.210221 
6.17771 -4.5461 8.22499 5.76626 -10.8513 -3.23145 -6.62513 -0.249737 -5.57324 -2.23363 -1.8628 2.16593 18.1394 2.20226 -0.96101 -4.81619 0.369872 1.10261 -3.29087 0.343855 0.310544 1.35237 3.01257 0.077819 -0.326869 -0.22554 
8.43246 -4.9847 0.9295 7.23742 -9.08117 -6.5548 -6.51814 0.600731 -0.222633 -1.25644 -2.76977 2.08835 17.9892 1.87446 -0.128338 -5.50685 -0.514396 2.15037 -2.0426 -0.0491035 0.207322 2.3141 3.19946 0.269298 -0.996779 -0.172945 
9.85735 -5.00767 -5.20697 5.74192 -3.15864 -9.75769 -5.17215 0.510861 3.06594 3.00579 -2.651 -0.537262 17.73 1.16907 0.520741 -5.12389 -1.61036 2.83238 -0.284929 -0.289674 -1.07456 2.75382 2.63095 1.26433 -1.0522 -0.123586 
10.7556 -2.88814 -10.5472 4.32173 -2.81307 -7.30866 -6.78071 -0.924305 3.18277 7.77272 -1.39625 -0.961467 17.6565 0.370658 0.527016 -2.58568 -2.40781 1.95995 1.76423 0.33117 -1.46503 0.98305 2.03418 2.55228 -0.900352 -0.232691 
10.8615 -2.99067 -11.6561 -0.82769 0.17659 -4.27917 -7.94222 -4.86002 6.49314 6.40652 3.77209 -1.57015 17.6878 0.190483 1.16711 -1.25485 -2.51799 0.426426 3.27391 1.95651 -2.05427 -0.992416 0.732755 2.2463 -0.592705 -0.372553 
9.78368 -3.35812 -8.77434 -1.51684 -0.949045 -0.472903 -3.47726 -4.03898 2.97902 7.21408 6.78009 -1.89696 16.8469 0.166032 0.793923 -1.04778 -2.50179 -0.609648 2.40751 3.21376 -2.70922 -2.18816 0.854239 2.03934 -0.285783 -0.427579 
11.2957 1.06288 -12.3677 -3.92877 -1.95852 3.19397 2.95866 -8.20314 -1.79427 6.94889 4.49234 -3.03304 16.2721 -1.28705 0.988724 -0.426007 -2.32526 -0.951393 1.67302 3.99551 -2.34432 -2.41977 0.717264 0.246709 0.85828 -0.744772 
11.3686 -0.945304 -15.4303 -6.63666 -4.79376 0.992303 3.83766 -12.7988 -3.61434 11.7727 8.44031 -1.65893 16.2265 -1.01597 1.46643 -0.320057 -2.41211 -1.23272 0.720085 3.09582 -2.02622 -2.20754 -1.01523 -1.84783 0.29117 -0.606667 
3.63376 0.74654 -10.4581 -9.89409 -2.65802 3.35332 8.37788 -12.2017 -2.30905 7.71351 4.17553 2.60224 14.2742 -0.945735 0.748383 0.193747 -2.35872 -1.51715 -0.0148427 2.55518 -0.730964 -1.30507 -0.947686 -0.984914 0.802588 -0.297313 
8.53483 4.13221 -11.3294 -10.5947 -6.7629 3.04785 9.29223 -12.1708 -7.80128 1.75562 -2.30065 -3.25875 14.8125 -1.5415 0.162399 -0.00850801 -1.94658 -1.18182 1.06186 1.18121 1.84744 0.143099 -0.495555 -1.22758 0.0152918 -0.245385 
7.98396 2.26604 -13.4494 -13.7434 -8.55969 2.09199 13.0073 -12.172 -6.22616 7.21901 4.93825 1.77981 15.4925 -1.2036 0.336898 -0.180923 0.173091 0.187705 0.204975 -0.151214 2.69249 0.0855672 0.711376 -0.22465 -0.427043 -0.364558 
1.48602 -0.893063 -13.9772 -14.4449 -7.75204 6.93225 7.42903 -3.57648 -0.94029 9.54221 1.92106 -1.17126 14.3904 -1.28961 0.701584 -0.128926 0.582988 1.53958 -0.0625233 -0.0754557 2.62535 0.0648599 0.578704 -0.752441 0.727399 -0.490678 
1.14014 4.94366 -10.0388 -7.10352 -1.22493 2.43599 8.55341 -3.03638 -5.31171 7.3771 0.941417 -0.576722 12.6624 -1.57824 0.599267 0.203139 1.32627 2.08558 -1.51441 -0.152514 2.80894 -0.291934 -1.08419 -0.668218 1.15408 -0.675317 
5.50867 6.30132 -13.6793 -10.9997 -2.73238 2.56323 11.1419 -3.61185 -7.93421 4.5701 -4.06444 1.55651 13.7742 -2.17481 0.329132 0.787868 2.88016 2.5545 -2.69398 1.46538 2.47665 1.18119 0.138313 -0.180131 0.77021 -0.503985 
-1.91856 1.66519 -12.5827 -8.83463 -0.6416 -3.29555 10.3883 1.89038 -4.18887 4.2841 4.58991 6.18634 12.4241 -3.0115 -1.38999 0.700146 2.50307 2.93174 -1.30737 0.060198 2.59009 3.19126 0.348097 -0.81342 -0.0883109 -0.312394 
-7.85867 2.39184 -8.76597 0.821438 4.72882 -3.6719 13.8385 6.34341 4.40424 11.7803 -0.803836 -0.701742 11.9896 -3.26849 -1.39923 0.972417 2.64831 2.82859 0.402575 -0.87478 1.48146 3.57235 1.56181 -0.329714 0.310489 -0.398182 
-7.23367 -0.0515509 -8.99475 -0.498755 9.70318 -0.983319 7.50609 4.93645 4.47536 5.5125 -4.75598 0.110848 11.9927 -1.19448 -0.36907 -0.0995679 1.22181 1.61385 1.06471 -0.923689 0.393842 2.5479 1.44805 -0.593627 -0.196371 -0.0747667 
-8.17622 0.163533 -10.6112 -1.92606 6.23819 3.41998 8.20909 2.27242 5.59543 11.765 -1.04006 6.1467 11.9989 0.00786667 -0.0737296 -0.413577 -0.529404 -0.522249 0.0153776 -0.867003 0.0727975 1.28189 0.136099 1.34735 1.19714 -0.0159395 
-7.73216 0.93399 -12.1579 -1.35185 6.67298 -1.51793 8.58455 5.89509 7.95506 11.532 1.73989 1.78027 12.0456 -0.732698 1.2961 -0.448434 0.863105 -1.73561 -0.915085 1.04581 -0.964076 0.722092 -0.561318 1.56828 -0.271238 0.397548 
-7.57009 1.53042 -9.25228 -1.39903 3.63268 -3.3277 8.96426 6.22808 9.07382 9.451 2.68495 4.44925 11.8835 -0.710071 1.44464 -0.158193 1.36396 -1.01437 -1.49759 0.599896 -1.82089 -0.324785 -1.79204 0.139287 -1.3581 0.499577 
-11.2002 5.74551 -11.9164 3.55326 2.32788 -2.1849 12.3575 -1.86176 6.34662 3.86288 1.22294 -0.396616 14.0382 -0.119613 0.323818 0.409751 0.530554 -0.842257 -0.411667 0.373939 -2.42427 -0.828198 -0.508439 -0.397636 1.37649 0.175768 
-9.99255 4.98098 -11.5229 2.44117 3.33889 -3.73449 9.32207 -2.95361 4.77572 6.63932 -0.0851488 0.444661 13.5005 0.443278 -0.540591 -0.0982386 -1.02827 0.218142 1.00067 0.181684 0.206719 -0.719242 1.02761 -0.0878302 0.845639 -0.180627 
-7.119 0.827798 -8.97382 -0.619185 2.60858 -3.37287 10.2753 -1.63543 5.96311 10.3957 1.13676 10.665 12.1159 1.17235 -1.19126 0.579358 -2.42051 0.245094 0.946752 0.147775 1.8775 0.0132711 2.20351 0.268043 1.2945 -0.592118 
-7.39431 1.28632 -11.2148 -4.45418 4.58304 2.26963 10.9138 7.14851 5.66936 11.3226 2.28889 3.14664 11.9415 0.489237 -0.544437 -0.336321 -1.76849 0.573106 0.311829 0.07712 1.47685 -0.683745 -0.572964 -0.335094 -0.0786993 -0.339245 
-6.63759 1.63655 -9.17367 -5.10164 2.93128 -0.453202 12.3006 2.47467 5.96616 12.5387 1.37613 4.72489 11.8571 -0.216707 0.147431 -0.464929 -0.132697 1.1302 -0.616718 -0.151258 0.510863 -1.34934 -2.49309 -1.06272 -1.90152 -0.042554 
-7.78707 1.85442 -13.1046 -4.16006 6.04308 -3.63518 8.69506 2.3756 1.35548 2.70296 -1.8803 3.02121 11.9337 -0.235896 -0.191015 -0.0315465 0.452877 0.223206 -1.20218 -0.138977 -0.263793 -0.323194 -1.59714 -0.961729 -0.580079 -0.0146709 
-8.00616 1.2809 -10.3535 -1.42973 7.52958 -3.50406 10.6284 3.30534 1.37336 2.24008 -2.09222 1.22011 11.907 -0.337529 -0.484179 0.202242 1.11963 -0.0262864 0.52669 -0.259458 0.792239 0.802019 0.160732 -0.145208 -0.77216 0.00531492 
-7.8895 0.509068 -10.7825 -4.02575 3.39992 -2.21587 11.055 5.41421 6.34979 8.48626 -0.78558 1.99864 11.8432 0.0515224 -0.146194 0.941653 1.01758 -0.32958 0.896659 0.0826996 0.629445 1.98475 1.89317 0.292401 0.210146 -0.0353879 
-8.27401 -0.111673 -9.32348 0.429348 4.12143 1.47059 9.82332 4.91656 7.47909 10.4508 0.102726 1.37538 11.929 0.184643 0.0692173 0.354614 0.437016 -0.260444 0.154345 0.732742 0.0759007 0.5983 0.17907 0.189474 0.93055 -0.0368554 
-7.39553 1.81974 -8.91136 -0.00167823 6.09926 -1.63921 9.51111 4.71721 8.22636 8.06346 -1.51577 3.99431 11.7458 0.148103 0.162335 0.0813676 0.3674 0.449562 0.189447 0.0508021 -1.96139 -1.9218 -0.976285 0.121336 0.717126 -0.00225611 
-7.32993 0.971653 -9.51607 -1.25668 4.87769 -3.02066 15.0641 4.03334 3.42658 3.34683 -0.779754 4.87503 11.7714 0.0585648 0.0181723 0.163019 0.150935 -0.289444 -1.00098 -0.509495 -1.67323 -1.86492 0.498528 0.203139 0.300698 0.00338955 
-7.62103 0.779079 -10.2794 -1.34573 5.2696 0.976995 8.68861 -3.95112 -1.23293 7.1568 0.26234 3.83444 11.9106 -0.281143 -0.719577 0.29289 0.121056 -1.01653 0.00476861 -1.47583 -1.26823 -0.715133 2.76709 1.49703 0.493686 0.0394295 
-7.86844 0.499518 -7.82436 1.85605 3.08903 -4.84244 7.68709 0.884599 2.88417 13.3967 0.229363 2.9588 11.8635 -0.331507 -0.734863 0.443324 0.10008 -0.929214 0.295089 -2.13554 -0.426427 0.914549 3.67714 1.76916 0.867807 0.02373 
-8.53199 -1.54208 -8.29277 -0.952766 1.91095 -0.704479 5.82046 -0.0495687 4.9219 16.8739 5.46483 7.42086 11.8969 -0.248547 -0.668392 0.350488 -0.202288 -0.789538 0.0775009 -0.760295 0.686894 1.43474 2.29115 1.56404 1.16349 0.000602627 
