-6.08338 1.32213 -5.32578 7.5719 5.07613 -4.39481 4.76372 -0.762966 3.58497 -0.292982 -0.188412 4.45587 11.9022 -0.266199 -0.421901 0.353211 -1.00742 -0.36043 0.276466 -0.0478514 0.488914 -0.284117 0.950354 -0.0625179 -1.08658 0.0909555 
-8.84737 -0.465107 -3.21314 9.90467 6.23799 -4.57995 8.19929 3.48223 3.80752 3.66876 -1.55876 2.85081 11.9029 0.135767 -0.582455 0.473342 -2.41833 -1.27598 -0.194528 -1.15993 0.831287 -0.987738 0.684109 0.0119248 -1.37254 0.269858 
-6.03238 0.106236 -4.61604 1.36843 2.69305 -2.91992 2.80668 -0.440993 2.05311 2.47792 0.184175 -0.174527 12.3566 0.49371 -0.621947 -0.339912 -3.74009 -1.30444 -0.725611 -1.14368 -0.513165 -2.02779 -0.129952 0.0636925 -0.294574 0.24951 
-5.43005 -0.982204 -3.31394 -1.418 -0.112206 -6.1049 -0.0574093 3.23248 -0.587789 1.74211 -0.315081 -0.0916479 13.0242 0.736598 -1.0182 -1.31194 -3.01617 -1.03479 -1.04695 -1.1209 -1.12151 -1.69958 -0.266472 0.00528612 0.0940551 0.078461 
-5.32349 -1.52906 -6.97494 -5.46721 1.72901 -7.26039 3.17365 -3.20392 -4.35634 0.0205827 -0.491791 4.45423 12.589 -0.217656 -0.971892 -0.590587 -0.152274 0.375936 -0.460023 0.704305 -0.328689 0.0359392 0.427548 -0.815922 -0.21268 -0.131203 
-5.51882 -4.73845 -8.59338 -1.75833 1.54604 -7.64446 2.41131 -0.743859 -1.48567 3.56507 -1.19435 1.00671 12.179 -0.471904 -0.471478 -0.283711 1.45018 1.50458 1.09608 1.37882 -0.616624 -0.133269 0.0642258 -0.759904 0.0353673 -0.259779 
-7.07627 -2.8751 -4.92925 0.777222 3.74362 -4.45025 5.09385 -0.096265 2.68175 3.70418 -3.4558 -1.78711 12.1232 -0.108046 0.118944 0.521839 1.59067 1.06267 1.44962 0.34618 0.423812 0.0581709 -0.313023 -0.120957 -1.14368 -0.162719 
-6.91318 -2.66657 -5.75533 2.71068 6.40337 -2.02959 5.87658 -1.40447 -4.77318 0.221442 -2.63259 3.20586 11.9583 0.65626 1.02949 0.555242 -0.234422 -0.0848185 0.733788 0.394083 0.440301 -1.64186 -1.60754 -0.862525 -0.983241 -0.0654453 
-5.16655 -1.97027 -5.78477 0.251641 4.6137 -2.81973 3.17191 -0.754555 -2.42173 0.127282 -0.377453 -2.36373 11.8858 1.96683 1.65701 0.556579 -1.46139 -1.0546 1.46173 0.727516 1.0209 -0.217562 -1.87026 -1.22718 -0.0341392 0.093922 
-3.19239 -0.0434012 -5.38941 -2.66765 0.686902 -4.79078 5.34269 1.78679 -7.14323 -2.68419 -7.04615 -3.62119 11.9705 3.77818 3.24241 1.71657 -2.96276 -3.49402 2.3775 0.206224 0.681147 3.07814 -2.11036 -0.924255 -0.995966 0.782642 
0.897503 4.09835 -2.32931 -3.84058 1.32884 4.23899 8.99837 3.41261 2.77896 -4.19429 -7.38493 1.45572 12.5867 4.92823 2.97788 1.71181 -3.09167 -4.09452 1.74748 0.478366 1.11579 2.77055 -1.57693 -0.317682 -0.147675 1.46198 
8.94572 10.5112 1.09976 -10.057 -9.42429 6.32856 3.99447 -0.0823121 8.01718 -8.16959 -3.75013 -3.6837 15.521 4.42832 1.90493 1.33221 -1.96451 -3.58001 0.673562 -0.558715 0.48752 2.53742 -0.315485 1.53673 -0.687509 1.54694 
13.4056 7.64182 -0.470299 -11.512 -10.8033 0.357977 6.23785 5.75897 3.85082 -5.01465 -3.61387 -3.07085 17.4204 2.53453 0.0967756 0.633319 0.0851288 -3.1427 -1.15131 -1.59354 0.200033 0.38434 0.472426 2.01318 -1.65616 1.0803 
12.6952 7.70951 0.342131 -8.65449 -11.1471 0.517534 3.92938 3.05121 5.00796 -3.85143 -1.24805 -4.79545 17.2883 0.307003 -1.21431 0.5318 2.06492 -0.691453 -1.08544 -0.510255 -0.347535 -0.719574 1.61466 1.36548 -0.370809 0.218055 
11.6954 5.98306 1.2161 -4.11619 -13.5233 1.38794 1.06324 2.84602 6.20527 -3.99124 1.42992 -6.26923 17.1046 -0.835449 -0.984849 1.47005 1.88963 0.687463 -0.247305 -0.835107 -1.47518 -0.496423 1.3867 0.575176 0.0986909 -0.211173 
11.3358 5.26899 2.91556 -3.4303 -11.5216 0.386383 4.0305 -0.363508 3.24208 -0.608012 0.555361 -3.93855 16.7692 -0.795999 -0.930878 1.45111 0.98901 1.25108 -0.613562 -0.0473023 -1.37361 -0.78078 1.34817 -0.466852 0.744514 -0.189947 
9.908 3.93784 5.59325 -4.67595 -7.17873 -0.812971 2.01176 0.0904505 2.25164 0.297133 -1.6397 -3.00584 16.6241 -0.571376 -0.473466 1.37442 -0.0589804 1.05014 -0.56168 0.438018 -1.37898 -0.747629 0.999477 -0.650567 0.999967 -0.0988028 
9.60888 4.07773 5.40911 -3.42956 -8.06394 -1.44982 3.21861 -2.43908 3.08088 0.745235 -2.0475 -2.70457 16.5788 -0.317691 -0.244381 0.636903 -0.331545 -0.20842 0.0845868 -0.688978 -0.960007 0.0262203 0.372499 0.211637 0.529359 0.0523409 
9.70201 4.21136 6.84143 -4.41146 -10.0014 -0.502355 3.65928 -3.01111 2.54773 0.329523 -0.521485 -1.88639 16.7057 0.0411643 -0.0726316 0.0769502 -0.846657 -1.33141 0.247081 -1.00497 -0.428399 0.290181 -0.120669 1.08498 0.35517 0.171951 
9.85035 3.91032 5.47599 -5.22027 -11.1523 0.654009 -0.238152 -3.61277 3.22514 1.23829 1.05444 -1.85149 16.9901 0.196496 -0.140822 -0.156756 -1.14106 -1.12745 -0.27048 -1.23282 0.376332 0.828277 0.11691 1.13996 0.0122462 0.265616 
9.99309 3.65838 5.94456 -8.01388 -12.2916 -0.629482 -1.28473 -1.4647 3.63042 -0.552741 2.23422 -1.65654 17.2782 0.471156 -0.0991208 -0.729625 -1.20338 -1.02015 0.0511877 -0.67282 1.28339 1.37931 -0.575781 0.791178 -0.80112 0.331907 
10.4458 3.65011 5.07377 -7.33366 -12.5561 -2.73866 -0.473507 -1.33062 6.68092 1.77092 2.27446 -2.75826 17.6206 0.579985 0.184201 -1.03975 -1.31439 -1.03088 0.856952 0.917881 1.86642 1.48049 -1.85782 0.0786278 -1.23433 0.328923 
11.76 3.84586 3.39442 -9.37169 -14.4003 1.44992 0.412855 2.26478 7.71636 -2.81569 2.82439 -5.4386 18.05 0.457862 0.355309 -1.53071 -0.912246 -0.758294 1.89635 2.13206 1.64698 0.855698 -3.08705 -0.0102394 -1.30966 0.256186 
11.8668 4.73759 1.55233 -11.1133 -15.2524 3.89907 3.50246 3.85459 8.58464 -6.91933 1.15249 -6.1321 18.2488 0.178468 0.181802 -1.96163 -0.741375 -0.633373 3.44175 2.09007 1.31565 -0.794215 -4.1171 -0.0943519 -0.096331 0.230482 
11.5719 4.89119 0.0517309 -10.6853 -14.7349 5.53341 7.38758 4.17758 6.95705 -11.6429 2.74401 -6.51792 18.2451 -0.257444 -0.372434 -2.1173 -0.38841 0.681302 4.06089 1.59178 0.100338 -1.9028 -3.48567 0.358255 1.34623 0.229334 
11.4322 4.03646 -3.06302 -10.3837 -15.5556 12.4283 6.48946 4.29123 3.0895 -14.401 1.84289 -2.70026 18.6755 -0.459864 -1.03465 -2.04345 -0.00485344 2.05264 4.24741 -0.213055 -1.0851 -3.345 -1.06603 1.27486 1.74902 0.175692 
10.6901 2.33426 -4.88438 -11.6785 -10.8421 17.4898 6.87824 2.54815 0.949916 -16.5032 4.27047 -0.42337 18.9833 -0.290962 -1.01693 -1.7345 0.0842894 4.7789 2.73387 -1.93576 -1.25182 -3.89728 3.09989 2.19211 1.31702 0.00717449 
10.0084 0.842812 -6.19687 -10.6409 -6.93556 19.158 2.69185 -0.756182 -5.13681 -9.8193 6.76355 -0.434247 18.7582 -0.623344 -0.647848 -0.781273 0.511677 5.99865 -1.00503 -3.66187 -0.441263 -2.71953 5.3153 1.1975 -1.16185 -0.357071 
10.829 1.40337 -7.05385 -10.1352 4.84954 15.8379 -0.392416 0.442157 -8.41618 1.56571 11.2442 -1.06582 18.2396 -1.70581 1.12176 0.618192 3.12998 6.62638 -4.18203 -3.28256 0.430597 0.101308 4.99643 -0.978715 -3.12658 -0.577718 
8.24605 1.26266 -5.88466 -8.59698 6.5918 8.22907 -8.18458 3.13791 -5.82509 3.14104 4.34349 -8.18826 17.262 -4.4872 2.06445 1.94734 5.66349 5.61628 -5.80648 -0.471955 1.38447 2.92469 2.97124 -3.09579 -2.12424 -0.160663 
3.04221 7.73314 -1.94953 2.94941 15.5261 2.04407 -4.09633 2.75409 1.8006 1.99876 0.586924 -12.1793 16.8428 -6.67639 1.62772 1.88604 4.54298 2.40884 -4.81392 0.615189 1.18831 2.58825 -1.0724 -3.9694 -0.445123 0.557375 
-8.53424 8.00019 0.987661 11.1342 15.8076 -2.97749 2.18404 5.01018 4.37826 4.82038 -3.38675 -5.49871 18.6532 -7.38174 0.331206 0.889177 0.0702615 -1.0305 -1.73085 3.56673 1.60657 2.1385 -0.0240723 -0.113186 2.94241 1.08923 
-14.1628 6.1732 -1.05982 2.7141 12.2859 -2.62839 -2.50078 5.44758 -0.576591 -4.63597 -4.73762 -4.63621 20.3309 -6.42822 -1.46753 0.44034 -3.77686 -3.08109 0.368294 2.59924 2.10816 1.82336 1.30619 0.317766 3.16738 1.07611 
-20.0602 3.69866 -1.88363 -8.12802 3.05941 1.91108 8.85127 9.824 6.05599 6.33805 6.43983 2.75225 20.9641 -4.30168 -1.93567 -0.0150052 -4.69608 -2.33795 1.36097 0.595171 1.56354 2.21766 2.11038 1.72747 1.55629 0.609526 
-23.3359 2.54627 1.68782 -6.30382 6.49474 1.44125 5.56627 10.888 10.0785 7.77086 -2.73753 -0.467847 21.068 -2.38505 -1.26573 0.540011 -1.40757 -0.757829 1.50145 -0.0907104 -0.132771 0.815685 1.68656 0.707135 0.78837 0.21185 
-25.456 0.135296 -0.461182 -7.83726 7.01337 1.79253 1.12637 10.1077 10.139 9.16885 4.25053 0.19856 21.3323 -0.58803 -0.723327 0.188433 0.965468 0.618685 1.59555 -0.782017 -1.4057 -1.49158 -1.93174 -0.768009 -0.893082 -0.000482368 
-23.39 1.62624 0.929015 -4.46914 6.51975 4.93812 0.908123 4.64188 1.46033 2.38143 -0.107299 0.582487 21.206 0.713056 -0.379341 -0.273251 0.544772 -0.450179 1.29819 0.478074 -1.27564 -2.59979 -2.15637 0.615988 -1.0467 -0.0754972 
-22.9733 0.542043 -0.562064 -4.21802 6.14034 8.14039 7.27027 5.91853 2.90721 -0.625917 1.28466 -2.23833 20.8927 1.91023 -0.104043 -0.474264 1.05529 -0.723902 0.016557 0.745928 -1.35921 -2.57916 -0.899087 0.517865 -1.147 -0.350318 
-21.012 0.446191 0.372001 -5.38958 4.68036 4.75828 4.88469 6.60435 0.695465 1.88639 1.82534 -4.48291 20.9103 3.06353 0.798906 0.289202 1.94977 0.01191 -1.87641 -0.781824 -1.19095 -2.59496 -0.310773 -0.11932 -1.89226 -0.70518 
-17.0939 0.205106 -2.55399 -2.1006 4.31355 1.96524 2.86772 2.33039 -2.37438 4.92093 5.87354 -3.00374 19.7286 6.08677 0.641788 1.89459 2.69551 -1.2117 -3.60441 -3.15477 -2.5032 -2.32873 -1.20112 -0.69303 -0.971517 -0.913789 
-11.0121 5.78924 3.37099 4.221 7.49269 -1.35635 -0.799726 0.481205 -8.87366 -1.94587 -2.99834 -8.49611 18.2622 8.00127 -1.02348 2.4441 2.81543 -2.78197 -2.71831 -4.15977 -2.2848 -0.85303 -2.59808 -0.848803 -0.540643 -0.755888 
2.46063 1.07946 7.41139 4.45421 -1.32431 -6.82433 -5.66137 -3.53589 -3.95186 -4.71537 0.231352 -5.08932 17.6478 7.08423 -2.00532 1.53836 2.49174 -3.40739 -0.925576 -3.80762 -1.85851 1.02512 -1.5546 -1.85869 -0.22475 -0.386818 
9.21707 -5.10839 7.6098 5.41017 -6.41058 -4.43848 -11.6496 -1.88653 -2.78094 -6.28586 0.40242 -6.14334 18.1713 4.09421 -2.36078 -1.27395 2.79914 -2.87145 0.124255 -1.81943 -2.48793 3.39533 1.93893 -2.03209 1.3349 -0.136359 
8.21268 -4.37266 3.0184 9.76353 -5.77175 -1.12158 -10.7454 -5.77831 -0.295157 -0.682081 -5.12028 -5.30387 17.84 0.770508 -0.60807 -2.80085 2.89501 0.58918 0.809384 0.263653 -2.19393 1.76846 2.99843 -2.68566 1.05885 -0.154028 
6.58295 -3.28859 -0.802246 15.5621 -4.64082 -3.58645 -7.35486 -10.8372 6.27465 5.73213 -10.483 -1.71432 17.4843 0.11714 0.26041 -2.83091 1.80532 1.76734 0.407547 1.74051 -2.60004 0.768333 3.01204 -1.46764 0.883235 -0.190514 
7.63023 -2.8708 -2.38685 13.8533 0.736714 -3.20342 -6.49048 -10.0302 0.362625 4.2678 -7.75426 -2.00956 17.2212 1.13194 -0.747932 -1.36594 -0.691867 0.899128 0.450481 1.56849 -1.82223 0.455475 0.11911 1.97991 0.848078 0.0685453 
10.094 -4.55727 -3.84214 12.3919 -0.828087 -1.35982 -5.07451 -12.7608 0.731834 6.29939 -5.61877 -3.37432 17.5281 1.84177 -1.58371 -0.143424 -3.27107 -0.52876 2.05614 0.143252 -0.0783051 -1.2113 -1.39683 3.93197 1.69426 0.356151 
12.1168 -7.47798 -2.29137 7.88927 -3.18247 0.017512 -4.04313 -13.9277 4.75363 -0.370162 2.34715 -0.233484 18.1608 1.44596 -1.46391 0.12403 -3.6715 -2.39178 3.30258 -0.845162 1.04516 -0.964013 -1.4739 4.27399 2.09868 0.497259 
13.5485 -8.90357 -1.5671 2.18872 -5.32503 5.08379 -7.86227 -9.28001 -1.97737 1.06694 4.12615 5.86895 18.7952 0.978887 -0.984956 0.395167 -3.83797 -1.54478 2.98351 -0.75295 2.1525 -1.6598 -1.5308 3.83566 1.39666 0.400376 
13.1328 -8.0172 -2.90422 0.597377 -8.97372 10.0877 -9.32241 -6.54482 -3.10284 -0.48546 8.74321 3.86219 19.0739 0.423086 -0.338629 0.0643835 -2.8165 -0.47459 1.94387 -0.129012 2.17005 -2.35618 0.124615 2.26304 -0.695233 0.203067 
14.4805 -9.21244 -1.55988 -3.15203 -5.65635 8.52266 -6.19962 -5.68973 -3.63892 -1.29699 10.3615 1.56113 19.0734 0.129052 -0.228571 -0.0656294 -1.44426 0.535204 0.415562 0.446262 0.996107 -1.05578 0.673384 1.36762 -2.04674 0.057391 
13.7663 -9.01669 -1.97306 -3.52287 -5.38976 8.01745 -5.51952 -4.87258 -6.19652 1.43488 10.5447 -1.55574 19.037 0.201105 -0.774592 0.0697132 -0.276873 1.23939 -0.47024 -0.62902 0.670126 -0.277863 1.31893 0.168856 -1.41044 0.0388378 
13.877 -9.54668 -2.36083 -2.97243 -4.44099 8.1967 -7.53241 -5.1356 -5.70943 3.47369 10.0635 -1.6558 19.1006 -0.0936044 -0.959205 0.410197 0.660779 1.14828 -0.867467 -2.3525 1.33288 0.821469 1.00668 -1.07358 -0.772264 0.0265902 
14.44 -11.723 -2.15518 -0.876783 -3.38445 7.89943 -11.8011 -3.47125 -3.4569 3.72384 9.7365 -1.58156 19.2545 -0.172683 -1.19836 1.18886 0.934346 1.14225 -1.66285 -2.91418 2.04651 2.13357 -0.368685 -2.00075 -0.582768 0.00704861 
13.6756 -12.6553 0.582164 -1.17118 -0.917576 4.24433 -14.8213 0.27402 -0.901387 2.59192 5.39769 -2.28728 19.0976 -0.837954 -0.680809 2.03516 0.861707 0.65603 -2.47605 -1.91731 2.21111 2.32787 -1.16905 -2.81504 -0.762449 -0.00643654 
13.0036 -13.4542 2.49975 0.248232 -1.44022 1.67941 -16.446 2.65516 2.06731 0.0323377 2.87385 -4.15384 19.0737 -1.6174 0.379082 2.56481 0.59917 0.0098403 -2.76497 -0.0888824 1.53247 1.17447 -1.36086 -2.79628 -0.744161 -0.00638485 
10.4055 -12.0851 5.48753 0.773593 -2.13295 -1.07355 -14.7965 2.85677 3.16779 -0.525813 -0.580388 -4.1819 19.1588 -2.17938 1.56347 2.51221 0.731231 -0.789999 -2.1586 1.86796 0.0508185 -0.662964 -0.824057 -2.18331 0.00814123 -0.0221951 
7.98807 -10.1127 8.21619 1.14668 -2.72756 -3.26649 -12.2579 2.89972 0.380833 -1.52157 -1.25586 -4.35505 19.192 -2.42138 2.32252 2.74524 0.595484 -1.09643 -0.952469 2.75568 -0.900372 -2.27233 -0.880301 -1.10116 0.877878 -0.0724598 
5.28646 -6.50866 10.285 2.03576 -4.2239 -4.0757 -7.57555 0.405832 -3.37297 -0.751408 -3.45399 -2.14597 18.9275 -2.04749 2.25893 2.74079 0.35643 -1.11359 0.277058 2.3322 -0.874964 -2.79394 -1.26656 -0.330454 2.01093 -0.124038 
3.45618 -4.62982 13.8272 2.59457 -5.8769 -1.58186 -6.27807 -0.621234 -6.02395 -4.25637 -1.19516 -0.782417 18.8271 -1.32377 3.29363 2.3364 0.625642 -0.301827 0.42923 1.48031 -0.288664 -2.43171 -0.839454 -0.381047 3.50721 -0.532132 
2.43396 -3.53193 16.386 1.8318 -6.12625 -0.530575 -6.12545 0.242426 -7.59949 -5.49122 -2.26301 4.0864 18.7211 -0.276155 3.29721 0.834403 0.230305 0.810478 0.366952 0.41149 0.643003 -1.06853 -0.704314 -0.361013 3.19957 -0.809879 
2.79546 4.8671 16.8477 4.37687 -3.28553 -2.8929 -5.58144 1.53811 -9.66448 -3.34893 -3.75659 10.0648 16.6346 -0.248222 2.801 -0.608634 0.36622 2.01916 -0.777793 0.339151 1.05637 -0.447911 -0.355524 -0.784395 2.58934 -0.796521 
4.23605 5.22892 12.9468 2.29613 -1.4672 -1.58542 -5.86642 2.54118 -6.89535 -4.72669 -3.97834 8.42829 15.9744 -0.602025 2.10062 -0.752286 -0.514393 2.60282 -0.599685 0.108547 1.29896 -0.0102034 -1.17018 -0.242804 0.940337 -0.492112 
1.31403 4.99473 12.5036 4.1935 1.88937 -4.9434 -4.71183 3.51123 -8.61558 -6.41625 -4.25947 9.99332 16.2178 -1.05671 0.56384 -0.00220261 -1.52909 2.01786 0.438162 -0.104466 0.755676 -0.224668 -1.45445 0.200854 -0.599281 0.00757112 
0.164557 6.90736 14.7966 -0.648487 4.30039 -2.50375 -6.01753 5.75067 -8.17496 -9.80846 -3.22559 8.82383 16.4689 -1.17048 0.814079 0.813484 -0.929254 2.28235 0.504061 -0.967564 -0.765609 -1.57342 -0.971347 -0.28595 -0.668651 -0.101569 
-0.452346 6.84708 15.9118 -1.79629 3.91996 -0.242926 -6.02822 3.71174 -10.148 -8.0803 -3.1287 6.87063 16.4252 -0.175224 1.63795 -0.386446 1.1605 1.01472 -0.413135 -0.941227 -2.67966 -1.03286 0.0365129 -1.58367 -1.84355 -0.599169 
-0.733149 8.37314 15.3101 0.644757 8.92924 -1.41536 -10.046 -1.38712 -13.9963 -8.75141 -5.97347 6.64638 15.3629 0.358059 1.14453 -2.18096 2.01064 -0.178554 -1.38805 0.433936 -3.74692 -0.879885 -0.0446496 -2.10728 -2.94485 -0.84516 
0.886759 12.4516 10.3146 9.34939 4.64853 -7.55327 -7.4037 -6.31819 -10.8692 -6.76221 -10.8039 1.86431 13.775 0.064997 -0.244286 -1.87558 1.55071 0.232531 -0.397959 0.606773 -3.81221 -0.0766531 -0.912095 -0.389118 -1.98709 -0.699344 
1.2853 9.82775 6.69037 3.83186 3.04334 -5.78881 -3.16011 -7.96894 -12.2138 -10.6908 -9.92439 -3.39727 13.5682 -0.711539 -1.43398 -0.67516 0.355184 -0.396937 0.848287 0.321372 -1.9914 0.467357 -0.911914 1.54637 -0.177089 -0.349372 
-1.13658 4.89835 10.8437 4.36373 8.02557 -0.0459962 -6.43732 -12.0584 -11.4225 -11.6711 -3.09883 1.95701 13.8258 -1.95322 -2.79664 -1.90121 -0.71202 0.611263 1.24768 1.09498 0.474561 2.52031 1.22464 1.21193 -0.0563328 -0.34314 
-3.27917 4.97987 11.6698 4.91351 5.25603 -0.927562 -8.92238 -8.47403 -11.3828 -10.8565 -2.09417 5.71458 13.5906 -2.42431 -2.91983 -3.78046 0.239136 0.44243 -0.279688 2.60734 3.37354 4.37679 4.97143 2.32553 1.20551 -0.494708 
-6.59713 0.892337 -1.68115 5.24847 6.5985 -3.74551 0.952326 -3.69284 1.31685 -0.556122 -8.65938 -2.97328 12.0481 -1.64604 -2.52011 -5.37841 -0.605204 -0.894292 -0.86416 3.86653 3.64861 4.77704 6.23271 1.65739 -0.239001 -0.5218 
-8.106 -2.76839 -5.9495 4.58517 5.96902 -5.33749 6.18175 4.71597 3.30051 8.60889 4.48355 5.09546 11.9835 -0.824323 -1.8644 -3.84879 -0.472901 -0.677092 -0.182793 3.3752 1.59112 2.4228 4.02274 1.70888 -0.288838 -0.357541 
-6.95337 -3.82807 -7.2387 1.50188 3.19761 -2.16183 5.34324 -0.410326 5.12099 9.75975 1.89927 1.07157 12.0203 0.151775 -0.430741 -0.80443 -0.0905341 -0.408578 -0.475659 -0.0238519 0.206448 -0.293559 1.13226 1.63233 0.694926 -0.071329 
-7.22267 -1.98191 -4.79541 4.4223 3.57101 -2.63337 5.75819 -2.1597 -1.17092 4.09923 1.17092 2.24796 11.8168 0.389231 0.381446 0.363976 -0.265694 -0.271751 -0.468375 -0.696423 0.0266608 -0.316045 -0.576067 -1.17669 1.02262 -0.0554396 
-6.27992 -1.65461 -6.28034 4.87723 5.75461 -7.47587 1.04485 0.777233 2.08477 7.36002 1.15857 1.92509 11.7748 0.125483 0.439422 0.181995 -0.768187 0.421839 -0.107897 0.660096 0.0579288 -0.621195 -0.773606 -0.337722 2.26463 0.0299922 
-6.49657 -1.9479 -4.6088 1.56902 3.33177 -5.02235 4.84883 4.2555 3.23839 6.92842 -1.02957 9.78182 11.8291 0.105851 -0.0797376 -0.308865 -0.930232 -0.403763 0.467107 1.44054 0.0543646 0.31354 -0.418597 -0.286723 1.43075 0.0158179 
-6.68901 -1.64797 -6.42202 -0.912416 5.42643 -1.50682 9.0984 -3.32828 -0.189639 4.47712 1.31091 8.6278 12.1641 -0.40924 -0.530419 -0.656815 -1.03907 -0.701786 1.17033 2.7132 0.642699 1.11746 0.0961115 0.443448 -0.334013 -0.00723381 
-6.48887 -2.38392 -6.26889 2.66597 1.71629 -3.28235 8.9341 0.164879 1.53398 3.44769 -0.338859 6.05038 11.7012 -1.09906 0.756496 -2.05481 1.69261 0.0546091 2.4769 0.849311 1.41389 0.811837 -0.51115 1.19451 -2.9584 0.463286 
-8.32997 -4.08869 -8.73437 -0.866573 3.05342 -2.49423 12.5682 6.03604 8.52426 9.58094 3.03046 2.12075 11.8026 -1.01521 1.22871 -2.02542 2.21185 -0.703798 1.33112 -1.93591 1.92911 1.1761 -0.452176 0.438023 -2.00136 0.504577 
-11.1714 3.05494 -13.7267 10.0092 4.79132 7.85584 7.36047 6.64281 2.94063 1.82076 4.08322 -1.75665 14.3263 -0.35406 0.600745 -0.991574 0.244794 0.983311 0.0128236 -2.27787 -0.196448 0.945838 0.708005 -0.137948 -0.424289 0.234725 
-9.42379 1.77617 -12.8202 6.47527 0.369925 -0.420334 0.205687 3.07829 4.98753 3.02971 1.28998 2.52449 13.3744 0.709482 -0.155317 0.603407 -0.541259 0.00088819 -1.95491 -2.15485 -2.77953 -0.473205 0.737449 -0.563048 0.334551 -0.176569 
-7.71227 -2.31262 -9.18384 0.219018 7.97459 -4.25518 3.726 0.661515 8.03154 10.2633 -0.158361 3.72706 12.0889 1.15632 -1.63154 2.01742 -2.07507 0.475994 -2.05564 -0.465825 -2.12613 0.129857 1.4598 0.198077 1.18657 -0.5803 
-6.51212 -2.18149 -7.98876 1.3222 1.46623 -6.21325 3.61121 -4.87099 3.61278 9.0469 2.33601 1.05165 12.0384 0.678964 -0.558408 1.56065 -0.883178 0.941648 0.633938 0.276476 -0.957413 -1.36817 -0.838297 0.00108382 -0.197513 -0.279981 
-6.84562 -3.12394 -6.0553 2.21036 6.62314 0.474099 3.32859 -0.0132161 4.27729 6.11118 4.55059 4.91264 12.0928 -0.611403 1.0655 0.871571 0.360189 -0.0343657 -0.156897 -0.0738489 -0.741823 -2.54132 -0.874209 -0.243174 0.354787 0.253513 
-6.46229 -0.610212 -6.58123 1.0637 5.75389 0.384713 1.78677 -1.37141 0.0238156 0.914298 -1.05907 0.944137 11.9726 -0.81854 0.931089 0.761154 0.518722 0.431548 -0.51595 0.478476 -0.0819005 -1.19224 -0.245992 -1.27416 0.919838 0.16726 
-10.7942 2.22922 -5.52975 2.14921 5.65893 -8.33865 4.26898 -4.79739 -2.88056 9.95859 0.323312 5.55475 13.3894 -0.471467 0.202584 0.276377 0.690913 -0.198628 -0.883559 1.53726 0.579888 -0.20951 -0.771744 -0.783631 0.931944 -0.00817795 
-8.63053 -0.202626 -4.44577 3.94638 4.10607 -4.38662 5.5334 -2.8884 1.2305 5.89323 -1.92116 5.32978 12.2265 0.07334 -0.948482 0.320857 0.633042 0.277884 0.315922 1.31507 1.58814 1.72796 -0.340124 0.313016 0.494771 -0.178157 
-8.11883 -2.31481 -5.74115 4.22358 6.45391 -1.55803 9.14155 3.64472 2.6264 -0.237007 1.06348 7.37953 11.925 0.564213 -1.58175 -0.244809 -0.0302974 0.546105 1.10252 1.94425 2.2168 1.2728 -0.825925 0.443544 -1.47192 -0.333042 
-7.43327 -3.0806 -4.87125 3.19173 6.74582 -1.42599 5.92582 2.34824 5.91014 4.31147 0.135925 2.5056 11.814 0.207648 -0.958703 -0.362934 -0.452547 0.801964 -0.144552 0.827268 1.34264 0.305752 -0.0527225 -0.328351 -1.22405 -0.0702972 
-8.57176 -4.24055 -6.54105 2.37505 7.06958 -4.30636 13.794 3.66829 1.14362 6.61984 1.51249 -0.392737 11.9304 0.157343 -0.438959 -0.122791 -0.381516 0.377052 -0.66636 -0.217842 0.180135 -0.0660981 0.276613 -1.36252 -0.797765 -0.00471477 
-7.36583 -4.03327 -5.86049 2.60791 7.80805 -3.73522 7.3435 3.81301 3.50065 2.2012 -3.78743 3.09567 11.8723 0.134079 -0.169806 -0.129791 -0.0934771 0.286293 -0.404731 -0.361516 0.307426 -0.246194 -0.86392 -1.31466 0.466855 0.00583916 
