-7.58903 -0.307068 -5.99532 0.00844097 -0.348172 -6.16902 4.19189 -0.746376 6.09674 1.06412 -3.60711 2.57428 11.9961 0.188386 -0.226181 -0.158339 0.476418 1.42381 0.985236 0.205276 0.256282 -0.160107 0.454655 1.02099 0.680766 0.00292988 
-6.47969 -0.00797033 -5.98081 2.65302 5.14195 -3.18515 5.65275 0.429796 5.26096 4.39703 -0.0130602 4.67993 11.9887 0.25549 0.0276112 0.171474 0.0324262 0.901015 1.60784 0.337621 -0.63248 -0.0656699 0.515072 1.09315 0.915353 -0.0602406 
-7.20177 -1.58752 -6.79427 1.06824 4.02582 -2.73478 4.48784 -0.0530502 5.7141 1.67094 -0.299163 4.92528 12.0144 0.00415268 -0.245168 0.0757619 -0.292646 -0.298572 1.35009 1.25542 0.261616 -0.397398 -0.204452 1.28722 -0.265729 -0.0998596 
-6.50521 0.471215 -4.73847 -0.35933 1.96991 0.153062 5.73202 -4.25544 5.95972 3.33607 0.204691 5.97554 11.6857 -0.0893882 -0.14929 -0.439384 -0.74215 -0.762582 1.10429 1.8049 0.388911 0.779665 0.889925 1.61841 0.297016 -0.0796155 
-7.55551 -1.7725 -6.23768 0.0513849 -0.255013 -1.08766 10.4294 2.90432 3.76038 0.572345 2.72013 0.597826 11.6483 0.291557 0.260638 -0.386168 0.061064 0.438034 1.50405 1.53557 0.607177 1.14541 0.588685 0.850414 0.818293 -0.031138 
-6.74976 -0.661932 -8.45603 -0.549304 3.46945 1.51274 11.7065 0.895664 10.1361 9.39596 6.56934 8.32874 11.7737 -0.0949676 -0.0558325 -0.447418 0.608888 1.09314 0.302074 1.32694 1.2451 1.39605 -0.0820612 -0.620267 0.462022 0.033688 
-5.62171 0.282241 -6.86634 1.46855 5.46621 4.10562 9.17843 0.407284 9.35292 1.58443 0.770579 7.84015 11.8147 -0.102215 0.477043 0.664179 1.26477 1.50815 0.346644 -0.92189 -1.10963 -0.223073 -0.0835994 -0.0277975 0.18718 0.110995 
-7.94694 -0.835318 -6.66123 1.97653 4.57502 -0.933212 12.9922 3.21857 10.1437 2.41972 -1.92187 4.66449 11.7709 0.05095 0.557568 1.03189 1.28029 0.552707 -0.261215 -1.00043 -2.00605 -2.35853 -1.59376 -0.845229 -3.16019 0.0555182 
-7.46799 0.699409 -3.81419 5.11234 6.73295 1.86853 5.17706 -3.80529 2.64123 3.64246 6.82675 3.36585 12.2046 1.53049 1.97353 1.77708 0.423653 -1.16014 -2.31777 -2.62475 -2.90816 -3.90861 -2.16402 -2.08919 -3.64874 0.141856 
-5.57187 1.91733 -4.82264 4.03027 5.59962 1.32521 8.70501 -7.0283 1.69934 0.39815 -0.684888 -5.23506 11.8563 3.69803 2.6961 1.26521 -0.92105 -1.80629 -2.40792 -3.73986 -3.58977 -4.48884 -3.15959 -2.30132 -2.52288 0.460645 
0.843215 8.77357 1.09977 2.55994 -0.846786 -8.61246 -1.80171 -9.01009 -5.96794 -8.22489 -10.2939 -5.45378 12.4813 4.2382 2.13032 1.25521 -0.934815 -2.41241 -1.96212 -2.07689 -2.5147 -2.59873 -2.18935 -1.87627 -1.01727 0.721078 
6.38762 8.6081 -2.79214 -1.35253 -0.666584 -7.73232 -2.21771 -12.1279 -7.99591 -7.44456 -4.86817 -3.54007 13.9358 3.79762 1.29902 1.52009 -0.24947 -1.91845 -0.243767 -1.77086 -1.13082 -1.92158 0.3367 2.20721 0.985206 0.956448 
7.74324 8.00564 1.44662 3.12966 -2.19599 -3.41331 0.253965 -13.829 -5.50478 -3.38294 -0.462957 -2.56798 14.7703 2.31714 -0.877006 0.687045 0.80861 -0.954616 2.89764 -0.951415 0.134307 -0.784832 2.20478 5.05739 1.01387 0.920188 
9.96619 8.79636 2.6044 2.49806 -3.31801 -2.4932 -1.17714 -10.2729 -8.14013 -0.339329 5.43573 -1.75193 15.4941 1.02765 -0.883523 0.584414 1.65506 -1.1839 2.79832 -1.95746 1.04748 0.46779 1.80902 2.93294 1.47362 0.704171 
10.6397 4.29441 1.83672 4.6777 -4.29415 3.2562 -7.07906 -9.26603 -9.81999 -0.753597 9.84114 -1.27848 16.3031 0.497681 -1.45071 -0.363658 1.51036 -1.08832 3.09202 -3.37266 0.389607 1.39562 1.19882 1.01799 1.85422 0.604791 
10.0777 6.04611 -0.0651224 6.14876 -5.537 2.92451 -8.33851 -9.17197 -3.49935 0.285875 4.64446 3.18327 16.6903 0.0680641 -1.9737 -0.612168 2.21424 -1.26881 2.98168 -3.70708 -0.987688 2.61435 1.06909 -1.24482 1.97675 0.569061 
10.1759 2.12724 0.963094 8.85612 -6.52811 9.33793 -13.0286 -12.4315 -0.847085 2.29857 5.02263 4.23552 17.1961 0.296403 -2.14289 -0.53798 3.17313 -1.47997 0.384989 -2.10252 -0.599899 1.89784 1.85675 -2.46999 1.16563 0.463984 
10.5384 0.0114322 -0.0196208 11.4801 -8.54506 9.37436 -16.7377 -13.6287 0.445172 3.48005 1.62088 5.3748 17.8929 0.487575 -2.20244 -0.864832 3.35789 -0.154407 -2.43331 -0.598604 0.855776 -0.0372034 1.22821 -2.58292 0.703663 0.312314 
11.8913 -3.4027 -0.875927 17.8777 -10.19 1.95622 -13.3921 -10.0372 -2.30307 6.93307 -0.997018 3.45391 18.0217 0.131235 -1.21477 -0.72005 2.2789 1.12197 -5.07855 1.54718 1.61076 -0.881501 0.887746 -2.64496 0.410157 0.194156 
11.6578 -2.2011 -3.46977 18.4274 -4.4781 -5.55117 -11.1498 -6.09023 -2.95738 4.10968 -5.26034 7.09238 17.839 0.165295 -1.03141 -0.254511 0.421788 0.278139 -3.75572 1.79212 1.68052 -0.13609 -0.10928 -0.382134 -0.859691 0.183246 
10.2724 -2.84032 -0.912077 16.777 -2.95174 -8.59203 -8.0867 -8.14687 -3.55331 6.42249 -4.76156 5.42751 18.1938 0.161365 -1.09929 0.0995132 -1.98972 -2.07281 -0.0225992 0.207053 0.279128 2.13558 -1.57257 2.37862 -1.37288 0.401304 
12.1743 -5.42681 -1.2741 14.1394 -10.7735 -4.1301 -10.4298 -6.17123 0.389843 3.18894 1.59248 0.0895514 18.7231 0.290412 -1.53807 -0.127657 -2.66354 -4.76006 3.30228 -1.32429 -0.395085 3.36937 -1.20599 4.47649 -2.73101 0.633944 
12.4399 -7.28629 -1.4762 10.0731 -17.4063 1.13269 -12.7168 -8.60104 6.7012 -0.469393 7.46967 0.0909302 19.5862 0.14166 -1.36009 -0.97367 -2.92634 -4.3271 4.25134 -2.05891 0.513105 3.50847 -1.50591 4.68561 -3.3433 0.600969 
12.0261 -7.66849 -3.826 8.46162 -21.0511 6.09786 -15.4562 -7.83857 8.7622 1.52566 11.0065 -3.89439 20.3125 -0.608388 -0.848916 -0.610648 -2.79721 -0.965852 3.19655 -1.18488 1.48638 1.36619 -0.540714 2.36835 -3.14026 0.370785 
11.0548 -8.51995 -4.50448 4.98413 -19.4484 7.55071 -15.8681 -4.74767 9.80287 -0.275409 13.9595 -9.29699 20.4039 -0.839714 -0.425167 0.0692809 -2.80389 1.87023 1.36757 -0.240006 2.97388 -0.657961 -0.0936493 0.0227039 -2.95606 0.0574671 
9.82494 -9.05457 -2.8132 2.69782 -14.5817 8.64361 -14.7786 -0.666028 5.66993 0.388378 10.1893 -10.9178 20.1681 -0.95003 -0.0585552 0.776934 -2.9065 3.32818 -0.438987 0.709348 3.8686 -2.04785 -0.195203 -1.90267 -1.32195 -0.144151 
9.34191 -8.71909 -1.63619 -1.06444 -11.2899 6.69765 -14.2556 2.68208 4.95753 -0.368998 7.99179 -11.1777 19.9458 -1.00755 0.191341 1.06955 -2.4097 3.09163 -1.14502 0.556726 4.37224 -2.78664 0.383835 -3.12421 0.266262 -0.137194 
8.13241 -7.86169 -1.37547 -3.04661 -8.48944 4.32945 -12.7157 7.78956 0.945598 0.596439 4.477 -9.5638 19.8209 -0.791799 0.243596 0.581846 -1.50523 2.349 -1.95266 0.359628 4.21319 -2.04505 0.36257 -2.70944 0.737497 -0.0784471 
6.86329 -8.15968 0.124418 -4.19214 -7.03643 3.98271 -14.1159 12.8857 -1.76817 1.53974 1.19461 -8.64268 19.8916 -0.587541 0.00251837 0.429154 -0.419309 1.51582 -1.92138 0.456814 3.22409 -1.20419 0.434333 -2.64413 0.85875 -0.0425659 
7.10526 -8.11629 -0.784278 -3.26446 -4.96344 0.237801 -13.0503 15.2981 -1.19249 1.24686 0.0406979 -8.4978 19.803 -0.256003 0.0396297 0.380933 0.0170871 0.798977 -1.55061 0.65537 1.50126 0.285086 0.129806 -2.11233 0.689172 -0.0385458 
6.91778 -8.5792 0.213981 -3.05206 -5.47379 -0.863411 -11.8043 15.0482 0.00562739 1.47746 -3.01072 -7.41691 19.7419 -0.173698 0.334255 0.100273 0.543712 -0.224416 -0.997462 0.814472 0.240504 0.820516 -0.0392015 -1.81034 0.557898 -0.0356998 
6.82515 -7.45378 0.484413 -3.53122 -5.27587 -1.00051 -10.5946 14.2146 1.48413 1.27661 -3.98199 -6.73082 19.703 -0.34367 0.596211 -0.0848473 0.849763 -1.10238 -0.0327198 0.633011 -0.583674 1.03049 -0.320497 -1.13855 0.201383 -0.012319 
6.13485 -6.81966 -0.00856233 -1.3402 -8.00229 -0.385445 -11.2714 14.63 0.996103 1.32885 -5.84577 -6.73668 19.7631 -0.421253 0.611827 -0.391718 0.82958 -1.02118 0.199389 0.638013 -0.865761 1.1074 -0.704358 -0.0889306 -0.350147 -0.000468445 
5.77838 -6.01501 -1.09724 0.128422 -9.21106 -0.164781 -10.1517 12.5889 3.46474 -0.281322 -4.23452 -7.831 19.7308 -0.307884 0.141843 -0.414559 0.427432 -0.561822 0.265483 0.815155 -0.906027 1.09262 -0.846281 0.0273215 -0.0970041 -0.00328465 
5.3349 -6.23945 -0.95378 -0.733985 -8.61209 -0.284331 -8.83566 11.5323 4.55232 -1.26536 -3.32911 -8.61756 19.7256 0.0412169 -0.401389 -0.176693 -0.465245 0.494233 0.566599 0.934569 -0.172686 0.378259 -0.428236 -0.485127 0.220915 -0.0345272 
5.68571 -7.03467 -1.11578 -1.69717 -7.78008 0.276345 -7.73671 11.2333 5.1691 -1.65768 -5.10371 -6.2754 19.7053 0.407887 -0.937479 0.185962 -0.775349 1.21269 1.00417 0.559418 0.573004 -1.11913 0.391642 -1.49847 0.665986 -0.065045 
6.38727 -8.31677 -0.88276 -2.75363 -6.24662 2.22699 -7.80601 14.4443 2.03522 -0.124146 -7.83681 -6.4099 19.6032 0.654866 -1.06788 0.0736811 -0.364396 1.70871 1.14508 0.588953 -0.144349 -1.53435 0.383161 -0.923643 0.402826 -0.0941711 
7.29163 -9.66375 -0.202944 -2.7385 -4.33036 3.60042 -7.86944 13.9979 -0.872379 1.10628 -9.47303 -5.6049 19.4668 0.600114 -0.994667 0.0862416 -0.388856 2.39496 0.883104 0.644511 -1.04764 -2.11963 0.614485 0.373272 -0.0388454 -0.107724 
7.80627 -10.2643 -1.04179 -2.0353 -1.7934 3.77904 -5.82453 9.4283 -0.0986876 -0.73154 -5.76267 -6.93868 19.374 0.584184 -0.713627 -0.0157622 -0.573939 2.59943 0.845061 0.59457 -2.36364 -1.89301 0.469012 2.19974 -0.36067 -0.0952198 
7.97678 -11.0342 -0.605052 -4.00061 1.96811 3.91584 -5.50489 8.50312 -4.36208 1.71844 -4.27442 -6.20524 19.2813 0.635822 -0.143557 -0.239052 -0.952042 2.30859 1.16501 0.606176 -2.76072 -1.94117 0.207401 3.9738 -0.722081 -0.111826 
8.96562 -11.1997 -0.760517 -4.99227 3.60131 6.29458 -6.01543 5.3735 -5.68497 1.91484 0.562599 -7.91308 19.2199 0.992756 0.676583 -0.437131 -0.83676 1.23856 1.56228 0.688525 -2.26553 -2.85006 -0.196219 4.85721 -0.277134 -0.223214 
9.89106 -9.91385 -1.53884 -6.02022 4.51524 8.16772 -4.74311 2.22165 -7.7851 0.820097 7.23336 -8.7281 18.9847 1.00363 1.73762 -0.452883 0.21872 -0.506765 1.48266 2.01776 -2.57757 -2.07723 -1.68939 4.83369 0.078141 -0.471496 
11.8129 -7.44158 -2.76055 -5.20929 3.12582 9.4645 -2.7628 1.24138 -12.6375 -1.26346 12.7695 -7.06292 18.4062 0.161763 2.35889 0.520005 1.66832 -1.79102 0.247346 3.20694 -2.26054 -1.50981 -0.538041 1.16253 1.19072 -0.78366 
11.5713 -4.22517 -1.86945 -2.7985 -0.327977 9.74417 2.95757 -2.31867 -11.2719 -5.13936 13.7906 -6.23961 17.3306 -0.79879 2.07481 1.7962 2.62641 -1.4236 -1.23912 3.29121 -2.12488 -0.0655151 0.848566 -2.08349 1.10694 -0.850388 
8.93434 -2.24956 2.00482 1.73845 -2.93217 6.74308 6.16892 -3.65905 -11.4906 2.20436 3.09666 -3.20373 16.1286 -1.2854 1.03836 2.52024 2.4482 -0.491673 -1.97592 2.14077 -2.06178 1.68143 1.77717 -3.58399 0.503017 -0.645006 
7.3364 -2.13583 5.05949 3.63797 0.42624 3.3328 7.24708 -5.95254 -8.68612 3.32902 1.65236 -5.12298 15.8716 -0.890894 0.146612 1.77522 1.15588 0.175931 -1.443 0.763201 -1.28627 1.93794 1.26833 -2.7922 0.103026 -0.300047 
7.50334 -3.29445 6.37617 3.81345 0.290351 2.79057 5.79629 -7.25059 -5.52325 3.38818 0.918669 -5.10615 15.9107 0.0799364 -0.224074 0.285266 -0.799809 0.355296 -0.290284 0.309891 -0.643427 1.49125 -0.704517 -0.357088 -0.46992 0.000232983 
7.83229 -2.96967 4.82097 1.9434 -1.05958 4.5054 6.95989 -6.95424 -4.56591 0.61039 0.918591 -4.77327 15.9393 0.56268 -0.0625376 -1.08397 -1.92678 -0.696845 0.646443 0.477261 0.0986352 0.477975 -1.6097 0.446602 0.208973 0.149049 
9.08607 -2.95301 3.55041 -1.41331 -0.41278 4.70537 7.86197 -6.37533 -6.09445 0.0410881 1.67811 -5.72818 16.0959 1.05386 -0.111418 -2.52685 -2.85965 -0.578769 1.6004 0.0161074 0.931245 -0.710476 -2.42009 2.24933 0.740275 0.459778 
9.35844 -2.61924 1.05253 -3.38253 -2.70642 5.60762 8.60055 -5.89699 -6.01064 -3.04592 3.50565 -3.7671 16.5242 1.20869 -0.641452 -2.92357 -3.0764 0.107146 2.51035 -1.4239 1.06527 -1.192 -2.06548 2.94569 0.803286 0.793867 
12.0096 -4.02675 -4.37387 -7.82185 -1.78008 10.2414 5.0565 -3.12299 -8.35326 -6.88412 10.8718 -1.90786 17.9172 0.941528 -1.32588 -2.334 -2.75117 0.945443 2.8973 -2.45821 1.13341 -0.818907 -1.34005 2.36424 0.157643 0.912187 
12.414 -5.64005 -5.83476 -10.2344 0.159793 14.2891 1.24313 -3.25408 -9.39651 -6.25439 11.0502 -2.667 18.9981 0.317884 -1.41678 -1.29383 -1.90988 1.63003 1.87076 -2.44437 1.23074 -0.822343 0.601435 0.253953 -0.802387 0.713918 
12.2659 -8.07201 -4.67595 -11.7432 2.88133 14.8511 -0.750379 -2.02972 -8.49606 -5.0549 9.727 -5.49002 19.4199 -0.66635 -0.513031 -0.565782 0.0419317 1.30531 0.228054 -1.35444 0.939079 0.0209276 1.80426 -1.70705 -1.60684 0.287161 
10.8197 -7.68053 -5.26561 -10.9712 3.113 12.6566 -0.717847 -0.289942 -10.051 -0.953347 5.3478 -5.98795 19.3424 -1.20647 0.834723 -1.10992 1.49082 1.41255 -1.56439 -0.350317 1.23616 0.267382 2.00744 -2.06553 -1.57002 -0.0351118 
9.47497 -5.57167 -7.48736 -7.24374 3.26989 12.198 -0.73521 0.0903382 -7.9214 -0.513356 5.18774 -8.2816 19.1808 -0.926287 2.05688 -1.88825 1.9855 1.95654 -2.6628 -0.167104 2.16864 0.0741073 1.76974 -2.49566 -0.388113 -0.264123 
7.77711 -2.71661 -9.97868 -5.03002 7.02829 7.79371 -0.516036 1.86666 -8.34693 1.51204 2.99223 -9.12132 18.9421 -0.763547 3.38895 -1.12033 1.00395 2.87409 -2.253 -0.312121 2.17463 1.34335 1.55818 -3.16302 0.296702 -0.498302 
9.15577 -0.269554 -11.7606 -4.78635 10.7064 3.96855 -1.6868 7.73517 -8.97754 2.56109 -1.57351 -5.8639 18.2995 -0.832671 3.52849 0.196357 0.907915 2.9013 -1.41327 -0.568245 1.25473 2.4249 1.62033 -6.13114 1.65209 -0.746352 
7.16154 6.61315 -8.73061 -7.18021 13.7652 5.50633 -1.80266 6.76078 -2.80615 5.30032 -7.08668 -5.71329 17.2915 -2.4676 2.716 1.77668 2.71218 1.81351 -1.14345 2.70689 0.809914 2.57904 -0.567654 -5.15876 2.08158 -0.739699 
5.6194 7.40592 -7.12961 -1.62907 14.4079 6.27529 -2.93312 3.91691 1.43272 5.69415 -20.4285 -1.72518 16.2743 -5.20138 1.58508 1.55215 2.39947 -0.400464 -2.11299 4.02193 -0.335722 2.36685 -1.67632 -1.38245 2.97606 -0.0337313 
-2.79268 7.02563 -3.41081 6.95225 14.2451 0.923092 13.6416 7.82536 -0.656861 -2.89276 -13.3741 -0.782803 16.2562 -6.38621 0.272698 -0.0861101 0.944699 -2.30117 -3.44297 3.73887 -1.20801 1.51573 -0.637511 1.80335 2.30664 0.797675 
-11.874 7.44959 -6.65979 0.144775 8.46416 -4.30477 10.7007 5.52426 1.78208 -1.72397 -5.34204 6.55117 18.6485 -5.76174 0.469051 -0.362406 -1.65605 -2.24663 -2.71373 1.89625 -0.541245 0.572548 1.24093 3.71012 0.663255 1.22247 
-16.0228 7.95481 -9.39607 -3.34364 5.23126 -6.41847 10.0748 -0.0829497 4.59783 5.82182 -5.61314 1.68176 20.0928 -3.07009 0.469655 -1.09039 -3.29447 -1.97354 -1.2549 -0.811466 0.253206 0.566995 2.26302 2.21622 0.396085 1.07365 
-16.5742 9.28659 -5.94901 -4.76136 7.68168 -3.62258 8.33155 5.16484 1.66812 7.54149 -5.75838 0.358819 20.4683 -0.838662 -0.221998 -0.852808 -2.14911 -0.59203 1.15275 0.131734 1.09921 0.415328 1.0298 1.56188 -0.133735 0.46892 
-15.793 8.45541 -9.21817 -7.06704 4.76859 -5.69253 10.7688 9.27111 2.2351 3.78962 -2.08484 4.2938 20.7145 -0.845022 -0.890768 -0.034169 -1.00952 -0.655094 0.609112 -0.965783 0.520867 -0.34372 -0.476493 1.15482 -0.364662 0.221663 
-16.1822 6.0893 -11.0128 -8.73907 5.73534 1.09598 11.0123 6.34328 5.04008 4.44114 0.703232 4.57648 20.6823 -1.42117 -1.52833 0.168476 0.0845942 -0.407109 0.373139 -0.13163 -0.23575 -0.0790497 -1.04602 0.275517 0.0418865 0.148993 
-20.4439 5.09961 -7.03503 -6.40236 2.92896 -5.73219 3.90546 1.93216 1.19324 4.98953 -3.06984 -2.25038 21.0942 -1.84657 -0.631659 1.84716 1.70642 0.214083 0.472785 -1.13564 -1.9679 0.29215 0.2114 -0.0523413 -0.0922153 0.123148 
-21.3546 3.32284 -6.1982 -4.67073 6.56595 -1.73705 11.1051 7.65556 1.7938 1.71142 -3.8883 3.84034 21.0235 -1.13807 0.250353 2.4289 1.41185 0.513001 -0.590834 -0.533735 -1.58825 0.60508 -0.0155488 -0.183302 1.87431 0.0892269 
-22.4396 6.68034 -2.38966 -0.569099 5.4237 -1.91208 5.04426 -1.22454 5.31899 6.21148 -0.0507846 4.20079 21.1597 -0.0639364 0.592956 2.01816 -0.0230618 0.625392 0.435897 -0.0401336 -1.99653 1.00446 -0.559358 0.37523 2.83464 -0.0215204 
-20.8747 6.5507 -1.19095 -4.59643 7.05297 -3.76824 7.77427 -0.0196284 6.00261 3.75242 -1.7228 10.7224 21.0956 0.0845863 0.233188 1.61669 -0.656732 0.0189779 -0.111462 -0.82648 -2.10621 -0.992293 -0.455047 -0.522782 1.22711 -0.149214 
-21.0036 6.45046 0.55213 -6.55481 5.81241 -2.53711 5.3702 -4.21291 4.11113 1.17225 -2.27644 8.48176 20.9505 0.652844 -0.0818027 0.836582 -0.502775 1.02385 -0.010393 -0.0881183 -0.412075 -2.31099 -2.34533 -2.16641 -0.737877 -0.37758 
-21.6497 4.60372 0.414338 -4.96153 6.46648 -1.98185 6.80972 -1.38131 -2.56374 1.9558 -5.38938 7.83542 20.382 2.71971 1.11256 1.43134 0.809324 -0.472165 -1.52394 -1.11068 -0.557626 -2.62693 -2.41588 -1.38743 -2.07069 -0.5568 
-18.7879 7.24482 0.990602 -2.90043 10.8362 -2.85725 5.08595 -2.60408 -1.95277 -4.61687 -9.04953 1.95492 19.6286 4.90953 0.81459 1.92619 1.29913 -1.67524 -2.91999 -1.63707 0.0881584 -1.16607 -2.21663 -1.09459 -1.81678 -0.718185 
-8.38396 11.7163 5.74653 -2.37701 2.18026 -11.2279 2.36302 -3.61218 -4.1001 -5.43243 -5.27338 3.63242 18.9726 5.75943 -0.177926 2.11185 0.65945 -2.98882 -2.40756 -1.71372 -0.275047 0.49905 -2.27404 -0.435623 -0.766728 -0.595608 
-3.08882 6.96711 7.51696 -1.35145 -0.420682 -12.514 -0.591803 -2.65668 -0.951058 -6.21677 -7.80737 1.49939 18.0643 4.65118 -2.13754 2.04252 0.55407 -3.14321 0.299306 -2.16607 0.390774 -0.280894 -0.742846 0.00793858 0.600018 -0.332637 
-0.702146 3.85294 7.71041 -2.43877 -2.84919 -9.19127 1.07998 -2.73023 -0.569349 -8.61446 -8.18858 4.22954 18.1861 2.28503 -3.2497 2.24848 0.116036 -0.499943 2.48462 -1.65339 0.136216 -0.194201 -0.710283 0.0690831 0.0264141 -0.0321388 
0.627123 0.488807 10.2213 -0.0991931 -2.36516 -2.37901 -5.1029 -1.09117 -5.12262 -6.74009 -7.55224 4.65644 18.3586 1.15459 -2.49189 2.83593 0.142161 0.404522 2.54851 -1.72052 -0.104543 -0.546994 -0.717096 1.23489 -0.0850863 0.165869 
1.18321 -1.29302 15.6368 -2.42296 0.652786 -3.8723 -3.64839 -3.71385 -2.98532 -8.72219 -5.05553 2.18596 18.6647 0.76491 -1.98663 3.11233 0.155917 0.430355 1.45006 -1.74088 0.6077 -0.31545 -0.450851 1.26286 -0.574602 0.128368 
1.74143 -2.91938 17.7334 -0.648549 -0.149062 -2.43099 -6.83024 -2.68759 -2.47804 -9.74839 -3.19943 2.09575 18.6543 0.537605 -1.26437 2.43942 -0.226541 -0.172519 0.270888 -0.635532 0.829498 0.308152 -0.296835 0.744939 -0.487087 0.0693594 
2.56525 -4.37614 19.516 -1.38451 -1.80547 -1.91499 -6.76077 1.10648 -3.46889 -9.36457 -4.05066 2.63688 18.6801 0.408472 -0.564204 1.03489 -0.255387 -0.683797 0.460717 -0.216544 1.2383 -0.260383 0.264877 0.182067 0.110064 -0.0471251 
2.62413 -4.29149 20.4787 -1.75112 -1.99863 -2.00323 -6.72437 0.646151 -3.34008 -7.90307 -4.32998 1.99555 18.6977 0.219414 -0.102925 0.542509 -0.838982 -0.518969 0.149958 0.609486 0.634733 0.000343847 0.425293 0.38484 -0.0355884 -0.0723614 
2.78422 -3.42798 19.4386 -3.1486 -1.84141 -1.78259 -4.78405 0.810771 -3.85622 -8.32046 -3.57992 2.78638 18.4074 -0.216396 0.427382 0.080052 -0.362097 -0.710186 0.459489 0.0508203 0.294343 0.0116541 0.560986 0.800801 0.447641 -0.054203 
2.72901 -3.90808 20.4847 -3.96141 -2.72594 -1.7474 -4.77117 0.633923 -2.28266 -8.14397 -1.5106 1.84305 18.4289 -0.581025 0.712517 0.0496222 0.197727 -0.792685 0.22743 -0.40394 0.462189 0.34556 0.247101 1.06651 0.265229 -0.0411766 
1.43083 -2.43094 19.9133 -2.08985 -4.99275 0.254541 -7.48327 2.5843 -3.93933 -6.43919 -1.45635 4.95133 18.5435 -0.845977 1.11179 -0.0754351 0.990638 -0.891787 0.327498 -0.767281 0.533481 0.512366 -0.43068 1.12026 -0.408203 -0.0678368 
0.3957 -1.22743 20.4895 -1.29186 -4.38638 -1.88464 -7.39446 2.07033 -1.57073 -7.6082 -0.059233 2.23922 18.4238 -0.126255 1.93442 -1.29823 1.2491 0.342464 -0.832022 0.558212 0.230384 -0.335243 -0.0642503 -0.00325212 0.241541 -0.548363 
-0.279004 0.790635 19.059 0.469809 -5.47013 -0.0764814 -7.3088 2.75997 -1.65036 -10.7417 1.29569 0.547282 18.0708 0.725035 2.58627 -1.94086 0.293785 1.87314 -1.14327 0.848763 -0.0372949 -0.465153 -0.367293 -0.543413 0.953141 -0.887075 
2.95265 4.15323 14.4207 1.00427 -0.774928 -5.74199 -2.06734 1.69801 -5.10336 -6.31394 -2.90288 5.25278 15.9234 0.876797 2.41353 -1.84775 -0.652071 2.20254 -0.253442 0.510387 -0.551108 -0.770697 0.745921 -0.80478 0.667208 -0.82902 
3.77753 7.81009 13.2434 -1.76899 2.56721 -3.53311 -5.90301 2.58399 -4.49878 -8.92278 -2.75159 8.21025 15.3583 0.276334 1.73115 -0.636077 -0.576452 1.06995 -0.359457 0.257049 -0.371884 -0.0856204 0.784731 -1.099 0.0882792 -0.489905 
2.75142 7.3305 14.1586 -3.43282 2.60763 -1.42354 -5.54542 -0.597222 -4 -4.78808 -2.05949 1.74377 15.6349 -0.756743 1.113 1.00888 -0.205318 -0.610129 0.180927 -1.32232 0.415847 0.252668 0.796341 -0.784959 -1.09455 -0.0162008 
1.20328 7.85775 16.0097 -0.193905 -1.81165 -4.03299 -4.28452 2.04817 -2.63014 -7.58102 -4.62101 2.74319 15.7655 -0.917216 0.745595 0.747378 -0.099489 -0.668132 -0.0415733 -0.205319 -0.135006 -0.26619 1.06886 -0.705371 -0.763417 -0.0468359 
0.456059 9.69442 18.0819 -0.809859 -1.63614 -4.58742 -9.4882 4.04515 -4.77434 -3.00312 -5.89296 2.51358 15.6388 -0.100582 1.00121 -1.30681 0.539886 0.667124 -0.0244172 -0.393944 -1.64528 -0.850979 1.30215 -0.0308623 0.914042 -0.429585 
0.339131 10.3561 15.0186 -3.57792 1.34844 -2.15904 -4.95822 -0.412229 -5.44256 -4.47095 -4.36171 4.00826 15.1222 0.507455 1.13684 -2.66116 1.295 1.29328 -0.865811 0.201345 -2.69454 -0.769534 1.0627 0.295912 0.481253 -0.685369 
2.68058 11.0874 8.12003 0.95862 4.3632 -2.4826 -7.17829 -7.59343 -6.84868 0.167636 -2.34346 5.68145 13.8086 0.220457 0.835783 -3.18972 2.92203 1.45181 -0.644547 1.06724 -3.90583 0.572821 -0.223254 0.0511158 -0.317367 -0.787449 
2.6283 12.8455 7.68481 5.39686 1.6551 -9.41446 -4.43275 -5.60522 -5.44064 -3.85291 -4.91621 3.56552 13.2538 -0.270649 -0.127538 -3.05276 2.84206 0.288277 -0.499976 1.2873 -2.71538 0.771813 -0.145352 -0.286536 -2.18479 -0.67965 
0.413762 12.6286 5.80024 9.31292 5.46959 -4.18245 -4.41471 -12.8875 -1.91119 -4.4284 -5.36014 1.14812 12.6358 -1.32018 -0.977512 -2.18965 0.504149 0.782754 0.229849 2.31801 0.00306334 1.44929 -1.51796 -1.16333 -2.47852 -0.438872 
0.119299 8.94779 0.914703 6.45526 2.23663 -3.809 0.0965118 -11.3421 -4.05224 -2.89969 -4.28605 -4.64901 12.3103 -1.83059 -2.2085 -2.92812 -0.892566 0.818403 1.43988 2.48109 1.1815 1.17886 -0.488612 -0.537932 -1.02141 -0.350858 
-2.6658 8.14868 0.556816 2.95016 7.98621 -4.13609 2.14713 -4.70968 -0.296454 -7.89878 -8.47519 -2.6039 12.086 -2.17374 -2.61368 -2.13008 -1.66224 -0.580033 0.782287 3.19629 4.08967 1.67148 1.44575 2.19569 0.519563 -0.189043 
-4.98488 4.04295 -4.3341 4.11541 4.4888 -2.23824 4.69177 -3.78666 -0.353709 -4.56078 -6.04834 0.334465 11.7744 -2.00863 -2.61026 -1.8646 -1.05952 -0.147687 0.383112 2.3585 3.34312 2.2681 2.22201 3.14689 1.89392 -0.109177 
-7.90286 2.01268 -2.22577 2.17163 1.44334 -1.05639 9.26912 3.7831 4.59697 3.6309 6.49944 1.2542 11.9586 -1.41423 -2.50374 -1.49104 -1.02174 -1.39569 0.849148 2.1753 1.39594 3.23589 3.30809 4.0971 2.24455 -0.0257189 
-7.30534 -1.0355 -7.01701 1.54692 4.76963 -3.43328 8.32804 1.12714 4.84156 2.44554 3.96108 2.89154 11.8282 -0.692704 -1.13393 -0.418092 -0.802383 -0.68708 -0.242762 0.981617 0.269837 1.96627 2.66286 2.21264 0.393582 -0.0350283 
-8.57673 -1.83077 -5.55692 -0.874298 0.867355 0.707176 11.2055 -0.186868 13.2854 5.13852 7.00558 7.3403 11.9305 -0.103755 -0.675319 -1.06029 -0.352349 -0.417034 -0.528076 0.402583 -0.426507 0.889292 1.43259 0.209259 0.749185 -0.0511789 
-8.11146 0.295036 -4.75899 1.62646 1.3414 -4.33383 8.63166 -0.452491 5.13343 7.9997 4.76177 -0.740678 11.6133 -0.0705727 0.193053 -0.578751 0.0467513 -0.528471 -0.558873 0.380085 0.392024 0.776891 1.30021 0.202995 0.582269 0.00485754 
-8.01858 -2.02918 -8.65625 0.370116 1.07228 -3.2465 11.1302 2.44038 8.89749 8.01674 7.14539 6.81623 11.8101 0.213001 0.357214 -0.434794 -0.0346237 0.118884 -0.664745 0.081705 0.563778 -1.33338 -0.0992013 -0.969405 -0.231503 0.0268416 
-7.93728 0.0289683 -8.3611 1.15847 2.02481 -4.25081 10.2661 1.77363 10.92 7.50749 4.90615 6.06492 11.9126 0.000561333 -0.296159 -0.304083 -0.51969 -0.474605 -0.36637 -0.312682 -0.118941 -0.846901 -2.29619 -0.634475 0.064491 0.0732463 
-7.59882 0.0883365 -5.92983 -0.813426 1.12007 -2.65806 10.7968 1.51896 3.72521 4.88862 2.08637 2.77999 11.915 0.0761919 -0.285192 0.482422 -0.0967121 -0.0890216 0.312396 -0.528555 -0.460073 -1.79957 -1.6417 0.0967093 -0.675201 0.0148726 
-8.31853 -2.24452 -7.64262 -0.380222 -1.05552 -6.4599 7.23495 -0.586484 3.48506 -1.91718 4.11891 1.5999 11.927 -0.16591 -0.21712 0.726031 -0.295582 -0.0086133 0.855076 -1.05596 -1.07054 -1.06802 -0.918693 0.990319 1.11018 0.014594 
-7.44699 -2.3184 -6.60338 0.655904 2.16734 -0.579977 10.003 1.32007 3.61711 4.52058 8.02256 5.67274 11.8773 -0.129873 0.421836 -0.00120795 -0.161113 0.180915 0.10441 -0.789531 -0.987362 0.954829 0.0297137 -0.456828 0.825368 0.012953 
-8.84274 0.146736 -4.39417 -1.0541 1.45811 -1.01447 5.38321 -3.47964 5.63393 3.09805 6.88965 10.1694 12.0045 0.134559 0.92563 -0.056184 -0.180365 0.324991 0.884074 -0.448912 -1.02688 1.16882 1.89035 -1.03804 -0.0171659 -0.0423695 
-7.98607 1.00189 -7.5601 -1.28205 0.767827 -4.85872 7.77504 -1.97127 7.42492 2.52957 -1.58314 2.62205 11.9411 -0.00527706 0.892253 0.0896601 -0.109018 -0.762093 -0.214312 0.615759 -0.0824287 0.868159 1.10172 -0.543894 -0.0439746 -0.0423352 
-7.3762 0.723489 -7.44518 -0.313074 1.26919 0.0998425 6.10439 -4.07521 7.42527 8.53008 3.73156 3.03941 11.6833 -0.246648 0.284979 0.076672 1.3972 0.316404 -0.867274 1.24283 0.841087 1.05965 1.33386 1.1482 -0.716703 0.0871401 
-8.20665 1.85449 -4.62958 -0.2597 -1.54866 -2.20869 12.7212 1.20571 7.06223 7.31317 6.88213 9.01788 11.8262 -0.386515 0.0273343 -0.0371983 1.04278 0.497264 -0.862313 1.52026 0.668363 0.610665 0.64307 0.8069 -0.265014 0.124297 
-9.9657 1.14533 -5.47607 5.4207 4.19837 -6.67585 9.12427 -0.862696 11.1135 7.37553 8.39803 3.38802 12.4976 -0.208137 -0.881115 -0.0322815 0.628781 0.422305 -0.318825 0.68782 1.82748 1.10945 -0.903323 -0.847446 -1.15491 0.0598876 
-8.6239 0.927641 -8.73064 1.06499 1.78956 -5.78243 13.8664 -0.235715 8.63412 6.3222 0.118127 1.12268 12.1554 0.248669 -0.73889 -0.132162 0.252754 0.248837 1.55263 -0.843573 0.175072 -0.0618529 -1.10832 -1.6447 -2.45287 -0.0565776 
-8.20826 -3.21866 -5.55606 2.16849 1.71161 0.292587 8.97091 5.78291 12.1866 4.50895 2.87634 1.21245 11.8181 0.485596 -0.521161 0.177079 -0.396016 -0.671464 1.74457 -0.985639 0.606018 -0.973385 -0.860581 -1.06918 -1.21324 -0.176618 
-7.84203 0.342034 -5.2504 2.63018 0.93891 2.07024 8.58005 -1.24173 6.21643 3.20485 1.41945 -2.15869 11.883 0.37199 -0.181012 -0.00419111 -0.402287 0.748894 1.38653 -1.08666 0.417517 -0.830922 -1.19256 0.787464 1.01482 -0.0992123 
-7.92865 -1.16767 -6.3308 2.65803 1.26638 -1.87936 6.83925 2.6704 7.45545 4.63129 2.40147 -1.03751 11.7507 0.354729 0.308654 -0.873017 -1.05408 1.29078 0.405311 0.197484 -0.00997198 -1.00544 -1.1328 0.570653 2.1699 -0.0440183 
-6.90375 -1.00291 -8.36423 -1.19122 5.75664 2.23617 9.49891 3.40812 6.84509 0.298242 4.29288 7.32174 11.6931 0.290146 -0.252514 -0.826109 -1.1492 1.41257 0.44474 0.449737 1.00374 0.0646941 -1.01463 0.763829 2.73201 -0.043762 
