-5.51309 -5.7081 -9.72926 -2.94317 -0.0483065 2.52993 6.00925 3.62244 7.54972 -5.45205 -1.80776 5.30226 11.2669 -0.215952 0.104366 0.138858 0.867292 0.853392 -0.817249 0.0214503 0.975453 1.7351 2.01917 0.649866 -0.832967 0.0294838 
-6.59664 -6.29634 -9.17879 1.95959 0.898013 -1.43767 4.93146 7.01845 13.8021 0.893958 0.398387 2.09605 11.4528 -0.0518085 0.580947 1.16037 1.15666 0.869213 -1.14835 0.230201 -0.338552 1.1212 2.68002 0.735092 -1.05787 0.0521608 
-6.05107 -4.89215 -9.3102 -1.05809 3.74549 0.427486 6.6554 6.80171 13.0991 1.47079 0.338494 2.74053 11.3214 0.198997 0.835817 1.21182 0.933947 0.296289 -0.351582 0.77629 -1.50572 -0.544155 1.19125 0.787281 -0.626411 0.0167542 
-5.50314 -3.21134 -4.13694 1.89761 2.40086 -2.16058 6.83718 0.340054 10.381 4.48666 0.794569 1.29377 11.5005 0.199532 1.04352 1.09389 0.248152 -0.129213 -0.136455 1.25974 -1.31792 -2.52862 -1.24671 0.566672 0.0619499 -0.0102084 
-5.06485 -3.07152 -6.19107 1.75756 0.681715 1.13348 8.93784 -0.566954 6.53946 -1.29214 1.93055 2.57134 11.3268 0.0905687 0.0243918 -0.275562 -0.0527338 -0.43953 0.54035 1.40458 0.842997 -0.894627 -0.22777 1.01951 0.148682 0.02262 
-6.09209 -1.98905 -5.26889 1.79253 1.78384 -2.47294 10.0889 4.11319 4.43879 -3.95816 2.43572 2.49039 11.399 0.392321 -0.225474 -0.962821 -0.737925 -0.189707 1.10775 0.605081 1.32474 0.420384 0.457893 0.0487075 0.126209 0.00820646 
-5.30375 -5.38134 -10.122 -1.26922 1.85636 3.28542 12.0524 9.13012 11.597 4.55434 4.61549 2.88563 11.4852 0.290911 -0.511499 -0.341621 -0.858768 -0.174906 1.22744 -0.579955 0.424288 0.977091 1.71085 -0.313523 -0.415248 0.0273121 
-3.42209 -3.1838 -6.98556 -0.278625 0.865003 2.30218 8.3053 2.11521 9.95417 3.85288 -0.304362 1.76767 11.4623 0.477372 0.505325 1.97759 0.143104 -0.766955 2.18137 -1.36367 -1.05641 -0.218456 -0.125356 0.0449002 -0.553243 0.2097 
-4.9453 -5.03164 -7.04084 -1.5007 0.266601 4.8831 6.92989 2.55348 8.66722 3.35659 1.73298 0.856457 11.4318 1.49932 3.34674 6.12639 1.93578 -1.39936 1.45829 -4.14809 -3.15206 -1.66693 -3.16662 -0.131652 -1.79197 0.593874 
-3.88446 0.362724 3.07846 2.62379 -1.25606 7.63506 5.83184 2.11945 4.81142 -3.98606 4.10147 0.73876 12.4743 2.28628 4.7031 6.49691 2.32052 -2.38396 1.0912 -4.4271 -2.24855 -1.72589 -2.79919 0.628038 -1.7593 0.850715 
2.42402 9.57911 15.4779 6.95847 -4.07992 7.91041 -7.45127 -6.63229 5.83375 -7.35928 1.75431 -5.55977 13.9486 2.54228 4.8063 5.60004 0.937305 -2.17807 -0.0999899 -2.99898 -1.36211 -1.77501 -1.66499 -0.372394 -1.79001 0.974397 
4.32465 13.0263 14.2396 7.09438 -8.88152 6.24454 -6.63963 -4.53464 2.74145 -4.78512 2.82516 -3.8207 14.4575 0.932068 2.83036 2.72513 0.173828 0.0953515 -0.47758 -1.05986 -1.38171 -1.47285 0.103081 -2.16677 -1.30583 0.773892 
3.66157 12.6681 15.3788 0.950527 -6.81102 5.07841 -1.82927 -0.930011 0.827179 -4.56885 0.509165 -5.81388 15.3121 -1.28653 0.796194 0.0768191 -1.02643 1.73601 -0.606652 1.60746 1.3298 -1.98443 0.326586 -1.74322 0.0414405 0.541567 
0.157114 12.97 16.7536 6.49691 0.586246 6.66316 -2.27848 -7.64026 -0.0495405 -4.86587 -6.10979 -5.66333 15.662 -1.98507 -0.219914 -0.887537 -0.346398 4.50002 0.116129 1.41626 1.57671 -1.53571 -0.0314408 -1.61238 0.4921 0.120796 
-1.92485 13.5882 14.605 2.12506 -0.133764 4.66784 -1.59457 1.5695 -2.6929 -5.68598 -2.49429 -4.43125 16.0542 -0.884494 -1.36576 -2.80558 1.65267 4.16612 -1.01233 2.57079 2.04908 0.126445 0.855256 -0.30856 1.11185 -0.811372 
-2.80747 11.4667 10.1888 4.77512 10.2799 7.03047 0.324308 2.09915 -3.17706 -4.38377 -3.735 -2.05151 14.6904 -0.0527652 -3.07471 -4.34194 1.52367 2.56604 -1.31076 3.3213 2.50213 1.81154 0.847493 0.675518 1.49377 -1.32013 
0.721389 6.59096 4.63331 10.0748 9.17275 -0.166909 9.72326 4.44569 3.02316 -0.533623 -2.22103 -2.06052 11.7411 -0.193819 -3.9948 -5.40476 0.259026 0.302472 -1.42705 2.31134 0.779081 3.05756 1.21122 0.469233 1.19966 -1.31999 
-1.42983 1.09514 0.0297735 10.1404 8.76318 2.52673 8.66912 3.4323 6.15011 -3.20458 -2.86883 0.620176 11.2179 -0.823233 -3.90338 -5.01641 -1.24025 -1.83412 -1.88372 1.0788 0.182289 2.96174 1.24971 1.42108 0.820471 -0.704621 
-3.58277 -1.20002 -7.33931 0.737567 2.13698 -0.215528 5.78974 4.79833 7.93133 -0.219477 -0.581211 0.23118 11.1905 -1.90468 -2.42215 -3.12811 -3.2303 -2.15426 -0.176278 -1.38871 0.71563 1.96179 -0.262243 1.16675 0.815381 0.11537 
-4.77155 -4.15473 -8.90692 3.24246 4.62724 -2.36384 7.68506 2.83428 9.17758 1.70772 2.55051 0.904993 11.4426 -1.5216 -1.32148 -1.51207 -2.59806 -1.41076 -0.100565 -2.03943 0.432646 2.14801 -0.900285 0.101876 0.462526 0.25132 
-7.13114 -2.89487 -6.53891 -2.62774 0.469447 1.39698 3.27174 8.32285 11.3184 -4.30099 0.903072 1.87397 12.2056 -2.89769 -1.21606 1.76922 -2.0431 1.97908 1.87023 -1.30242 -1.34093 0.749414 -0.695117 -2.48875 1.30867 1.35249 
-7.26365 -4.66484 -7.93079 -1.16727 2.54313 1.21765 -0.269048 3.83327 15.1966 -5.66525 -3.10159 2.11141 11.967 -3.43471 -0.680495 2.84686 -2.47292 2.61358 1.82292 -1.58521 -2.68314 -1.0099 -0.446212 -3.41875 1.75633 2.02521 
-16.8252 -7.02526 1.01873 -7.27304 13.0744 7.3449 3.25471 -2.4058 8.66887 -0.0085749 -10.1989 6.17134 17.6908 -3.19805 0.467408 1.76645 -0.458191 1.9581 -0.388267 -0.732599 -2.93767 -1.92474 0.879088 -0.844752 1.18171 1.81309 
-17.0981 -5.49201 1.54855 -6.79947 11.3927 3.77679 -0.232474 -5.21708 5.45282 -2.66954 -8.99226 7.53795 18.826 -1.197 2.36891 0.391822 0.957224 -0.142394 -1.07937 0.0562442 -0.261601 -2.17419 -0.342487 1.64968 0.483001 1.24332 
-18.2042 -0.144244 -2.44633 -2.10259 5.83519 -1.82392 -0.409539 -1.84035 6.56655 -1.4034 -0.375355 5.06923 17.8415 1.18554 2.78866 -1.452 1.74927 -1.94347 -1.21159 -0.756233 1.6057 -0.5733 -2.00913 2.73995 0.289873 0.185934 
-12.5591 3.73918 -4.23915 1.03362 5.45077 0.405222 1.8443 2.24253 5.37682 -6.68027 0.235039 5.07747 18.1082 2.08948 2.44037 0.201389 1.27082 0.201473 1.90307 0.356499 0.624812 -0.684608 -1.55279 0.48911 -0.295411 0.0346498 
-13.1669 2.30246 -3.34745 -2.44325 6.32798 2.9727 -1.56484 1.89291 5.84037 -8.04884 -1.1128 8.85095 18.9794 3.11528 2.12962 2.63762 0.421171 -0.188591 1.88712 -0.513114 -1.75032 -2.01068 -2.09647 -1.2579 -1.2105 0.0509016 
-9.16932 5.4865 3.00605 -0.275066 12.1536 10.8938 2.12767 -3.95964 2.39287 -7.11078 -6.17799 4.17004 18.4303 3.10308 2.00185 4.29133 0.0845503 -2.24655 0.556633 -1.65375 -3.05665 -3.6798 -1.48305 0.0352605 -2.62765 -0.181893 
-4.3227 9.63021 7.11915 0.657609 1.54081 2.36737 -3.1168 -7.49087 -1.99489 -11.6705 -3.45835 -0.529563 17.935 3.48105 2.23261 3.71573 -0.182753 -4.84579 -0.37278 -2.14006 -2.5711 -3.59617 -1.11251 1.2304 -4.00684 -0.262223 
-1.46581 10.0846 11.9842 -0.0940528 -3.3884 3.49106 -5.64846 -8.34882 -9.10454 -12.2847 1.58412 -3.37051 17.721 2.90908 0.728009 1.77126 -0.858324 -6.45505 -1.64633 -2.80398 -0.888669 -2.59824 -0.183526 1.25488 -3.23447 -0.183726 
0.386548 11.1665 10.7421 -3.44752 -10.13 4.81019 -8.37705 -8.76801 -6.39178 -11.0244 1.15814 -7.41297 18.0229 2.23375 -0.6766 0.170897 -0.027726 -5.19553 -0.435083 -1.47141 0.911129 -1.76849 1.03714 0.271494 -1.7924 -0.142685 
3.02148 8.3584 10.0509 -2.51412 -14.2862 1.44078 -9.26209 -7.76441 -8.39987 -8.35144 -2.21182 -8.56062 17.4677 1.91003 -1.53912 -0.786087 0.826152 -4.21223 -1.54549 -0.0370879 1.44593 -1.41475 1.09979 -0.73528 -0.343329 -0.116663 
4.6024 7.1103 8.9403 1.72901 -18.9879 1.21709 -8.66705 -3.22743 -11.1897 -8.45142 -0.20291 -6.8965 17.3482 1.62981 -2.20487 -0.421872 1.9398 -3.18073 -2.64315 1.41756 1.26654 -2.87732 1.32831 -0.289868 0.641826 -0.0120211 
5.97642 4.41706 8.95468 1.44844 -20.0206 -2.43985 -5.6889 -3.88948 -13.7793 -8.07228 -1.41175 -5.34539 17.475 0.418751 -1.20299 -0.516523 1.64599 -0.368649 -4.8927 3.14454 0.162903 -1.52863 0.842193 0.421226 2.13235 0.256208 
7.05813 2.11283 9.18088 4.2702 -23.1664 -6.46523 -3.07586 -4.37276 -18.0887 -4.52245 -0.691234 -5.81146 17.9592 0.0072804 -0.871612 -1.19157 1.09739 2.78033 -5.7112 1.87605 -1.27428 -0.109955 0.979343 1.03494 3.09891 0.384663 
3.88737 4.84218 7.34796 4.44522 -14.0402 -19.1816 3.66504 -6.37723 -12.5936 -6.10496 0.138467 1.5586 18.4433 0.891466 -1.1137 -2.50248 0.698761 3.36957 -2.84315 -2.73843 0.439864 0.875393 2.64816 1.11861 1.60957 0.444821 
5.68333 2.53968 3.7858 5.71756 -8.07646 -18.968 -3.96375 -8.35497 -12.3324 -4.53836 4.19669 5.14608 18.7874 2.09573 -1.34408 -3.6404 -0.78615 3.97807 1.25017 -5.64324 1.86435 1.68939 4.03263 0.787393 -0.791903 0.376835 
11.1211 -1.36485 -0.860182 4.21857 -10.7177 -10.4042 -18.9371 0.300945 -12.2805 5.17645 1.73733 -2.7763 19.285 2.7933 -1.41415 -3.63508 -2.63922 2.98547 5.35922 -6.04558 1.34684 0.347605 5.65532 0.0320321 -3.26284 0.228839 
13.9199 -1.50405 -4.91706 0.452771 -4.93733 -4.6031 -19.991 1.60989 -9.79823 9.99999 2.4463 -7.60352 19.4224 1.8902 -0.417588 -2.68037 -4.55622 2.33651 5.81319 -2.67344 -0.58241 0.154017 3.6661 -1.37531 -2.48106 0.0804237 
13.7356 -0.206725 -6.47601 -6.1185 -0.682413 0.432037 -18.5493 -4.62548 -12.1226 14.9025 1.17382 -8.38079 19.2699 0.842259 0.710911 -1.44849 -5.59297 3.24281 4.27823 1.11229 -2.27814 -0.157581 -0.166322 -0.368733 0.768513 -0.0211353 
13.8271 -0.127327 -6.80814 -11.895 -1.41156 4.67982 -17.5248 -8.80381 -11.6412 8.92914 -2.3981 -4.45696 19.197 0.71149 0.313096 -0.396891 -4.49058 1.74448 2.74688 1.95019 -1.4662 -0.285684 -2.53776 0.430237 1.87831 -0.0323889 
15.3788 1.50134 -7.15711 -17.5724 3.73346 6.34553 -14.6087 -5.88292 -12.1469 4.88027 2.31586 -0.507018 19.292 0.940831 -0.220033 -0.0284138 -2.11457 0.434469 1.27782 1.85236 0.362226 -0.354325 -2.56906 1.0717 1.50456 0.0169949 
16.6557 -0.792602 -6.56096 -16.2732 1.57715 6.17455 -12.2103 -5.0924 -11.2145 2.3223 4.02646 -2.14885 19.2494 0.819037 -0.870837 0.146847 0.231678 0.263625 0.198405 1.05731 0.702822 -0.365854 -0.469375 1.75849 0.330922 0.0676289 
17.0254 -0.974253 -6.74167 -14.5023 -0.00442362 6.07375 -11.9448 -4.67006 -14.1076 5.36061 3.32005 -2.01204 19.3287 0.416837 -1.15147 0.170658 1.5803 0.467023 -0.952266 0.540801 -0.807555 0.187006 1.30558 0.511834 0.185142 -0.0170927 
17.099 -3.24372 -6.28163 -12.2717 1.7755 5.80774 -13.5703 -5.89613 -12.4902 6.3421 5.89223 -2.04984 19.5169 0.258443 -1.03726 0.622411 1.98221 1.43014 -1.21415 -0.876987 -1.06522 0.872534 2.38376 0.573863 -0.0733234 -0.0856854 
17.2414 -3.03046 -6.44349 -11.6716 5.96939 1.76761 -11.2248 -9.51883 -10.574 9.39829 3.94215 0.369187 19.0729 -0.184727 -0.840415 2.00023 2.25895 1.37729 -2.4477 -0.835333 -0.637638 1.6789 2.16402 -0.124244 -0.41136 -0.2058 
17.8399 -4.95082 -3.598 -7.77744 5.74095 2.25687 -16.9552 -7.99409 -8.6186 12.2222 6.58473 -3.70608 18.9489 -0.802485 -0.198551 2.88446 3.24168 -0.266782 -3.8502 0.189725 0.904945 0.63635 1.4578 -1.17174 -0.737327 -0.278385 
15.7313 -4.32277 1.91766 -5.45461 4.8993 -4.38933 -14.4289 -6.80927 -7.64888 13.2406 2.35258 -3.24073 18.5837 -1.40982 -0.0851672 4.08644 3.69271 -2.31042 -4.42879 1.54793 2.65254 -1.11711 -0.73688 -0.310514 -0.140675 -0.199152 
13.8416 -3.59031 3.9601 0.828229 0.976637 -10.3648 -11.0195 -2.72619 -10.771 11.7099 0.828333 -3.93152 18.3695 -1.80495 0.617156 3.57742 3.63768 -3.5031 -4.08341 4.0083 3.20161 -4.10955 -2.27362 -0.276679 1.98885 -0.145825 
12.1915 -4.13655 10.2097 2.48907 -3.20055 -14.0655 -6.45296 1.1099 -15.0834 5.97006 5.26778 -0.221469 18.3668 -2.00839 0.255834 3.59359 1.96009 -3.55931 -0.977295 3.75871 2.25506 -5.28963 -2.72717 -0.256454 2.13809 0.053392 
10.5851 -1.95815 10.1431 6.4391 -7.7246 -13.3221 -0.901728 4.05439 -25.4491 4.48944 3.74374 4.72852 18.3282 -2.36551 0.336122 3.62845 -0.33909 -2.89907 1.75167 2.2913 0.995781 -3.77848 -2.08923 -1.32515 0.97254 0.149189 
7.3176 -3.85968 16.7941 1.5404 -8.54661 -7.79714 -0.694306 1.07574 -26.758 3.21501 -0.387392 3.11969 18.8713 -2.27623 1.01262 2.84851 -0.416942 -1.61955 3.08336 1.06345 -0.926908 -0.547682 -0.841273 -2.48903 -1.07251 -0.0817442 
4.45097 -2.04814 18.8101 -0.392888 -10.8457 -4.74061 -2.44236 2.2698 -23.8261 2.64128 -2.96984 -0.739391 18.8632 -1.90933 2.05807 2.17104 -0.147272 -0.754706 1.94578 0.229707 -1.62789 3.29799 -0.880038 -1.51211 -1.84064 -0.502057 
3.87735 0.971521 20.1187 3.82035 -9.73774 -2.93942 -0.36539 -2.63234 -18.6333 2.68778 -3.82059 -2.85007 17.6906 -1.12077 2.69129 0.120692 0.715858 0.645949 -0.0262582 -0.190061 -2.28086 4.02272 -0.80848 -0.378432 -1.41099 -0.970936 
2.7586 5.9166 19.336 4.56277 -10.9026 -6.02207 0.0823512 -2.231 -13.0215 0.352872 -2.1002 -1.48979 16.4083 -0.786587 1.86381 -0.505225 0.887093 1.82334 1.47618 0.595705 -2.18632 3.55438 -1.58392 0.033141 -0.0657632 -0.962557 
2.55992 5.61439 17.1346 2.64186 -5.28844 -7.28771 -2.90697 -8.07818 -12.0467 0.316816 -2.71437 -3.56008 15.2441 -0.633077 0.157318 -2.51447 -0.059368 2.76991 1.46351 1.39121 -1.02553 2.90479 -1.37844 0.65441 0.507687 -1.03518 
1.17675 4.94948 17.776 4.63182 -3.95365 4.81445 1.80696 -5.93888 -9.34748 -4.09286 -3.35724 -0.713201 15.2737 -1.14897 -1.98272 -5.95333 -0.817979 2.74727 0.569806 0.918435 0.0564276 2.31914 -1.48563 0.989801 1.00012 -1.20236 
1.50289 2.24167 8.3263 3.48899 0.637326 -1.04012 5.72834 -5.90606 -5.94635 -1.98155 0.0799833 -0.699929 13.082 -1.66223 -2.30929 -6.77112 -0.59959 1.92883 0.157426 1.61799 3.29889 3.49609 -0.761394 0.966451 1.48074 -1.16767 
-2.45774 -2.31066 -6.02648 0.0493145 -0.129086 -6.29683 0.356874 -3.03492 -4.47596 -5.92611 1.45163 2.08071 11.4776 -1.74457 -2.26481 -6.09268 -0.69739 1.62166 -1.02815 1.49366 4.89093 5.16066 0.731383 0.867038 1.24434 -0.972384 
-3.93399 -2.30199 -4.81971 1.93517 2.44342 -0.944934 5.908 6.9643 2.998 -2.57353 -0.286546 2.44666 11.3038 -1.49413 -1.58981 -3.45451 -0.579185 1.16337 1.2213 1.32435 3.6648 4.83508 1.04521 -0.235779 0.362788 -0.357193 
-4.82767 -4.10274 -6.11435 1.92178 3.25159 -0.373892 9.18544 12.0806 11.9837 -0.139952 1.16122 3.93518 11.3009 -0.498316 -0.482786 -0.443071 0.33529 1.37623 1.45621 1.88404 1.32678 3.03982 1.1831 -1.2524 -0.546802 -0.00665188 
-4.78279 -4.81135 -8.90232 -0.34317 4.76383 2.10491 7.93579 4.86017 9.99925 0.351437 -0.953706 0.186774 11.3844 -0.0179815 -0.587951 -0.541588 -0.432128 0.161289 0.387051 -0.192881 -1.39032 1.15917 0.736232 -0.349592 -1.42871 -0.00150328 
-4.52492 -3.46991 -6.20053 2.86493 5.59187 -0.540716 8.76319 4.65103 7.22251 -1.47307 -4.47679 0.476643 11.404 0.0586979 0.12013 -0.0567226 0.228278 -0.44357 -0.874419 -1.23346 -1.16809 0.207519 0.690108 0.00265307 -1.27925 -0.0183038 
-4.17528 -5.55816 -7.48456 -0.697047 2.07972 1.07373 5.15472 3.72748 11.1744 1.77419 0.784494 -2.9676 11.2447 -0.0930641 0.336898 0.540503 0.0554393 -0.502313 -1.20906 -1.75211 0.529589 1.19594 0.49998 -0.0950435 0.785468 0.00382166 
-4.83794 -3.12868 -7.10684 3.24011 2.37579 -4.23039 4.40868 6.80651 12.4337 2.59921 0.305382 -0.883868 11.2792 0.00474815 0.129149 -0.275862 -0.815274 -0.651256 0.682563 -0.958405 -0.9358 0.452439 -0.0343327 0.99878 1.62767 0.00550842 
-5.0916 -3.29747 -5.74665 -0.253562 3.8603 -2.09554 1.35249 6.43038 13.3734 0.815199 -3.82001 4.79437 11.4659 -0.207621 0.236397 -0.0757744 0.316187 0.465873 1.18474 1.41673 -0.495176 -0.144574 -1.14015 -0.0478676 1.79746 0.0281454 
-4.04302 -3.95451 -8.44879 -1.43318 1.4453 4.45673 5.87228 -1.37942 8.38522 -1.16524 2.81936 4.73399 11.321 -0.21574 -0.442012 -0.683347 -0.0150043 0.811094 1.78148 1.72195 -0.302071 -1.6632 -0.589801 0.753673 1.25058 -0.0118743 
-5.61084 -3.96326 -7.19246 3.22053 4.87433 2.65389 11.5066 5.34456 12.4758 -2.04432 -0.711836 3.21078 11.3645 -0.16902 -0.0870351 -0.648232 0.350661 0.530788 0.853901 2.00572 0.747233 -0.803731 1.00563 1.37813 -0.313481 -0.018748 
-5.65701 -5.00585 -9.80068 1.42804 5.92424 2.30231 7.9414 5.83906 4.5665 1.07996 2.51966 6.16081 11.2705 -0.0219345 0.426703 0.120081 0.0758677 0.44096 -0.707014 0.782161 1.71394 0.36468 1.02863 -0.877028 -0.839552 -0.0328337 
-5.1297 -3.20698 -8.31187 0.0691328 4.27477 3.25118 10.3465 6.5573 11.2641 4.72074 3.22051 2.51356 11.3974 0.0954027 0.105139 0.410916 -0.00691624 0.103508 -0.404523 -0.346873 0.340615 0.678949 1.28159 -1.28997 -1.49585 0.0076211 
-4.39326 -2.19913 -7.28868 0.52186 3.94989 0.623015 10.3631 6.58392 10.8145 0.595375 -3.53194 0.884848 11.1404 0.167993 0.406385 0.727327 0.561248 0.061838 -1.30467 -1.38044 -0.115485 2.66764 0.929181 -1.33763 -1.6848 0.0297128 
-5.76571 -4.84092 -6.39387 3.63904 6.37905 1.47092 8.56137 6.67521 12.7465 4.60595 -4.13587 -1.63046 11.4677 -0.0113091 0.0446355 -0.127204 0.426737 0.773833 -0.685545 -1.61641 -0.506619 0.644014 1.36348 0.554618 0.590474 0.0634644 
-4.49905 -2.15695 -7.12304 2.44933 5.18129 -3.33092 1.93178 5.20269 17.1635 5.78326 -0.490279 -0.191194 11.3839 0.0838993 -0.00295925 -0.43054 0.279582 0.189167 0.138433 -0.112155 -0.281261 -1.40675 -0.183872 1.98877 0.64238 0.0555121 
-5.13335 -3.00489 -9.03071 1.23908 7.52823 1.80042 6.48015 4.71482 11.3096 8.94418 4.47277 6.00395 11.5929 0.360815 0.0572966 -0.505246 -0.735564 -0.611273 -0.28267 -0.0714874 -0.332761 -1.78144 -1.24122 1.23647 0.0560198 -0.036948 
-4.28994 -3.13194 -8.12296 3.11975 4.32113 1.15043 10.843 6.15781 4.49916 -2.4931 2.10761 0.279542 11.3553 -0.025803 -0.379815 -0.447474 -0.780674 -1.15425 0.637686 0.184676 -1.37299 -1.33749 -2.10494 -0.821146 -1.12942 -0.0538102 
-4.06618 -4.06694 -8.42014 -0.373989 3.75276 -2.1831 3.74835 4.53384 10.1715 2.53801 0.747544 -1.58573 11.2972 0.144434 0.0412643 0.0354846 -0.630531 -1.67981 -0.454304 -1.35771 -1.98744 -0.376332 -1.21154 -1.14295 -0.837695 -0.0734115 
-5.16165 -3.525 -9.66569 -0.647509 1.29778 1.84927 4.22106 -1.57177 11.0451 -1.53836 -2.7334 -2.04344 11.2627 -0.190108 0.124668 0.108008 -0.43724 -0.117196 0.0555795 -0.970736 -0.693701 0.83394 1.27254 -0.325833 1.75025 0.0340788 
-3.97533 -2.60204 -8.08192 -0.029943 0.640867 -0.820522 3.00255 -1.35758 6.155 2.4091 1.1785 2.97697 11.2722 -0.256372 0.193573 0.324988 0.368006 0.706998 0.475804 0.736874 0.940913 0.0643185 0.826443 0.202721 2.54632 0.0757464 
-5.28591 -3.24105 -7.75203 0.761525 5.2911 0.747036 6.36217 5.63501 10.6771 3.93403 0.262968 6.74942 11.5382 -0.155911 -0.00711112 0.415722 0.360953 1.26369 -0.0636915 0.764182 2.14061 0.378606 1.24697 0.50772 2.13582 0.0817067 
