-7.0303 -4.04601 -5.96606 -4.80457 2.1238 6.39593 6.74412 2.02996 6.08516 5.30493 2.00328 3.51894 11.5486 -0.0200106 -0.504894 0.0191286 0.669336 -0.412511 -1.60085 1.13788 1.59554 0.525191 -0.326809 -0.118908 0.546975 -0.090697 
-6.05065 -4.42571 -4.39514 -2.43884 0.0818582 -0.724675 9.61436 2.33325 3.63303 4.11524 1.97764 4.38153 11.1755 -0.131329 -0.224191 0.293208 0.58329 -0.10491 -1.05429 0.948506 1.16024 -0.620754 -1.3624 -0.826799 0.704109 -0.100299 
-7.62019 -6.38062 -6.65588 -2.64075 1.08222 1.95196 10.9984 9.85601 9.93718 4.26574 1.42156 5.82252 11.2816 -0.194178 -0.0517174 0.125546 0.372593 0.89971 -0.437084 0.0685687 0.444482 -1.01978 -1.83108 -1.56477 -0.103962 -0.0438012 
-7.39201 -3.99965 -4.15511 -2.97003 2.12004 3.34648 9.35951 3.91812 1.05538 -0.987481 -1.83985 5.88769 11.1805 -0.297622 -0.171711 0.226538 0.742668 0.567179 0.361279 0.0096365 -1.089 -1.35847 -1.76186 -0.931668 -0.337335 0.0838761 
-7.33051 -4.51762 -5.45835 -2.67601 5.60326 2.17493 7.21439 3.45994 2.27507 -1.29913 -3.91183 2.24605 11.327 -0.168755 -0.28975 -0.037682 0.676715 0.0909511 -0.173539 -0.857689 -1.81465 -0.374989 -1.15804 -0.232867 -0.441414 0.0703018 
-7.68359 -6.21577 -3.86121 1.29213 0.657235 0.970233 11.5546 0.0863111 0.671732 -1.91165 -0.0140021 4.48309 11.5722 -0.169719 -0.83389 -0.381086 0.181773 -0.915996 -0.303189 -1.50343 -0.199357 2.63335 1.5975 0.388332 -0.447245 0.0441956 
-8.31817 -6.72131 -6.99124 -1.38826 2.26837 2.27239 5.61245 2.69867 8.25406 -1.06239 -0.655702 4.31775 11.4373 0.354847 0.178639 -0.131083 0.164203 -0.757398 0.598771 -1.62458 0.579499 1.42766 1.1065 0.533337 -0.692108 -0.00392313 
-7.74678 -7.06725 -5.29409 -2.70504 -0.792498 1.78181 2.64331 3.30196 11.2327 6.88163 -1.52626 2.61561 11.3464 1.34583 1.55286 1.08775 0.915281 1.54721 2.08974 -0.581622 0.538106 0.513756 0.796059 -0.675752 -1.03247 -0.027211 
-5.52468 -3.19869 -5.39732 0.143588 2.54113 4.763 3.54714 4.74961 4.1329 -0.163269 -0.489017 -0.280755 11.4203 3.3433 3.59529 2.80832 1.95905 1.18618 0.746108 0.348038 -1.78956 -2.46189 0.454954 0.641657 0.319413 0.198595 
-2.3512 -0.212781 0.780556 5.10261 8.25689 10.1736 9.6791 1.75137 5.30109 1.61909 -3.47611 1.61999 11.4446 4.8147 3.32795 1.68142 1.80156 1.2914 -1.11373 -0.651152 -3.3485 -2.9084 0.567999 1.23184 0.826871 0.614528 
5.70055 7.82789 4.01305 4.50316 3.67456 1.80701 3.83474 -5.47384 -1.08963 3.84365 3.52751 6.41262 12.3812 4.73428 1.29448 0.569313 0.476751 -0.235311 -2.68709 -3.76446 -2.66894 -1.36822 2.37864 1.75865 0.643928 0.95465 
10.7141 4.05922 -1.59218 4.12296 5.0978 -2.30886 -0.756254 -8.32881 -0.698093 7.71817 2.62468 3.40328 13.9386 3.41295 -0.798479 -0.725158 -0.037899 -1.74996 -2.6342 -5.38665 -1.00329 -0.627722 1.79708 0.899285 -0.0615987 1.00348 
11.6141 1.13769 -1.36439 3.01717 2.94413 -2.43119 -10.0575 -3.555 0.291373 8.68039 5.25384 2.04724 14.9466 1.09077 -2.33005 -0.675522 1.05066 -1.34458 -1.07997 -3.58975 1.29489 0.860656 0.292179 -1.52037 -0.024911 0.59197 
11.7568 -0.860075 -0.156517 5.65611 -0.127682 -0.878243 -10.308 -4.2245 1.47198 8.18611 0.157155 3.49469 15.1793 -1.08312 -0.947219 0.988749 1.91214 -0.984268 -0.852093 0.064419 2.12128 1.66573 -1.65478 -2.31147 0.470377 -0.245443 
10.633 -1.36271 -0.0823903 8.98986 -0.435621 -4.30815 -9.33814 -1.05157 2.12862 5.07058 -2.8406 6.24236 14.7207 -2.45268 -0.148749 1.44564 0.849011 1.67313 1.38859 2.81445 1.35551 2.5607 -2.55399 -3.05108 0.339474 -0.736001 
5.789 0.573324 2.71057 10.6973 1.86633 -5.63084 -0.793828 1.02586 6.71195 1.2492 -4.88546 3.6576 12.8243 -2.84233 -1.38251 0.753917 -1.28481 2.48198 1.92566 1.29204 1.92967 3.44651 -2.61811 -1.38563 1.2923 -0.102697 
2.33461 -0.32275 4.43029 4.74162 10.3128 6.88805 -0.742331 0.597393 10.4749 -0.621122 -7.48026 3.66316 12.4441 -1.02794 -1.44013 0.015006 -2.22096 0.600108 1.50856 -1.67807 0.821185 1.67738 -1.43768 -0.589704 0.500214 0.610092 
1.69434 -8.2926 1.35672 1.35618 6.90801 3.15197 -8.14575 4.59937 14.5314 -2.0586 -4.45118 11.2458 15.8041 1.17968 -1.46932 -1.6745 -1.54722 -3.11468 0.98632 -4.88793 1.23671 -0.516924 0.739472 -0.102651 -0.374746 1.30084 
7.54068 -4.13039 0.669561 2.55563 0.0440788 -1.15677 -14.0525 1.2676 6.60579 -0.463914 -6.00626 4.94933 16.2812 2.52637 -0.829857 -2.75408 0.271004 -5.15823 -0.788031 -3.93415 1.6064 -1.7637 1.37824 0.37065 -2.42214 1.15908 
9.08439 -4.86944 -3.78159 4.0542 -8.57273 3.32317 -18.5784 6.87429 6.06187 4.86795 -6.13572 1.14079 17.4099 2.32565 0.189643 -2.65421 0.465848 -3.43893 -0.262628 0.0284639 0.688032 -2.24586 1.59414 0.032019 -4.24503 0.439471 
11.2714 -6.18361 -6.77093 4.74763 -7.73802 2.86229 -15.1967 7.49195 5.89111 2.80679 -4.78474 -3.39502 17.4366 1.02587 -0.568468 -2.28974 -0.71417 -0.548898 -0.266769 2.90134 0.936281 -1.43341 1.10891 0.945049 -3.56155 0.253942 
11.4572 -6.31777 -8.19411 2.58943 -6.39561 -0.170704 -7.43132 4.92735 3.65942 4.27674 -4.90185 -5.80719 17.4238 0.386508 -0.195994 -1.56916 -1.5744 1.76629 -1.13102 3.31126 0.119944 -1.19962 -0.232027 1.27983 -2.64958 0.0679602 
11.4836 -6.24856 -8.57289 -0.282829 -3.78897 -0.743683 -5.11935 6.92247 0.639975 5.37623 -1.89795 -9.38444 17.544 -0.179836 0.142183 -0.801232 -1.86194 1.77928 -0.747415 1.63043 0.629787 -0.774953 -0.265945 0.83274 -1.53546 0.0772102 
10.9108 -5.81694 -10.7264 -1.30258 -1.71579 -0.528947 -7.06082 7.75875 2.68932 2.4231 -1.17998 -9.11238 17.696 -0.398373 0.233153 0.0261804 -1.57095 1.10818 -0.329849 0.0978036 0.940736 0.113748 -1.03155 -0.0254582 -0.050703 0.0392279 
10.6454 -5.72312 -9.51094 -2.61608 -1.18151 -0.695658 -7.22983 9.22519 2.50139 2.40388 -2.48197 -9.41971 17.6865 -0.483561 0.467746 0.354652 -0.660257 0.405447 -1.33022 0.338933 0.657303 0.405522 -1.54029 -0.712135 1.39298 -0.0444721 
9.88446 -5.41473 -7.59418 -4.09872 -2.15846 -1.84396 -5.88706 8.47967 3.29745 0.605149 -4.73712 -6.04308 17.5487 -0.508509 0.552061 0.942174 0.193332 -0.260369 -2.22628 0.907068 0.309546 0.0298754 -1.64344 -0.37517 2.01711 -0.124483 
9.57901 -4.11094 -8.36574 -2.18604 -1.5404 -6.73728 -4.01156 9.84852 2.36352 -1.41623 -3.68005 -3.95422 17.3953 -0.627061 1.13842 1.23715 0.511195 -1.02713 -1.70271 0.744839 -0.857882 0.672545 -2.7611 1.47673 1.49523 -0.19104 
8.9015 -3.86272 -6.58812 -0.550939 -2.83819 -8.63953 -4.13461 8.99482 2.90763 -3.88404 -2.45679 -1.75957 17.2192 -0.672817 1.59465 2.14329 -0.328789 -1.69628 -0.196662 0.568957 -2.35979 0.761903 -2.35944 2.85326 0.53079 -0.194463 
8.00162 -0.807008 -3.8282 -1.83399 -5.97727 -5.8114 -4.38186 4.67821 6.05903 -9.15701 3.7615 -4.08533 16.896 -0.639232 1.67418 2.9937 -1.56793 -1.68524 0.613608 0.845993 -4.1588 1.35706 -1.69151 2.51148 0.793951 -0.151906 
7.30907 0.906557 0.853493 -5.91869 -8.42142 -3.29021 -2.85713 -0.734129 5.25921 -7.32166 5.80839 -3.32357 16.826 -0.355525 1.49844 3.03993 -2.08106 -1.30494 0.391354 1.51784 -4.725 0.992341 -1.03581 2.59817 0.789592 -0.0759821 
7.17906 1.87532 2.88196 -7.34184 -7.17499 -6.34389 -0.420333 -6.08099 7.97305 -8.15495 4.74477 0.797541 16.8324 -0.147478 1.14802 1.86275 -1.51341 -0.657733 -0.479565 1.35943 -3.55007 0.164136 -0.0718675 1.24728 1.52332 0.0287561 
7.53515 2.28832 5.25645 -8.20234 -8.76404 -6.41651 1.47385 -9.25059 6.91233 -9.56412 10.0424 -0.253045 16.8711 -0.0706772 0.86416 0.0967328 -0.233481 -0.190789 -0.645311 0.0405369 -0.99684 -0.0780916 0.0393444 0.530918 1.41093 0.0910818 
7.15118 4.24219 3.28407 -8.25924 -9.09463 -6.64608 0.249794 -8.8139 6.05315 -8.39512 7.88087 1.99601 17.0173 -0.107709 0.383268 -0.701477 0.290596 -0.721198 0.672392 -0.849701 1.33868 -0.775121 0.589521 0.285758 -0.101622 0.109703 
6.96962 4.04392 1.1361 -6.6274 -8.41555 -6.36567 -2.98951 -4.35187 5.8287 -7.00485 6.89492 3.13185 17.189 -0.0361647 -0.280613 -1.35905 0.79254 -0.239153 1.52667 -1.42506 3.21089 -0.542575 0.97691 -1.30898 -1.02882 0.0665979 
6.92329 2.91386 1.43475 -6.67633 -10.9552 -3.00735 -2.43716 -1.83697 4.63925 -6.48698 7.74731 -1.40302 17.222 0.169616 -1.08356 -1.53462 1.07026 0.489012 2.09883 -1.52675 3.86073 -0.340857 0.51386 -2.07307 -1.73187 -0.00691147 
7.46828 1.54942 -0.614116 -5.0311 -9.02951 -0.60254 -4.30798 3.3154 4.9064 -5.63364 3.56433 -3.69761 17.1018 0.437047 -1.3064 -1.89953 0.970918 1.66609 2.02792 -1.68306 3.61307 0.0728448 0.316523 -3.07343 -1.89007 -0.0335857 
7.74994 0.0716254 -3.51393 -3.70608 -6.34259 0.966528 -6.72473 6.65612 4.81001 -6.51142 -0.819158 -3.24863 17.0263 0.732623 -1.17511 -2.68938 1.05103 2.91613 1.14317 -1.99292 2.9964 0.251545 0.610271 -3.02557 -1.67901 -0.00335407 
8.74153 -1.06695 -5.88721 -3.25793 -2.39143 1.787 -9.26102 9.46691 6.10754 -5.41002 -4.18899 -5.39568 17.1189 0.952903 -0.667251 -2.73352 0.285549 3.01123 0.996896 -1.46257 1.10083 -0.15684 1.4296 -0.823921 -2.62138 0.0298895 
9.94978 -1.65351 -9.37558 -2.30775 0.306361 1.51372 -9.92525 10.0693 5.29641 -3.54743 -3.50389 -8.94903 17.1966 1.17098 0.118184 -2.3621 -0.0503214 2.1253 1.04065 -0.2515 -1.34897 -0.902874 2.20586 2.34281 -2.94443 -0.0518141 
11.1329 -0.924268 -11.3509 -4.30252 2.70216 4.10835 -10.0206 7.11298 3.879 0.0323857 0.787096 -13.9543 17.166 0.676845 1.39506 -0.698022 1.65034 0.123549 1.30524 1.82624 -4.0377 -1.8714 2.02771 2.31081 -0.968803 -0.4575 
12.4092 0.591202 -12.5926 -3.43539 1.73711 5.0091 -7.60246 1.08821 1.40992 1.79667 8.40684 -13.6915 16.7437 -0.276528 2.22606 1.26208 4.10355 -1.05532 0.746744 2.41769 -5.95103 -1.8667 1.51037 1.57427 2.01961 -0.664975 
10.8961 4.78601 -7.76882 5.5576 -2.48905 6.56552 -1.29124 -6.23106 -1.30619 2.05648 1.40967 -7.86847 15.0579 -0.842892 1.44235 2.6299 5.25353 -1.58754 0.174553 1.93982 -5.4324 -1.76226 0.539048 0.977607 3.06414 -0.646311 
8.68554 6.62165 -4.85619 13.2799 -2.37465 4.01885 -2.20149 -13.0138 -1.44448 2.99239 4.05617 -1.89389 14.9258 -0.981779 -0.315677 3.12733 4.43213 -0.765895 -0.492945 1.47882 -3.95017 -1.17787 0.298865 -0.128043 2.37844 -0.373245 
8.78022 3.27224 -2.06958 13.6075 -3.17967 5.47624 -3.02195 -12.998 -3.50512 2.12977 7.85046 -4.53236 14.8434 -0.467952 -1.94305 2.19798 1.68569 0.306449 -0.945922 1.2468 -1.9499 -1.02063 0.492306 0.110201 1.18034 0.0195409 
8.55818 -0.230304 0.194441 14.7003 -1.74706 3.08902 0.657017 -15.2792 -3.37998 3.25435 4.54622 -3.46733 14.9847 0.0920253 -1.91892 0.298459 -2.35216 -0.399627 -1.03691 3.05667 1.27992 -0.641107 0.212454 -0.815266 0.601959 0.191129 
8.61998 -1.50326 0.695768 13.2759 -1.2706 2.30083 3.51351 -14.8479 -5.44157 4.38703 1.71565 -1.18007 15.1262 0.936489 -1.26906 -2.15764 -4.76906 -0.58959 -0.103597 3.0266 3.13804 0.224086 -1.2271 0.216604 -0.0443563 0.456149 
9.22578 -0.585184 -4.74657 1.68492 -5.32732 0.422021 9.81412 -5.6893 -3.68179 2.92602 3.04724 -0.560239 15.7401 1.45738 -0.47754 -3.83677 -5.11964 0.0704452 1.03973 1.42731 3.53411 1.33633 -1.92906 1.4482 -1.47054 0.55195 
13.1289 -2.89561 -10.3873 -3.73015 -4.33749 6.29175 7.53253 -2.1027 -2.23379 -3.84156 9.68298 -6.20769 16.7464 1.22819 0.0132984 -3.76276 -3.85474 1.68158 1.21358 -0.90225 2.52025 2.32406 -1.57605 2.2583 -3.63161 0.477693 
13.5906 -1.92183 -13.4479 -2.39486 0.13861 6.29221 5.78406 -3.98122 1.69779 -2.27665 7.80357 -8.30623 16.9343 0.710063 -0.0828222 -2.2664 -0.482974 2.94955 0.32151 -2.54833 0.594669 2.41069 -0.367909 0.845639 -3.77408 0.25642 
12.5785 -0.76845 -13.7674 -3.95795 4.40431 5.43365 1.01729 -3.10068 3.48892 -0.891906 10.629 -15.4651 16.9175 -0.0531782 -0.493564 -0.700755 1.50654 2.23067 -1.82036 -1.48485 0.294024 1.42878 1.43542 -1.09946 -2.01306 0.0571302 
13.0513 -2.06288 -14.3885 -0.61605 5.04954 2.45862 0.33007 -2.21697 5.51028 -0.388349 6.80243 -14.8019 16.9366 -0.384155 -1.65301 1.09526 1.43206 1.14747 -2.61339 -0.490163 1.03596 0.151601 1.02732 -1.51488 -0.562692 0.0310831 
13.1327 -5.29291 -13.4207 2.91316 4.3604 -0.893259 2.83525 -1.51471 3.00385 2.39139 4.68623 -13.0251 17.0309 -0.711755 -1.65313 1.96227 1.54201 0.708857 -2.6195 0.0418078 1.54923 -0.178194 0.718868 -2.73182 1.90546 -0.0304647 
11.3928 -7.92463 -8.1449 1.32986 5.89791 -3.61129 2.42427 0.405578 2.69832 1.21831 3.20053 -12.3397 17.033 -0.97237 0.0472253 1.65639 1.29687 0.703358 -1.58506 -0.465752 1.78846 -0.269164 0.886151 -3.14925 3.28163 -0.26277 
9.84898 -6.10323 -7.07786 2.77916 7.52441 -4.62888 0.179229 3.33422 4.00393 1.89911 -1.22919 -7.1689 16.717 -2.23619 3.33621 1.71872 -0.0246498 1.4877 -1.4187 0.262463 1.31519 0.721823 0.96902 -3.18543 4.64892 -0.426934 
9.83126 -1.42159 -9.27804 5.9353 6.98433 -3.59887 -0.67068 4.30088 3.66442 4.28855 -5.9861 -1.32187 15.7797 -5.32215 5.50902 2.41706 0.368045 1.57347 -1.15032 1.75838 -0.251166 -0.664872 0.287522 -1.8859 3.75805 0.100595 
2.73249 8.1366 -4.26055 0.487188 11.2557 -7.99299 5.69504 3.11359 6.12992 5.70136 -6.6476 4.71056 15.5229 -7.39561 4.66809 2.10554 -1.22608 1.40316 -1.24048 0.909508 -1.71144 -2.66376 -2.16622 -3.63466 -0.288417 0.599808 
-11.6597 12.5006 2.53177 4.31608 11.8996 -7.68084 8.45826 -0.739941 -1.68903 0.754788 -3.51977 0.510838 18.1331 -7.46353 2.55353 0.981168 -2.32578 -0.289005 -0.82552 1.25522 -0.964049 -2.20125 -2.26901 -1.8707 -1.23906 0.906356 
-16.3836 10.2761 -2.45507 -2.54165 12.0825 -8.79028 0.162301 -2.70258 -6.63815 -7.1651 -20.6356 -9.52734 18.5394 -5.4649 0.314031 -1.18457 -2.0668 -1.37944 0.524453 -0.252872 0.292894 -0.995582 -0.241104 -0.535879 -0.01708 0.807903 
-17.9283 10.2763 -5.27495 -4.1792 5.12588 -7.32783 8.37181 2.38872 -0.957772 -0.623268 -8.3456 -0.398215 18.8033 -2.1763 0.123915 -1.88745 -1.76614 -1.61981 1.37087 0.420811 0.967765 1.47507 2.55094 0.776845 3.15613 0.278976 
-21.4577 10.8189 -6.28002 -5.59917 7.74538 -5.54723 4.4739 3.01373 0.786381 5.18487 -6.91408 5.07968 19.2273 -0.763088 0.731976 -0.398485 0.34025 -0.11544 2.78574 0.292398 0.605885 1.12012 3.61568 3.43212 4.49047 0.206033 
-20.0042 12.8488 -4.99301 -2.98588 5.96917 -2.448 8.40651 1.24073 1.97406 7.33451 -6.49632 8.98797 19.184 -0.690145 0.394626 0.144737 -0.0251531 1.61675 3.07567 -2.51529 -0.678 -0.4379 1.8127 1.24521 0.855467 0.166801 
-19.1611 12.6498 -4.58846 -1.43706 11.0837 2.69851 1.60694 0.900842 -2.50347 6.93441 -4.39965 8.2319 19.3792 -0.599076 -0.586323 0.434121 -0.52965 0.535894 1.45973 -1.43021 -0.0708644 -2.14115 -1.17369 0.325044 -1.83021 0.0963341 
-22.5273 11.334 -5.39704 -6.38602 11.5405 3.92764 -2.77116 0.0551654 -1.50234 7.56548 -3.37676 2.30301 19.5613 -1.12599 -1.28269 0.904252 -0.623921 0.403191 -0.0632377 -1.16893 0.9143 -2.11098 -1.86082 1.68166 -1.05246 0.0802853 
-23.1915 8.64466 -3.9074 -6.54735 7.63919 -1.43642 2.91169 3.25219 -8.18117 -0.799073 -6.84865 -0.728903 19.5203 -0.853138 -1.78777 1.18846 -0.749352 -0.272654 -0.277361 1.34229 1.71179 0.0203077 -2.16927 1.16955 0.450505 -0.0270601 
-23.619 8.43788 -0.812283 -3.55033 9.70738 -0.696725 1.90948 4.63655 -5.74199 1.89717 3.13648 8.20609 19.5149 -0.10663 -1.77269 2.05216 0.277284 -0.443205 -0.0372285 1.39852 0.941943 1.1308 -0.505774 0.677384 0.735348 -0.130471 
-22.881 5.159 -0.938526 -6.60166 10.637 3.62388 5.97809 7.16909 -0.282109 -1.0778 -1.80853 7.53288 19.2671 0.442764 -1.5274 1.94355 0.179029 -0.497616 -0.256531 -0.36438 0.181982 1.96986 0.674066 0.956776 0.149365 -0.28791 
-23.2157 4.2134 3.37934 -4.97244 7.82557 1.21135 2.68823 2.80643 0.202102 5.17598 -2.50989 1.84886 19.0356 1.38702 -0.660748 2.02965 0.294757 -0.354854 -0.495497 -1.05206 -1.04641 1.49013 0.721448 -0.0975106 -2.41187 -0.382833 
-21.1793 3.11992 3.71454 -4.94115 6.09201 -3.67311 0.700417 5.07716 -1.30394 0.931853 0.758416 3.19654 18.3204 3.56326 1.04037 3.06614 1.1251 -0.708557 -1.13336 -1.92475 -1.56184 -2.05977 -0.464011 1.15101 -1.10497 -0.406103 
-17.5347 6.15368 7.00944 -2.90681 10.2056 0.474285 -0.711966 0.450443 2.21958 4.49959 1.36545 -1.68507 18.074 5.22739 1.31407 3.39823 1.47854 -2.74296 -0.588914 -1.57916 -0.894372 -3.17002 -3.02029 1.84519 1.02036 -0.403554 
-7.9052 9.39072 12.5771 -2.00899 5.90418 -1.67439 -1.94557 0.537882 -11.5897 -3.05966 2.00884 3.77498 17.7174 5.43305 0.570772 3.79146 1.37472 -3.82228 -0.686733 -1.724 -1.22615 -3.22624 -2.40686 1.25386 1.85853 -0.391934 
-3.7158 7.64837 15.9392 0.954188 -5.79533 -2.73258 -3.8846 0.604212 -10.5051 -7.92971 6.09084 6.66145 17.3193 4.53193 -0.723004 3.1384 0.663079 -4.34746 -2.67776 -0.37929 -0.898968 -1.71436 -2.59769 0.939562 1.74619 -0.499052 
-0.923512 5.22643 18.2069 0.00194883 -5.01895 -5.50334 -6.33328 -1.13045 -11.0728 -4.88777 4.66503 8.31594 16.7381 2.77985 -1.05956 1.38234 0.723723 -3.20435 -1.54801 -0.191003 -0.774219 0.680724 -0.35675 0.796213 -0.587633 -0.545665 
1.63407 4.6208 19.8865 -0.596882 -6.07014 -11 -0.414557 -3.21023 -6.61068 -7.57479 4.73517 4.7754 16.0684 1.72221 -0.378441 1.0157 0.547499 -2.34487 0.24811 0.241529 -0.587449 0.620402 0.053472 -0.272576 -1.22189 -0.418856 
3.3191 5.60671 17.5151 2.38516 -9.98018 -5.28072 -4.6356 -1.42599 -10.1333 -5.02087 6.66774 1.77984 15.6145 0.701761 -0.322298 1.48284 0.632671 -2.65176 1.55749 0.585941 0.262127 -0.496618 -0.553513 0.0631888 -1.0684 -0.124208 
2.77397 5.56603 21.3636 2.50008 -15.0391 -1.60334 -3.5258 -2.18526 -7.87282 -7.59581 3.7266 3.82007 15.7868 0.134718 -0.903774 1.59691 -0.269221 -0.890546 2.72842 -0.904261 0.505989 -2.04353 0.860109 -0.613636 -0.659018 0.10509 
2.01534 3.14233 24.8826 1.61682 -13.7933 -2.41425 -1.84796 -0.332299 -12.9248 -7.64483 5.48525 3.45163 16.2578 -0.098293 -1.40044 1.37179 -0.795993 0.909214 1.84968 -0.466955 -0.154013 -1.95571 0.839896 -0.929791 -0.849197 0.163613 
2.95954 1.33412 24.1873 -1.55882 -8.61631 1.20881 -6.32969 -1.22713 -15.4326 -1.96227 2.25823 0.644417 16.2722 -0.111534 -1.0512 -0.28093 0.0635336 1.99131 0.962318 -0.602908 -0.70084 -1.22618 1.2289 -1.07188 -1.33409 0.0163582 
2.73485 0.720469 22.9622 0.434644 -8.64549 2.56159 -5.56843 -2.67512 -16.132 -3.63816 2.75298 -0.878318 16.1899 -0.0352879 -0.520956 -0.647493 0.117484 1.48988 0.865471 -0.0336871 -1.38678 -0.364079 1.25335 -0.95758 -1.14205 -0.120132 
1.85655 1.52096 20.9191 3.40883 -7.65641 0.720328 -4.6801 -4.51805 -12.4001 -3.45463 -0.266649 -0.685424 15.9026 -0.391778 -0.110541 -0.190788 0.510116 -0.221944 0.765265 0.52464 -1.49397 0.643642 0.577695 -0.456242 -0.471778 -0.117504 
2.3904 0.444132 23.2793 -0.279581 -6.82383 2.15734 -2.84119 -5.62077 -16.2614 -0.631903 1.95979 -1.59368 15.842 -0.870105 0.271744 0.296841 0.00557814 -0.0310664 0.632724 0.147104 -1.11683 0.886939 0.70199 -0.752202 -0.190254 -0.157687 
1.17287 0.91959 23.0749 1.34887 -10.6369 5.23725 -5.07011 -7.22418 -12.1497 -0.576917 0.373611 -1.35679 15.8586 -0.662921 0.392581 0.048031 -0.134665 0.528398 0.566481 -0.35423 -1.04245 -0.0432831 0.996286 -0.241905 -0.239884 -0.368642 
-1.27384 2.37987 23.3685 1.49251 -7.31059 3.46674 -4.63791 -6.9062 -11.8225 -1.56706 -1.32817 -1.4939 15.4234 -0.840205 0.142407 -0.666475 0.944472 0.826132 0.646687 0.373352 -0.726052 0.503715 1.2675 0.298244 -0.11362 -0.340107 
0.374063 2.516 21.1146 1.84946 -4.77104 2.89803 -5.55289 -9.08759 -14.836 1.99437 0.167807 -1.93473 14.2687 -0.281653 -0.412133 -3.07102 1.19868 2.10558 -0.973678 1.90391 -0.290897 -0.0662858 0.461219 -0.0975147 -0.350395 -0.719559 
-1.41122 0.357961 20.927 4.19248 -5.62609 6.56039 -0.733039 -8.31932 -12.3997 4.41997 3.55391 -1.87281 14.9364 -0.308594 -1.12833 -2.13389 0.42627 -0.120427 -0.834002 1.98512 0.538047 0.300056 -0.506083 -0.93394 0.126449 -0.326921 
-0.166699 -0.130118 8.94056 5.99229 -0.951204 -1.17796 2.49701 -7.97211 -12.1925 -1.26434 -2.555 -2.91931 12.5043 -0.495684 -0.596474 -1.68958 0.677102 0.360596 0.0814371 2.33932 0.755609 0.825476 -1.35983 -1.64763 0.799337 -0.285361 
-2.54643 -1.93872 18.7861 1.55245 -9.82264 1.33473 1.26276 -4.77371 -11.644 -2.46812 -4.63646 -0.369369 14.671 -0.170081 0.693777 -2.59477 0.702869 2.29948 -0.193184 1.46937 0.475629 1.51519 -1.20258 -1.39413 0.877947 -0.579488 
-1.53675 0.681969 13.7372 6.55499 -0.86978 5.91805 5.14583 -7.08236 -11.0865 -1.36072 -3.97516 1.31023 12.9746 -0.570175 -0.0452836 -4.04777 -0.420289 2.51013 1.41901 1.7322 1.72344 3.37363 0.640221 1.1607 1.60172 -0.522533 
-1.5766 3.4208 5.55487 7.42548 5.8306 2.04647 5.28941 -6.38605 -5.37673 -1.54475 -2.70664 0.402151 11.8039 -0.0214897 -0.204 -5.83961 0.303111 2.88388 -0.339288 0.562151 1.77645 2.9863 0.167399 0.316194 0.238252 -0.845105 
-3.50249 -3.0363 -4.68264 0.95433 3.77284 5.5612 9.14467 1.45125 1.54198 1.47508 2.28361 4.70351 11.3253 0.0243084 -0.196516 -2.39725 -0.67391 0.220893 -2.01537 -1.36298 0.344725 1.0508 0.318187 -1.12239 -1.18735 -0.30335 
-1.67101 -1.09959 -1.20201 5.86833 2.27542 -0.183289 2.0741 -0.158253 -3.02671 -3.04903 -6.18488 -0.874749 11.2701 -0.275932 -0.52512 -0.243044 -0.749579 -1.00506 -1.24149 -1.56972 -0.25446 0.0336159 -0.148484 -1.58751 -1.26486 -0.0330836 
-1.368 1.95959 5.12935 3.96401 2.01227 -3.04395 -0.0613999 -8.47263 -7.00747 0.982356 -7.84801 -3.98807 11.7247 -0.546872 -0.383589 -0.272798 -0.814644 -0.535347 -0.875983 -0.979323 -0.358387 -0.170224 -0.278884 -0.39736 0.505247 0.0172001 
-4.0235 -1.70274 -0.56635 2.17275 1.68556 0.141587 2.04383 -2.69641 -0.933924 -2.0408 -5.57837 -1.57638 11.4387 -1.30913 -1.61518 -2.65214 -1.64462 -0.118587 1.22475 0.669377 1.48391 2.29188 1.06055 2.33935 2.46889 -0.0176888 
-5.0606 -4.65266 -6.36446 -1.2711 1.39104 1.01885 4.26319 0.928397 -0.355536 -0.423451 -0.00643992 7.58057 11.327 -1.4809 -2.03495 -3.06911 -1.51933 -0.190485 1.3537 1.5469 3.31853 3.01229 0.143018 2.51984 1.85853 -0.0563095 
-6.37037 -5.86938 -8.7158 0.262789 1.99311 3.90905 3.25869 2.5608 5.1067 2.95664 1.59107 5.68537 11.3806 -0.983909 -1.06853 -1.64254 -1.46821 0.447827 0.660542 0.563552 0.943975 1.65754 1.11644 2.01858 1.00484 0.00437345 
-7.59905 -6.13185 -6.14146 -2.67768 0.906074 1.8408 7.06565 5.4914 5.03369 -0.801278 1.16645 1.67373 11.4722 -0.624121 -0.328467 -0.367785 -1.03178 -0.55398 -1.64414 -0.602358 -0.396412 0.659613 0.524806 0.888291 -0.484697 -0.0115608 
-7.67382 -6.30579 -8.89053 -4.465 4.16718 3.03332 3.46036 -0.258033 4.65918 3.7303 3.92808 6.40125 11.388 -0.0454372 0.274038 0.031512 -1.3621 -1.31877 -2.6368 -0.240042 0.555305 -0.146235 0.389677 -0.154021 0.277747 -0.0200271 
-7.52949 -6.07679 -8.11602 -4.06608 -2.4659 -6.76399 1.15056 0.355756 3.16629 1.81375 3.26651 4.79914 11.2655 0.186822 0.704235 0.459859 0.041326 -0.63867 -1.20936 -0.149346 0.874979 1.40946 0.607908 -0.866206 -0.1544 -0.0416039 
-6.63234 -4.52672 -7.57096 -5.85349 -2.91475 -4.97257 5.01602 7.90515 5.30923 3.59751 -0.229067 5.5114 11.3838 0.216532 0.081074 1.03302 0.600526 0.523231 0.426179 0.894059 1.28664 1.2418 0.770305 -0.85773 -0.436977 -0.0212218 
-7.18568 -3.50021 -4.50195 -1.7768 1.25369 -0.203046 5.54109 5.7847 11.756 2.30466 -1.086 1.34666 11.2663 0.501603 -0.209604 0.361113 0.639119 1.82849 1.66069 0.282682 -1.02105 0.264625 0.33785 -1.51501 -0.89319 -0.0722867 
-6.76306 -7.18871 -5.53249 -2.60701 4.92354 1.88374 5.73539 3.46071 6.57332 7.33637 1.81569 5.94261 11.2814 0.327324 -0.892605 0.209476 0.605933 1.3785 0.324753 -0.0925705 -1.48551 -0.418863 -0.628492 -0.777212 -0.769225 -0.0655216 
-4.95611 -5.79382 -7.32969 -2.49373 2.75738 -1.88871 2.20428 -2.5273 3.85737 1.63357 -5.33092 0.117582 10.9552 0.266788 -0.573185 -0.466899 -0.845567 -0.150649 0.89864 -0.045702 -1.49503 -2.48646 -1.41463 -0.699249 0.212133 -0.013441 
-6.1105 -7.84294 -5.10971 -2.46536 3.2259 -2.50597 6.22157 4.63362 7.16421 0.790596 -1.99267 2.27981 11.2117 -0.10273 0.470624 0.397247 0.256675 -1.57513 1.04868 0.51396 -0.555966 -1.76702 -2.21113 -0.314341 0.7922 0.0743824 
-6.17802 -6.03902 -7.04784 -6.07546 1.34927 6.48501 5.06949 -2.27689 -0.971768 -1.49559 -2.67807 4.23872 11.2339 -0.396821 0.116727 0.34268 0.845775 -0.561063 1.74247 1.06632 0.8149 -0.936854 -2.18451 0.908337 1.82015 0.131478 
-6.66576 -4.71299 -3.68718 0.467231 -2.24805 2.94031 6.87258 0.555675 0.152777 -2.15469 -1.08243 7.84304 11.514 -0.158875 0.139943 -0.17154 1.18127 0.0266054 1.08284 0.411856 0.376817 -0.53202 -2.35347 0.293037 1.05118 0.0726974 
-6.66259 -6.77516 -6.32755 0.26885 2.68904 4.1005 7.2104 3.58617 2.67881 -7.81635 -1.24435 6.43673 11.4615 -0.0965975 -0.353445 -0.119981 1.24902 0.761663 -0.360884 0.461963 1.47566 0.98272 -1.83032 0.270554 0.298969 0.0402521 
