-5.06053 -4.65325 -7.8324 1.24466 3.26766 -0.00938487 5.97926 2.30139 10.3912 -2.28597 -4.1893 5.07869 11.2884 0.0282846 -0.276917 -0.87598 -1.24135 -1.21254 -0.0804326 0.0302919 1.31497 -0.360079 0.8018 1.68066 -0.0244255 -0.00313826 
-5.35867 -7.27982 -10.9171 -3.79826 0.0138998 0.934027 7.32232 4.49879 6.04046 0.968235 2.37866 3.47758 11.2225 0.0477949 -0.138447 -0.664009 -1.35615 -1.31135 0.949099 1.11948 2.43759 0.766081 0.74583 2.22475 0.782234 -0.00735311 
-4.77004 -4.72454 -10.67 -2.44063 -1.16815 -0.883254 5.45919 7.77753 10.7661 0.0959282 0.930019 5.75712 11.3056 -0.115311 -0.286747 0.0424196 -0.69454 -0.837788 -0.19258 0.546061 1.28341 -0.00159813 0.133084 2.08923 1.34086 0.037816 
-4.9668 -5.30983 -9.73367 -3.69343 -1.07115 5.17304 11.8367 11.7513 14.0341 0.252229 4.37479 8.65065 11.243 -0.238981 -0.0791733 0.238967 0.585493 -0.631429 -1.25935 -0.759027 -0.591065 0.269265 -0.0722103 0.289894 -0.0713983 0.111561 
-5.83302 -7.07197 -8.21202 -2.28046 -0.378751 -3.09179 6.45238 5.0922 6.38637 -1.26255 5.25878 9.19646 11.4672 -0.397467 -0.65277 0.0354596 0.340781 -0.641729 -1.10905 -1.11841 -1.7912 -0.802358 0.887219 -0.0637362 -0.882688 0.0877629 
-6.02209 -6.50197 -10.9512 -0.950884 -3.53794 -4.25847 3.03059 2.88613 9.57668 1.28642 1.66375 1.40092 11.6995 -0.252512 0.0888759 0.322089 1.30879 0.45948 -0.185865 -1.9032 -3.81816 -2.42539 0.178214 -1.53575 -1.62547 0.0794868 
-6.22973 -7.39232 -9.88387 -2.108 -3.1434 -1.71273 4.27021 3.25408 8.98307 4.01493 1.96686 4.96854 11.5162 0.688917 1.45458 1.72575 1.44909 1.17047 2.89786 0.609563 -1.16854 -0.112563 0.714825 -1.2932 -0.769461 0.0698707 
-6.031 -4.70528 -7.2873 2.76429 2.60857 3.55418 3.41179 -6.42044 0.608823 -1.49544 -1.65798 2.63724 11.616 1.68378 3.43367 3.92932 1.84391 2.95537 4.05952 1.72749 0.168007 -0.975294 -0.276939 -1.8563 -0.654163 0.258087 
-2.38397 -0.697415 -1.41523 3.10741 2.40032 7.49115 9.30959 3.9028 10.3075 3.70251 0.453641 4.73099 11.8584 2.30437 4.68237 5.58204 1.77168 1.17113 2.12058 -0.599123 -0.19355 -0.660463 -0.884518 -1.62096 -0.35036 0.560746 
0.47392 7.31894 4.46105 5.66096 8.46707 11.4372 9.14834 3.4018 4.038 0.0579361 -6.86115 -1.75112 12.8189 2.37338 4.3365 5.56952 0.468688 -1.23241 0.0753123 -2.89887 0.543692 -0.630455 0.0609238 -1.19048 -0.264835 0.683426 
2.03963 10.0074 12.1521 5.30208 -0.216988 4.94865 -1.59368 -2.62479 3.96617 -1.18435 -3.53634 5.41093 13.7185 1.45009 2.51159 4.14385 -0.552185 -1.85978 -0.651612 -4.22076 -0.772305 -2.5251 0.160596 -0.338357 -1.89322 0.692167 
3.62409 11.6248 13.7766 4.0104 -2.2448 5.20199 -5.63091 -0.438188 0.627204 1.25261 -5.61539 0.973101 14.1031 -0.0899837 0.226694 2.25529 -0.900065 -1.52388 -0.817288 -2.91938 0.416383 -0.994085 1.21233 0.769321 -2.11332 0.642509 
3.2914 9.7076 14.6462 1.17177 -1.54264 7.35069 -4.4046 1.96127 -0.612594 3.90815 -1.86102 -6.09724 14.6771 -1.59128 -0.133807 0.385758 -1.01908 1.93482 0.178217 -0.0641452 1.28145 -0.892328 0.563257 0.0187624 -1.96597 0.603404 
-0.601882 8.60231 14.4905 3.22579 1.5105 6.14974 -4.04313 3.19068 1.35696 3.57332 -3.8522 -6.56364 15.5521 -2.04456 0.0259933 -1.41488 -0.743115 3.96083 -0.572529 2.01631 0.557627 -0.518739 0.187671 0.475888 0.343582 0.233149 
-3.8038 10.8496 13.724 0.598968 7.57946 5.36587 -2.70829 1.968 -0.860351 0.471581 -4.32412 -0.65053 16.011 -0.940336 -0.882208 -3.25955 1.11527 3.12155 -1.11242 3.96837 0.715612 1.01254 -0.33283 -0.250087 2.51291 -0.719775 
-3.0511 11.1838 7.16332 0.581222 12.9983 3.33176 3.60251 2.34658 -1.84261 3.90925 -2.00441 -0.0323434 14.6019 -0.154415 -2.838 -5.00272 0.942429 0.760348 -0.560416 4.46006 1.08884 2.23158 -0.0873787 -0.295401 1.62817 -1.25209 
-0.18567 4.00583 2.01207 8.07038 8.3212 3.1976 11.6144 5.96139 6.0499 2.07604 -4.03536 3.20165 11.5533 -0.10669 -4.32505 -5.86571 0.289418 -2.18806 -0.974719 1.97208 1.21198 3.49051 0.81986 1.39702 1.40169 -1.22239 
-3.18302 -2.16582 -4.66715 4.20223 4.94137 4.43179 11.0958 6.63817 9.05973 2.3342 -5.47359 -0.348889 11.5205 -0.686159 -4.07397 -4.08288 -0.91561 -3.65884 -0.742466 0.941648 0.392027 2.73525 -0.405582 1.9381 1.60347 -0.622803 
-4.27129 -4.10083 -9.68931 0.235554 0.667624 -0.0577443 3.40546 5.88211 11.141 5.35841 4.39558 6.51619 11.4397 -0.964809 -2.10733 -2.17728 -2.05957 -1.41502 -0.97719 -0.726089 -0.655867 0.61105 -0.397504 1.41281 0.0785467 -0.0422322 
-4.43909 -5.13276 -7.4004 -0.0794134 -1.46915 1.24711 12.4152 4.34635 9.28808 0.240156 3.47063 6.32773 11.5447 -0.374197 -0.738924 -0.596687 -0.661313 0.312622 0.00720296 0.103971 -0.992864 -0.146799 -0.128617 0.663525 0.640039 -0.0652897 
-4.38168 -5.04737 -7.50772 -0.0866632 4.45135 -0.0960071 7.32429 3.82796 8.99097 1.13554 -1.44343 0.256074 11.3301 0.0236158 -0.134137 0.175477 0.0301255 0.696266 0.579454 -0.0317536 -0.836457 -0.41245 -0.87393 -0.843816 -0.367017 -0.0335644 
-4.99881 -5.38717 -8.74138 1.05678 4.61262 4.48694 9.65625 2.70092 9.40076 3.80255 0.763542 5.98136 11.2488 -2.56001 -0.0979919 2.00639 -2.12093 1.06856 0.736188 -2.44008 -0.11266 -0.939415 -0.0747726 -0.576453 1.12065 1.28768 
-3.87335 -4.64431 -8.14143 -0.181915 1.10807 1.21961 4.62619 2.52254 9.02243 -0.792442 1.53004 4.85429 11.4198 -3.027 0.173501 2.24881 -3.15932 1.06744 0.27286 -2.75413 -0.405427 -2.36944 -2.25118 -1.83185 1.30173 2.03228 
-17.4933 -5.82425 2.94841 -10.6364 5.54531 4.27024 1.56388 4.43577 4.57528 0.830282 -0.898372 9.63187 17.9382 -2.38727 1.27306 1.01664 -1.99192 1.40808 -1.76602 -3.52012 -0.420349 -1.9751 -2.45018 -2.18001 0.601529 1.87293 
-13.2694 -3.96132 -2.10857 -10.0366 9.32218 1.37664 -2.40016 0.933404 -0.443468 -8.63423 -9.77174 4.93945 18.1468 -1.19437 2.28806 -0.0984211 0.45619 1.00824 -1.56093 -1.60069 -0.981171 -1.91659 -1.83094 -1.25361 -0.29124 1.1037 
-12.2371 0.636652 -6.67463 -3.97546 7.54597 -4.42166 -4.43116 1.39374 4.25821 -4.52745 -4.48562 8.94643 17.25 0.977609 3.06515 0.183359 3.04743 -0.946228 -0.674399 0.623109 -1.53145 -0.29511 -1.71358 1.39037 0.200061 -0.177947 
-12.4733 3.56553 -3.82202 -1.23146 5.14894 -2.23909 -0.379749 -0.862306 -0.401983 -7.26826 -2.94438 3.74081 17.2824 1.37492 3.39834 3.7986 2.6216 -1.78376 1.20506 0.576343 -2.29047 0.56517 0.277216 1.88577 -0.446869 -0.183047 
-13.0033 5.73809 4.72193 0.198109 2.9008 2.70611 3.66921 -2.32365 3.07899 -8.42061 2.63979 11.2315 17.4806 2.48013 2.10272 5.50183 1.65059 -1.87271 1.75382 -0.513524 -1.69548 -1.40999 -0.481845 0.831673 -3.09861 -0.0441755 
-6.01172 10.4797 11.1861 0.984578 2.72597 3.83805 -3.56864 -8.66023 2.97199 -5.30157 -3.90561 1.56257 17.1162 2.98752 0.708703 5.00657 1.24777 -2.44904 0.786289 -2.55566 -0.675484 -2.95355 0.443657 0.537896 -3.52242 0.034268 
-3.06725 7.69319 13.3304 3.16948 -0.606107 1.30889 -5.40434 -3.18471 -4.47873 -7.92002 0.153362 -5.45752 17.1122 2.82815 -0.43954 2.93055 0.621606 -3.18995 -0.036773 -2.63366 -0.249851 -5.28806 0.830054 0.289279 -3.6276 0.0335339 
-2.50376 6.13149 16.9066 3.52172 -5.34281 2.39096 -8.62125 -3.80919 -11.3909 -5.30028 0.988314 -5.52676 17.638 1.88082 -1.18644 1.17438 0.786962 -3.87081 -0.117404 -1.10115 -0.0370286 -4.35994 0.797088 0.668594 -0.453765 -0.0373802 
-0.616579 5.71448 16.5145 2.03757 -9.01454 3.24579 -6.97279 -5.99842 -16.1799 -4.27098 1.63922 -3.36181 17.3874 1.18409 -0.350291 -0.0264168 -0.00692133 -2.53509 -1.58831 1.52873 -2.9249 -1.54943 0.811651 -0.324371 1.74589 -0.0556892 
2.16705 5.53683 15.466 5.48534 -12.4239 2.28258 -8.29016 -7.43852 -12.9772 -3.14065 -1.30557 -1.7541 16.7917 0.280523 -0.358154 -0.756341 -0.14891 -0.869498 -4.01486 3.42953 -3.31004 0.616961 0.120699 -0.13226 1.79152 0.132708 
0.517792 6.23906 13.9186 2.15306 -9.74105 -6.57849 2.07378 -15.9946 -11.4327 -4.94158 -0.321551 1.38558 17.2569 0.551546 -1.8885 -0.266935 0.00316414 -1.05634 -3.48365 1.08989 0.401133 0.142416 -0.120493 1.35411 -0.117662 0.422183 
-1.66833 4.07843 14.4228 2.71942 -9.32705 -12.7712 4.00312 -15.3613 -10.6796 -4.36149 1.3074 1.05715 18.3668 1.16977 -2.83322 -1.19768 -0.100259 -1.15611 -2.552 -0.950776 3.81172 -1.22436 0.212899 2.1059 -1.41903 0.503829 
4.05884 -2.99882 15.7014 3.43635 -15.8447 -6.64558 -7.66999 -0.0313548 -16.6165 -4.26303 7.10329 -5.35575 18.7108 2.34743 -2.47417 -3.07042 0.590491 -0.768805 -0.377636 -4.03991 6.47195 -1.04667 1.23746 0.278964 -1.85255 0.136817 
6.24539 -4.01033 8.58626 4.34241 -15.1526 -10.4439 -8.17215 3.63847 -16.5071 -2.41543 5.51153 -5.47858 18.5839 2.46187 -0.69062 -5.17741 0.289076 1.26644 0.627309 -3.44178 3.57076 1.33851 2.18211 -2.03037 -1.18192 -0.251151 
8.29808 -2.08741 1.4848 4.29402 -10.6723 -9.63033 -12.0381 6.8653 -13.7523 0.272692 -1.02879 -4.60928 17.8324 1.77235 1.00208 -5.75548 -1.36967 4.13221 1.24734 -2.359 -0.75081 3.08952 3.6371 -2.98201 -0.84304 -0.359072 
8.52138 0.169621 -4.35594 3.73597 -5.58104 -8.14228 -11.0217 -0.955855 -5.41918 4.28121 -4.77842 -5.22571 17.5502 1.62412 1.30169 -3.99328 -2.68202 3.92188 3.5326 -1.91385 -2.16067 2.30551 3.51046 -0.411692 -0.795814 -0.248012 
11.7826 -0.0783824 -6.60491 -3.10879 0.0305767 -1.55968 -18.0402 -1.48824 -6.71289 10.5741 -2.66177 -9.69739 17.4323 1.36684 1.10682 -2.20909 -3.54117 1.95188 4.34582 -0.34412 -2.90723 0.732812 1.42118 2.57578 0.228765 -0.0195007 
12.6237 1.49359 -7.33527 -5.36629 -0.894642 3.18378 -14.7404 -2.9881 -8.49921 9.98613 4.26956 -6.9136 17.5439 1.20958 0.888408 -0.598379 -3.55879 0.129764 3.66677 0.712372 -1.23 -0.80571 -0.696389 3.63283 1.3032 0.0982937 
13.0811 2.7847 -8.07099 -8.86067 -3.25611 6.43575 -11.8994 -6.65474 -8.54827 4.52615 7.3261 -2.62151 17.7381 0.560131 0.994525 0.297512 -2.68384 -0.80012 1.12317 2.57771 -0.970956 -0.098988 -2.23512 2.34175 1.88163 0.156934 
13.92 3.18012 -6.61479 -11.1821 -3.28888 6.19386 -10.5302 -4.52262 -8.53004 3.82326 8.3918 -2.24765 17.8888 0.593522 0.549073 0.582336 -2.10036 -0.261866 -0.502025 2.10588 -0.623524 0.298119 -1.84621 0.749279 0.918725 0.139173 
13.9351 4.05098 -5.47758 -13.6201 -2.77291 2.55114 -7.25672 -5.57576 -7.19242 2.48 6.98585 -2.62221 18.0445 0.641609 0.00065515 0.693425 -0.745152 0.149348 -1.17676 1.3868 -0.248446 -0.0461944 -0.604686 1.02452 -0.189966 0.088529 
15.1643 3.60582 -5.72029 -13.4884 -2.44557 2.61596 -6.53232 -6.6452 -7.68655 1.77816 8.18608 -2.31962 18.0866 0.605598 -0.727336 0.305378 0.388892 0.680865 -0.775697 0.607162 -0.949228 -0.167861 0.162007 1.54625 -0.0439836 0.0359692 
15.667 2.57513 -5.05112 -11.4333 -2.93102 2.34089 -6.96433 -6.83568 -9.20099 2.52528 12.5516 -3.53536 18.0818 0.439893 -1.55542 0.0433216 1.2761 1.31233 0.0134354 -0.821186 -0.586959 -0.835001 1.17708 2.41128 -0.677272 -0.0625805 
16.0821 0.281365 -5.30113 -10.331 0.194504 2.4205 -7.64063 -8.6388 -8.36505 4.61066 13.3402 -2.011 18.05 -0.368625 -2.0506 0.808625 1.34038 2.33809 -0.812656 -1.62965 0.870171 0.166271 1.87925 0.773807 -1.72715 -0.183967 
15.6757 -2.06389 -5.47056 -8.81831 2.46871 2.71605 -10.8085 -7.51375 -11.0282 6.94914 16.4652 -6.16288 17.7499 -1.27044 -2.07951 1.70411 1.84116 2.49673 -2.28982 -1.85718 2.62346 1.83486 1.23619 -1.14247 -2.46644 -0.200753 
13.3169 -4.32766 -1.46745 -8.09395 6.54501 -1.63489 -12.7585 -1.95531 -5.9416 8.9625 10.0983 -9.64162 17.3327 -1.75591 -1.70325 2.83062 3.00439 1.18877 -4.2239 -1.05828 4.2805 1.76205 0.252796 -2.46061 -1.84428 -0.20095 
10.6974 -5.5179 1.55261 -3.346 6.37736 -7.08049 -13.6913 2.93987 -1.23839 6.53031 8.46014 -12.0522 17.4367 -2.12726 -0.747469 3.86485 3.56962 -1.32148 -3.98077 0.628684 4.01425 0.144055 -0.462836 -2.98361 0.192468 -0.127687 
9.79168 -6.50789 5.34036 1.95478 4.18404 -13.8007 -11.4907 7.53689 -4.44967 6.08405 5.03964 -8.28775 17.2018 -1.97137 0.4832 4.1843 2.81078 -3.39498 -1.58974 2.63253 1.86073 -3.27934 -0.705966 -1.54163 1.60318 -0.102099 
6.80201 -4.71112 10.4498 4.00542 -2.9582 -11.1049 -8.29898 7.81139 -11.0539 6.07419 4.07649 -5.87748 17.1769 -1.74771 1.59201 3.69017 1.66914 -3.55303 1.07909 3.45606 -0.812665 -4.63424 0.0695669 -0.172704 1.58645 -0.286524 
5.40771 -2.31505 15.0055 2.28424 -5.76209 -7.57139 -2.29196 4.9126 -17.4306 5.66074 4.58196 -4.71308 16.9521 -1.63646 2.70486 2.33048 0.683817 -2.22874 3.44135 2.65924 -3.44358 -2.61216 -0.212328 -0.0925997 1.08339 -0.61889 
4.15083 0.345739 15.1709 4.83495 -6.41473 -4.79971 -1.01031 0.188685 -17.9192 7.08981 7.82547 -5.90732 16.129 -0.949252 2.88109 0.410418 -0.535689 0.784036 3.07209 1.55424 -4.07029 1.39317 -1.36044 -2.66241 1.45107 -0.960615 
2.93498 4.48796 14.6322 4.9591 -5.23138 0.253464 -1.83879 -5.86967 -14.0778 4.5146 2.70216 -2.85586 14.6314 -0.83358 2.09381 -1.00319 0.248698 0.811918 2.49629 0.860211 -1.85782 3.99436 -3.20563 -4.77947 0.132917 -1.05185 
3.29211 6.29283 12.6885 -0.0104537 0.696627 0.343117 -0.754353 -7.14892 -5.76437 -0.154938 -8.29566 0.449258 13.5342 -0.402691 1.40661 -1.54875 0.56246 0.719013 1.84723 0.0281695 -0.971476 4.93648 -4.64649 -3.80762 0.299503 -0.822091 
1.66918 5.18045 11.2307 5.95043 -5.25817 2.33864 1.88111 -0.707698 -3.53618 -6.74505 -11.2548 -7.22678 12.9903 -0.151536 0.412018 -2.32398 2.0538 2.5705 -0.462772 -0.508479 -0.416201 2.80282 -3.47645 -1.32187 -0.0481218 -0.575238 
2.77028 7.03256 9.12793 7.15158 -2.80627 3.39388 -2.72941 -7.24968 1.49241 -10.5128 -4.23413 -2.22434 12.8391 -0.279211 -0.0255959 -1.239 2.28221 2.34116 -0.866456 -1.23145 -0.987076 1.33754 -1.29074 1.38421 0.0405142 -0.324063 
2.43822 6.17818 4.79257 11.6471 9.37254 -3.58577 -3.39365 -7.90029 -3.69209 -7.68871 -5.93795 -1.75967 12.1027 -0.308718 -0.357337 -0.776788 0.0994185 1.85307 -1.54182 -1.01592 -1.25855 -0.471437 -0.262052 0.62236 0.22098 -0.157713 
1.51154 5.66598 9.71259 8.55226 5.08706 -1.02696 -4.27421 -8.48801 1.00131 -6.13682 -4.03308 -2.08173 12.3576 -0.627702 -1.28693 -1.78975 -0.742254 -0.802654 -2.09684 0.127321 -1.2298 -1.0961 -0.0425042 -1.35641 -0.741372 -0.202708 
0.75496 4.07705 7.05442 5.74718 0.0605116 -3.16007 -2.42608 -6.38127 -5.64781 -10.2433 -8.24357 -6.19319 12.4424 -0.928945 -1.97113 -2.95896 -2.03404 -2.74025 -1.38947 1.2632 0.586548 -0.289645 0.148968 -1.32984 -1.22117 -0.257358 
0.4734 1.64847 -0.951751 6.39027 -2.16353 -7.30316 -2.57659 -14.1582 -3.01024 -9.44805 -9.86337 -3.71444 11.6557 -1.26449 -2.35677 -4.77684 -2.32517 -1.18702 -0.528625 3.08358 2.60928 2.01358 1.33853 -1.09524 0.0458046 -0.339151 
-1.68744 -1.66869 -4.67006 2.55787 -0.703406 -7.39504 2.07355 -2.13246 -3.13454 -5.28825 -9.67202 -7.04918 11.1669 -1.43276 -2.31559 -3.61362 -2.0463 0.0678865 1.12389 2.81037 2.98574 3.5275 2.66293 1.05951 2.20092 -0.217943 
-3.58972 -3.24502 -8.30939 -1.47893 -0.466058 -1.55259 8.89386 2.434 9.81259 -1.9217 -8.79507 -1.42471 11.2996 -1.34662 -1.37338 -1.45675 -1.57568 1.16795 3.03214 2.60507 3.65377 2.66134 3.28758 2.93376 2.99209 -0.0460237 
-4.37728 -5.05414 -7.33487 -0.549721 -0.448791 -0.415911 5.89054 0.251312 5.57829 -0.691861 -3.48015 3.66654 11.5307 -0.402606 0.124109 -0.169926 -0.070785 0.694296 2.35532 0.329424 0.692401 1.54178 1.34428 2.97646 3.14411 0.00670776 
-4.9148 -3.52568 -6.9031 0.0656738 3.5489 4.36799 8.54028 2.91878 5.94006 4.69167 1.70948 5.88817 11.2437 -0.0703887 0.22517 0.155505 0.387508 0.615374 0.618262 -0.200352 0.730948 -0.127901 -0.110212 1.64419 1.0225 -0.0176273 
-3.03793 -0.90781 -6.22283 1.43165 0.760594 1.42125 3.89746 1.08716 6.51063 -1.87352 -0.0419785 5.01494 11.2284 0.20179 0.118107 -0.513293 -0.0665651 0.474048 -0.249467 0.0989504 1.15698 1.52557 -0.403605 -0.494008 -0.710006 -0.017343 
-4.61134 -4.19234 -8.08788 -0.532075 2.00612 0.620137 8.88864 5.67082 8.70691 -1.88193 -2.29321 3.0136 11.3626 0.152752 -0.350045 -0.612127 -0.704012 -0.0106086 0.139672 0.516875 0.306575 0.587466 -0.676433 -1.23403 -1.50852 0.0541215 
-3.52006 -4.13027 -9.30895 -0.583672 2.69284 0.210678 6.21111 4.66019 11.8227 0.576918 -3.94884 1.5538 11.3845 -0.38957 -0.81861 -0.735369 -0.723463 0.341917 0.899087 1.14363 -1.10053 -0.666052 0.962617 -0.0975656 -0.247395 0.0458234 
-3.90998 -3.66468 -8.42068 -2.44673 2.52973 5.67164 9.96783 2.66514 6.22135 0.0842896 -2.50726 0.0761318 11.4362 -0.271527 -0.59429 -0.298753 0.362278 -0.208975 -0.280821 0.214809 -0.527221 -0.249053 1.16181 0.810811 0.388696 0.016877 
-5.33647 -5.26469 -9.73328 -1.22834 2.20837 3.39094 9.07601 -2.91268 4.42315 1.95646 -0.422784 5.24669 11.4208 -0.363591 -0.31534 0.254464 0.928694 0.266043 -1.19423 0.250422 0.32881 -0.102356 0.0610147 0.283744 1.39127 -0.0106117 
-5.06077 -6.59658 -9.36948 1.60165 1.20348 -2.3741 8.53023 6.82114 11.1614 3.23735 -0.00218451 3.11063 11.4289 -0.146286 0.200712 -0.236759 1.05441 0.35444 -2.20632 -0.115589 1.54254 0.953347 -0.754822 -0.216235 0.562432 0.0287327 
-4.76262 -4.24102 -7.56223 2.03561 4.68618 -1.73761 8.18201 4.22624 8.8409 -0.694539 -3.78265 6.99291 11.3351 0.121062 0.603404 -0.299175 0.0281356 -0.183877 -0.626269 0.100692 1.54554 0.525641 -0.774304 0.00481458 -0.930099 0.02019 
-4.92833 -3.17295 -10.69 1.19337 3.06303 -2.79568 9.83688 6.8084 8.77922 -2.36432 -1.9085 2.01519 11.6227 -0.185509 -0.0948202 -0.558288 -0.68057 -1.21226 0.129689 -0.149544 0.222374 0.424335 -0.498622 0.205104 -1.35686 0.0257115 
-4.79738 -3.95949 -10.5689 -0.883525 0.359214 0.470386 8.92615 4.82141 8.24247 0.885772 0.554446 1.14392 11.4248 -0.269817 -0.890921 -0.42418 -1.23233 -1.20151 0.862364 -0.879601 0.74977 1.42204 0.354868 1.03851 0.249908 0.00723515 
-5.97093 -7.21145 -10.6576 -0.341635 -2.69434 -2.82965 7.41044 7.63543 13.5823 -0.0459169 -1.14521 -0.749173 11.5126 -0.152687 -0.723975 0.47374 -0.308474 0.148252 1.21888 -1.39539 0.000519395 -0.0912037 -0.397316 -0.231571 0.923388 -0.0563683 
-5.5904 -6.67638 -9.69934 -3.35856 1.55734 2.5912 4.99722 7.56158 13.5496 -0.079402 1.02823 9.62463 11.4263 -0.0320066 -0.117271 0.552715 0.477425 1.15916 0.860383 -1.07896 -0.0955494 -1.30583 -1.33306 -0.987342 0.563665 -0.034194 
-5.29525 -5.43438 -8.75607 0.88852 3.20523 2.23832 4.82437 5.44092 5.66965 -3.86831 -3.30325 2.39177 11.3401 0.164651 0.479614 0.474628 0.670739 1.3447 0.978306 -0.534501 -0.650967 -2.37052 -1.14337 -0.864754 -0.0950973 -0.0431307 
