-7.91136 -2.23086 -4.76892 2.01003 5.72115 7.88499 8.15008 4.56506 9.65044 1.10464 -1.72008 1.43878 11.4054 0.0712788 0.511177 0.70756 0.529563 -0.937563 -2.14587 0.199052 -0.920825 1.25867 -0.771582 -0.47957 1.7165 0.0360472 
-7.53058 0.264402 -2.30953 5.81344 3.01609 0.949022 9.35054 4.17012 14.1605 0.94219 -6.20387 3.73859 11.4067 0.0985027 0.64175 0.706423 0.0822265 -1.14571 -1.90534 0.0343297 -1.09024 0.819195 -1.20734 0.465059 2.08621 0.00855303 
-7.74536 -0.922613 -2.46082 2.75614 2.38586 0.62362 8.54512 0.158403 13.6888 -2.67204 -1.87604 8.87138 11.585 0.249921 0.613509 0.629236 -0.771133 -1.24223 -0.642671 0.446031 -0.695651 -0.0117707 -0.762013 0.986592 1.69767 0.00968142 
-7.50185 0.323763 -2.39086 2.04811 1.66026 1.98898 8.12422 1.31719 11.7272 -3.04371 0.683189 8.15356 11.3583 0.348515 0.353382 0.665975 -0.650599 0.183331 2.1896 1.39985 0.144851 -1.14556 -0.574661 2.1429 0.278348 -0.00904503 
-6.67612 0.806999 -1.58208 0.0370317 0.187909 4.15165 10.9934 2.51326 10.8082 -0.712472 -0.230653 7.71965 11.4779 0.137057 -0.0279055 0.449141 0.382904 1.33282 2.34006 0.748495 1.12281 -0.451119 -0.318061 0.686738 -0.67853 -0.0239889 
-6.32263 1.16651 0.580973 3.92 5.03172 10.133 15.1257 3.71694 9.87296 -2.9109 3.68795 5.7062 11.4149 1.13243 -0.0481769 -0.426162 0.0956402 2.14527 1.37244 -1.1436 -1.70861 0.216964 0.207913 -0.936432 -1.18259 0.064386 
-7.64969 -1.48351 -1.70104 3.73472 7.36421 8.25192 8.78686 4.57257 12.3603 -4.32875 0.0552678 6.7024 11.4367 2.51708 -0.977207 -2.29875 -0.224688 2.12447 -0.753324 -4.01327 -3.54556 -1.31713 1.78081 -2.07986 -1.02969 0.492947 
-1.35293 1.22813 -4.46219 0.677464 8.79848 6.80106 3.50949 -8.25551 12.036 -0.196005 -4.14193 2.74923 11.7009 2.85405 -0.230249 -1.96029 0.373481 2.41817 -2.24043 -4.21013 -3.47512 -2.5113 2.38558 -2.62979 -1.12365 0.637934 
3.42445 -4.10985 -10.5543 0.534859 8.9269 2.05101 -3.26485 -9.22833 3.14102 6.83414 -6.71503 4.04968 13.7997 2.37009 2.29457 0.708216 1.72256 1.8327 -3.72962 -2.12912 -1.6463 -3.81951 3.07783 -1.99967 -0.918287 0.625301 
2.41053 1.32843 -4.79386 7.38733 16.3412 2.03133 0.100854 -6.75821 1.92613 3.43554 -6.07587 1.41429 13.4231 0.892167 2.57568 2.94864 1.59866 0.70301 -3.09016 -1.16661 1.08433 -4.47648 0.759878 1.27102 0.564859 0.500902 
2.31904 9.9392 2.00588 8.9926 12.7564 -8.0113 -0.154402 -4.40756 -1.68227 9.24463 -8.97609 2.77843 13.7021 0.399466 3.14938 3.40578 0.754414 -0.930108 -2.36639 -0.511476 0.995501 -3.54467 -0.955375 3.78067 -0.683809 0.315477 
3.66061 7.08198 4.00096 4.44191 10.3988 -3.6186 -3.87876 -5.24424 -7.93477 2.39814 3.34373 6.20914 14.2542 1.23481 0.991162 1.75237 -1.1193 -2.51851 -1.37334 -1.48602 0.730881 -3.77106 -1.21581 4.55728 -1.15372 0.541028 
4.79674 8.7603 2.07723 5.77964 7.24756 -6.95595 -3.83243 -5.00781 -9.65188 2.57596 7.47852 -1.76679 14.9616 1.58662 -1.31681 0.497117 -1.58479 -1.29696 0.586396 -2.26797 0.275361 -2.18083 -1.34949 4.30744 -2.59504 0.57281 
7.34574 6.87369 3.9323 3.39734 6.50308 -5.36304 -5.49026 -2.80368 -12.9444 0.690838 8.4832 -2.08171 15.4985 1.46498 -1.43919 -0.0766723 -0.860296 -0.525718 0.352843 -2.07651 0.168056 -0.680991 0.154585 2.35075 -2.79293 0.47712 
8.40955 3.45928 4.52579 1.59094 8.21943 -4.2071 -10.6885 -4.25103 -10.0816 3.35083 9.99139 -6.05133 15.944 0.998336 -1.9429 0.0401208 -1.09162 -0.141721 1.04986 -1.80215 -0.310142 0.349719 0.539326 1.83918 -1.0814 0.359642 
9.17908 2.53657 2.39332 2.23478 7.28427 -3.22881 -10.8333 -4.78235 -11.1248 2.78363 13.841 -5.61324 16.1486 0.38747 -1.09469 -0.344578 -1.21928 -0.317861 0.532657 -0.778332 -0.268211 1.01396 0.367392 1.62305 -0.241087 0.282896 
8.87175 1.21437 3.04733 0.902827 6.14836 -2.77376 -10.1717 -5.56918 -8.81303 4.2262 13.9955 -5.40803 16.4347 0.329295 -0.36173 -0.490312 -1.42361 -1.04559 0.278446 0.505838 0.495164 0.420978 0.427938 0.838406 0.356397 0.264648 
9.05199 2.52269 2.94865 -2.355 5.94931 -3.41642 -9.64032 -3.48566 -8.50886 2.09011 14.5964 -3.6088 16.6676 0.275594 -0.466761 -0.55941 -1.28933 -0.770716 0.0753459 -0.0363555 1.25908 0.940494 1.17132 -0.520257 -0.289491 0.278419 
10.1196 1.65757 1.79656 -3.23222 3.65896 -2.72106 -8.75577 -2.42356 -9.28473 5.83727 13.8058 -5.27157 17.0077 0.0716751 -0.710173 -0.923007 -0.791004 -0.981003 0.517154 -0.579234 1.72631 1.4063 0.999503 -1.12096 -0.779809 0.283003 
9.93314 -0.0188353 0.22165 -2.14432 4.67539 -2.87843 -11.723 -0.0597861 -6.18653 7.8347 11.3346 -7.12893 17.2542 -0.321572 -1.15842 -1.04889 -0.145134 -0.957028 0.532417 -0.385223 1.57457 2.36379 0.613794 -1.48723 -1.4539 0.285327 
8.78955 -1.06573 -0.204213 -3.15753 1.88031 -0.456989 -12.0265 1.34944 -2.94271 6.35142 10.0216 -7.54701 17.5565 -0.559672 -1.17311 -1.08991 -0.0783803 -0.867476 0.661115 0.00919437 2.18279 2.24561 -0.432788 -1.48394 -1.70843 0.27314 
8.10914 -1.90777 -1.29544 -3.11802 2.0535 -1.88637 -9.93107 2.50071 0.139056 4.90201 9.05228 -9.74059 17.8199 -0.45425 -0.999197 -1.28502 -0.112199 -0.978594 0.777816 1.073 2.10783 1.23503 -0.62392 -1.32104 -1.83702 0.272063 
8.23321 -3.26352 -2.89442 -3.13728 0.632528 0.0884814 -9.60576 7.21016 -1.21945 5.13968 7.52721 -12.5079 18.0906 -0.158324 -1.07802 -1.6905 0.36595 -0.790223 0.843357 1.21848 1.72339 0.382453 -0.0779814 -1.6602 -1.81772 0.247839 
7.94006 -3.91593 -4.85833 -2.71545 0.406315 0.737912 -7.56836 7.54902 -0.873014 5.32097 5.97664 -13.8336 18.3475 0.0837238 -1.23562 -1.49653 0.481359 -1.15345 1.27222 0.863015 1.43249 -0.464951 0.393862 -2.27772 -1.01606 0.190868 
8.08247 -5.45175 -6.87525 -1.52907 -1.24722 2.44765 -7.11545 7.44222 -0.52441 5.75203 3.25841 -14.5891 18.5319 0.169128 -1.23308 -1.05238 0.539236 -0.893336 1.08237 0.43668 0.836074 -0.465761 0.145887 -2.34469 -0.483871 0.125582 
8.60313 -6.99174 -6.78768 -1.51533 -2.7739 3.29512 -6.86115 9.54713 -2.53322 6.56515 -0.201904 -13.7803 18.5536 0.358805 -1.22947 -0.511737 0.317739 -0.492956 0.701567 0.0321692 0.828965 -0.42415 -0.623472 -1.88503 -0.111726 0.04988 
8.74732 -7.89101 -7.19164 -1.04116 -2.24405 4.22173 -7.77597 10.3915 -2.71816 5.24703 -1.10699 -14.9539 18.6154 0.457755 -1.00547 0.111792 0.0462695 -0.0154394 0.0607967 0.177628 0.566869 -0.185047 -0.968028 -1.47285 0.308741 -0.0184891 
9.40166 -8.84365 -7.25882 -1.37071 -1.56005 3.35871 -7.07726 10.2192 -1.89689 2.45611 -1.26581 -14.2098 18.5551 0.189433 -0.692173 0.527963 0.140343 0.135576 -0.682149 0.509374 -0.0453057 0.687487 -0.964896 -1.43313 0.579966 -0.0384302 
9.97198 -9.55314 -6.08072 -1.37003 -1.93134 2.71984 -6.11926 9.94052 -1.76781 2.9664 -3.5739 -12.8307 18.4387 -0.0419989 -0.412209 1.00687 0.265963 -0.22114 -1.69193 1.03591 -0.168853 1.30807 -0.836223 -1.52672 0.934216 -0.0437189 
8.93796 -9.62154 -4.70332 -0.649172 -2.25237 0.635321 -5.14264 9.54608 0.429046 2.88098 -6.13411 -11.9421 18.4498 -0.102708 -0.165718 1.48638 0.370262 -0.93793 -2.2709 1.26307 0.257277 1.32157 -0.687531 -1.49518 1.45858 -0.0548151 
8.76917 -9.56311 -3.43506 -0.0721126 -3.00358 -2.87623 -3.56372 9.88378 2.65921 0.853483 -6.30645 -11.4167 18.4495 -0.0769364 0.35316 1.65994 0.424756 -1.70032 -2.64456 1.34564 0.740383 0.750353 -1.10503 -0.408468 1.87292 -0.102501 
9.48952 -9.66725 -1.14977 -0.168355 -5.71357 -5.19773 -2.03968 11.534 2.49744 0.074919 -7.37541 -7.6239 18.2756 -0.0388236 1.09664 2.05713 0.449709 -2.0561 -2.53828 1.07358 0.208436 -0.366354 -1.40674 0.917691 3.16738 -0.244923 
9.31152 -7.76448 0.442188 0.51334 -8.70231 -7.58645 -0.94254 12.6485 0.949756 -1.15569 -4.99559 -5.62516 18.0132 -0.399838 1.81895 2.8114 0.353093 -2.55521 -1.1626 -0.0421802 -0.56056 -2.04617 -1.01559 1.63118 3.565 -0.290197 
8.47267 -5.03764 3.64373 1.30664 -9.68352 -9.70097 -1.08534 9.2059 -0.548001 -3.14814 -2.20108 0.999052 17.4433 -1.02699 2.9054 3.29661 -0.0295095 -2.44423 -0.0328065 -1.26841 -2.00896 -2.82494 -0.912165 2.65876 2.37739 -0.244109 
7.2784 -2.78316 8.22519 0.955851 -13.7947 -6.4376 -4.25179 8.24501 -6.04894 -2.61295 -0.73771 2.09686 17.4147 -1.31219 3.50233 3.57555 -0.527251 -1.86083 1.01338 -1.68848 -4.29255 -2.13665 -1.38284 2.57686 1.49405 -0.228622 
5.37113 2.3691 11.4418 -0.537158 -15.3886 -5.93619 -6.7271 3.69091 -8.12792 -3.75727 3.78946 0.402029 17.3544 -1.2024 3.28671 3.26037 -1.00337 -0.827183 1.85064 -0.780042 -5.53947 -0.975693 -0.852419 1.04974 0.947662 -0.275109 
4.30136 6.04381 14.4209 -1.20101 -15.154 -4.40194 -6.56409 -6.05676 -5.94355 -7.76531 4.89342 2.1436 16.9146 -0.973419 2.29969 2.52387 -0.7628 0.895738 1.00047 1.01449 -4.08458 -1.51167 -0.113693 -0.375338 0.511975 -0.366176 
3.94921 6.98244 16.8477 -2.63179 -13.1398 -1.4656 -3.8294 -11.3405 -5.47916 -4.83405 0.232038 5.71399 16.3178 -0.69444 1.17454 1.5473 -0.316552 2.14144 0.577046 1.33252 -1.56433 -2.54983 0.885766 -1.67942 -0.0308481 -0.396151 
3.12227 6.40861 18.1415 -1.81083 -10.4404 -3.67053 -0.628202 -4.66215 -14.9317 -2.64303 -0.835693 2.00076 16.1021 -0.668062 1.17838 0.854119 -0.412181 2.22235 0.720477 -0.0818504 0.815712 -3.0952 1.82317 -1.48483 -1.65482 -0.331086 
2.48847 8.05938 17.3179 -1.81501 -7.03817 -3.41666 -3.03242 -4.82803 -16.383 -1.88959 -1.74307 0.319211 15.7799 -0.7808 1.90152 -0.299134 -0.1337 2.02492 0.840268 -1.38194 1.5638 -2.17114 0.904406 -1.3176 -1.91831 -0.317758 
1.69142 11.3972 18.4564 -3.67031 -7.09301 0.17597 -7.37183 -5.23446 -15.9676 -0.12169 -1.54316 -3.43309 15.5281 -1.06523 2.37249 -1.35947 0.762072 0.491127 1.18217 -1.20945 -0.682413 1.48938 -0.762894 -1.19416 0.305414 -0.550677 
0.760641 13.9957 15.1946 -2.37055 -4.68884 0.812486 -7.36728 -3.23538 -15.8169 -1.57269 -6.00224 -1.16061 15.016 -1.10827 1.10137 -0.904139 0.996629 -0.143134 1.07576 -0.534963 -1.34334 1.80316 -2.10788 -1.0387 0.348148 -0.502618 
-1.33998 15.3029 12.4058 2.2773 -9.15938 0.125759 -4.50804 -8.87053 -7.76787 -6.61595 -4.6769 4.26774 13.7306 -1.02654 -1.66382 -3.07091 1.71142 0.770832 -0.513298 1.26915 -3.54544 1.56627 -3.2388 -1.8011 0.325334 -0.808811 
-1.53718 11.6134 15.8225 0.194335 -6.72064 1.98724 -7.13913 -9.7267 -11.4671 -9.18188 -5.3697 -1.79046 14.1655 -1.37897 -3.65569 -4.19028 0.69114 1.38162 -1.1439 2.50889 -1.35354 3.01039 -1.61586 -0.6581 0.270429 -0.850903 
-2.29237 4.26927 2.7879 3.60434 -2.22295 -2.9779 -1.14016 -19.716 -10.3112 -12.5111 -10.8649 -1.4915 11.9093 -2.07347 -4.21655 -4.96534 -0.669276 2.64023 -0.658442 2.86851 2.31588 3.6587 1.49464 0.947365 1.97147 -0.4587 
-5.658 1.23407 -0.947808 0.421636 -1.24898 -3.35517 3.49325 -4.58035 0.506711 -6.70442 -6.19871 3.07115 11.6721 -2.71594 -2.9788 -4.59154 -0.464206 2.89508 1.43313 3.29535 4.20502 4.76939 2.91353 1.49537 2.97459 -0.196198 
-9.64694 -0.590164 -4.0357 -1.18273 1.30595 -0.495245 4.51832 0.13571 4.53875 -0.381465 0.474427 11.6943 12.6838 -2.17077 -1.28488 -2.01309 -0.815686 1.27259 1.95362 2.00247 4.60777 3.21409 3.07634 2.96573 2.22148 0.232636 
-11.4396 -0.850842 -3.72335 0.266839 5.99029 7.91157 6.50836 1.37253 4.95495 -0.679032 -3.56255 6.48961 12.7973 -1.25989 -1.03172 -1.62482 -0.61258 -0.641468 -0.516495 -0.424356 0.270299 0.657946 1.13897 1.76902 0.183475 0.0936961 
-10.2554 -1.11268 -5.88978 -0.396695 0.520374 1.1568 7.36462 0.346376 3.53517 -0.142047 2.64563 7.90665 12.5099 -0.268294 -0.845824 -1.40881 -1.27481 -1.88028 -1.95352 -0.365857 -1.07023 0.0124396 0.480987 1.72186 0.0420164 -0.160804 
-11.6532 -3.66328 -8.14487 -3.03428 -4.06353 -6.76367 -0.0516744 -3.33418 4.29823 -1.1293 1.56077 5.88234 12.2276 0.412967 -0.297933 -0.952841 -1.3758 -1.74711 -1.59699 -0.504243 -0.886789 -0.111517 0.697468 1.49761 1.34308 -0.235083 
-10.8816 -3.41306 -8.86897 -5.9062 -3.06855 -2.92524 5.96905 -2.86207 4.92931 2.24861 6.52207 12.208 12.1647 0.51592 0.049134 0.335813 0.0545559 0.950432 2.04248 0.566744 -1.31423 0.350507 1.43235 0.407461 0.870187 -0.197963 
-9.06167 -1.19032 -6.99797 -3.85741 -0.950805 1.96765 4.68492 -1.45719 3.70029 1.61298 1.98729 11.0543 11.7945 0.892481 0.288051 1.29052 1.13713 1.7087 3.08431 1.47588 -0.415096 0.309324 0.396887 -1.25425 -1.07039 -0.177359 
-8.97159 -2.10349 -4.78417 0.287645 3.71617 7.00355 7.83004 -7.16326 5.58667 5.64856 4.46968 9.67159 11.7366 0.470509 0.0917146 1.01153 1.35311 1.11597 0.911841 0.516619 0.37055 0.822618 -1.90455 -3.46527 -2.66263 -0.147091 
-8.14583 -2.87781 -3.73467 -0.445565 1.08762 3.69348 6.39722 -3.25907 5.51617 -0.844842 -3.68428 1.79862 11.5548 0.262726 0.203681 0.440725 0.26281 0.591127 -0.148782 1.07412 0.92941 0.498981 -2.62017 -3.04358 -1.6256 -0.075729 
-8.98698 -2.11074 -5.44299 -0.846583 1.49207 0.77105 7.696 -0.108381 8.13446 -6.04525 -7.96852 3.52272 11.549 0.3176 0.388661 -0.147408 -0.412848 -0.66262 -0.695032 0.190018 1.99957 1.04763 -1.52049 -2.36561 -0.199397 -0.058982 
-7.74035 -0.168286 -4.46493 -1.97624 3.11688 4.33999 10.1226 -0.337579 4.92131 -5.64099 -7.01149 6.00075 11.5096 0.305235 0.317089 0.278143 0.269157 -0.333299 -0.117794 -0.22888 1.71841 1.98866 0.426669 0.175762 0.452842 -0.0343174 
-7.58633 -1.51495 -5.15608 -1.01126 -0.611562 3.20514 6.91746 1.37387 11.1223 0.444202 -5.69476 6.57354 11.4643 0.299578 -0.22677 0.621596 0.436176 -0.482411 -0.411824 0.0560729 0.955882 0.682198 1.88746 1.02025 -0.0140949 -0.0456423 
-7.31998 -1.59026 -2.48741 0.982559 0.472943 1.88747 5.64209 4.59188 13.9656 -1.95622 -3.94235 2.53743 11.4256 -0.284001 -0.247356 0.0326559 0.150166 -0.980815 -0.917775 0.136747 0.969403 0.464082 0.957522 0.257409 -0.622793 -0.0512239 
-7.69928 -2.5336 -3.32377 -0.145105 0.40198 -0.0618098 10.2166 2.2063 7.02333 1.54967 -4.40184 5.18391 11.3629 -0.12909 0.274093 -0.162624 -0.446021 -0.742952 -0.585264 1.10476 -0.557344 -1.82251 -0.970347 -0.0610786 0.488591 -0.0365683 
-9.10388 -0.89574 -5.2178 -1.65849 -2.29397 1.38459 9.15672 4.09322 9.29119 -1.40611 -6.3709 3.5816 11.3042 0.0263103 0.349151 -0.32965 -1.09595 -0.775018 -0.421936 1.58572 -1.33747 -2.55268 -0.684456 0.156894 0.79448 0.018434 
-7.33983 -0.491745 -4.604 -1.92084 -2.94287 0.530258 10.6839 -1.16352 4.3469 -4.68259 -4.78587 8.4944 11.3421 0.100242 -0.096211 0.0417489 -0.423449 -0.328037 0.663761 0.550718 -1.10494 -1.29755 -0.766758 0.733817 -0.827218 0.0515309 
-7.36815 -0.865437 -3.49554 -3.6093 -1.72973 -0.518248 13.337 -0.410558 2.54038 -2.26237 -2.96586 4.85458 11.5281 0.304565 -0.632841 -0.0126904 0.722418 0.900645 0.857725 -0.731738 -1.27348 -0.35349 -0.136605 1.35863 -0.599833 0.0267164 
-8.06593 -3.02981 -3.97616 -1.28694 -1.52033 4.20842 10.88 -1.06652 3.91098 -1.85599 -2.43527 0.41133 11.5086 -0.385381 -0.686124 -0.0950807 0.945519 2.01781 1.5168 -1.25157 -0.363438 0.224956 -0.0788379 0.566895 -1.24767 -0.0120425 
-7.218 -2.79091 -5.59518 1.63665 1.49799 3.83413 5.39999 -2.32266 7.7417 -3.50244 -0.753068 4.62397 11.3546 -0.52232 -0.41182 -0.112152 0.905689 2.15767 1.46423 -1.23702 -0.418635 -0.0378674 -0.698949 -0.0806379 -0.300649 -0.045873 
-9.34181 -2.95963 -4.02958 0.18378 5.5323 5.93808 8.39461 -2.02466 2.87102 -4.45674 -3.05779 2.37134 11.3687 -0.467556 -0.00283499 0.145874 0.148857 1.81396 0.556328 -0.197625 -0.161828 -0.695061 -0.615581 -0.354976 0.166737 -0.0265705 
