-7.93064 -5.68412 -7.91995 -2.23248 -2.00446 -1.84344 9.15932 -2.17808 5.59922 3.41343 3.72443 6.48007 11.4089 0.173487 0.583577 0.448744 -0.560481 0.258153 1.34843 -0.109563 1.76202 0.586981 -1.3913 -1.30306 -1.09614 0.011876 
-7.92935 -5.3898 -6.60985 -3.93361 -0.573364 -0.0964389 8.78554 3.25431 4.4516 0.231621 2.48903 2.99008 11.3595 0.0652714 0.46247 0.447552 -0.343553 0.668324 2.21418 0.706343 2.03101 0.671041 0.0253183 -0.283478 -1.25495 0.0177662 
-7.06386 -2.91339 -6.33128 -4.18431 -1.42925 4.02522 8.7984 3.9158 9.10793 -1.95217 -2.17317 2.74439 11.493 0.189843 0.681265 0.219874 0.110454 0.876124 0.985734 -1.12486 1.17715 1.21268 0.408643 -0.438196 -1.34834 0.015495 
-8.03768 -4.75713 -6.47653 -2.97433 1.04955 6.29312 12.8715 4.93002 7.20006 6.22282 5.25583 2.07318 11.4557 -0.0203815 -0.0109152 -0.163992 0.388623 -0.14534 -0.949055 -2.81596 -1.61563 0.0282664 0.646851 0.738656 0.170535 -0.0241171 
-6.92726 -2.59413 -6.88724 -2.15985 1.5647 -0.109546 1.49204 2.8698 10.2884 2.46104 0.150047 0.196803 11.4383 0.296002 -0.0613613 0.122019 0.410328 -0.0336529 -0.956507 -2.16597 -2.09892 -1.89703 0.621756 1.38662 0.209426 -0.0229825 
-8.09955 -5.60401 -7.15183 -3.00273 -2.79704 -2.77433 -1.6411 -4.30086 4.00271 1.25927 5.0207 5.11655 11.2662 2.04315 1.71104 1.64383 0.759275 -0.0392395 -0.642639 -0.707548 -1.67325 -2.1312 -1.37191 0.610874 -0.567463 0.0479339 
-5.55291 -2.79676 -5.38354 -2.11847 0.325778 3.77641 5.22484 -1.96334 1.22144 3.63838 4.87749 2.26983 11.4728 2.32495 1.65529 2.01753 1.43935 0.513035 0.340383 1.29601 -0.58801 -1.71515 -0.948344 0.856802 -0.0383066 0.105874 
1.49091 3.89937 0.990763 0.801364 1.47281 1.13694 7.46736 -1.01966 1.07751 -1.2254 5.94648 -1.80065 11.6781 1.83308 1.65757 2.21482 3.04646 2.40856 0.374887 -0.801932 -1.05139 -0.699069 1.04738 0.322702 -1.07378 0.180266 
-0.0977373 0.930629 -0.870898 3.13486 1.99495 -0.363266 3.41784 -1.71085 3.17521 -1.03834 3.97117 3.46387 11.7617 1.97589 2.18795 1.90771 2.3447 1.94459 -0.402642 -2.19793 -1.60696 -0.0749275 1.39581 -0.547723 -0.517271 0.200926 
-1.66176 0.820159 1.66595 9.60288 8.41117 1.16994 -4.74726 -9.68405 -0.469516 8.83453 7.08738 -0.849368 12.0231 2.47053 1.43533 0.300142 0.509621 1.37826 -0.299241 -2.26323 -2.11033 -2.16845 1.95605 0.195079 0.153421 0.507666 
5.90287 9.6826 3.81742 5.20428 6.57957 1.7467 0.342519 -5.66594 1.62032 5.58747 1.56843 -0.792166 12.3049 3.38623 0.576176 1.07255 -1.19543 1.09121 -0.43669 -2.96272 -0.860187 -3.75189 0.864799 0.120331 -0.774139 0.902091 
10.8433 6.70005 0.147316 2.31476 6.07178 -1.41424 -2.31115 -9.59376 -8.98728 5.24192 8.12325 1.09447 13.9448 2.72774 -0.82407 0.684366 -2.02317 -0.242046 -1.1976 -3.80227 1.02285 -2.96128 -0.48403 -0.917788 0.183905 1.09563 
10.5809 0.871561 5.25117 0.801766 8.62069 -1.25462 -12.6138 -6.05693 -11.3254 5.08196 4.05489 -1.37874 15.3113 0.932568 -2.94857 0.544419 0.107371 -1.3623 -1.19337 -4.55619 0.222735 -0.375831 -0.422978 -1.48734 1.36699 0.989543 
9.63795 1.10533 4.3709 1.68829 6.18038 -3.31739 -17.2804 -4.37429 -8.80309 6.66714 1.25521 0.363444 15.9981 0.08129 -2.21326 0.266022 1.67576 -2.25009 -1.35898 -2.34551 1.14109 3.6732 -0.809608 -3.36297 2.00871 0.475392 
11.1684 -2.2629 4.42772 6.05437 -0.286232 -3.26856 -14.9538 -7.162 -0.350935 2.75997 -2.43428 6.40831 16.226 -0.260862 -0.895839 -1.39576 2.34914 -1.4502 -1.93268 0.569463 0.13866 5.37459 -1.44228 -2.60155 2.23133 -0.0663408 
10.956 -2.79902 1.88915 8.06723 -0.72522 -7.20217 -12.8687 -3.33575 3.89149 2.35488 -5.447 7.24448 15.8644 0.0249911 -0.971875 -1.34052 1.16628 -0.50254 -2.23224 1.57592 0.264046 5.15479 -2.28777 -1.64682 1.74805 -0.0455272 
8.61755 -1.65546 -0.486747 9.35798 4.8225 -8.97561 -11.9724 -5.8829 9.20028 0.0266847 -5.60175 6.33739 15.0464 0.334385 -0.487683 -1.77861 -0.321274 -0.95357 -1.25255 -0.108399 2.56737 1.99949 -0.916244 -0.175674 0.538562 0.29429 
11.0383 -4.05777 0.125549 5.86789 1.11332 -11.6251 -10.8915 -3.69362 12.1952 -3.40505 -5.39518 9.13917 16.3602 0.598407 0.160533 -2.52157 -1.45188 -1.92154 1.27133 -1.84725 4.35925 -0.707811 0.0949666 1.14145 -1.07912 0.565705 
12.7991 -4.07194 -3.58352 5.54767 -5.97335 -7.31987 -16.4844 5.8538 5.49463 1.05871 -3.33856 8.15378 17.4496 0.472825 0.377615 -2.86772 -2.07859 -2.23827 2.8805 -1.98597 5.29386 -2.49828 1.58558 0.581101 -2.8924 0.627455 
11.8572 -0.788116 -9.17034 2.71301 -4.93501 -1.67338 -19.849 12.5922 2.20526 2.31369 -0.871339 0.940679 17.4914 -0.41523 0.681761 -2.98855 -2.00299 -0.303364 3.1228 -0.508516 3.69365 -2.51468 2.48971 -0.581668 -4.06902 0.318249 
10.5722 -1.40221 -10.1774 0.542478 -3.3447 0.451054 -17.4235 12.4435 1.70386 5.09521 -4.95816 -4.02535 17.6181 -0.461264 -0.232722 -1.9075 -1.75166 1.18899 1.22079 1.93534 1.22914 -1.43566 1.99478 -1.24525 -4.04342 0.163098 
10.0756 -1.98382 -11.5202 -1.64447 -1.71783 0.103476 -12.9645 11.4798 1.51722 7.02525 -7.49371 -5.11634 17.8672 0.0240543 -1.11533 -0.966492 -0.170432 0.542618 -0.75095 3.88266 -0.781714 -0.317109 0.495135 -0.315911 -2.50599 0.146866 
11.3836 -4.6377 -11.9461 -1.03187 -1.637 -2.10434 -10.2499 12.5557 -1.33963 8.67682 -6.25363 -9.03483 18.0771 0.0529814 -1.47433 0.304981 0.568329 -0.752125 -0.908291 3.23258 -1.85813 1.08108 -2.01692 1.23328 -0.628074 0.0849564 
11.5718 -4.74705 -13.1185 2.64802 -3.07577 -4.15043 -4.0225 8.62748 2.14146 2.99856 -1.80316 -9.08451 17.9962 -0.922187 -1.93661 2.82499 0.251918 -0.860785 -0.708801 1.92226 -2.03329 1.32296 -3.17195 1.7566 0.207193 0.107878 
10.089 -7.39224 -7.85339 1.23787 -6.42636 -1.96345 -5.7316 4.57899 6.79713 -2.97604 -1.63705 -5.18163 17.9784 -1.0927 -1.36764 3.84068 -0.379625 -0.993978 -0.711004 1.176 -2.13342 1.26546 -3.00612 1.0205 1.70241 0.0140711 
6.11197 -10.2896 0.558383 -1.51975 -3.62707 -3.51097 -5.61237 5.30169 4.06366 -3.00807 -1.01898 -6.00697 18.456 -0.762439 -0.912612 4.27722 -1.26122 -0.745794 -0.973199 0.816566 -1.90292 -0.0192477 -1.64974 0.495599 2.43081 -0.0196791 
8.65002 -8.70461 0.418903 -0.846109 -6.33123 -5.97909 -3.57494 3.55152 4.0266 -3.35049 -1.54321 -2.06156 17.9176 -0.142912 0.0354576 2.88053 -0.822463 -0.894953 -1.5483 1.53752 -1.67949 -1.1416 -0.311376 0.624884 2.7111 -0.0579786 
8.47911 -8.65392 4.13147 -2.61609 -6.8523 -7.0086 -1.01801 -0.373384 3.43049 -5.06292 0.627911 1.50953 17.9282 0.389774 0.641894 1.29309 -0.427173 -1.84961 -1.06453 1.36184 -2.12572 -0.570738 -0.720215 1.29227 2.25063 -0.0815891 
8.1909 -8.03279 4.76271 -2.32627 -9.28851 -7.95612 -0.341204 -0.980928 1.40573 -3.5055 0.663924 4.61561 17.9524 -0.0917261 0.521613 0.953121 -0.234692 -1.43455 -0.521848 1.1768 -1.62832 -0.236814 -0.276461 1.75224 1.02463 0.0453207 
8.2904 -7.41605 4.85192 -2.91554 -11.3965 -7.84512 -0.420054 -3.06071 2.5204 -6.53164 4.33879 1.90759 18.0306 -0.132175 0.447951 -0.252412 -0.0322177 -1.25768 -0.328887 0.828885 -0.710537 0.0932671 0.0923371 0.913232 -0.209586 0.0538958 
8.28574 -6.71547 4.82428 -1.86984 -11.2319 -8.17007 2.01009 -3.24642 3.29757 -3.99843 5.36256 2.86254 18.093 0.14531 -0.0852496 -0.560855 -0.0453966 0.124404 0.252394 1.17022 0.123215 0.0550493 0.187572 -0.194715 -0.911684 -0.0431618 
7.77082 -7.07283 2.83862 -3.00539 -12.169 -8.54606 1.95077 -2.79332 2.9509 -4.35476 2.84475 1.33813 18.1273 0.474942 -0.675323 -0.644798 -0.0671483 1.52997 0.961058 0.805066 1.08079 -0.518598 0.574969 -1.73078 -0.804914 -0.150738 
9.17724 -8.63066 2.96509 -2.50833 -8.28022 -6.34368 4.32447 -0.498547 1.46572 -3.65607 0.437366 0.34192 17.6882 0.715197 -1.00752 -1.03755 0.109038 1.92906 2.03723 -0.557175 1.59199 -0.996806 0.603687 -2.56251 -1.27503 -0.18982 
10.2194 -9.83508 2.55753 -2.93204 -5.22246 -3.95303 2.44808 0.9693 0.843333 -3.82798 -1.8525 -0.856672 17.4793 0.825537 -0.713536 -1.46836 0.686432 2.13357 2.84548 -2.05269 2.01595 -0.655993 0.833301 -2.28765 -0.962746 -0.149108 
10.6375 -10.3719 -0.222936 -1.36133 -5.05989 -0.280425 -1.02445 2.8322 -0.632677 -1.24339 -5.10134 -2.41519 17.4679 0.537589 0.026166 -2.59993 0.810374 1.81218 2.44495 -2.90135 1.4968 -0.581362 1.23905 -1.2009 -1.58062 -0.0173061 
11.1684 -9.76987 -2.90914 -0.146735 -3.11132 2.64971 -5.63823 5.62107 0.72014 -1.3946 -5.82412 -2.09704 17.492 0.559694 0.507096 -3.01375 0.726378 1.64502 2.11814 -2.65138 0.657373 -0.428671 1.0751 0.740211 -1.55265 0.0316551 
11.3907 -8.53243 -7.30125 0.150891 -0.27488 2.57972 -6.13911 4.65956 -1.37949 1.32251 -3.58132 -6.94101 17.5954 0.758188 1.42194 -3.22637 0.826233 0.840641 1.8337 -0.797092 -0.932568 -0.657762 0.254861 3.82694 -1.54247 -0.0152428 
12.6412 -8.21935 -8.97208 -0.0562572 0.610126 5.2076 -8.25146 3.34249 -0.926617 0.264601 1.08854 -6.35703 17.5739 0.496828 2.51637 -1.99041 2.16069 -1.74953 1.47268 1.79221 -3.22669 -1.34551 0.310123 3.57112 -0.565204 -0.317174 
13.692 -4.0375 -13.3233 2.7246 -2.7174 7.60914 -3.70329 -0.691351 -3.09811 -0.798684 10.5771 -7.99755 17.3507 -0.492964 2.86759 0.722442 4.40391 -2.50202 0.506403 2.62559 -4.45078 -1.46142 0.854793 0.720247 0.677629 -0.566713 
12.5019 0.564513 -9.85017 9.36984 -10.6377 7.49841 2.1049 -7.83693 -5.14811 1.21661 4.9523 -4.3948 16.0284 -1.18517 2.46644 2.1259 4.80263 -2.00412 -0.389355 2.40822 -4.5349 -0.837786 0.830452 -1.60688 0.961912 -0.603978 
8.99552 1.41359 -3.25 17.4574 -7.16107 3.96633 1.81065 -12.0046 -6.57585 5.12047 -1.91196 -4.53399 15.5345 -1.34528 1.27686 2.70908 2.97544 -0.562515 -0.503769 0.940217 -2.71168 -0.277262 0.36704 -2.97246 0.913948 -0.420595 
9.06361 1.38729 -3.37921 16.5905 -7.18863 5.08223 1.03268 -13.6754 -3.37668 1.45728 -0.70136 -3.27925 15.4621 -0.792425 0.2232 1.51112 0.625531 0.726373 0.0884382 -0.201876 -1.00377 0.572962 -0.629419 -1.15036 0.196142 -0.0997861 
8.68473 1.93542 -3.01336 13.9915 -7.25451 6.29839 1.53391 -11.3305 -5.37013 0.916178 -1.4584 -3.98558 15.5309 -0.065497 0.129746 -0.317094 -3.70847 0.179154 0.430727 0.382571 1.15633 0.415484 -0.475432 0.28374 0.221037 0.09392 
8.69514 1.4196 -2.41287 14.2304 -6.95911 6.77457 1.23389 -13.1928 -2.88616 0.171659 -1.02627 -3.68829 15.5313 0.78078 -0.570059 -1.64682 -6.1354 0.566479 0.918603 0.133146 3.10228 -0.550072 0.539343 2.98845 -1.01334 0.397766 
8.85227 2.04617 -5.31864 0.0950656 -6.38006 5.27379 3.62291 -6.46421 -4.74369 3.38612 -0.330807 -3.22428 15.9695 1.10091 -1.02956 -2.74823 -6.76563 2.28656 1.42792 -1.15746 3.77955 -0.570215 0.515352 4.43979 -2.24333 0.597633 
12.8837 -1.51838 -10.4607 -7.13828 -4.79346 10.1875 0.653914 -0.59709 -6.44026 2.91903 13.6771 -8.72662 17.2316 0.958718 -0.963169 -2.85603 -5.81717 3.70167 1.36342 -2.33611 3.78061 0.730445 -0.218398 3.59143 -2.97516 0.647681 
12.095 -1.74339 -12.7306 -9.15232 3.09546 11.7315 -3.9634 1.26936 -6.44416 2.11925 13.3889 -12.6831 17.6689 0.504839 -0.904035 -1.97504 -1.88889 4.0431 0.323043 -2.72074 2.16165 2.46562 -0.841167 0.58203 -2.25804 0.449953 
11.8674 -1.50147 -12.987 -10.2317 6.8115 10.3628 -6.65351 1.84341 1.6163 -0.2869 10.0711 -13.8347 17.92 -0.202637 -0.742094 -0.563556 1.0449 2.1761 -1.97537 -0.443569 0.824125 2.51866 0.00770249 -3.33281 -0.593973 0.114218 
11.8846 -2.48246 -13.9307 -7.80265 8.03297 6.80137 -6.32708 3.12379 3.55615 0.783249 4.38236 -11.9604 17.8751 0.00684713 -1.38883 0.500562 2.61013 -0.506728 -2.84332 1.71407 0.507479 1.15048 1.29467 -4.12678 0.986766 -0.0357809 
11.9757 -4.85931 -12.6784 -2.5886 3.61829 2.77576 -0.382088 2.59632 1.15288 3.62554 1.51629 -12.0578 17.6996 -0.561809 -1.21395 1.70013 2.85787 -1.24932 -2.69552 2.02753 0.86899 -1.44618 2.00362 -3.60307 1.97755 -0.1764 
12.075 -7.00863 -10.3821 0.0767808 2.15842 1.30842 1.47126 3.4303 -0.460063 6.63636 -2.96763 -8.6377 17.6002 -1.09142 0.217392 2.30668 2.71835 -1.2518 -1.75092 0.71068 1.23148 -1.78241 1.52652 -3.04554 3.05979 -0.353656 
8.96315 -5.30812 -6.26066 0.117913 3.50218 -0.368312 -0.415012 6.0351 -3.60652 6.80465 -4.26932 -5.60829 17.1755 -2.35769 3.29408 2.5362 1.39884 1.46087 -2.13251 -0.469843 0.573519 -0.176073 -0.365433 -2.37367 3.61036 -0.467537 
7.93381 -1.1711 -5.60618 4.43584 1.83203 -0.381206 -2.75722 7.56178 -2.97621 6.8263 -7.95252 0.113741 16.3689 -4.97637 5.5191 3.44613 0.753315 2.93883 -2.8472 1.02189 0.512496 -0.551158 -2.98681 -0.873666 3.0861 -0.0745127 
2.25788 8.6923 -2.38538 2.22607 11.0858 -7.04196 -0.617063 3.39818 1.53058 1.70341 -7.85964 1.61826 15.9776 -6.19445 5.44221 2.85618 -0.227255 1.64008 -2.68044 1.36739 -1.44652 -0.401837 -4.68598 -1.11976 1.60799 0.391698 
-9.4542 13.5867 4.91093 2.78928 13.0607 -9.59077 6.68173 7.31124 -5.7844 -5.74709 -5.5408 3.17954 17.8266 -6.39668 3.39206 0.711888 -0.79076 1.41876 -0.887597 2.20961 -1.26867 -0.653217 -2.65403 -0.710408 0.606241 0.749814 
-13.3151 14.5241 2.76166 -0.195082 6.08825 -9.16574 1.70245 -1.07225 -4.21161 -10.3386 -11.074 0.898772 18.4051 -5.34557 0.850597 -1.75039 -1.10909 -0.610596 1.01872 2.17218 0.100114 -0.156482 0.697446 0.820672 0.609228 0.770094 
-16.2631 12.8733 -4.62027 1.69262 11.4246 -3.7573 7.13108 3.45365 -3.3712 -0.422839 -9.89739 3.50469 18.9042 -3.42554 -0.444511 -2.41675 -1.26551 -0.234459 2.52036 0.0695174 -0.521536 1.40276 2.74227 2.22936 1.12654 0.408947 
-21.0655 13.3019 -6.37172 -2.77104 8.8509 -4.86508 10.0192 5.82755 -0.458431 2.52852 -1.57798 4.50182 19.2892 -2.7493 -0.994804 -0.752392 -0.581124 0.350832 3.17658 -0.843088 0.44362 1.26891 2.89203 3.13381 1.00483 0.326819 
-22.7067 11.9752 -2.60612 -2.25028 10.5071 0.860694 2.87095 1.25367 -0.647176 1.5307 0.858027 7.01071 19.4293 -1.48401 -1.10325 1.32648 -0.608381 -0.793907 2.7948 -0.998971 -1.1369 0.989365 0.383168 1.14106 -0.240421 0.147424 
-23.8398 9.99913 -2.00737 -1.12925 8.30116 4.40817 -0.382928 2.24584 0.770918 3.14481 -0.782642 4.16991 19.7767 -0.175562 -1.50552 1.07705 -0.423274 -0.280382 1.48693 -0.897546 -0.262048 -0.250504 -0.857839 -1.51467 -0.296251 0.0323435 
-22.296 9.00849 -0.170028 -2.17018 7.72996 5.58006 7.33728 -0.439999 0.960949 1.18486 -4.58977 2.46855 19.3976 0.586699 -1.24989 0.38605 -0.85965 -0.553683 -0.500087 1.39189 1.48863 0.449273 -0.133264 -1.09132 -0.799603 0.00850983 
-22.1487 7.25767 -2.20453 -4.92745 8.83757 0.209915 3.29829 5.36414 -2.51501 -1.58775 -6.42742 5.29165 19.4668 0.446517 -0.725196 0.583199 -0.134855 0.0254812 -1.94472 0.93541 0.89842 0.844043 -0.578787 -0.156061 0.352033 -0.039101 
-20.6188 7.09644 -0.577294 -4.64943 7.4705 0.459384 7.98979 7.13767 3.24215 3.23066 -1.7762 2.45183 19.6268 -0.0615837 -0.62967 0.588497 0.0382543 0.888477 -1.88443 -1.08922 0.25192 0.8882 1.02551 0.866205 -0.102615 0.0118847 
-22.4458 7.32918 1.11226 -0.563903 8.5583 -2.75509 3.96787 2.94911 3.85053 -0.772031 -2.96973 5.93844 19.4666 0.0100567 -0.283438 1.07621 0.102717 0.7807 -0.0680494 -1.4417 -1.51051 1.70682 1.09941 1.47909 -0.457476 -0.120487 
-22.4553 5.82439 1.11406 -4.16068 12.312 -2.35961 1.5564 2.02712 2.21918 5.90453 -1.98759 1.63208 19.4571 0.13122 -0.260364 1.32444 -0.795345 0.524876 0.461091 -1.56039 -1.0556 0.12331 -0.456255 1.02535 -0.519121 -0.259277 
-21.1801 6.47651 2.33082 -4.65824 10.3203 1.27917 -0.693546 0.366854 6.53055 2.57234 1.07371 3.41415 18.9492 1.06027 -0.81107 0.524358 -1.06477 -1.20786 1.42468 0.422686 -0.296677 -0.317153 -0.963571 0.176615 -1.8746 -0.497553 
-20.5955 6.22096 5.43561 -6.57898 9.21386 0.747715 2.51854 3.15081 2.51869 -0.722797 1.32884 1.11836 18.5891 2.31836 0.208997 1.63585 0.812268 -0.572462 2.29619 0.482543 -1.18056 -1.90983 -1.76313 0.201327 -1.45534 -0.618645 
-18.0744 3.07554 1.57327 -4.67859 4.06807 2.81464 5.60023 0.903873 2.11501 -2.27622 -3.74488 -3.17772 17.4129 4.40295 1.17181 2.84544 1.30732 -1.24077 0.0586242 -0.135994 -1.39429 -4.5281 -1.28227 0.935669 -0.713996 -0.62032 
-12.4164 8.56986 9.67207 -0.08917 12.5758 8.35358 0.822227 -4.14419 -5.12222 -0.48686 1.42834 -2.34866 17.1321 5.45356 1.04293 4.52734 1.29549 -3.22116 -1.81512 -1.18289 -2.03633 -4.34979 -0.553993 1.59873 1.30861 -0.515389 
-3.25495 11.1611 14.4398 -1.36655 2.43549 -2.23065 -0.525359 -2.95708 -12.2895 -3.95696 5.70231 1.57768 16.5761 5.07311 0.527461 4.79466 0.247692 -4.03209 -2.94438 -1.58792 -0.342564 -2.6091 -0.572675 1.55455 1.73505 -0.357212 
-0.73745 7.39284 21.6391 -1.75753 -6.07564 -5.80526 -0.333107 -5.10038 -12.028 -2.65239 4.5989 5.28371 16.4305 3.4201 -1.24363 3.27152 -0.101202 -4.86724 -2.73038 -1.14643 0.316123 -0.0759099 -0.665434 0.403208 0.790674 -0.309753 
1.4517 6.30136 19.5631 -2.60594 -6.76666 -4.82783 -1.76172 -0.330854 -7.47761 -4.05683 2.44259 1.68132 15.9776 1.54634 -1.16586 1.63695 0.222617 -2.88997 0.569952 -0.840383 1.01343 1.28692 -1.14521 -0.0540095 -0.690128 -0.237734 
2.33082 4.78156 23.468 0.0245171 -7.15932 -3.99971 -4.29176 -3.87669 -7.9077 -3.76409 5.07424 1.55289 15.8826 1.09726 -0.284021 0.210292 0.207332 -0.735517 1.36942 -0.231438 1.13725 -0.313104 -1.71598 0.55742 -1.30278 -0.251827 
2.94263 6.63745 21.71 -1.14449 -11.4725 -0.283662 -2.74795 1.49824 -7.91504 -9.12718 5.19459 -0.00754786 15.6614 0.455615 -0.678341 0.727585 -0.0290937 -0.101105 1.50185 0.231645 0.635615 -2.20003 -1.50322 0.04783 -0.864874 -0.0483317 
4.00337 5.80469 21.617 -1.4516 -7.4003 -1.23023 -0.997182 -0.328688 -13.3748 -8.69714 6.01 -0.385777 15.3295 0.272935 -0.404086 -0.383697 0.34777 0.57539 1.23013 0.931209 -0.603545 -1.35794 -0.64607 -0.929773 -1.21768 -0.155457 
2.8935 2.39809 24.1265 -2.01335 -7.1517 1.29668 -2.25079 1.07322 -15.7442 -9.10641 2.21386 -1.67372 16.0124 -0.486702 -0.113214 0.164254 -0.291189 1.60663 0.396425 -0.0221787 -0.932165 -0.46263 2.58175 -2.68101 -1.67717 -0.0453559 
3.72006 4.88081 20.3413 2.1978 -6.44278 1.36077 0.115702 -6.6819 -10.7828 -7.00483 1.91574 -3.70242 14.9297 -0.73407 0.879299 -0.275149 -0.724529 1.35472 0.201312 -0.291814 -0.487037 -0.273693 3.09257 -2.31893 -1.10444 -0.112887 
0.650771 6.53332 23.1692 -4.42514 -3.91812 0.402962 -3.41528 0.0140215 -11.5242 2.9354 -6.16331 -6.7351 15.6345 -0.398532 1.35437 -1.43884 0.0535844 1.52772 -0.274894 -0.336906 -1.58143 0.563298 1.97438 -0.666799 0.500423 -0.451559 
1.45438 8.13357 20.72 -3.86835 -2.2435 0.223187 -1.874 -2.23427 -16.8533 0.744797 -1.39604 -3.3773 14.954 -0.412353 0.876324 -1.28241 -0.129598 1.78337 0.00710242 -0.573432 -0.370233 0.533771 -0.887033 0.494396 2.45171 -0.439477 
2.03368 7.54357 16.743 1.28764 -1.61273 0.491005 -2.94047 -9.05773 -9.89248 -3.10934 0.535759 0.665841 13.7425 0.12394 0.217503 -1.67902 0.914997 0.637179 0.919423 -0.196545 -0.77189 2.5209 -1.95816 2.01151 2.20372 -0.554661 
0.966839 8.75731 17.1424 -1.30659 1.32136 1.35226 -2.98887 -3.99719 -8.92983 -8.41762 1.03818 4.85565 13.6784 -0.0868355 -0.11437 -1.64432 2.30764 0.715808 0.689456 -0.727514 -0.975954 3.51066 -0.0778589 -0.229376 0.100982 -0.533067 
1.51424 7.30896 16.5629 -1.13104 -2.51466 4.43554 -3.84058 -2.96397 -2.88142 -2.27418 2.67711 0.167047 13.499 -0.229411 0.285242 -1.09352 0.979104 1.0507 -0.286894 0.430275 -0.428686 0.987111 1.43297 -1.05409 -1.39125 -0.283636 
1.27993 7.67903 12.5884 8.8792 1.7865 1.6982 -5.06152 -10.1609 -2.80549 -0.0620768 -3.6136 -2.62299 12.4104 -0.844511 -0.917255 -3.04748 0.883988 0.529636 -1.24568 1.77718 -1.16847 -0.472487 0.441805 -1.28213 -1.5346 -0.479373 
0.730088 9.50891 13.5524 1.09027 3.40819 -1.11644 0.247238 -8.11929 -8.01909 -0.122286 -2.40882 -2.55108 12.9583 -1.72639 -2.50177 -5.13534 -0.482542 -0.064069 -0.822669 2.92655 0.147123 0.675806 -1.57117 -1.68752 -0.787338 -0.534422 
-2.86364 3.07105 3.41021 2.0027 1.00812 -2.10016 3.85314 -7.26186 -8.72342 -7.28455 -2.82952 -1.4583 11.5519 -2.24634 -3.97277 -5.47903 -2.13271 -1.28627 0.971083 2.15804 2.88753 2.28109 -1.15689 0.295385 0.167084 -0.375575 
-5.04595 -2.8959 -4.52471 -0.105499 -2.44581 2.22137 6.33487 -3.67789 3.45658 -6.51878 -6.15252 -4.35199 11.2562 -1.86651 -3.91989 -5.19815 -1.17729 -0.735928 0.572304 1.14709 2.54536 4.03114 0.205481 1.17983 1.88055 -0.34231 
-7.06376 -5.98244 -5.76817 -1.18649 -1.71785 4.8847 2.68484 2.05604 2.86214 -2.64828 -0.264829 -0.887116 11.3836 -0.815304 -1.92971 -2.14532 -1.31694 0.633143 0.951303 0.260681 2.12961 2.42003 1.94818 2.06103 2.71 -0.0409276 
-6.50238 -5.5638 -7.84917 -3.20157 1.09154 -1.74735 6.56682 -0.0514498 6.3438 -1.41301 2.20799 6.56607 11.3309 -0.069001 -0.0835551 0.201481 -0.226992 0.79494 -0.0903927 0.350334 1.72554 0.488108 1.00354 1.01167 2.71523 -0.0127602 
-6.21194 -5.24354 -5.65415 -3.03398 2.40516 4.64072 5.04056 1.57298 1.9331 -0.096524 3.29536 6.63268 11.3099 -0.000512505 0.258886 0.574229 0.139741 -0.0623514 -0.0295566 1.54196 0.115525 1.44409 0.693522 -0.483058 0.540167 0.0068203 
-5.81686 -3.68313 -3.57432 -0.316716 -0.532615 1.89141 6.90868 5.19133 6.36164 -2.77694 -2.87426 5.46426 11.2292 -0.391447 0.245157 0.753632 0.622398 -0.128591 1.17777 1.38749 0.599337 0.437743 0.76014 -0.0309541 -1.0343 0.0357692 
-7.40908 -5.62835 -5.03445 -1.93021 -1.21753 2.91754 10.2237 0.0122737 10.0737 1.50129 -0.138996 2.36462 11.4685 -0.522848 0.119234 -0.0495811 0.440586 -1.15608 -1.19928 1.18804 0.137598 0.462444 -1.31158 -1.03558 -0.421044 0.0689499 
-7.86105 -4.14561 -4.39086 -0.641465 2.25993 5.00309 10.9127 3.72559 4.46222 1.58878 3.7704 3.5286 11.4304 -0.464637 -0.118166 -0.200472 0.2071 0.687091 -0.447759 0.0850263 -0.343839 -0.436026 -0.598602 -0.424397 -1.28352 0.0576756 
-7.80408 -4.41612 -5.49379 -0.668671 -4.77153 -2.91154 8.97874 2.99384 5.19503 -8.8373 -5.20487 5.49529 11.5541 -0.0966341 0.0851621 -0.241597 0.206203 1.26562 -0.00756248 -0.464879 0.585715 -0.279291 -0.150609 -0.93101 -0.35512 0.00636501 
-7.94254 -4.88007 -4.34702 0.0880141 4.67984 2.56715 7.95629 1.98135 6.62083 -0.600655 -2.46331 -2.51868 11.4748 -0.0999849 -0.309084 0.103711 -0.551058 -0.301663 -0.451104 0.0566328 1.04845 1.53288 1.00988 -0.981264 0.0970097 -0.00892181 
-7.8515 -4.83531 -6.26436 -1.26393 3.90061 4.0977 9.3775 3.81297 7.59792 1.84296 -1.67719 3.61266 11.4781 0.234463 0.214323 -0.0152524 -0.425302 -0.303383 -0.135008 -0.615355 0.634152 1.37947 2.40133 1.02586 0.281308 -0.0646105 
-8.33727 -5.48144 -3.48702 -3.09912 -3.58446 -0.75705 10.9965 8.55829 10.9252 1.29804 -2.89976 4.95496 11.4238 0.106639 -0.226273 -0.707519 -0.544633 -1.37716 -0.388153 -0.638646 -0.215523 1.08759 -0.105032 0.63805 0.964615 -0.0347854 
-6.43441 -3.04383 -6.00005 -1.20161 -2.1563 -1.92448 4.38188 2.87613 9.94021 2.21998 0.142641 3.16501 11.2566 0.304225 -0.136301 -0.435007 0.176035 -0.373615 -0.0220068 -0.222346 -1.42321 0.398221 -0.0515716 1.00374 -0.802332 -0.0205235 
-8.1179 -6.90718 -8.01677 -2.66631 0.822517 3.63747 7.26087 1.37215 10.8877 -1.31432 -0.182976 2.52822 11.4117 0.442777 -0.168126 -0.396024 0.145432 1.16685 1.35861 -1.02168 -2.74724 -0.80145 0.0685408 1.17734 0.0755481 0.00487242 
-6.44006 -4.80395 -6.17452 -0.600163 -0.170954 1.7904 10.1336 0.289966 9.60778 2.89129 1.98312 0.814376 11.3815 0.0157349 0.272381 1.00301 0.0977526 0.214565 0.448976 -0.191677 -1.10357 -1.35558 0.331675 -0.0439396 0.678422 0.0227553 
-6.12055 -5.44201 -5.3799 -2.67269 1.25711 4.17856 3.01223 -3.88484 7.08414 1.30509 2.0667 6.50802 11.3856 0.203016 0.880008 1.06713 0.19966 -0.903693 -0.980618 -1.27825 0.108368 -0.931086 0.750006 0.0451022 1.37353 -0.0354209 
-7.35441 -2.41451 -2.30344 -0.709658 -1.30077 0.0498564 5.54781 -0.0132282 5.06404 2.56865 -1.2019 4.56722 11.3834 -0.0936266 0.394433 0.387897 -0.0966779 -1.03083 -0.89454 -1.37919 0.950166 -0.078742 0.0703405 -0.112781 1.44216 -0.0447665 
-6.64565 -3.70185 -4.61666 -1.61326 -3.13104 -0.395343 3.16249 2.06558 8.50409 2.59703 1.63504 7.51944 11.2337 -0.0341421 0.219296 -0.0786739 0.121524 -1.06066 -0.959301 -0.20848 1.39797 0.627997 0.261225 0.197362 0.497507 -0.0453625 
