-5.53694 2.6029 -9.3416 1.99086 7.50695 -2.14028 9.2273 0.640667 1.69042 1.50502 -5.39706 7.80484 11.9845 0.122674 0.0277357 0.956466 0.304996 -1.00011 1.26051 1.20706 0.0798175 0.419846 -0.0552656 1.00699 -1.85556 -0.0120967 
-4.90479 2.40811 -7.99768 2.90275 3.24471 -0.455487 9.64764 -0.58914 -0.933413 -3.03725 -1.06156 2.38647 11.9852 -0.55869 -0.587148 1.73237 0.262538 -1.56945 0.138168 -0.333435 -0.298104 1.05892 1.6954 1.68681 -2.0004 0.0914672 
-5.23964 2.83898 -5.23124 3.05989 4.63753 3.31986 15.0524 1.65466 5.10156 3.49983 -2.52985 1.23624 11.9237 -1.07864 -1.21397 1.36075 -0.134469 -1.37582 0.00914829 -0.0465411 0.0856102 1.3903 2.97254 1.15645 -1.11236 0.262928 
-8.47903 -0.450873 -2.73496 2.76903 1.09441 -4.17951 4.64757 -1.35685 5.27946 8.9846 1.60337 1.08716 12.4723 -1.01865 -1.2283 0.54469 -0.108677 0.217674 -0.195816 -0.542683 0.254432 1.74924 3.39867 0.309322 0.508143 0.213559 
-9.14299 -2.03746 -5.16923 1.38537 1.70298 -0.232528 11.4946 1.45257 5.53547 10.3568 -0.947266 2.89268 13.0556 -0.16095 -0.599977 -0.677722 0.338103 1.08944 -0.0266626 -1.15727 0.600551 -0.134565 1.4256 1.61302 1.69497 0.033936 
-8.04638 -1.29519 -5.30523 3.19662 5.80036 0.341626 8.71312 0.78406 7.59583 10.5276 -0.306241 4.09897 12.487 1.66366 1.4072 -0.450685 0.129892 0.675563 -0.11062 -1.4022 -1.0276 -1.76824 -2.08641 -0.901468 0.235452 -0.195354 
-6.26072 0.261253 -7.33471 4.53661 7.73174 0.925981 7.23329 3.58696 3.27055 9.85632 6.49005 8.20518 12.086 3.22572 3.0399 0.811714 0.233005 -0.709137 -3.11818 -3.43113 -2.96198 -2.37749 -2.19436 -0.0512559 -0.753849 -0.106586 
-1.60187 5.4358 -3.90564 1.84287 1.45785 -5.31186 -0.232762 -7.56204 -2.42931 -1.19721 -6.62262 -0.391834 11.9803 2.94834 2.97643 1.15163 -0.156587 -2.22126 -3.20019 -2.51912 -2.93475 -2.28432 -1.80789 -0.649928 -1.31745 0.0133291 
3.76335 9.79656 -1.81046 3.22727 0.328552 -12.9967 -1.1881 -9.1843 -1.3394 5.24739 1.95465 1.36884 12.7761 3.00193 2.07466 1.03603 -0.288307 -1.80075 -1.55935 -2.11943 -2.06359 -1.65695 -0.503655 0.645935 -1.0178 0.363615 
1.68329 8.81931 -2.30921 3.06836 -1.60436 -8.69801 0.328223 -7.50405 -1.52081 3.79261 -1.28818 0.929894 12.2086 2.52551 0.0853497 -0.123295 -0.260662 0.439408 0.796229 -1.11903 0.828333 -1.29216 0.866213 3.20745 -0.384943 0.648339 
7.10634 8.9428 -2.95279 2.48233 0.259076 -5.17768 -3.64437 -6.75997 -5.46844 4.84313 7.0525 2.45531 13.7899 2.03597 -1.33976 -0.318994 -0.980847 1.15188 2.495 -1.95618 1.60332 -2.35862 -0.0887472 2.22359 -1.4799 0.804791 
9.35418 6.28942 -3.95095 0.912028 3.68962 -5.24022 -4.59975 -4.63254 -6.82557 3.33598 6.86569 -2.85978 14.7151 2.01026 -1.40875 0.285383 -0.978028 1.40793 1.62156 -2.56469 1.2263 -3.17532 0.544999 2.21595 -2.10312 1.00249 
10.1078 4.36269 -2.58455 -0.598799 3.44094 -2.25056 -8.50502 -2.60347 -10.4801 5.03197 8.99565 -4.13581 15.5468 0.672644 -1.11368 1.34782 -1.59525 0.929802 1.3273 -2.8313 1.13703 -2.46107 -0.32265 0.991364 -2.17485 0.804756 
10.2339 4.06562 -1.06641 -0.281219 3.84437 -2.05378 -10.0649 -3.45079 -14.8916 6.42319 8.81999 -6.29017 16.3426 0.491719 -0.784923 1.97266 -0.604374 -0.90422 0.773762 -2.22193 0.229472 -0.931996 -0.769757 1.05275 -1.27457 0.656231 
10.0297 4.48632 2.34405 -4.89728 4.83071 -0.13438 -15.0683 -1.66568 -13.7408 1.68628 11.0322 -6.70377 16.9999 0.649132 -1.37418 1.91918 0.807823 -1.85182 -0.352817 -0.836976 -0.965237 1.91674 -1.45945 -0.656084 0.512541 0.486476 
11.8518 2.30299 3.44802 0.0393996 -1.52636 -2.4295 -12.4278 -3.95407 -9.8552 1.16004 11.1112 -7.94867 17.2697 0.216711 -0.518626 0.299409 2.7603 -3.30158 -0.473889 1.11449 -2.01738 5.03954 -0.745213 -2.09886 1.3529 0.0328365 
12.5445 -1.62689 4.75415 3.28001 -3.13278 -3.82679 -11.5085 -7.17801 -3.41458 0.366275 4.56965 -0.743857 17.5156 -1.12042 1.28117 -0.810287 4.39054 -0.0328255 -0.570206 3.63508 -1.86828 4.51924 0.172364 -4.92905 1.72369 -0.937101 
10.0601 4.5291 -0.774415 9.43165 -8.6818 -2.57703 -6.27238 -10.7815 5.14302 3.35713 1.55697 -2.5056 16.249 -2.98775 0.829172 -0.0227191 2.90503 3.23541 1.01514 3.97198 -0.918917 3.32875 0.283123 -5.69032 1.04629 -1.02665 
5.3235 9.77914 0.403837 12.3593 8.2443 -2.91165 0.0294189 -7.59337 1.35626 1.44956 -8.83598 -0.806868 12.8248 -2.86145 0.091448 -0.359052 -1.20847 1.93216 0.564501 2.03578 0.713266 1.83563 0.940431 -2.84231 0.993064 -0.224234 
0.523513 0.745834 5.50958 10.0249 8.96214 2.18865 1.6632 -8.34098 4.40312 2.03401 -10.6376 -2.68571 14.4819 -0.464718 -3.17984 -0.170837 -4.68045 -0.224575 0.270247 -1.26519 3.62934 -0.0782091 1.28761 1.05328 -0.544493 1.05373 
3.00547 0.721981 -0.183107 -3.05896 -2.29393 -3.38712 -5.29735 -4.83194 6.1335 5.72998 -3.54458 4.31152 17.278 1.41923 -4.61876 -1.58939 -5.10458 -4.13413 0.767688 -2.32008 4.76741 0.344173 1.52308 3.55064 -3.16141 1.93693 
8.89549 -6.84154 -1.33513 -6.26149 -4.53556 -0.988055 -9.93496 5.98448 2.36336 7.65498 4.17767 -7.78726 19.291 2.13752 -3.05529 -2.9123 -2.78447 -3.46848 1.32342 -1.66102 5.12378 -0.0690744 0.913964 1.93913 -4.25922 1.40881 
8.23367 -9.52095 -4.12076 -5.02043 -5.67751 2.51514 -5.77188 9.08094 4.09701 6.25445 1.50957 -14.0631 20.1049 1.01327 -3.09636 -1.71306 0.0313656 -0.113223 2.08211 0.378634 3.32196 0.176562 -0.533955 -0.764737 -4.10518 0.75336 
8.59703 -9.40916 -7.08308 -2.91675 -6.68847 5.85461 -6.40464 10.3215 5.076 6.3416 -3.46906 -14.7945 20.1125 -0.1717 -2.06977 -0.815006 0.354094 1.19068 0.671164 1.12793 0.665897 1.21347 -1.52685 -1.87101 -1.21153 0.368844 
8.22106 -13.476 -5.87443 -4.57451 -1.78359 3.6021 -5.16933 9.60935 5.66 3.7169 -3.5449 -12.7108 20.634 0.0209928 -1.89973 0.570701 -0.111612 1.70849 -0.73745 0.744563 -0.00234871 1.193 -1.74494 -0.557027 0.0879129 0.235417 
8.0433 -15.2128 -4.53332 -4.71397 -0.529146 1.82429 -4.59656 9.04977 7.64923 1.2895 -2.65012 -14.5211 20.8706 0.0397292 -1.67987 1.44345 -0.587694 1.33382 -1.53862 0.846721 0.00811987 1.0474 -2.10329 0.510393 0.212898 0.161348 
8.6155 -16.1178 -2.54213 -4.67987 -0.214731 0.843052 -2.95311 9.70505 8.77538 0.0558116 -1.68504 -13.7603 20.9029 0.102687 -0.428832 1.12675 -0.141137 -0.476829 -1.05289 0.444627 0.45187 0.679673 -1.74164 0.280979 0.3431 -0.0140373 
8.59845 -16.4876 -1.532 -5.80253 -0.803786 -0.458976 -3.27915 10.3142 8.7553 -2.34432 -1.84703 -13.2053 20.7848 -0.0941048 0.686861 0.719342 0.200581 -1.57689 -0.894916 0.737113 0.109562 -0.0714991 -0.662435 0.120234 1.32988 -0.135443 
8.45692 -14.9828 -1.74136 -4.73591 -4.03041 -0.52072 -3.6049 11.2365 8.50532 -3.17438 -2.54155 -11.6532 20.6068 -0.225732 1.48422 0.479712 0.629505 -2.55191 -1.10354 0.998336 -0.574179 -1.30551 0.0922053 1.1407 1.62096 -0.223387 
7.65207 -12.346 -1.337 -3.68305 -6.50575 -1.96841 -0.5851 8.83186 7.42676 -0.407582 -1.62069 -8.92525 20.3415 -0.282518 1.43113 1.22783 0.829787 -2.22774 -1.13952 1.30508 -1.0485 -2.09062 0.739212 2.28026 1.98177 -0.177641 
7.96003 -10.7675 -0.241073 -2.59209 -10.1233 -3.91991 0.691548 7.57533 2.9121 -0.45153 3.90531 -7.79549 20.0077 -0.398245 0.644052 1.68876 0.697958 -1.56297 -1.22477 1.03989 -1.18978 -2.16098 0.141691 2.44717 1.98957 -0.0556099 
7.43431 -11.4396 3.857 -2.72551 -8.89601 -4.457 1.098 6.90229 1.09883 -0.00968671 6.33085 -5.22525 20.1962 -0.339229 -0.0647875 1.51264 0.367122 -1.05002 -0.398608 0.277589 -0.694701 -1.2989 -0.844944 1.90347 1.40708 0.0526329 
6.57458 -12.2157 4.10546 -1.72489 -10.6501 -5.40027 0.753011 6.25236 0.864397 -2.66488 5.71852 -3.55535 20.4014 -0.347108 -0.294657 0.899663 0.210244 -0.705309 0.296038 -0.129476 -0.208694 -0.0776156 -0.915781 0.409202 0.954421 0.10438 
6.64865 -11.9458 4.05295 -2.28104 -11.4925 -3.22126 0.772111 6.01985 1.9561 -3.52563 6.99006 -4.00994 20.4078 0.0650222 -0.127928 -0.44789 0.288424 -0.566746 0.73513 -0.283818 -0.0539332 0.308522 -0.0157332 -0.661737 0.127596 0.0115528 
6.61732 -11.9877 4.15926 -1.7631 -12.3516 -3.05758 0.207112 6.97308 2.09539 -3.27246 5.62171 -3.63104 20.4237 0.25031 0.000915146 -1.16211 -0.041678 0.525902 1.13314 0.323199 -0.14691 0.895305 0.353988 -1.27968 -0.725846 -0.0773844 
7.73804 -12.1933 1.59064 -1.26428 -10.879 -1.95269 -0.0481434 6.27226 2.02595 0.215441 3.07057 -4.54943 20.2427 0.332524 -0.167287 -1.7682 -0.214168 1.25206 1.65173 0.179107 0.466592 0.556583 0.619483 -2.79277 -0.845822 -0.114746 
7.28143 -12.0874 -0.473956 -2.44166 -8.32737 -0.368868 2.77913 5.3916 5.306 -2.76547 1.27988 -6.91483 20.097 0.468707 -0.0378839 -2.04454 -0.31865 2.17922 2.17518 -0.617388 0.804072 0.351697 0.890466 -3.67538 -0.750759 -0.189324 
7.97921 -12.7324 -2.47142 -3.0126 -7.24428 3.69305 0.381637 9.14354 3.13371 -0.681714 -4.80285 -6.59716 19.9974 0.43909 0.167401 -1.73771 -0.154772 2.15122 2.58355 -1.97946 1.05889 0.0959535 0.553113 -2.9345 -0.520371 -0.194079 
8.84027 -11.9075 -4.0324 -2.48219 -3.2729 4.99543 -3.09472 9.5578 3.29999 1.62844 -8.81848 -6.36097 19.5998 0.848449 0.263532 -1.58796 0.291943 2.26216 2.36341 -2.82339 0.175405 -0.139116 1.06786 -1.42365 -0.131362 -0.200552 
9.15407 -11.4462 -5.31868 -2.01788 -2.65011 8.28291 -7.00849 9.4836 3.50872 0.78405 -6.55274 -7.42821 19.5209 0.943009 0.727774 -1.66201 0.151631 2.1729 2.12302 -2.58318 -1.52063 -0.0436353 0.40791 1.28278 0.115919 -0.232041 
10.9362 -11.4128 -6.99012 -1.47931 0.68636 9.15323 -7.64273 6.0986 4.42291 1.84097 -4.96341 -7.15611 19.3325 1.1799 1.31852 -1.22261 -0.693234 1.8522 1.48522 -0.935851 -2.90321 -0.706963 -0.946819 3.25329 1.37753 -0.396725 
11.6463 -9.34089 -9.30261 -2.75589 1.64057 12.2292 -10.2602 3.26999 2.35407 1.25157 -0.316485 -5.61999 18.9709 0.871768 2.50938 -0.526024 -0.186626 1.68297 -0.652952 1.13072 -3.51596 -1.86713 -1.52715 3.10225 2.53946 -0.7547 
13.4937 -6.36761 -8.15347 -5.57935 3.84278 10.4484 -6.1481 -1.85147 0.3425 -3.33941 4.32985 -0.377412 17.8912 0.21323 2.75859 0.171809 0.756665 1.31763 -2.34276 2.9469 -3.15088 -2.44084 -1.03515 1.59773 2.13276 -0.871091 
12.2342 -1.42198 -7.36713 -0.900986 4.18654 4.37059 -2.10223 -4.12117 -3.78672 -4.26152 4.31187 1.87973 16.4681 -0.143517 1.88431 0.867381 0.736198 0.874292 -2.86907 3.44543 -2.50849 -1.04492 -0.543207 -0.369686 1.69936 -0.655158 
11.7084 -1.57932 -7.09882 1.37656 6.00154 1.36873 3.01277 -5.96022 -4.7109 -0.578231 0.71107 -0.242156 16.2284 -0.00314788 0.874435 0.481875 -0.172605 -0.278962 -1.42246 2.1509 -1.11749 -0.0823257 -0.4322 -0.356328 0.707755 -0.16921 
11.8213 -2.3135 -5.49303 -2.55286 4.93265 2.4237 2.38645 -7.21808 -0.34381 -2.84505 -0.355521 2.80918 16.5265 0.115891 0.0441239 -0.320507 -2.05211 -0.526465 0.453188 0.773557 -0.0315849 1.06419 -1.03529 0.347062 1.13107 0.328397 
13.6844 -1.54968 -6.68114 -5.61644 2.07492 4.30948 2.36204 -5.89045 -1.79058 -6.20865 4.88191 2.69664 17.0159 -0.0840631 -0.15138 -1.12681 -2.63232 -0.266527 1.95508 -0.835498 0.789399 1.21824 -1.47441 0.818628 1.33754 0.533795 
11.8257 -1.21618 -9.1785 -7.66502 3.51753 5.16615 2.09092 -4.31398 0.0740551 -6.62276 3.96176 6.0657 17.7163 -0.205194 -1.03922 -1.28145 -1.12957 -0.332544 3.07735 -1.60529 0.975968 1.25571 -0.77055 0.892161 -0.724711 0.540166 
11.2859 -2.88488 -10.8901 -9.22894 5.37646 9.77289 -1.01696 -3.46528 1.17136 -6.06144 2.64557 4.8173 18.3025 -0.365386 -1.95568 -0.599425 0.0786655 0.213314 2.71537 -2.14365 0.598895 1.95145 0.401583 -0.517643 -2.11076 0.476768 
11.9946 -6.84198 -9.7958 -6.39444 1.61915 15.0787 -3.95052 -3.55082 4.45377 -6.77141 5.22345 -1.87471 18.584 -0.249259 -2.40698 0.400596 1.38683 -0.546411 2.00551 -2.40934 0.994313 1.8236 0.861885 -1.08671 -3.43435 0.378752 
11.773 -8.51517 -9.36962 -5.85841 4.09068 12.93 -5.33548 -3.27755 5.7768 -4.12641 1.66284 -3.88695 18.9659 -0.743027 -1.99813 1.54121 1.4597 -0.527377 0.166341 -2.28651 2.47789 0.605444 1.61639 -2.09046 -2.86763 0.310164 
10.3358 -10.4359 -7.93577 -2.41612 1.42837 13.6152 -7.79653 0.563726 6.88935 -3.28086 -0.980431 -6.75395 19.2783 -1.40512 -0.67766 2.05311 0.529238 0.881883 -1.86514 -1.59691 3.1286 -0.474146 1.80256 -3.35213 -1.12311 0.191811 
8.40015 -11.0785 -4.11407 -3.91962 2.83497 11.3364 -10.5265 6.86688 2.9808 0.275226 -4.70481 -7.08122 19.5061 -1.17465 1.05942 2.13454 0.408947 1.1503 -3.08032 -0.310339 2.84031 -1.10303 1.68792 -3.20158 0.222798 -0.233792 
6.65537 -8.94859 -2.15804 -4.71764 6.65642 6.54984 -9.33956 7.01996 3.48105 0.0405796 -8.35336 -5.89313 19.273 -1.50999 4.43688 0.674401 1.15344 2.45498 -4.55305 2.96108 1.14068 -1.59824 1.31153 -3.22069 3.2449 -0.815473 
7.73999 -3.96175 -1.5858 -2.66291 7.22813 1.06107 -6.11566 7.69586 1.9658 2.65248 -10.6586 -3.20337 17.7996 -3.57074 6.62344 -0.398526 2.39025 2.86284 -3.76663 6.61759 0.602827 -1.12783 -0.996679 -1.78244 3.01632 -0.712425 
3.11599 8.19007 -5.8279 2.72273 11.5067 -4.01241 4.80346 5.85264 -0.594356 2.08816 -14.107 7.5316 16.0542 -6.23858 5.43628 -0.828893 2.55885 2.86686 -1.68458 7.22452 -0.613042 -0.984026 -0.53192 0.426367 2.15667 -0.0869274 
-7.68387 13.4693 -4.27178 4.31144 14.724 -2.21563 15.4899 10.4647 -0.620641 -5.73196 -10.7402 1.28801 17.5534 -7.76457 2.63249 -0.846067 1.33099 2.06576 0.130058 4.49442 -1.9282 -1.49633 -0.655649 1.82403 1.88193 0.604411 
-16.8256 9.51726 -4.95952 4.58944 17.2428 -0.234692 15.9802 2.57034 -0.145859 1.5732 -6.18071 2.64452 18.9615 -6.3693 -0.777246 -0.0300556 -0.285975 -0.877687 0.110529 0.0480101 -2.75056 -0.965976 0.273569 2.80228 1.72834 0.900089 
-21.1121 8.53709 -6.25033 3.05867 14.6889 -0.177501 10.768 -0.303997 -5.74012 -0.368282 -5.50159 8.6498 19.3681 -3.57584 -1.31208 0.487927 -1.40222 -2.55965 -1.13119 -2.35752 -1.69687 -0.315507 2.38143 2.35906 2.91883 0.550761 
-22.0164 6.76995 -4.9889 1.91924 7.13583 -4.47883 7.40445 -2.51581 -2.8645 0.774168 -2.71492 12.4924 19.6473 -1.6527 -0.666205 1.52156 -0.690072 -2.59109 -0.986543 -1.90235 0.147749 -0.900914 0.87721 1.25066 1.61483 0.261881 
-22.9677 8.28259 -1.81745 -1.36458 6.97926 -5.74953 7.9902 4.52339 -0.838858 6.57472 -0.6778 10.9582 19.9642 -0.897951 -1.0429 1.50264 -0.3984 -2.74051 -1.31699 -0.0360305 1.84053 0.562753 1.4954 0.224922 -1.11144 0.148828 
-24.1613 6.31348 0.431829 3.35071 8.14211 -2.38139 7.85739 0.89539 -7.10106 2.48775 -2.33931 9.56445 19.9728 -0.482391 -0.990035 0.626754 0.0523534 -1.60857 0.435987 1.85051 0.854355 0.023929 0.597804 -1.9698 -1.67355 0.0998863 
-24.5294 3.55081 -1.44749 0.350938 0.483166 -7.81118 10.3614 7.19304 -0.808072 6.25193 -4.56478 4.55657 19.9495 0.182579 -1.1231 -0.312554 0.198883 -1.91381 0.0837237 0.414032 -1.28244 0.927814 0.848647 -2.2602 -2.11332 0.0279524 
-23.6475 4.18567 -2.04011 1.32325 2.34104 -1.26807 15.4714 0.421137 -2.76024 3.92459 -10.6204 7.32549 20.1541 0.492499 -0.256977 -0.0586197 -1.31684 -1.85062 -0.281814 -0.505616 -2.14862 0.983591 1.51415 -0.978925 -1.24356 -0.00721645 
-22.3117 3.73098 -2.14425 0.64357 0.310731 -5.88757 6.25335 -1.65168 1.6298 10.0995 -7.83822 1.51111 20.0133 1.72384 1.98802 1.64251 0.472631 0.837596 0.321714 -1.27152 -2.62546 -0.514922 -0.947168 0.264481 -1.07653 -0.172818 
-22.8076 4.93852 0.487111 -3.37981 -1.02478 -4.75226 7.38334 -5.42537 -3.40204 8.1347 -5.59722 4.8694 19.9048 3.9102 3.67372 2.83617 0.346583 -1.0837 -0.614754 -1.38874 -1.44336 -1.68201 -1.47803 1.99838 -0.359602 -0.446218 
-16.3301 13.1145 5.50143 5.06562 6.35405 -4.46051 8.04786 -3.01101 -3.06178 -0.588969 -5.75399 0.401978 19.2101 5.43792 2.90319 2.84672 0.232425 -1.7474 0.330926 -1.11924 -0.513415 -2.16181 -3.33926 1.01017 1.13101 -0.582368 
-7.08725 17.8625 8.3179 0.845135 -6.09912 -5.05536 7.63043 -6.11597 -8.82452 1.8787 -1.67067 6.08204 18.3247 5.62065 0.387967 2.74186 -0.20527 -1.99359 0.543405 -2.73641 -0.0865856 -0.40638 -3.17027 0.775782 0.724239 -0.419811 
-2.98228 11.7849 8.17397 -0.306779 -5.88911 -4.08139 0.533609 -3.87345 -6.468 -3.46874 -4.75063 6.55983 17.8915 3.76593 -2.89625 2.78209 -1.57105 -2.93824 1.43403 -3.20127 -0.505283 0.144309 -2.67497 1.74411 0.377863 0.0070406 
-1.37833 7.54313 12.8602 -1.71996 -4.87116 -2.2248 -2.5416 -5.42708 -3.73083 -6.27674 -2.21998 5.41167 18.465 1.57924 -3.85988 2.84448 -0.239606 -1.18559 2.30127 -3.18466 0.25885 0.833012 -2.94658 2.08821 -1.48025 0.369666 
-0.3549 3.79291 17.1407 -1.50706 -8.95114 1.29437 -2.87246 -5.88188 -4.88708 -9.88612 3.24121 2.62648 19.1751 0.634618 -2.39301 2.86189 -0.243686 -1.56929 2.11409 -1.63822 0.114583 -0.0307073 -1.3765 2.47784 -1.73603 0.455653 
-0.504737 2.55911 18.0569 0.247242 -10.4961 3.76308 -6.58986 -3.81751 -5.44992 -9.64551 4.77448 0.647465 19.5312 0.533269 -1.09486 1.50895 -0.329179 -1.74979 1.97906 -1.46949 0.380557 0.0944034 -0.706363 1.76172 -1.8924 0.243586 
-0.245988 2.3119 19.885 -2.50881 -10.9231 3.49511 -5.63334 -4.10532 -5.76199 -8.66684 4.14133 0.261786 19.6367 0.27652 0.050394 0.45636 -0.67924 -0.39075 0.753125 -1.31751 0.452368 0.160431 0.0514145 0.850612 -1.80742 0.0120077 
1.23356 2.80932 19.0327 -2.86498 -12.6342 6.57012 -8.50859 -4.41257 -2.82136 -10.4182 6.13856 -2.86799 19.4521 0.306905 0.353846 -0.0418962 -0.767211 0.184433 0.209446 -0.611391 -0.0535985 -0.290999 0.430326 0.500395 -1.21182 -0.142791 
0.15855 3.91977 18.9346 -3.34714 -9.83584 3.65648 -8.50064 -3.32251 -5.39921 -9.24271 6.81222 -4.6529 19.2747 0.111749 0.766925 -0.986465 0.0314259 0.566559 -0.0258025 -0.451675 0.130274 -1.07037 1.00438 0.406125 -0.933046 -0.291493 
0.827518 3.5244 18.3226 -3.16964 -10.1175 4.72963 -8.21316 -4.47691 -7.08631 -7.20595 5.941 -2.9543 18.9983 0.293437 0.599717 -0.667353 0.291803 -0.0353498 -0.513839 0.467802 0.153282 -1.19967 1.44196 -0.403595 0.0189882 -0.370854 
0.515776 5.78899 15.3078 -2.19935 -9.34861 4.28634 -8.03943 -3.42178 -8.98136 -5.25109 6.27073 -4.36029 18.4062 0.588578 0.967787 -0.998122 0.598397 -0.630168 -0.221247 0.603158 -0.354358 -0.365376 0.755478 0.00943565 0.0610438 -0.459978 
2.52213 4.8733 17.5094 -1.97986 -13.0545 3.68599 -6.40019 -3.59652 -7.02864 -5.20421 4.39133 -2.91935 18.0321 0.526069 1.31009 -0.53429 0.266787 -0.215908 -0.2662 -0.189561 -0.487549 0.590207 -0.6425 0.48054 0.620432 -0.393081 
2.25414 8.08426 14.3506 -0.950047 -11.5182 3.07206 -6.39134 -5.53449 -7.25492 -6.46619 7.63424 -4.36515 17.4579 0.666554 1.07833 -0.136298 0.250555 0.838564 -0.76206 -0.371258 -0.342741 -0.457734 -0.560412 -0.231493 1.51576 -0.429477 
2.58868 8.92724 16.1297 -2.46036 -10.1123 4.00577 -9.98501 -5.8583 -4.99849 -9.8109 7.66195 0.150293 17.507 0.503105 0.750614 -0.310141 0.342239 1.45549 -0.320803 -0.676849 -0.196081 -1.0314 -0.342533 -0.743616 1.35778 -0.397826 
3.81527 9.15365 15.3161 -0.706322 -6.62691 0.31615 -8.10331 -4.00459 -12.2851 -5.7498 3.47796 1.68368 16.5213 0.426033 -0.130585 0.294505 0.0469842 0.91075 -0.531144 0.179186 -0.277001 -0.127963 0.266197 -1.36164 1.03931 -0.262638 
4.25709 8.09168 15.476 -0.390533 -8.2227 3.45994 -8.92845 -5.34188 -9.67052 -7.27507 2.75139 0.845125 16.5113 0.14847 -0.690508 0.403459 0.115718 0.165347 -0.987845 0.610121 0.22534 0.158806 1.01521 -0.99144 0.218501 -0.195447 
3.5501 7.84911 16.15 -1.75004 -7.90922 0.689261 -6.02369 -7.17771 -5.55872 -6.40312 3.28131 0.483972 16.6425 -0.614799 -0.999671 1.39301 0.335538 -0.969638 -0.990992 0.0360968 0.421352 0.775829 0.385141 0.0243091 0.195866 0.0591051 
3.46362 6.12697 17.7301 -1.35991 -8.64438 -1.12001 -7.97422 -3.14505 -7.56765 -4.40821 2.80308 1.84265 16.4692 -1.04682 -1.32317 1.33168 0.503364 -0.622873 -1.2381 -0.220366 0.870779 -1.18059 0.436971 0.275116 0.553075 0.178899 
1.13801 5.13765 21.1541 1.45606 -11.2643 -2.34883 -8.39994 -2.99625 -9.4574 -5.25752 3.57366 2.16425 16.8379 -1.16588 -1.61713 0.767787 0.855793 -0.588321 -0.0624018 -0.952147 0.971 -2.16775 -0.29383 0.895143 0.0935103 0.283891 
0.229037 2.83155 19.6323 0.523241 -9.65955 -1.21151 -8.84215 -3.07872 -13.6241 -5.66301 3.98079 2.77036 17.3081 -1.22243 -1.20115 -0.172039 0.300363 0.416294 0.461565 0.343735 0.0242978 -0.569781 -0.761474 1.19216 -0.794213 0.300276 
-0.66202 1.41116 19.0378 1.58735 -10.3432 0.423002 -10.3505 -2.35587 -13.3692 -7.24487 7.16817 0.487669 17.6425 -0.398838 0.216031 -1.95415 -0.41349 0.9177 -0.320754 1.14498 -0.645339 0.736911 -0.866145 0.577383 -0.164164 -0.118695 
-1.7485 1.98447 17.928 0.0762587 -7.02342 -0.198104 -5.28028 -3.34374 -8.46065 -7.22191 6.96661 -1.29012 17.5682 -0.582523 0.612971 -5.0279 0.450846 2.65653 -2.7614 0.429728 -2.2462 1.92407 -0.213203 -0.104493 -0.0695805 -0.905527 
0.132587 6.64134 12.2355 -0.387906 -7.99382 -4.45931 -4.45596 -6.09043 -8.35458 -8.8088 4.96767 3.37367 16.1144 -0.87578 0.725708 -6.85773 0.825747 3.9391 -2.80136 0.899611 -1.70536 2.84082 0.892501 -1.98147 1.345 -1.47196 
-3.08088 3.28132 -2.10602 3.7651 2.44838 -12.5773 -9.64076 -12.4425 -6.51109 -5.94706 4.55858 0.979462 13.5445 -1.13987 -0.220473 -7.29462 0.82555 3.82822 -0.92612 2.78002 1.19532 2.81296 1.75537 -2.64378 1.90338 -1.52455 
-4.37473 4.39128 -5.23379 3.87167 4.61637 -7.39419 -3.67216 -6.33334 -0.139909 -3.41979 -1.53517 6.07788 12.2946 -1.32198 -1.28874 -5.21087 -0.546449 3.06597 0.814794 3.71631 4.21946 4.96355 3.74121 -1.84977 0.734072 -0.984155 
-5.19418 2.00714 -9.81048 2.07422 5.81259 -3.36126 8.22789 2.7543 1.49681 -1.13958 -3.00086 6.87469 11.8554 -0.584026 -0.867436 -2.26539 -1.2619 0.851713 3.36256 3.84011 4.20527 3.80484 2.6363 -1.34869 0.835798 -0.348449 
-5.42067 0.834753 -9.96663 -2.27471 5.6539 -4.99338 5.19128 7.40851 12.4592 7.49353 -0.50144 4.09641 12.0382 -0.385357 -0.671259 -0.295667 0.345638 0.620212 1.87183 1.5874 1.63106 0.8043 1.4122 0.275509 -0.061867 -0.0945303 
-5.47804 0.722402 -11.0666 0.528799 6.18818 3.03505 5.12807 1.71299 6.21354 1.7778 -2.70173 6.14919 11.9305 -0.125825 -0.486896 3.52324 0.498685 -2.02864 -0.968432 -0.970441 -0.890974 -2.72797 0.144627 1.07126 -1.19881 0.446115 
-6.15959 1.67735 -6.08408 6.37257 7.52963 -1.23319 5.81475 2.34264 1.52323 2.18251 -0.307188 6.1313 11.7844 -0.39264 -0.591469 3.43517 1.69308 -2.69479 -2.88827 -1.61744 -2.04869 -4.90371 -0.861287 1.77797 -0.795779 0.607165 
-5.45385 -0.848641 5.86445 0.244008 -5.26846 -10.0835 3.06395 0.832372 -6.675 2.23907 2.2583 -0.136787 14.2128 -0.535262 -0.977369 1.01217 1.18004 -0.741419 -1.83022 -0.445272 -0.901456 -1.65354 0.558442 1.25492 -0.127297 0.315271 
-7.39597 -1.33707 -1.25628 6.33307 -2.09172 -12.8755 -1.86386 -2.39464 -5.61502 2.95646 5.9084 3.26051 13.9328 -0.439236 -0.842613 -1.64739 -0.124099 0.624708 1.08198 0.476684 0.455624 2.60641 0.811379 -0.519925 0.52629 -0.0833674 
-7.53616 -2.65723 -8.41964 6.44877 7.29176 -0.294897 6.74101 -0.425646 1.51497 4.18303 0.465081 6.9481 12.4326 0.0639391 0.597123 -3.38725 -0.512629 2.0443 3.18452 0.98331 0.491389 4.13967 0.541941 -1.93624 1.56392 -0.605343 
-7.31461 -1.63142 -7.17899 2.64969 4.37306 -0.717623 6.35964 5.24977 10.4603 5.26742 -2.01021 5.22031 12.2577 0.648798 1.21249 -1.25874 -0.889381 1.30127 2.57987 1.50033 0.182569 2.45372 0.206361 -1.64534 0.503355 -0.447517 
-5.17483 2.28415 -8.11045 -0.47745 1.72064 -0.239845 3.86875 -0.532887 5.98571 3.79329 -3.46361 6.70289 12.0237 0.16939 1.1092 0.189727 -0.726069 0.527148 0.272355 -0.378377 -1.5156 -0.572437 -1.15492 -0.488654 -0.121256 -0.0350428 
-5.33264 2.25469 -7.70456 5.34927 7.20021 -0.00364351 7.07394 -1.42818 4.41822 4.18314 -0.35393 5.89989 11.8997 -0.313166 0.800813 0.0265798 0.590704 0.919115 -0.294939 0.0725072 -1.46654 -0.868211 -1.75466 -0.649614 0.207254 0.155446 
-7.68019 0.945707 -7.20822 1.46863 8.51392 0.709888 4.49198 -4.66466 1.67382 -1.04941 -2.80633 6.00203 12.4364 -0.742927 -0.151305 -0.0087954 0.848581 1.096 0.398154 1.68735 0.247411 0.733702 -0.606565 -0.0731355 -0.437382 0.152033 
-7.62776 3.04186 -7.49721 4.63017 5.572 -2.66719 6.41056 -0.0170223 8.27518 -1.08454 -5.58692 6.60701 12.8285 -0.0828526 0.0270164 -0.234849 0.170007 -0.0633645 0.30346 1.50225 1.28298 0.433586 0.410559 -0.429131 -0.713603 -0.0210312 
-7.74191 1.13403 -8.2581 4.125 8.01474 3.08269 12.6372 -0.00141051 7.72574 3.3943 -1.21279 4.16242 12.3195 0.0643995 -0.191275 -0.103505 0.375749 -0.01094 0.641894 1.52424 2.06885 0.37519 1.87362 -0.0431815 -1.20767 -0.171348 
-5.71605 2.29561 -8.35387 4.87112 7.13298 0.327252 10.5126 2.65511 3.56019 4.01408 -3.29635 3.25168 11.853 -0.586748 -0.966818 0.321134 0.385175 0.478079 0.537639 1.1814 0.716563 -0.379407 0.865947 -0.235326 -0.814993 0.134677 
-8.31405 0.362461 -7.29741 3.2269 7.67873 2.42214 10.0622 4.3435 5.90727 5.7694 -4.16752 1.64133 12.0674 -0.802442 -0.829659 0.190238 -0.700641 -0.604579 -1.04625 0.292492 0.0638711 1.07747 0.889199 0.276731 0.918285 0.353648 
-10.2754 -1.40644 -6.37188 7.0051 8.1304 0.351286 13.605 1.39334 7.28738 2.05765 -5.28619 3.79258 13.6279 -0.310568 -0.250364 -0.123013 -1.19659 -0.89987 -0.930104 -0.377597 -0.618704 1.61661 1.18589 0.352715 0.481645 0.174059 
-9.47443 -1.16324 -8.2979 -0.445189 4.49314 -2.16059 12.5534 0.948831 11.2495 8.81852 1.16578 8.48339 13.2002 0.472552 0.601827 0.0644537 -1.02939 -0.651978 -0.395923 -1.13046 -0.627329 0.12321 -0.301667 0.298216 0.7822 -0.0880232 
-6.68871 1.80664 -8.46869 0.724202 4.22643 -2.03191 7.37899 1.25893 8.97215 8.41897 -4.19942 2.23888 12.1569 0.681706 1.19088 -0.113553 -0.63302 0.359438 -0.09693 -2.13943 0.300472 0.663889 -1.13068 -0.795398 -1.04604 -0.229379 
-7.74465 1.76506 -5.92674 1.22042 6.37083 1.63412 7.52293 1.27406 5.68094 1.08041 -3.21982 6.32919 12.3628 0.393543 0.671296 0.23425 0.908498 1.38965 1.21234 -1.48795 0.357064 0.610824 -2.24769 -0.857208 -0.861095 -0.101877 
-7.73178 3.08379 -8.12523 3.00719 8.98875 -2.03072 5.42314 2.73308 13.3911 0.273327 -7.07038 -0.360528 12.8998 0.0166552 -0.071434 0.0968958 0.619859 1.2357 1.41312 -0.400611 0.219931 1.26571 -1.29596 0.656431 0.56259 0.028166 
-6.98517 1.55467 -7.29839 2.9558 9.06024 3.9005 6.0916 1.99707 12.0941 1.6529 -1.68478 5.47761 12.3194 0.226558 -0.194991 -0.191644 0.341938 0.545031 1.0464 -0.21942 0.0710024 1.15294 0.252456 0.845567 0.4135 -0.066707 
