-6.65523 3.19785 -2.26436 5.86666 7.17185 3.84993 6.85755 3.05013 4.94122 -2.07856 -4.81745 7.80614 12.0593 -0.898909 -1.13936 -0.359719 0.232063 -0.419665 -1.03539 1.33003 0.513384 0.126049 0.464527 -0.101729 -0.660471 -0.0205611 
-8.59027 0.0480933 -3.85129 8.38465 9.1911 3.62455 13.2665 6.04157 4.58492 1.0754 -4.25641 7.36615 11.9704 -1.04001 -1.0872 -1.12735 -0.443734 -0.906282 -0.905767 0.821486 0.105436 -0.582972 -0.283082 0.899244 -0.296639 -0.0032136 
-10.1823 -0.924066 -3.26948 5.76798 4.0639 -1.21434 10.3033 4.12133 5.74962 -1.33291 -5.60662 4.72379 12.0009 -0.505798 -0.780142 -1.52652 -1.29542 -0.97949 -0.381862 -0.603768 -1.70649 -0.434951 -0.592074 -0.165297 -1.8717 -0.0155069 
-10.0918 -0.177184 -7.39855 3.69733 4.19442 1.85324 9.24213 3.04171 1.62217 -3.8668 0.0733528 7.86413 12.0724 0.280896 0.110405 -0.801155 -2.24501 -1.57677 -0.0548875 -1.46467 -1.3316 0.749235 0.690584 -0.371329 -1.10868 -0.0307377 
-8.43347 -0.590221 -8.12334 1.7332 4.77274 2.82628 5.8509 -3.98241 4.24785 -2.56783 -7.80882 -1.80136 11.9307 0.883658 1.03545 0.977051 -0.589903 0.583967 1.44992 0.393132 0.331842 0.92559 1.10662 0.0334538 0.575169 -0.0282514 
-8.06018 0.433197 -5.43014 -0.823 0.952841 1.3298 8.1693 3.43546 9.08198 5.14578 -5.01196 5.08531 11.8518 2.05985 2.81782 3.31546 1.17417 0.267317 -0.609232 0.290607 -0.473681 -0.821202 1.0682 -0.470686 -0.331665 0.0646878 
-6.77976 3.94802 0.631569 5.07863 8.60452 6.29695 12.8053 5.58366 6.64766 -0.306116 -2.89669 8.98904 11.9699 2.58424 3.59795 4.23038 2.81331 -0.165352 -2.24392 -0.456783 -1.3546 -3.16499 0.0968112 0.261674 0.638268 0.226989 
-0.619369 11.6428 4.80132 7.89545 3.61511 -2.92826 7.21795 -4.10973 -3.68375 0.343337 -4.73614 0.810602 12.3762 2.48173 3.22696 3.13647 3.20334 0.165852 -2.44883 -2.23752 -3.62004 -3.97123 -0.18506 -0.277141 -0.786222 0.246137 
0.767331 11.7947 7.91281 11.4405 2.61485 -6.2643 4.04265 -6.98282 -5.19421 0.31745 -6.63836 3.52734 12.8035 1.39747 0.710521 0.0436823 1.72864 1.96332 -1.72418 -3.12485 -2.32675 -2.33292 -0.312852 -0.498869 -0.263847 0.198674 
0.574907 12.6447 6.61159 12.0127 4.77694 -4.63372 1.36305 -8.38147 -4.85322 3.9087 -4.52683 3.88505 12.6657 -0.703592 -3.50915 -3.93666 -0.750088 4.71095 0.0583665 -1.31138 1.65471 -0.766122 0.337915 -1.57058 1.26369 1.01349 
-0.389531 6.99969 -0.0551538 11.6632 17.8402 -1.47124 0.108531 -3.91421 -4.4322 -3.65306 -5.49569 6.13258 12.8186 -0.746531 -3.79555 -4.86228 -1.92439 4.77883 -0.79722 -0.322365 2.2613 -0.861276 0.72589 -1.92545 0.695756 1.33373 
-3.5589 -3.50542 -10.898 4.03368 19.5572 -5.03296 2.6281 2.62954 -7.89537 4.01817 -13.1604 5.82641 17.4361 -0.43775 -0.781882 -2.29394 -1.45738 1.60685 -2.63565 -0.529486 1.41998 -0.763185 1.51544 -1.28 -0.402476 1.2209 
-0.898424 0.89202 -7.64381 5.80811 19.1189 -10.0508 1.79831 -1.18181 -7.97952 3.89217 -11.9488 6.03544 17.0869 0.888849 2.28842 1.01 -0.565909 -2.56684 -3.9888 -0.337314 -1.1177 -0.733903 2.28543 0.861551 -0.811789 0.768708 
-1.3594 11.7891 -1.06379 7.65338 12.1718 -13.5222 -2.12926 -2.64779 -6.89548 7.71328 -7.70029 1.92124 16.636 2.30535 3.50583 3.77051 0.187851 -3.759 -2.11776 -0.524223 -2.35102 -0.49042 -0.256761 3.20711 -1.06217 -0.0277456 
2.95496 10.7945 0.077729 7.0238 8.69867 -17.1706 0.800642 -6.86404 -8.60166 5.92656 -3.91798 4.02622 17.0621 2.51396 0.939826 2.69554 -0.616464 -3.42039 0.207765 -0.747374 -0.55332 -0.765879 -0.843444 2.33185 -1.72965 0.163335 
6.04116 9.07246 4.0938 4.36509 5.97229 -12.0619 0.505812 -6.28445 -10.0364 1.71717 -1.14026 1.52018 17.3098 2.81678 -1.69744 0.947217 -0.60241 -2.34954 1.87164 -0.529727 -0.139107 -0.746292 -1.65662 2.04558 -1.97737 0.294713 
7.97108 6.94946 3.25511 4.36993 5.1167 -9.74213 -3.2561 -2.13008 -10.2385 2.673 -3.56956 -2.4123 17.5667 1.85018 -1.63923 -0.013835 -0.522802 -1.86253 3.0294 -1.50671 0.291638 -0.387483 -1.25491 2.26285 -2.59653 0.268805 
10.2164 5.22443 2.08361 5.96826 2.21512 -7.87826 -2.74953 -5.7103 -9.80855 1.05698 2.35342 -4.74633 17.8573 1.04462 -1.28208 -0.80853 -0.706581 -1.26124 2.33161 -1.58764 -0.357552 0.0948836 -0.395687 2.20272 -1.69056 0.261048 
10.1182 4.52242 1.01365 3.6082 1.26463 -4.11544 -5.10526 -5.69293 -10.653 -0.0178854 5.64941 -5.82321 18.1324 0.386236 -0.889966 -0.574762 -1.44714 -0.382073 1.51709 -0.890603 -1.17321 0.328191 0.407405 1.56366 -0.614459 0.217449 
10.1907 3.87558 1.17188 1.21305 1.59214 -3.21715 -6.50779 -6.29079 -9.35471 1.08418 5.26387 -5.22718 18.3322 0.168236 -0.542531 -0.946801 -1.10985 -0.281724 1.37761 -1.05524 -0.567266 0.883678 1.09286 0.0378768 -0.112197 0.139553 
9.91514 3.17405 0.837167 -0.488148 3.51782 -4.48724 -5.82998 -7.7059 -8.82442 4.69643 2.79351 -5.24417 18.4165 0.466392 -0.446932 -1.26428 -0.782076 -0.0667753 0.86423 -0.252514 -0.330703 0.989759 1.69419 -0.675695 0.196064 0.0711882 
11.1591 3.18596 -2.56216 2.46717 -0.320098 -0.804306 -7.66337 -7.54015 -6.30444 4.16412 3.97075 -5.59683 18.413 0.501018 -0.400266 -1.23196 -1.04521 -0.284637 1.27843 0.0565291 0.217467 0.436599 1.67748 -0.0287042 0.137222 0.0405476 
11.9659 2.63257 -3.44071 -0.929241 1.88687 -1.00072 -5.79004 -6.72176 -7.22933 6.91311 2.91749 -4.65806 18.4479 0.39541 -0.529092 -0.972009 -1.44794 -0.699164 1.43165 0.322727 0.720712 0.611437 0.709784 0.491043 0.490047 0.0852823 
11.6704 2.14499 -2.84898 -3.79246 0.984429 1.43173 -6.24512 -5.69552 -7.96925 8.36323 5.05836 -4.83413 18.5192 -0.160657 -1.20244 -0.077828 -2.50174 -0.173917 0.84712 0.754673 0.869028 0.656486 0.887528 0.40509 0.419766 0.228778 
11.6366 1.04908 -3.87947 -4.59805 -0.63026 1.55301 -4.92547 -5.02465 -4.93483 6.14579 4.70492 -3.17529 18.7898 -0.578911 -1.34053 -0.584165 -1.93373 -0.546132 1.0148 0.396692 1.0718 1.83899 -0.0591465 0.722979 -0.0961938 0.393325 
10.5205 -2.03448 -2.73192 -8.20714 0.0688848 2.15443 -4.32229 -4.04356 -4.16927 8.98542 5.10249 -4.23938 19.386 -0.816956 -1.57816 -1.21038 -1.68475 -0.0189617 0.703118 0.985362 1.28057 1.66209 0.403331 -0.63905 -0.954986 0.513293 
9.64629 -1.98034 -6.42006 -8.39057 -0.386014 3.71192 -4.76799 -2.18875 0.0656297 6.30629 6.51033 -5.4364 19.9812 -0.135478 -1.8525 -1.01441 -0.867155 -0.285978 1.30854 1.10597 0.933316 1.38675 0.328742 -0.673737 -2.01026 0.397068 
8.58074 -4.23112 -7.63059 -10.32 0.767498 3.86786 -1.39705 -0.710618 -2.15905 10.2996 0.96041 -8.4785 20.49 0.679621 -2.03146 -0.941403 0.203512 -0.648122 1.90249 0.974767 0.270363 1.45177 -0.428727 -0.919151 -2.0641 0.248036 
11.9291 -7.11508 -6.5022 -7.87742 -2.40946 7.23897 -0.858231 -2.02454 0.993804 7.1324 3.40727 -11.107 20.2232 0.902408 -2.48873 0.128607 -0.07061 0.190512 1.56673 0.776068 -0.188877 1.06875 -0.273643 -1.64341 -1.22689 0.153708 
12.7773 -9.62441 -7.39787 -7.44616 -2.16 9.90337 -1.40333 -2.77385 2.62551 6.42873 2.05826 -11.7245 20.5051 0.144795 -1.83164 0.28448 -0.693938 1.44566 0.916534 0.803818 -0.325362 0.972975 -1.30609 -1.63805 -0.175007 0.122761 
12.0601 -11.7273 -5.89339 -10.1805 2.0303 8.52781 -0.88451 -2.10152 3.0171 6.87353 -2.25564 -9.94784 20.7421 -0.250897 -1.22336 -0.252033 -0.541664 1.22864 0.953757 0.596012 -0.456178 0.726946 -0.767824 -2.01561 0.149466 0.136486 
9.23922 -11.0832 -6.51259 -12.6381 5.77591 7.80611 2.63518 -2.29894 1.69418 3.89862 -4.39841 -9.93314 20.8443 -0.0714742 -0.835601 -0.509667 0.443634 0.0836102 1.10689 0.352046 -0.539118 1.05553 -1.36783 -1.29208 -0.175526 0.0648212 
12.4436 -12.5025 -8.205 -7.98977 -0.234213 13.0564 0.102571 -4.54289 5.0942 4.55833 -3.44245 -11.2554 20.736 0.457731 -0.880539 -0.242358 1.15009 -1.26544 1.58557 -0.761375 0.0658035 1.53349 -1.73239 -0.488584 -0.567829 0.0032959 
12.2281 -13.4148 -8.7904 -6.32336 -0.609697 13.1735 -0.136646 -4.24876 6.86461 0.747178 -3.80873 -11.9484 20.8323 0.618895 -1.1573 0.549642 1.35326 -1.96095 1.34429 -1.72839 0.855108 1.55907 -1.27213 -0.489552 -0.461435 -0.0237879 
12.8543 -14.9642 -5.96627 -7.58743 -1.10412 13.7719 -3.30547 -0.797594 8.09935 -0.212711 -4.9934 -11.7794 20.7646 -0.0969436 -0.792433 1.33956 0.205928 -0.699045 -0.191273 -1.4338 2.22313 0.440739 -0.855746 -1.03039 0.213828 -0.0397869 
12.1284 -15.6388 -4.88375 -6.07298 -3.59386 14.1698 -4.30276 0.103953 7.98693 -0.0764858 -6.07069 -11.9783 20.7111 -0.333124 -0.224377 1.4107 0.300853 -0.414936 -1.45872 -0.899293 2.41071 0.150066 0.215231 -1.25022 0.641002 -0.0584349 
12.0088 -15.3527 -3.46053 -7.08532 -2.23736 11.6019 -4.98336 4.3964 6.73673 0.691432 -7.46343 -10.1713 20.5977 -0.493515 0.364919 0.879054 1.061 -0.660617 -2.6072 -0.430907 2.4338 0.439288 -0.465626 -0.595568 0.896016 -0.0889482 
10.9852 -14.3425 -2.98977 -5.07015 -2.11776 6.96499 -3.79417 5.2078 8.29625 1.37126 -8.82481 -9.54741 20.6236 -0.384933 0.963599 0.91111 1.02318 -0.576229 -3.47458 -0.997177 2.70018 1.28446 -1.52371 0.157304 1.71184 -0.168049 
10.9583 -13.7878 -2.51799 -2.78382 -5.14526 4.33835 -5.7143 8.81949 10.1411 -3.26472 -6.59418 -8.51475 20.3636 -0.53605 1.28139 1.41479 1.44609 -1.9132 -3.5234 -0.398542 1.80348 0.913723 -1.44776 0.616578 2.17537 -0.264109 
10.7289 -11.6033 -0.799468 -3.10783 -5.02106 0.428673 -8.92318 11.3933 12.707 -5.71697 -5.7188 -4.24742 19.9879 -0.645729 1.52594 2.57439 0.690709 -2.83153 -2.77332 0.300552 0.798973 -0.843327 -0.946345 1.69748 2.71498 -0.330565 
9.45667 -10.3153 2.51829 -0.836047 -10.3517 -2.74696 -4.41157 10.321 9.09996 -3.00325 -5.93355 -1.94443 19.595 -1.09666 1.76195 3.82395 -0.06299 -2.88405 -2.02706 1.24438 -1.15199 -2.85191 0.345197 2.69275 2.90935 -0.287378 
8.5074 -8.44905 7.36404 -2.59049 -13.6722 -3.35896 -2.94277 8.45189 4.6002 -3.4912 -0.667746 0.742321 19.3551 -1.27164 2.2821 3.93957 -0.141571 -2.58764 -0.911832 1.42335 -2.14984 -3.7748 0.287362 3.32758 1.75884 -0.347442 
6.58573 -6.55516 12.52 -3.35744 -15.24 -3.90314 -2.4826 4.53027 -0.0650054 -2.65162 4.34406 3.53715 19.2431 -1.26797 3.32846 2.58612 -0.0831228 -0.835934 0.170212 -0.0197318 -2.93404 -2.38684 -0.777142 2.28347 1.18696 -0.455661 
5.8062 -2.07285 13.8975 -2.55498 -15.5151 -3.55239 -2.77092 3.53951 -1.58449 -4.45597 5.78031 1.806 18.4266 -1.18984 3.38516 1.39879 0.203457 0.506106 0.94219 -1.70415 -1.76276 -1.70759 -1.92007 1.43266 0.302064 -0.451756 
4.4674 3.13889 12.1821 -1.26941 -13.6099 -1.79918 -4.59615 -1.89298 0.258119 -6.40657 2.25977 3.4585 17.7809 -0.998574 2.82824 0.391588 0.417494 1.17191 0.564894 -1.8932 -0.319571 -1.50989 -2.56484 1.31417 -0.146848 -0.382088 
3.61738 3.6297 14.5269 -2.61722 -11.9567 0.300013 -10.4067 2.84969 -4.09932 -11.214 7.5377 2.29197 17.8274 -1.17606 1.95054 0.304796 0.27632 0.964091 0.497571 -1.6774 0.410728 -1.16776 -2.99496 2.28014 -0.45293 -0.134927 
2.68727 4.73476 14.1632 -1.23885 -11.1596 -3.00487 -8.13069 3.27733 -6.35701 -12.0968 10.0362 2.55992 17.6323 -1.01853 0.843532 0.770258 -0.254865 0.326362 0.669442 -0.849523 1.27766 -1.74381 -1.67368 1.98973 -0.651893 -0.00542831 
0.815978 6.88191 14.431 -1.18867 -11.9198 -0.461693 -9.39066 3.008 -4.11572 -16.5857 13.2928 -0.00936127 17.8263 -0.802638 0.595479 0.567407 -0.5023 -0.0503195 1.11452 0.33294 -0.253742 -0.705707 -0.183425 0.577227 -0.747818 -0.0149565 
0.775453 5.73045 16.0814 -3.25802 -11.9965 1.92889 -9.35181 4.41618 -8.45275 -12.0892 9.33089 1.3497 17.7543 -0.671571 0.569742 0.188727 -1.01557 0.665757 1.52806 -0.263231 -0.324578 -0.238797 0.752851 -0.39289 -0.86581 0.00865498 
0.560099 6.10926 16.4049 -4.11913 -11.7898 3.40572 -8.13148 1.01156 -6.57999 -12.135 10.7765 -0.842015 17.6916 -0.699226 -0.663139 0.410815 -0.570102 0.942637 0.731122 -0.19693 -0.0773449 -0.589118 1.33766 -0.682791 -0.612924 0.131706 
-0.542647 7.9698 14.1199 -4.85147 -7.89583 2.70171 -10.0764 2.65266 -6.31887 -10.5579 9.3299 -1.3528 17.7429 -0.8723 -0.177676 0.487618 0.334596 1.05153 -0.416604 -0.0753538 -0.0226581 -0.2113 0.440021 0.0206347 -0.728688 0.0438849 
-2.0211 2.44654 17.4658 -3.24245 -9.25697 2.80751 -10.013 3.50304 -8.12825 -10.663 9.87933 -1.72273 18.4905 -0.528819 0.466933 -0.433619 0.70962 0.254012 -0.300542 0.364763 -1.03603 0.340639 -0.00228853 -0.311081 -0.477732 -0.27391 
-2.29545 6.67343 17.989 -2.02338 -8.00529 0.144974 -8.78782 3.05715 -8.73511 -10.625 9.88264 -1.85338 17.5743 -0.361632 0.598963 -0.669291 1.74066 -0.323638 -0.192071 1.91153 -1.65449 0.118268 0.604974 -0.448225 -0.732863 -0.556892 
-1.2076 9.0921 12.3022 -1.98508 -10.465 3.18138 -6.95197 -4.37086 -3.66867 -12.1128 8.94471 -2.98039 16.4063 0.0873609 0.795185 -1.73605 2.12229 -0.813304 -0.88271 2.48093 -2.66305 0.102091 0.930892 -0.783087 -0.353701 -0.757527 
-2.75756 7.64183 13.3553 3.22314 -8.91 1.55442 -2.04931 -1.68282 -7.95731 -6.8081 7.55608 -4.38829 16.0006 -0.647645 -1.08826 -3.64164 1.79883 0.729929 -2.72077 2.23614 -2.45176 -0.266951 1.82184 -1.22476 1.46743 -1.0954 
-1.35324 5.93826 11.1024 4.74576 -12.8711 -2.31076 -0.977623 -7.44222 -8.0067 -7.91704 7.12718 -2.22378 15.4898 -1.83497 -2.40065 -4.54747 0.982845 3.47535 -1.94745 2.3808 -0.344895 0.519985 2.80254 -2.48907 2.99271 -1.20845 
-5.46085 2.80906 0.380711 3.60537 -3.15259 -10.7128 -0.594299 -7.66598 -7.90086 -3.61372 4.66761 5.10548 12.5555 -2.0608 -2.00303 -3.63022 -1.05255 3.5746 -1.17636 0.557352 -0.00248332 0.970444 2.24038 -2.60088 1.71032 -0.900565 
-9.03079 -0.494752 -3.94785 2.73803 4.03305 -0.422224 4.22454 -3.10375 -1.09698 0.302703 -2.05641 7.23627 12.0866 -1.96791 -0.151373 0.545038 -2.2436 1.64431 -0.153792 -0.560444 0.471752 -1.84817 1.97787 -1.63982 -0.987096 0.161233 
-9.22278 0.843187 2.7293 -1.03573 0.510905 -5.27166 -1.86364 -3.86447 -6.55996 0.283937 -0.856506 -0.566709 13.1993 -0.318733 0.36547 1.40282 -1.74706 -0.575882 -0.536533 -0.568929 -0.462642 -2.81418 0.564428 -0.605883 -2.86323 0.525492 
-9.31183 6.16433 12.6533 -4.15171 -6.48133 -5.8003 -3.14517 -6.98421 -17.918 0.0234951 1.69015 -4.32317 15.974 0.166901 0.212865 -0.564414 -0.0187281 -0.527025 -1.02647 0.778294 -0.116837 -0.187225 -0.042567 -1.00186 -1.24564 0.00822935 
-6.91399 1.30686 -0.905797 -1.68505 -0.774811 -10.7065 0.245911 -8.03896 -13.5613 -0.651977 -0.235081 -3.43097 13.2393 -0.506191 -1.03659 -3.88155 1.45243 1.852 2.37221 3.50531 2.04832 3.77649 0.51028 -0.754437 2.64299 -0.595631 
-9.35068 0.337733 -4.95237 2.96905 2.04078 -2.83715 7.06123 -1.60069 1.46755 0.557826 -7.3764 2.4402 12.1077 -0.592496 -1.62509 -4.2555 2.32983 3.05446 2.77814 2.12943 2.37118 6.47165 1.57106 -0.434138 3.88666 -0.85475 
-11.7343 -1.42644 -7.8756 2.66603 5.50985 5.10779 10.5597 3.68537 2.62972 2.56817 -0.0954177 9.26655 12.1543 -0.627369 -0.813125 -0.522425 1.43506 1.04804 1.90098 -0.00984226 1.52967 4.9548 2.10876 1.20458 2.19242 -0.213594 
-9.86415 -0.594444 -5.13927 5.32188 5.64866 0.183257 2.34508 -0.990456 6.34479 6.2687 -0.550374 8.76138 12.2428 0.204271 -0.0275814 0.557742 -0.182968 -0.473126 -0.487445 -1.54309 0.449023 1.77971 0.206121 0.660769 -1.10934 -0.00231218 
-9.7941 -2.29267 -3.42447 4.31383 2.66147 -2.71175 2.55477 -0.695747 8.77413 7.0364 2.37479 4.37052 12.1038 0.358905 0.846541 1.09186 -0.464543 -0.887014 -1.83781 -1.77852 0.23351 0.387204 -0.211213 -0.47143 -2.22172 0.0134688 
-9.29943 0.632944 -4.38922 1.23031 1.09934 -1.36461 3.34824 2.83499 7.2939 -0.645682 -5.30766 -0.658469 12.1214 -0.572389 0.662523 -0.341166 -1.14921 -0.0988892 -0.00112567 1.5318 2.29095 -0.0798886 0.266357 0.438065 -1.08609 0.0702671 
-10.2222 2.19257 -2.79131 2.3891 3.34944 -3.30732 1.16553 2.94021 4.09119 4.9693 -0.0739229 2.86786 12.2823 -0.668037 0.411262 -1.21544 -0.782475 0.443336 0.461901 1.32429 1.26009 -0.254345 -0.656716 0.283647 0.663558 0.124363 
-12.5121 0.475551 -7.16168 0.538192 4.81023 0.47541 10.6987 8.6463 8.28682 8.63404 2.86431 4.08225 12.5049 -0.799095 -0.512628 -1.19063 -0.666084 0.452726 1.36109 1.04867 0.000105548 0.213639 -0.932145 0.516092 0.591619 0.160267 
-11.528 -0.157667 -8.11544 0.747514 3.0227 -1.32226 5.50096 2.69906 7.00594 -0.887033 -0.29296 5.31795 12.5339 -0.30099 -0.713096 -0.97091 -0.769941 -0.3889 1.21656 0.402425 -1.37627 0.920522 -2.50303 -1.2313 -0.982327 0.119466 
-12.642 -0.755075 -7.68032 -1.27932 3.52634 4.44831 6.42386 2.95608 6.90472 -2.37824 -2.61769 1.07458 12.797 -0.0195858 -0.0246363 0.394415 -0.244522 0.371744 -0.175616 -1.67015 -1.41801 0.23583 -2.20219 -1.2962 -0.00795378 0.0799718 
-11.6621 -0.757595 -7.38654 -0.551847 2.04688 0.789045 5.31509 -1.09603 9.38485 -2.0397 -3.48942 -0.539937 12.7336 -0.275678 -0.0579817 0.823772 0.242134 1.02675 -0.631209 -0.0727249 -0.225997 0.265169 -0.295699 -0.188834 1.59436 0.0313151 
-12.5429 0.652333 -5.55407 -0.0347381 7.15686 -1.45832 2.44092 3.45378 8.27652 -1.80058 -2.01845 6.97143 12.8049 0.184518 0.275902 0.18851 0.740163 0.669831 -0.759888 0.701958 0.936743 0.0234555 0.29982 0.926407 2.13138 -0.0272456 
-12.9559 -1.15128 -5.05972 1.33589 6.34117 -1.52499 7.12881 1.32023 7.64588 -2.65436 -1.53675 10.3413 12.6865 0.00953331 0.159846 -0.105121 0.437086 -0.350099 0.614897 1.21719 2.27377 0.115691 1.08543 1.16296 2.47426 -0.0479296 
-11.0725 0.821279 -7.90119 1.47762 4.72835 1.80588 9.02679 6.43167 7.89148 -0.571816 1.03801 6.29084 12.6843 0.398639 0.0688286 -0.655389 -0.213835 -1.74527 0.573766 0.854234 1.53259 0.562591 1.93843 0.603782 1.26314 -0.103339 
-12.3497 -0.0428371 -6.73858 0.877404 1.51064 2.23143 8.10809 8.78385 10.1558 2.77309 0.797143 12.1717 12.5542 0.166755 0.0835582 -0.240255 -0.361663 -1.62557 -0.0684145 0.253995 0.98947 1.67316 2.60743 0.080266 0.239239 -0.0343624 
-10.8528 0.442255 -7.99158 -0.874669 0.845794 -0.467697 6.22245 7.3849 9.83451 5.17783 -0.166486 12.372 12.3543 -0.112966 -0.510331 0.650817 0.742798 -0.799049 -0.251349 -0.258365 -0.258591 1.44641 1.80437 -0.308514 -0.76917 -0.0203001 
-12.232 -0.543977 -6.2158 0.703728 0.154598 -0.730273 9.80095 5.79096 15.0402 7.50798 -0.533169 8.49697 12.6797 0.484998 -0.382107 0.234554 0.888785 0.163932 -0.4377 -0.49263 -1.82859 -1.05491 0.0391543 -0.103465 -1.65335 -0.0275079 
-11.6962 -1.4798 -4.90849 5.27845 1.41112 2.02999 6.88854 6.63516 12.6814 6.0826 0.160602 4.28234 12.52 0.542866 -0.331756 0.0876904 0.777992 0.429673 -0.195209 -0.631017 -2.05135 -2.43357 -1.03142 0.121496 -0.939164 -0.0386841 
-9.50299 -0.992342 -7.10735 2.24477 2.04764 -1.20592 5.3119 0.0157647 3.45783 2.51648 0.116274 7.94975 12.3338 0.765116 -0.0409266 -0.398196 0.00484048 0.44226 -0.41872 -1.05548 -1.81698 -3.23882 -1.35491 0.125456 0.257297 -0.0877933 
