-7.47831 0.636101 -3.95694 -1.16996 3.40062 -4.2726 7.14206 -0.984023 -0.716941 0.403312 1.80034 9.01744 12.0574 -0.200655 -0.0630986 0.870515 0.745853 -1.04763 1.41524 1.06261 0.581154 1.51423 1.28288 -1.60445 -1.3703 -0.017675 
-7.67098 -0.335479 -3.30531 -0.547063 -0.8118 -4.60881 10.6054 -1.41615 1.98543 3.08933 -4.21716 6.68866 12.0306 -0.289991 0.120906 0.970011 0.861011 -0.591293 1.30239 0.758963 1.87107 2.79776 1.51226 -1.26107 -1.7607 -0.00208073 
-8.38524 0.806399 0.0698172 2.24786 0.268704 2.97168 10.7235 2.13781 5.50302 5.47468 -3.21313 3.33034 11.9824 -0.19613 0.0874646 0.685197 0.516031 -0.693183 0.58473 -1.08995 0.546576 1.41601 0.736083 -0.218139 -0.914323 0.0172646 
-8.47479 1.15548 -1.12026 1.42619 2.01012 -1.38279 9.14617 6.81039 10.1619 5.42893 -1.99826 3.0575 12.0845 0.171351 -0.234077 -0.73593 0.142978 0.542877 0.847336 -2.23187 -0.899905 -0.27661 -0.462731 0.0795125 1.13856 -0.00799379 
-8.05705 0.327943 -1.62347 0.423571 -1.47625 -2.96196 2.42193 -2.36441 2.27489 2.91393 -0.399803 6.2614 12.1168 0.253954 -0.151948 -1.84154 -0.161583 0.261079 -0.659318 -1.42536 -1.30886 -1.27381 -0.809394 0.583502 2.62395 0.0166834 
-6.97832 -1.26664 -6.13831 1.07997 2.77506 2.59469 3.5968 -3.66456 2.21645 2.05605 -5.22626 10.9159 11.9235 -0.166377 0.08161 -0.0197853 0.736685 1.87977 1.22363 0.727201 -0.43038 -0.169134 0.29988 -1.38505 0.963724 0.0324181 
-7.86371 1.25772 -6.62887 1.61305 1.19163 -2.31364 6.37138 0.830976 3.1067 3.11415 1.31837 12.5209 12.1463 0.765965 1.77645 1.86609 1.37129 3.33982 1.99417 2.08437 -0.320896 -0.130407 0.816618 -0.960997 -1.63785 0.0420487 
-9.40335 1.09865 1.2835 4.51487 10.075 4.41123 10.8074 3.06079 8.90032 6.82822 -9.7826 4.74637 12.2318 1.9237 2.95788 3.43216 1.53575 1.6771 -0.154103 0.595744 -0.506484 -0.806381 0.143388 0.412512 -1.93077 0.147632 
-3.01471 8.02756 3.99609 5.56258 11.5729 6.10061 9.23844 -7.33157 -1.71909 4.61093 -2.92662 1.15692 12.1729 2.71986 2.3208 2.62329 1.06334 0.704541 0.228657 -0.708195 -0.874462 -2.24807 -0.155827 0.275789 -1.5373 0.113974 
0.215677 10.1378 5.71003 6.78395 5.96995 -2.38295 5.14199 -2.11571 0.597439 2.0246 -1.04121 6.94407 12.6484 1.6498 -1.63077 -3.01072 0.499548 2.94407 -3.25805 -2.86491 -1.9093 -1.04527 1.05409 0.510929 1.84996 1.23659 
0.92608 8.34214 4.27431 5.79522 6.76687 2.22673 5.66314 -0.953084 -3.9822 4.73682 -1.67338 3.73555 12.5079 0.366698 -3.54289 -5.41113 -0.0522258 4.12181 -4.48407 -2.9312 -1.00746 1.72227 2.88372 -1.69218 1.38564 1.68887 
-3.12476 -7.21249 -13.9092 6.89629 27.1984 -9.94209 -1.72945 -9.67495 4.8055 12.0357 -7.85458 12.7068 18.2472 0.154214 -1.26578 -3.3908 -0.485844 3.55428 -4.15516 -2.27407 -1.47481 0.896813 2.22655 -2.28708 0.428034 1.15541 
0.488994 -1.0117 -13.25 5.24528 21.5677 -12.5402 -1.98185 -8.58926 4.78823 14.024 -7.98082 5.20375 17.8178 0.989247 1.55819 -0.188884 -0.196349 0.614421 -4.16595 -1.31257 -1.06852 -0.174619 -0.983113 -0.376552 -0.303272 0.459406 
1.20529 8.48585 -2.48182 4.6297 16.3409 -15.7753 -2.40588 -5.67166 0.696291 8.5138 -9.3229 8.35015 15.7705 1.79471 3.73632 4.08786 0.387685 -4.4117 -1.24478 1.08322 0.18295 -3.24057 -3.21949 0.741166 -1.72238 -0.528283 
3.70729 8.28394 -2.3838 5.94677 15.2677 -15.6864 -0.56148 -8.29733 -2.80068 1.58221 -2.82198 4.39754 16.0433 1.5154 1.20102 2.83083 1.31097 -3.08066 -0.672084 1.46225 -1.31753 -2.50094 -3.31775 0.32902 -0.76004 -0.104002 
4.23967 6.8213 1.09704 8.48397 8.28987 -14.5929 2.97648 -8.90617 -7.60289 2.15912 -6.72817 4.49804 16.493 1.83723 -0.711046 0.0354673 2.00995 -2.55059 0.650008 0.134551 -2.12565 -0.777359 -1.61832 0.490198 -1.3904 0.374411 
6.5488 5.82567 -0.88524 9.873 10.1899 -16.4918 2.63824 -13.5597 -3.56686 0.612534 -7.63309 3.3296 16.9365 1.74906 -0.426789 -0.682601 0.950414 -2.15965 1.52373 -2.4182 -0.758963 0.103219 0.392726 0.3611 -1.1562 0.360368 
8.97068 6.15975 -3.05376 12.7163 6.12689 -12.1226 -3.33299 -13.6687 -2.80742 0.907054 -4.46635 1.9321 17.196 1.67163 -0.51201 -1.41876 0.302945 -1.40874 1.30293 -3.62173 0.289499 0.565118 0.216026 1.89218 -1.67377 0.326109 
10.0871 6.48077 -3.7214 8.58265 5.55092 -9.30292 -9.49773 -9.71086 -4.68233 4.17187 -2.14739 -0.100484 17.4937 0.922369 -0.765529 -0.638859 -0.9347 -1.54091 1.55487 -3.02749 1.08087 0.224517 0.342253 2.559 -2.24863 0.299905 
10.8287 3.9337 -4.57866 10.6439 3.56565 -11.6727 -9.06421 -9.38307 -4.21957 1.45958 -0.0100927 -2.15578 17.845 0.70405 -1.07687 -0.428228 -1.79665 -0.675195 0.100515 -1.50855 1.95063 -0.41478 0.518787 2.02656 -1.9953 0.317594 
10.2316 3.11105 -3.31708 6.23574 3.76597 -8.94239 -9.6336 -10.2982 -1.7382 2.04754 2.93378 -5.86961 18.1115 0.683256 -1.14075 -0.262481 -2.34468 -0.836547 0.443352 -1.37026 2.44462 0.901424 -0.573321 1.87484 -1.60005 0.305234 
12.4186 2.46027 -5.39706 4.90655 3.64338 -11.8003 -10.8078 -3.62191 -6.35338 4.56316 3.12585 -5.15983 18.475 0.468082 -0.822959 -0.136151 -3.56169 -0.56657 1.61042 -1.56223 3.14723 1.85438 -0.695343 1.22471 -0.53194 0.205419 
12.7084 1.51375 -4.62461 -0.272082 1.32932 -7.02234 -15.4772 -0.368329 0.891694 -0.246522 5.65886 -6.59871 18.7049 -0.172828 -0.817513 -0.521502 -2.7449 -1.24938 2.67102 -1.33826 3.17058 2.81619 -1.05655 0.303927 -0.0682944 0.178191 
11.9307 0.617555 -4.60565 -3.91067 1.95113 -4.58057 -13.9535 1.38816 3.73738 -0.870109 4.75093 -4.45093 18.5754 -0.722218 -1.51669 -0.561301 -2.46345 -1.55056 3.67766 -0.155505 2.20561 2.84279 -0.685064 -0.0730846 -0.901517 0.256413 
9.61146 -0.0551596 -6.3203 -3.08015 -1.63481 0.802835 -14.752 3.04969 7.29736 -0.518585 3.64088 -6.56553 18.9523 -0.566372 -2.2319 -0.862103 -1.65862 -1.69506 3.25449 2.18261 1.24474 1.19421 0.186592 -0.405449 -2.02364 0.367543 
10.356 -4.33875 -7.35572 -6.00667 -2.62735 2.67545 -11.9479 5.69711 4.65774 1.27387 3.76942 -9.684 19.6334 0.0649032 -2.90193 -0.47128 -1.14839 -1.19185 2.92527 2.79462 0.259666 0.543468 0.0901358 -0.487709 -2.86563 0.397083 
10.6639 -7.16758 -7.56009 -7.51718 -4.85676 5.62209 -5.56697 3.70089 6.40257 -0.385552 4.12237 -14.1004 20.0136 0.511864 -3.01056 0.0351645 -1.02395 0.160384 2.29505 3.10848 -1.192 0.28424 -0.33233 -0.863472 -1.73849 0.272254 
11.729 -10.3359 -6.34216 -7.43412 -2.39717 7.63617 -4.573 2.36089 6.90211 -0.485946 2.07164 -15.0117 20.0302 0.328468 -2.05401 -0.0620251 -0.2619 0.655576 2.08199 2.59633 -1.99453 0.233025 -1.08023 -0.878794 -0.485606 0.101431 
11.4843 -12.1094 -6.65126 -7.48618 -0.947983 9.79772 -2.8971 -1.24217 7.59637 -1.30033 0.172404 -12.5941 20.1151 0.164245 -1.43731 -0.365788 0.0626787 1.03265 1.70619 1.4127 -1.27523 -1.05309 -0.366558 -1.23705 0.514917 0.0466391 
11.5881 -12.1379 -8.12026 -7.33167 -1.30386 10.9976 -0.301214 -1.80399 5.22597 -3.66991 1.35043 -12.8651 20.0897 -0.0411742 -0.987631 -0.424321 -0.129048 0.738886 1.25587 0.906706 -0.551561 -1.2582 -0.15459 -1.20275 0.482874 0.0590149 
11.5555 -13.4532 -8.49998 -7.25501 -0.240175 12.4723 -0.639383 -0.592817 1.97517 -0.62636 -1.70229 -12.599 20.217 -0.04387 -0.789869 -0.146217 0.0453755 0.621879 0.600366 -0.169868 0.990352 -1.39859 0.244942 -1.32586 0.229249 0.0407944 
11.4875 -14.6021 -7.53941 -8.19495 0.943357 12.5782 -1.16833 -0.721589 3.4217 -1.59588 -3.00475 -12.5949 20.2743 -0.18078 -0.614295 0.106366 0.587183 0.283353 -0.171144 -0.854082 1.77877 -0.719589 0.0820761 -1.52677 0.488469 0.0117519 
11.3152 -14.8266 -7.67277 -6.82767 1.0378 12.0092 -3.31288 3.16839 1.50553 -1.11263 -4.27933 -11.583 20.2268 -0.27925 -0.209804 0.0782584 1.22289 -0.330262 -1.14975 -0.688065 1.99993 -0.0391198 -0.691507 -1.03544 0.700241 -0.0220634 
10.8044 -14.5226 -8.00203 -4.60943 -0.526083 10.3734 -3.23487 5.20926 1.86284 -3.01639 -4.99489 -10.9308 20.1436 -0.27645 -0.259368 0.584025 1.56213 -0.899954 -1.70939 -0.501933 2.30056 0.275857 -1.30167 -0.100213 0.606488 9.4223e-05 
10.5009 -14.5419 -7.87737 -2.93335 -1.15677 7.82596 -3.04643 6.44142 2.559 -3.37364 -5.88442 -9.92987 20.172 -0.566792 -0.289955 1.24732 1.77681 -1.81828 -1.82874 -0.600023 2.34953 0.454065 -1.3023 0.226734 0.776377 0.0572887 
10.5125 -16.0413 -4.51699 -2.33145 -2.45913 6.12292 -3.81122 9.14469 4.27425 -6.97374 -2.70327 -10.389 20.3022 -0.999864 0.169537 1.80398 1.50152 -2.14151 -2.36782 -0.635378 2.66095 0.0106646 -1.31212 0.668587 1.78059 0.0906517 
8.62723 -15.517 -3.17869 0.917404 -7.08705 4.99078 -6.02483 12.9483 2.57015 -5.64548 -4.29147 -7.97206 20.434 -1.13358 0.871953 2.25668 1.23955 -2.80337 -2.67491 -0.341203 2.36736 -0.899844 -0.792987 1.17046 2.67357 0.0134066 
6.7419 -13.1874 -1.33148 0.972804 -8.26847 -0.0481117 -4.92257 15.2606 1.91059 -8.44107 -2.44843 -3.00674 20.4659 -1.14028 1.9304 2.74296 0.375058 -2.54919 -2.85081 0.0650149 0.445343 -1.64094 0.216102 1.63713 3.0233 -0.155252 
6.71826 -11.6091 1.81329 1.6123 -12.269 -2.46306 -4.19677 15.2203 -0.758385 -6.60491 -0.159536 -0.253171 20.1572 -0.93168 2.50842 3.6061 -0.872682 -1.97271 -1.5832 -0.282597 -1.52939 -2.4741 0.630219 2.76695 1.62883 -0.282205 
5.76554 -8.34324 6.70181 -0.803611 -12.6141 -4.40418 -4.40017 10.2354 -2.26616 -5.41352 3.41639 0.868044 19.6643 -0.958439 3.10875 3.55001 -1.02187 -1.23683 0.0349919 -0.776117 -3.44906 -3.16406 0.0234481 3.08251 0.159596 -0.364659 
4.45701 -5.39697 10.8352 -2.5578 -14.7778 -0.747168 -7.69901 7.81394 -7.71197 -4.00817 6.61088 -1.7653 19.4237 -0.877849 3.23449 2.97899 -0.897823 0.286715 0.414217 -1.30457 -3.71559 -2.48476 -1.72898 2.61015 -0.223544 -0.409899 
3.08033 -0.749701 11.9076 -2.05148 -13.1982 -0.7311 -7.05203 1.71843 -10.4329 -9.6222 9.57891 -1.4527 19.0093 -0.600166 2.99617 1.88661 -0.698044 0.897418 0.580356 -0.783454 -2.95436 -1.15034 -3.01139 1.87724 0.146843 -0.382425 
3.67162 0.766549 14.1053 -2.25288 -10.5433 -2.22852 -9.3937 0.900839 -9.09879 -13.1455 9.80994 -0.210521 18.4352 -0.394514 2.32521 1.32486 -1.02402 1.30935 0.518304 -0.0670899 -2.09709 0.156633 -2.00607 0.283912 0.827407 -0.318315 
3.15741 3.55583 14.4998 -4.44629 -10.2443 -0.761725 -7.4701 -1.07984 -7.32444 -15.9018 11.2031 0.82487 18.2464 -0.314656 1.52492 0.876053 -1.11289 1.04895 0.852558 0.302316 -1.32448 1.0536 -0.29094 -0.428654 -0.0938544 -0.221353 
2.4459 4.07629 16.1634 -6.48047 -9.70801 1.85967 -7.82543 -1.27239 -8.48304 -10.8987 7.21835 1.23295 18.2136 -0.546534 1.18185 0.253025 -0.56954 0.13053 1.44514 0.755475 -1.56162 1.24528 0.388316 -0.499843 -1.13594 -0.104772 
2.11991 5.22004 15.2589 -5.50214 -8.37113 1.4876 -6.32459 -3.81738 -5.47282 -12.2003 8.73143 -2.64371 18.0134 -0.442651 0.662566 0.0616396 0.108123 -0.207384 1.60314 -0.000302982 -1.00094 0.600009 1.05825 -1.1196 -1.33069 -0.0649082 
1.45769 5.84368 14.9909 -4.57265 -10.8273 3.87252 -6.18908 -5.5385 -3.79823 -13.0547 8.54655 -4.15595 18.0279 -0.27274 0.441701 0.0836342 0.052232 -0.244948 0.911874 0.213411 -0.762369 0.0799857 1.02365 -1.08257 -0.512936 -0.051561 
1.43826 5.98497 15.3942 -4.85958 -10.7216 6.24755 -8.28979 -3.95146 -6.66681 -9.53255 4.94097 -3.13415 18.0147 -0.463594 0.695402 -0.157616 0.0420606 -0.454082 0.458247 0.388126 -0.65058 0.0761461 0.70435 -0.902434 -0.0632306 -0.0324799 
1.42303 5.90234 16.5139 -6.54059 -9.75753 4.03906 -5.77577 -5.0172 -7.48612 -7.11436 3.70073 -1.08651 17.9551 -0.563303 0.748587 -0.670924 0.260262 0.0597944 0.0824896 -0.401333 0.0118395 -0.0317399 0.126825 -0.133156 -0.268675 -0.00949307 
-0.180729 8.66772 13.7093 -4.30787 -11.1764 3.69556 -4.59061 -7.33092 -3.24814 -11.6487 6.64218 -4.49458 17.8874 -0.235486 0.159708 -0.671197 0.841424 -0.177312 -0.172665 -0.852133 0.360895 0.524755 -0.835303 0.984214 -1.17835 -0.050514 
-0.549328 8.24524 12.4788 -3.5472 -10.3009 5.56096 -10.0453 -3.78957 -5.66626 -11.3625 7.03017 -4.81911 18.0441 -0.0668288 0.0126026 -0.756209 1.14463 -0.0992426 0.183743 -1.53066 1.30351 -0.13101 -1.12181 1.3518 -1.38935 -0.0920904 
1.247 5.61205 14.0558 -2.14916 -11.3365 4.62327 -10.4157 -2.7608 -4.95296 -11.585 8.19732 -7.15963 17.7177 0.319559 -0.755736 -0.383431 1.24981 0.689925 -0.955052 -0.841893 1.89117 -1.65346 -0.0973459 0.592693 -0.658216 -0.207072 
0.375016 7.49319 12.5596 -1.89678 -10.1737 4.49392 -10.5165 -0.784714 -7.28876 -12.7552 9.68215 -6.70075 17.5795 -0.156994 -0.689495 0.238654 1.32812 0.170445 -1.35726 0.861358 0.826827 -1.43967 0.312013 0.160478 -0.357569 -0.215608 
0.954892 5.26507 11.7517 1.11597 -7.79035 -0.546173 -8.56448 0.622493 -10.7042 -11.439 8.27965 -6.84485 17.0843 -1.16072 -0.0109194 0.903827 0.15268 0.369562 -0.555121 1.47822 0.25303 -1.77329 1.49257 -0.585282 -0.361143 -0.0617085 
-1.18824 4.97126 14.8241 1.46085 -11.2217 1.35937 -6.66413 -1.34708 -9.98899 -9.87539 7.7914 -6.76434 17.2828 -1.22579 0.764944 1.0091 0.0813413 0.532607 -0.287398 1.86679 -0.501375 -1.2352 2.36958 -1.51332 0.361305 -0.299585 
-3.77497 6.81842 17.4427 -3.06457 -8.96466 3.41494 -4.95076 -1.21447 -12.4693 -5.56207 6.21629 -8.93355 17.5575 -0.835475 1.95497 -0.249448 0.336448 0.0403538 -0.587705 1.67644 -1.66927 -0.423094 2.14658 -2.50468 0.124652 -0.536537 
-3.38901 10.5412 14.7596 0.600198 -6.92352 1.07637 -2.98941 -2.37311 -12.5822 -3.84582 3.14723 -3.84987 15.845 -0.465667 1.16124 -2.4069 0.692985 1.03155 -3.11454 1.76233 -1.88993 -0.210237 1.83302 -2.70531 1.14517 -1.01197 
-2.1221 12.2549 10.5367 3.22854 -9.73766 -3.3432 -2.01966 -7.21087 -11.523 -3.7209 -1.92169 -7.67882 15.1205 -1.3033 -1.35374 -4.93794 1.1388 2.37225 -3.01606 2.90615 -0.341848 2.51323 3.81813 -1.57354 3.05766 -1.24673 
-4.34301 8.05921 6.24253 1.77922 -5.67742 -10.8342 0.681988 -7.79854 -11.5133 -1.63086 -1.66617 -1.66587 13.4414 -1.68317 -2.89636 -5.17547 -0.258437 2.71969 -0.363834 3.53642 1.70974 3.62852 3.46286 -0.276201 2.92777 -0.974336 
-9.81447 1.29075 -2.98846 2.0399 2.27354 -5.71002 7.7443 -0.21099 -0.437584 12.4211 0.755288 5.26275 12.5256 -1.75674 -3.20053 -3.69146 -0.860766 2.98748 2.10543 2.70301 3.56622 3.48796 2.5929 0.189885 2.64395 -0.651111 
-7.95868 1.54153 -4.35516 -0.0976679 0.669309 0.44061 9.8107 2.67565 0.017669 5.39748 0.427742 4.31817 12.2708 -0.934569 -2.00933 -1.81969 -1.02522 2.01441 2.99509 1.15611 1.78056 3.48216 0.695514 -1.13316 1.32956 -0.262515 
-9.09799 -0.488883 -2.62173 -0.136849 2.0264 1.54654 6.93103 5.38312 0.1513 5.72944 -2.01922 2.54893 12.4503 0.0686554 -0.620194 -0.517462 -0.337512 0.476602 1.30555 0.8976 -0.301104 1.07864 -0.418851 -1.50223 0.110928 -0.0289706 
-9.3741 -1.09762 -3.03929 -2.25852 4.5182 0.5129 6.86917 -1.69282 5.60308 5.19255 -5.94472 6.33882 12.1665 -0.240253 -0.839019 -0.595757 0.0920845 0.419983 0.254611 1.10339 -0.472642 1.31054 2.24903 -0.318684 0.728937 -0.0100281 
-8.76348 -0.490647 -6.23371 1.43277 2.7321 0.7816 13.7031 0.467726 2.16289 10.4293 -3.56963 4.80706 12.4329 0.00576077 -0.31418 -0.709064 0.315694 -0.592478 -0.33419 1.98334 -0.111 1.00224 1.69479 0.728929 1.31993 -0.0329187 
-9.32719 -2.65268 -5.52796 -0.422054 2.41637 2.09613 11.9416 2.77014 5.56459 14.2927 -0.390469 6.83379 12.2293 0.173165 0.155348 -0.0567979 0.646333 -0.609628 0.0891973 -0.138747 0.000359488 -0.223824 -0.14794 0.741129 1.13177 -0.0479288 
-9.09264 -1.28225 -4.92272 0.523388 0.114926 -0.916027 14.3115 2.59665 5.18176 9.6533 -1.1517 8.90109 12.2543 0.27982 0.400801 0.142527 -0.486297 0.570202 0.291708 -1.6951 0.0967357 0.494186 -2.42958 -1.02026 1.12306 -0.101942 
-8.3437 0.0749216 -3.97877 1.42783 2.77865 1.8077 5.87122 -2.75548 2.97452 4.84086 -3.44804 9.95063 12.0162 0.325444 1.36964 -0.534461 -0.796931 1.55653 0.555795 -2.68582 0.630923 0.912857 -2.38411 -1.87976 0.100779 0.0282054 
-7.85613 0.149554 -6.29566 -1.92366 5.40198 2.38435 8.26277 3.71422 5.92885 3.00736 -7.14214 8.86393 12.0297 0.269197 0.820401 -0.586312 -0.827077 1.16628 0.666397 -1.62918 1.43399 1.01404 -0.214793 -0.654673 -0.341527 0.0417754 
-8.31822 3.47963 -7.51379 -3.18319 7.5555 3.22492 1.53689 5.36597 9.75533 5.69513 -6.79406 7.35626 12.4826 -0.0842628 0.285648 -0.0821091 -0.146277 -0.0254322 -0.362433 -0.196031 1.26149 0.519851 0.625185 0.789285 -0.920432 0.0720275 
-7.75939 1.1174 -6.08677 -1.30649 3.55789 1.70735 8.33276 5.70589 6.86154 8.1522 -2.75205 8.49064 12.2299 -0.295527 -0.711422 0.655242 1.41793 -0.782751 -0.552542 -0.320851 -1.0215 -1.018 0.689016 1.43312 0.02736 -0.00690088 
-8.81338 1.01924 -4.49376 0.38786 3.57354 0.334037 4.85607 2.55616 5.10743 5.39437 -1.69666 5.53512 12.2762 -0.235561 -1.26388 0.536494 1.30469 -1.31255 -1.02343 0.614 -0.773148 -0.349855 0.431071 0.891022 0.0777425 -0.120064 
-9.08618 -2.17736 -4.52947 3.38048 3.4792 1.06709 4.99892 0.0116328 3.1628 6.60282 -2.52523 9.91131 12.0985 -0.210049 -0.479818 0.397202 0.965836 0.307812 0.346887 0.193604 0.313387 -0.0340782 -0.518572 -0.746515 -0.425575 -0.0518584 
-8.83263 -1.19238 -5.60997 0.996776 1.03212 -1.5721 6.2738 4.34736 9.85542 8.62517 -2.45236 7.03464 11.948 0.071084 0.352253 -0.288722 -0.0565688 0.578267 0.600777 1.06207 1.16094 0.520106 0.39314 -0.322502 -0.134351 -0.0283941 
-8.80001 -0.175878 -3.54265 3.21823 6.36766 4.39485 8.59191 6.37722 4.31716 3.94394 -6.10678 5.613 12.1347 0.0674238 1.17381 -0.0857976 -0.4845 0.455572 -0.387461 1.66857 1.54177 -0.492009 -1.10718 0.0141008 -1.86924 0.0437976 
-8.60105 1.77976 -6.43078 0.186137 5.02064 1.67404 8.36991 5.17807 7.13079 8.68951 -1.5184 7.01252 12.1161 -0.0478056 0.422554 0.294785 -0.431094 0.719221 0.333129 1.75413 0.209871 -2.10215 -1.92995 0.379493 -1.12952 0.0998085 
-8.86486 2.20561 -4.54805 1.3633 3.7628 -2.49329 12.2937 7.30513 2.06508 1.03474 -2.92171 0.576192 12.2334 0.135251 -0.0506879 0.237578 -0.515469 -0.395235 -0.79602 -0.256862 -1.7868 -0.985873 -0.68545 0.708754 -0.231041 0.00131464 
-9.03924 -0.270357 -3.63334 -0.231224 5.93065 3.53762 13.1935 4.93276 0.470735 0.430017 -2.14743 3.90547 12.3977 -0.0393996 -0.219535 0.728916 -0.368205 -0.512213 1.11358 -0.135285 -0.479603 -0.737195 0.214309 0.916926 1.16405 0.060343 
-7.90466 0.595743 -3.75348 0.849568 3.93648 -0.517037 4.89579 -2.43413 2.71782 4.64644 -2.24849 6.01132 12.0005 0.0599403 -0.263928 -0.418026 -0.641832 0.166721 2.58593 -0.562556 -0.293649 1.29874 0.669384 -0.196672 1.16801 0.0356293 
-9.27814 1.48702 -3.18348 -1.39802 2.37274 6.25382 11.3924 7.64969 3.11844 7.9552 2.72962 10.1152 12.5343 -0.331637 -0.188699 -0.959063 0.447023 0.144307 0.437772 0.369876 -0.678533 0.928607 -0.00872062 0.880216 -0.37953 0.0803146 
-8.4457 0.00727844 -6.86311 -1.26247 6.37536 9.07826 10.3815 4.47842 7.23494 0.619069 -6.3436 3.31138 12.3433 -0.619324 -0.543736 -0.993109 0.887861 0.605254 -0.243325 1.57162 -0.852996 0.00115578 -1.00478 1.4671 -1.20645 0.134846 
-10.4269 -0.919619 -6.87385 3.05991 5.43274 0.928831 12.3001 -1.91618 2.85521 2.4001 4.3012 3.35779 12.6279 -0.427872 -0.574017 -0.739146 1.32382 0.517739 -1.87994 0.373387 -2.55263 -0.490618 -0.932918 1.37879 -1.34684 0.0471836 
