-10.2523 2.52374 -7.34305 2.31429 8.04214 1.18331 11.4779 6.29131 4.30913 3.02805 2.62405 6.73 12.5281 0.120015 0.277808 -0.355447 0.0889204 -0.735198 -0.487863 -0.603767 -0.360503 -1.09156 -1.8575 -0.966282 0.689242 0.0977088 
-8.89098 3.95134 -8.65677 4.99784 6.46955 -3.16696 9.38991 6.02277 4.07595 2.66921 2.29295 5.37962 12.6073 0.137901 -0.0514111 -0.0175062 0.465725 0.572463 -0.110572 -1.16806 -0.922396 -1.99084 -1.47204 -0.146133 1.15976 0.0458413 
-10.3329 3.19898 -8.46343 1.41711 5.15244 0.919128 9.50306 4.62307 -1.03209 -6.08004 -2.04181 10.8514 12.977 0.253569 -0.124543 -0.454085 -0.0741266 0.991088 0.406214 -0.0639647 -0.767919 -1.84744 -0.963396 -0.16462 1.21903 -0.0364366 
-9.52252 1.92906 -6.87039 5.0915 12.3493 0.762538 6.62502 2.51345 -2.97448 0.221906 4.22632 10.4681 12.5328 0.525987 -0.21824 0.182385 -0.665214 0.969112 1.31251 1.46304 0.935595 0.385363 1.92393 -0.0117093 0.146053 -0.17577 
-8.66871 2.91216 -10.5067 1.89683 10.0577 1.24963 12.5405 4.20638 -1.40283 -0.565275 0.834268 10.2809 12.3832 1.48555 1.11371 2.0778 0.542972 0.372373 0.776927 0.731564 1.90177 2.14542 2.1094 -1.18714 -2.36286 -0.194027 
-7.09315 3.00355 -6.72322 1.43192 8.86248 3.23036 15.1864 10.9091 6.18813 9.53148 0.796368 6.39513 12.0254 1.86277 2.04861 2.49943 1.08865 0.623597 0.396983 0.209623 0.671683 0.484464 -0.46925 -3.46213 -2.17335 -0.0967798 
-4.11987 8.23028 1.85197 5.96177 8.75771 3.56985 8.8802 9.93408 5.11372 -0.187823 -6.26253 1.07357 12.2606 1.58201 1.4811 2.6351 2.49914 1.78341 0.400296 -0.806531 -1.47899 -1.59693 -1.55165 -2.98781 -1.40408 -0.00433321 
-2.48311 9.51305 -0.552565 8.50227 16.1173 1.58734 9.50329 3.00801 -3.81043 -2.31307 -9.53596 4.205 12.1102 0.208193 -1.91692 -0.865466 1.97899 2.09275 -2.24544 -0.737144 -2.76046 -2.85702 -0.0965068 -1.32186 0.411449 0.908654 
-3.0637 7.0629 -0.416506 10.8574 15.3474 4.07261 11.3494 0.761951 -4.3882 -2.40123 -8.93861 4.3556 12.3191 -0.939731 -2.95315 -2.1064 1.27199 1.51891 -4.03128 -1.07618 -1.74312 -1.87473 3.06931 0.643695 0.557084 1.3604 
-6.58027 -5.99738 -9.91632 8.87906 16.0314 -8.24824 10.266 1.69284 -3.34604 10.1556 -4.47487 6.81136 16.5394 0.0548138 -0.304075 0.158385 -0.409978 -1.49516 -4.03075 -1.76329 -0.792554 -0.545573 2.94089 0.585904 0.20845 1.10274 
-6.76994 1.21974 -3.99813 12.1333 16.3952 -11.6688 3.11795 1.87608 -4.49212 8.92437 -5.57459 2.55581 16.848 1.99411 2.60292 1.12132 -0.477688 -1.94123 -4.41731 -2.97333 -0.756054 -0.267328 1.52234 -0.233392 -0.13617 0.518148 
-0.355926 10.9143 2.03017 5.81441 8.11757 -10.6957 4.8026 -1.51182 -6.48633 6.72859 -8.28844 6.14714 15.3595 3.78397 4.34467 2.2773 -0.594525 -2.02056 -2.2372 -1.82814 -2.76184 -0.328747 -0.207408 -0.860133 -0.399145 -0.214286 
3.7947 11.6217 -0.783152 10.0012 9.59812 -16.7902 -0.785518 -1.41599 -4.15469 6.92397 -8.19878 4.00686 15.4998 3.98211 0.855674 0.444715 -0.812518 -1.59618 -0.71539 -1.04438 -2.99497 0.0844198 -0.428816 0.014623 1.09318 0.0322239 
7.05728 10.525 -0.137315 6.97247 9.32714 -16.8735 3.07706 -10.4703 -5.15849 10.1188 -7.46344 4.09011 16.1421 2.51494 -1.63877 -0.633536 0.279609 -0.912289 1.17525 -1.86579 -2.4498 -0.0410178 -0.968495 2.0093 0.47373 0.435568 
9.43401 5.69274 -0.690814 7.49169 7.80952 -12.1568 -1.24116 -8.61952 -4.73395 5.08518 -5.91398 9.05022 16.6178 1.24517 -1.77794 0.0224328 -1.19152 -0.895916 2.81408 -1.79113 -1.63978 -0.932513 -0.882299 2.82869 -0.33895 0.460907 
9.39913 5.68488 -1.18368 8.46723 4.45042 -7.13617 -4.29851 -10.159 -6.40179 2.80551 0.615654 5.99412 16.9783 0.384242 -1.1105 -0.318036 -1.43384 -0.35556 2.26698 -2.26487 -0.447902 0.272211 -1.63518 2.91929 -1.77298 0.380128 
8.84964 5.15205 -0.147807 3.29626 7.5569 -7.58851 -6.05338 -9.77052 -8.1956 6.16912 1.90513 1.36011 17.3863 0.116769 -0.166055 -0.58147 -2.16311 0.0667544 0.985578 -1.18395 -0.366714 0.231112 -0.699853 2.2255 -1.91057 0.336881 
9.27068 5.24283 -1.999 1.90096 7.67565 -7.82277 -5.84116 -12.1343 -2.0666 1.40094 3.22346 -0.929733 17.6585 0.502911 -0.762639 -0.772913 -2.18384 0.156456 0.179698 -0.966277 0.394753 0.625728 0.0245592 1.06657 -0.914815 0.331933 
10.0821 5.0835 -3.19051 -0.0407348 6.53068 -6.88562 -6.3896 -9.46544 -5.74598 2.28821 3.90964 2.95932 17.9621 0.76805 -0.981579 -0.689881 -1.72851 -0.873518 1.12992 -1.39829 0.922624 1.44124 0.340707 0.72824 -0.719144 0.303378 
11.2975 1.90596 -3.52689 -0.783486 5.74581 -6.58913 -8.96179 -8.33781 -4.49796 4.86877 4.94627 0.620435 18.35 0.368399 -1.7418 -0.49878 -1.62986 -1.38068 1.70589 -1.26785 1.86248 1.39834 0.898934 0.531185 -1.40099 0.297688 
11.6765 1.91259 -2.83326 -4.00406 4.15423 -2.55575 -11.4845 -7.05566 0.226287 6.13874 4.68493 -3.01069 18.5574 -0.134616 -2.08157 -0.321041 -1.50369 -1.21778 1.51064 -0.0519104 2.36194 2.09461 0.402081 0.517696 -2.81492 0.227921 
10.3155 -1.88071 -4.67152 -4.26665 1.96047 -1.45828 -9.63296 -4.02684 1.93898 3.97034 5.49175 -4.94966 18.8493 -0.449109 -2.07641 -0.767325 -1.11584 -1.45579 1.63818 1.62317 2.51907 1.945 -0.555813 0.253581 -2.95179 0.227283 
9.90001 -3.43101 -4.2234 -5.81762 2.33443 -1.89786 -6.31356 0.188763 1.50859 4.74782 6.22538 -8.33022 18.8521 -0.473594 -2.38038 -1.17466 -0.576001 -1.53207 1.88706 2.36395 2.43032 1.35597 -0.674174 -0.309908 -2.63151 0.327234 
9.94017 -5.80428 -6.66845 -5.4559 -0.623236 1.27284 -3.43141 0.635315 4.58591 2.78516 5.44395 -11.4788 19.3391 -0.463555 -1.69491 -1.23887 -0.280564 -1.7161 2.71256 2.23284 1.41136 1.74568 -0.98341 -0.733139 -2.40215 0.37799 
9.49618 -8.02754 -7.70807 -6.28944 -2.21426 5.514 -2.76554 2.76487 5.68265 3.36046 3.15929 -12.9037 19.9487 -0.260852 -1.69885 -1.12494 0.116955 -2.03575 3.58323 1.1294 0.513416 1.51091 -1.01228 -1.14875 -2.43636 0.398535 
8.1996 -8.05701 -9.12355 -5.43357 -4.34567 8.3986 -0.24278 1.74191 8.58035 -0.253029 3.3591 -14.6737 20.191 -0.325619 -1.33203 -0.386496 0.260621 -1.30429 3.30256 0.184547 0.117678 0.88777 -0.174016 -1.52388 -1.74745 0.309392 
9.46603 -10.7989 -8.62054 -5.24402 -5.98308 12.4554 -2.26089 2.20254 7.06592 1.2055 1.52406 -18.9145 20.4188 -0.140893 -1.12325 -0.208878 0.299429 -0.0273097 1.87608 0.00266314 -0.801454 0.721143 0.377473 -1.95751 -0.737871 0.213602 
8.32714 -11.0788 -8.1447 -4.67551 -5.2603 14.315 -2.761 1.50487 8.33312 2.99256 -1.35784 -17.2106 20.651 -0.00676565 -1.1074 -0.245254 0.117136 0.780612 0.685274 -0.213906 -0.983543 0.354767 0.595779 -2.24009 0.20864 0.159183 
8.72794 -12.1329 -9.24189 -5.17132 -1.8935 11.9362 -1.49311 -1.12387 9.41199 3.62503 -4.26978 -15.3246 20.7867 -0.262331 -0.529432 -0.109275 0.0304682 1.49209 -0.357051 0.640591 -0.951159 1.16041 -0.4682 -1.27258 0.81157 0.0872953 
8.53482 -12.927 -10.0391 -4.88423 -2.48741 12.0846 -1.6962 -1.51259 9.18116 1.5161 -4.94445 -15.4255 20.803 -0.0819418 -0.633423 0.185639 -0.0315623 0.642536 -0.485341 0.187354 -0.140002 0.925756 -1.20548 -0.66826 0.248481 0.029887 
8.05054 -12.5219 -8.21969 -4.98732 0.0909424 11.7853 0.409663 -1.04452 12.4439 -0.397267 -3.04555 -15.7493 20.7793 -0.121584 -0.649104 0.894344 0.206046 -0.584644 0.0398961 -0.809793 1.29932 0.306663 -0.810987 -0.520192 -0.151587 0.0168884 
8.25614 -14.0514 -7.7276 -4.92533 -3.03984 11.9637 -2.77562 0.765183 11.4459 -1.02371 -5.31125 -15.7559 20.8041 -0.212299 -0.60389 1.32446 0.294476 -0.958277 -0.634505 -1.10899 1.82781 0.346636 -0.618841 -0.618306 -0.255115 0.0406496 
8.25936 -14.8162 -5.92594 -4.12055 -4.5405 12.1961 -5.00237 4.23383 9.81292 0.840002 -6.68734 -15.9173 20.8705 -0.326487 -0.407853 1.32553 0.513524 -1.2828 -1.75638 -0.905659 2.14047 0.303325 -0.889851 -0.971325 0.337115 0.0302423 
7.36891 -14.7993 -4.56372 -3.84524 -4.96307 8.70664 -4.53516 4.98729 12.2298 -2.19674 -6.21509 -16.617 20.9606 -0.371341 0.137705 1.53896 0.380958 -0.716534 -2.89721 0.355575 2.49776 0.13983 -1.50258 -0.388574 1.49767 -0.041865 
6.86171 -14.1872 -3.17399 -2.95974 -5.36144 4.63194 -3.23886 7.54676 13.5686 -4.26 -7.45026 -13.6331 20.8523 -0.37568 0.519326 1.6606 0.0443584 -0.916521 -3.27186 0.150547 3.07531 -0.84043 -1.84184 0.322045 3.2624 -0.116313 
7.09826 -13.6774 -1.4088 -3.60094 -6.21204 1.25972 -1.8795 11.5975 10.2672 -5.9866 -6.87266 -9.40961 20.6039 -0.577793 1.31742 1.91519 -0.121262 -1.63566 -2.48337 -0.868291 2.4788 -2.06542 -0.547826 0.746449 5.2359 -0.187817 
6.51629 -12.7806 0.799616 -4.0209 -8.49862 -0.439714 -5.57746 16.3053 6.59207 -6.47429 -4.74833 -3.20905 20.4673 -1.00232 1.84522 2.95318 0.025179 -2.76591 -1.20791 -1.58858 0.080927 -2.39633 0.401153 2.56714 4.57397 -0.144873 
4.65266 -8.91554 3.02544 -3.92097 -11.5728 -1.17436 -7.70731 13.002 5.391 -3.82873 -3.83381 4.3505 20.214 -1.11082 2.19862 4.05351 0.0727072 -3.04205 -0.220257 -1.5599 -3.21419 -2.51424 0.673433 3.93751 2.73382 -0.0881374 
3.07289 -7.34205 9.37481 -2.67383 -16.5106 -0.190595 -8.26786 7.24913 4.02507 -3.33318 3.866 2.35667 20.3229 -0.711153 2.37965 4.07084 0.201479 -2.07601 -0.306952 -0.891091 -5.12107 -2.29818 -0.348916 3.79068 1.3867 -0.158595 
3.26585 -5.40352 14.5712 -3.91094 -17.4163 0.0338691 -8.33382 0.0546274 -1.02048 -4.18999 8.50773 1.47665 20.2354 -0.335697 1.89274 3.55681 -0.0303183 -0.761408 -0.266727 -0.66438 -4.08159 -1.99604 -1.5986 2.74149 0.0449955 -0.196801 
3.65393 -2.63837 15.381 -3.01852 -15.9569 -2.57859 -9.71966 -2.82639 -1.69309 -8.03824 8.0343 5.16139 19.6636 -0.340059 1.86368 1.85423 -0.192628 0.721124 -0.361538 -0.412863 -2.38189 -1.24086 -1.88236 0.495008 0.0971226 -0.248447 
2.68365 -1.80368 17.8064 -3.90021 -15.6567 -1.314 -10.3033 -2.36816 -1.73011 -9.46918 7.78951 3.17311 19.5596 -0.51876 1.36858 0.875729 0.144712 0.788653 0.399271 0.0796587 -0.85897 -0.620676 -1.18158 -0.159926 -0.3049 -0.202596 
1.66369 0.176451 17.0283 -3.64234 -13.7848 -1.32435 -9.34743 -3.44895 -1.82444 -10.1054 6.70015 1.99405 19.4185 -0.451356 0.825189 0.510911 0.2257 0.546746 1.27809 0.189988 -0.633966 -0.380836 -0.357446 -0.136719 -0.948035 -0.160991 
1.66717 0.0319571 18.1261 -2.87547 -14.5591 1.4031 -8.12165 -3.92894 -4.05819 -9.06431 8.37518 1.53582 19.345 -0.238022 0.874027 -0.161115 0.615252 0.425329 1.29037 0.201236 -0.541426 -0.427897 -0.516187 0.271525 -0.741034 -0.202565 
1.90539 0.569758 17.7757 -2.40239 -13.772 2.45333 -9.86055 -5.21583 -2.43323 -10.0279 7.05786 1.23986 18.966 -0.363265 0.821436 -0.0431543 0.573143 -0.0838699 1.18175 0.104286 -0.28975 -0.383002 -0.291877 0.0094759 -0.599637 -0.154551 
1.3727 2.3698 16.6271 -1.44393 -13.5365 3.24902 -9.04057 -4.19185 -3.5652 -12.0889 8.96828 -0.154966 18.7731 -0.536279 1.11509 -0.342413 0.294688 0.28583 0.632518 0.222384 0.0389922 -0.160572 -0.330402 -0.716363 -0.603405 -0.139868 
-0.00539398 3.11471 17.562 -1.49239 -14.7155 3.66147 -8.36654 -4.76625 -3.98594 -10.0525 6.45098 -0.158742 18.9317 -0.603042 0.698951 -0.00455933 -0.285926 0.784145 0.252688 0.0024971 0.546777 -0.900078 0.695437 -1.02515 -0.641535 -0.0687443 
-0.0588398 4.33492 16.5209 -1.85703 -12.6582 3.96162 -7.75674 -3.95878 -4.08469 -10.704 5.09681 -0.7819 18.6628 -0.382255 0.269465 0.11094 -0.290105 0.938633 -0.463908 -0.0720118 0.201827 -0.309837 0.5832 -0.806469 -1.1863 -0.154471 
-0.394053 3.08195 17.806 -3.62547 -10.2904 3.36046 -10.49 -2.59849 -6.67387 -7.24313 3.86785 -1.65435 18.6774 -0.0847734 0.18801 -0.377696 0.563032 0.235806 -0.442676 -0.0453684 0.0393617 0.39603 -0.74899 0.383726 -1.78147 -0.260346 
-0.344248 3.73351 17.0599 -1.82791 -11.0558 1.07998 -8.3389 -4.2666 -3.77042 -10.5775 6.2275 -5.33866 18.1279 -0.22388 0.0503512 0.0026823 0.52261 -0.343184 -0.854512 0.321709 0.00208435 -0.0618933 -0.954648 0.866715 -1.8638 -0.192183 
-0.286557 4.35547 15.4041 1.30821 -14.3376 2.88891 -8.30229 -4.41553 -2.16293 -13.8607 7.80427 -6.7877 17.8974 -0.419262 0.07001 -0.126157 0.139845 -0.197726 -0.213688 0.227124 0.400411 -1.46176 -0.139567 0.719969 -1.05745 -0.115215 
-1.23199 3.94992 17.7352 -1.71082 -12.3505 -0.0751612 -7.24204 -3.03983 -6.64963 -12.1685 7.46218 -7.53421 18.0918 -0.562401 -0.0787831 0.353812 -0.803333 0.596717 -0.0458445 -0.391185 0.735647 -2.54364 1.25031 -0.407177 -0.314685 -0.0549637 
-2.0465 3.32379 16.8375 -2.9848 -10.6317 2.86959 -9.9028 -1.20981 -12.5431 -7.1455 6.85036 -5.84385 18.1194 -0.567552 0.226555 0.00209618 -0.634801 1.83022 -1.42483 -0.744721 -0.276768 -2.783 2.63444 -1.10689 0.395794 -0.447696 
-2.27628 3.85543 18.1122 -3.69808 -9.92523 0.860415 -9.49457 -2.19122 -11.2986 -7.6836 4.66857 -7.38401 17.7421 -0.440403 0.860588 -0.995345 0.786382 2.11552 -1.14424 -0.00253696 -0.774519 -1.72623 1.61854 -1.83939 0.874697 -0.816088 
-2.60217 5.53549 15.2261 -0.87217 -6.39916 -4.70302 -10.8996 -6.22368 -13.7535 -2.93095 3.66664 -4.88383 15.8338 -0.451322 0.789091 -1.76414 1.2012 1.73516 -2.67659 0.825383 -2.02605 -0.854815 1.03867 -1.62148 1.37438 -1.16874 
-3.15617 7.14701 13.5643 1.16478 -3.88912 -2.01008 -6.75631 -4.40549 -14.6756 -6.18307 -0.142901 -3.64073 15.1542 -0.808584 0.446615 -4.73553 1.64434 2.867 -1.0159 3.09652 -0.223061 1.90214 1.41114 -1.39397 2.8923 -1.36987 
-3.86317 5.62346 10.2908 0.589792 -4.97392 -9.07809 -7.14502 -10.2329 -15.1286 -2.70243 1.14869 -0.84359 13.5696 -0.642002 -0.178465 -5.42816 0.77854 2.65014 -1.32996 2.5217 0.0411011 3.41243 0.442398 -2.35999 3.34441 -1.108 
-5.68871 6.04452 -3.09782 3.79266 3.69713 -2.03154 4.11071 -1.30189 -1.10028 -0.742159 -1.0423 5.05737 12.0249 -0.497955 -0.504 -4.69977 0.112597 2.48261 -1.16403 2.23225 0.330518 3.24674 -0.489131 -1.88725 2.97453 -0.831881 
-4.54591 5.19441 -3.5837 1.70659 3.0584 -11.3421 -3.72466 -7.56997 -3.47899 -3.43941 -7.68363 7.48917 11.8585 -0.772551 -0.599676 -3.8157 -0.11368 3.18389 0.669258 1.93033 2.13514 3.39444 -1.63817 -1.15117 1.87919 -0.347049 
-5.30457 4.84154 -2.99733 1.16936 4.50777 -6.69823 2.69474 -4.08439 -4.26669 -8.26024 -5.16298 7.06554 11.8503 -0.703097 -1.19872 -2.05498 -0.840323 1.05928 0.505964 1.7714 2.20555 1.74982 0.332636 0.603358 1.41265 -0.089008 
-7.91799 3.22657 -8.83796 1.33304 10.5402 -3.39846 3.2146 1.83398 3.42674 -7.13423 -2.54681 7.54827 11.9216 -1.03658 -1.4584 -1.89264 0.0506807 0.598684 2.65184 3.31735 3.29076 1.98559 2.62009 1.62281 1.51163 -0.0558558 
-7.51815 1.03483 -10.7456 -0.222182 5.25262 -3.47354 9.49809 5.0239 4.19597 2.76843 -0.593922 12.091 11.5482 -0.846487 -1.38363 -0.695099 1.26222 0.177326 1.51709 2.5278 2.36064 1.5364 2.93059 -0.437595 0.890379 -0.0608614 
-8.62202 -0.194224 -9.17278 2.65576 5.6794 0.304763 9.46044 4.32966 2.21762 4.14672 -1.85413 12.5346 11.7303 -0.0326228 -0.597308 0.254051 0.270774 -0.353993 1.83777 1.81287 0.080793 -0.0428365 0.747289 -1.64929 -0.718389 -0.0323489 
-9.18499 -0.366228 -6.30541 6.81908 7.82481 -0.964405 12.2108 6.47095 4.01989 0.752246 -7.6973 9.02428 11.6417 0.166154 0.148483 0.707308 0.367176 0.432698 1.51622 -0.180161 -1.083 -0.159926 -1.44852 -1.18271 -1.04822 0.0568758 
-7.24768 0.940553 -9.78778 -0.833719 7.48417 4.53582 10.9226 1.51442 3.3006 -2.38969 -7.24157 5.48971 11.7132 0.507024 0.651283 0.319544 -0.689859 -1.07171 0.234925 0.454341 -0.740637 0.091174 -0.427987 0.741306 -1.01179 0.0548822 
-7.37455 1.20985 -6.90152 3.35844 6.51372 1.99203 7.86621 1.01653 2.85485 -1.20596 -3.81375 10.3724 11.8412 0.352634 0.651525 -0.0444144 -0.755854 -0.669285 -0.186453 -0.0938035 -0.224459 0.585251 1.88596 2.44558 0.392403 0.0561623 
-6.99212 2.27415 -7.27701 0.93679 0.976411 0.00116754 13.9045 3.35368 3.25601 2.98589 -0.0893698 6.80156 11.9049 0.013341 0.419171 1.3594 0.810937 0.322326 -0.812685 -1.03676 -0.769971 -0.417085 1.52835 1.4725 0.528435 0.00870476 
-7.5496 2.2246 -7.78287 2.15456 7.73227 0.370656 10.2509 4.42903 6.96844 7.49426 0.954514 10.3304 11.8266 0.00520926 0.366101 2.23245 -0.876427 -2.2337 0.338242 -1.30019 -1.18229 -2.96588 1.84513 -0.0150241 -2.16588 0.335937 
-7.09345 2.52904 -2.55009 3.82291 8.48653 1.28308 4.54646 -4.04168 -0.841623 0.901932 -2.26321 8.15289 11.7639 0.125211 0.385628 2.86614 -0.992774 -3.8058 0.33823 -1.93464 -1.20581 -3.36417 2.41665 -0.487082 -2.31292 0.488196 
-7.29784 2.91291 1.89728 -2.46675 -8.40984 3.04228 6.04423 -1.19724 -9.92571 9.06168 -2.80195 -1.13269 13.5914 -0.0192289 -0.168235 0.504875 -0.799636 -2.54448 -0.230277 0.127403 0.267216 -1.52445 1.44839 0.775211 -2.4703 0.214377 
-6.49195 3.85813 2.21364 -1.71643 -9.98154 0.356506 6.33456 0.137767 -5.11776 14.2854 -0.646547 0.968485 13.4636 -0.0153641 -0.806274 -2.54943 -0.605525 1.1033 -0.263079 1.46547 1.00047 1.39211 2.16256 1.0596 -0.61359 -0.0268266 
-7.9465 0.718874 -7.64036 0.926044 4.24391 -0.317442 9.99383 3.67538 1.48427 8.04448 4.02224 1.57109 12.0487 -0.0800677 -0.699706 -3.54579 0.463905 4.75578 -0.307088 0.552351 0.191006 2.19331 0.908918 1.33502 1.84809 -0.267255 
-6.84594 -0.40531 -10.5284 -0.901119 7.67616 1.64755 9.89904 -1.47563 0.413945 12.2233 -0.377298 3.73305 12.4011 -0.11209 -0.0813619 -2.1797 0.146512 4.03978 0.785348 -0.348398 1.05453 1.4427 -0.941289 -0.131095 1.88926 -0.149463 
-7.52118 1.5461 -9.46066 -0.554881 6.5402 0.861318 7.02375 0.564488 -1.72503 14.6373 3.73854 6.7255 12.7863 0.233527 0.61488 0.412019 -0.313981 0.926676 -0.00866511 -0.218826 0.663739 -0.158707 -1.2643 -1.17976 1.27825 -0.011247 
-7.26506 3.03771 -7.77469 -0.243406 9.06921 3.69386 6.07761 6.96587 3.70037 6.28257 -1.16018 7.83757 12.3475 0.421311 0.623901 0.825698 -0.296848 -0.467321 -0.926739 -0.396961 0.634265 0.13158 -1.95307 -1.24693 -0.461923 -0.154451 
-6.5693 2.07176 -6.95713 -0.97272 8.18077 -1.38393 10.8104 2.77333 -0.952479 4.69336 -1.48512 5.9101 12.0193 0.603945 -0.480324 0.26956 -0.621132 -0.38512 -0.950026 0.743661 0.511374 1.81252 -1.03285 -1.92935 -1.06071 -0.151693 
-5.21533 2.45137 -7.65169 -2.17644 4.51928 -1.86352 6.0209 0.591275 0.685566 7.42997 -4.00013 1.83113 12.0124 0.452045 -0.983421 -0.201658 -0.662254 -0.565048 -0.933415 0.934558 0.222091 2.00866 0.943959 -0.965919 -0.830975 -0.0128072 
-5.52632 -0.562343 -8.17437 -2.69402 6.88957 -1.11012 10.7704 6.30866 8.84495 8.89936 -4.48822 4.42516 12.1954 0.177497 -0.828192 -0.295715 -0.396019 -0.021211 0.130102 0.466949 1.2788 2.77542 0.988141 -0.649429 -0.0375843 0.0535187 
