-6.68137 1.5657 -11.1351 -2.03052 12.8267 6.71673 11.7349 -0.35835 1.17278 3.83761 1.4614 4.94352 11.9487 0.278667 -0.0196645 0.879978 0.259594 -1.67395 -2.30715 -0.676074 -1.03996 0.772587 0.95659 -0.778258 0.613638 0.00940237 
-7.17852 2.03576 -9.1 -3.5953 5.90912 -0.333119 9.01523 0.0551057 5.17451 8.56092 -2.64943 6.91683 12.068 0.196515 -0.294558 0.238615 -0.227623 -1.83845 -1.76809 -0.0623931 -0.351308 0.993791 0.755968 -0.881507 -0.0874685 -0.009834 
-5.03947 1.23234 -7.75279 0.0498481 7.91569 -1.2941 9.71443 -5.76486 3.03486 6.25891 -0.374478 7.02505 11.9361 0.295825 -0.351794 -0.403967 -0.165217 -1.65612 -1.01319 0.880045 0.0745553 0.449057 0.0174643 -0.0105736 0.136284 -0.0232975 
-6.51975 0.259583 -11.6332 -4.20881 6.08989 1.88172 12.4332 0.588364 5.2107 6.40681 -2.0282 3.46541 11.9058 0.072973 -0.671432 -0.517244 0.449836 -0.407396 0.176368 1.32449 0.67524 -1.31421 -1.32086 0.529964 -0.369617 -0.0234118 
-5.53164 0.694818 -11.8884 -2.54984 4.4557 0.54335 14.4262 -0.252203 3.39997 5.00199 1.09791 7.35065 11.9133 -0.0511062 -0.411561 -0.562991 0.46237 0.00223188 0.917368 0.677828 1.10731 -0.802525 -0.470745 -0.331909 -0.657197 -0.0122341 
-6.56757 -1.05264 -9.61844 -0.0462747 5.60214 -0.370002 13.2818 0.67498 -1.57908 2.5851 -0.73581 4.90595 11.9623 0.243869 -0.0325869 0.272473 0.98922 0.958808 0.687116 -0.583236 -0.148058 -0.450394 -0.0384624 0.518646 -0.0141471 -0.0182292 
-5.27109 -0.169358 -11.5751 0.280432 8.17073 4.41861 12.6793 -0.271627 2.41712 5.81604 -2.68022 3.0188 11.8466 0.337801 1.82868 1.39131 1.06016 1.33232 -1.07468 -2.51939 -2.46067 -0.158169 0.376183 -1.79961 0.0665726 0.39173 
-5.43069 0.528736 -10.4275 -0.677849 9.02642 3.37967 10.3905 -0.142214 3.45016 5.80747 2.45409 5.5606 11.848 0.766944 3.03438 1.97169 1.36311 1.04592 -2.41747 -3.42452 -3.6719 0.0555549 0.805734 -1.94755 0.537619 0.530157 
-4.41108 9.04753 -4.5273 3.06677 9.40514 -6.70488 3.27488 -12.147 0.0945109 5.27172 -9.49511 7.35618 13.9291 2.09619 3.3687 3.2468 1.56543 0.476816 -3.66534 -3.68326 -1.9524 -1.06025 -0.840884 -2.29566 -0.422659 0.34523 
-3.16286 9.51084 -3.28392 5.3761 10.2145 -6.8956 0.861441 -11.7469 -0.139995 6.88593 -7.06611 5.42535 13.5719 3.56304 2.56989 2.58614 0.469072 -0.240926 -1.86755 -2.89904 -1.21262 -2.19633 -0.727158 0.358269 -1.63644 0.414134 
4.07594 12.1831 1.08709 5.08062 9.96076 -8.77044 -0.972517 -4.23128 -1.08904 1.07239 -9.39842 0.973129 12.7109 4.0937 0.992206 0.56623 -1.00439 -0.556721 0.108533 -1.73908 0.25353 -2.2246 -0.350529 4.08616 -1.05317 0.415613 
8.14102 11.8104 -0.303972 0.660583 7.54398 -4.92531 -1.981 -10.1632 -6.93972 4.27134 4.19709 0.569927 14.5278 3.67219 0.610458 -0.633494 -1.17458 -0.661574 -0.491753 -1.22094 -1.24214 -1.71735 0.416869 3.42797 -1.04622 0.804799 
10.4055 12.8588 -3.18611 0.402586 7.9568 -7.14736 -3.99932 -11.6712 -7.62864 4.82637 5.3041 4.51803 15.5292 2.11357 -0.586197 -1.34684 -0.531019 -0.273698 -1.04314 -2.01282 -0.970778 -1.20961 1.69553 2.58378 -1.10275 1.01018 
12.0333 12.2253 -4.31478 1.84222 7.90862 -10.1659 -3.72985 -14.2376 -5.45694 7.09328 2.72249 -1.57822 16.1867 0.971136 -1.65243 -0.0212429 0.333127 0.0733022 -1.9748 -2.72284 1.91809 0.0637087 0.454546 0.39406 -1.86584 0.74093 
12.6977 9.04468 -3.6417 1.83471 8.40996 -11.3658 -10.1622 -7.04794 -7.87848 8.13907 4.25778 -3.46656 16.9323 0.312005 -2.8931 1.76968 0.23053 -1.32731 -0.781078 -2.60109 3.01258 0.986355 -0.380288 -0.631471 -1.07786 0.592758 
11.8506 5.45532 -0.182394 1.61016 7.68391 -12.6901 -12.5137 -2.88435 -6.49626 4.88772 6.69055 -4.76697 17.5309 0.000966549 -2.82762 1.73428 0.670346 -2.51049 -0.326999 -1.1494 3.64776 0.678368 -1.46179 -1.09804 1.52066 0.352914 
12.0568 1.77826 3.59609 1.67127 1.4326 -9.79066 -12.6128 -2.2849 -2.1772 4.02771 0.162712 0.723094 17.8209 -0.501717 -1.64695 1.03457 1.45687 -3.34563 0.483008 3.77587 1.91597 1.76344 -2.48324 -2.28336 2.84743 -0.22628 
12.3585 1.7204 0.737742 5.27567 -1.15517 -12.5885 -8.25153 1.61964 -4.91574 1.84 -0.720165 3.93027 17.507 -1.07435 -1.30719 0.369709 0.530548 -2.83123 1.04909 2.51307 1.52905 3.35023 -2.18864 -1.53459 2.57167 -0.150277 
9.93511 2.67738 1.07108 7.2863 -3.89865 -9.00158 6.58601 0.27994 0.148476 -2.75329 -3.45363 6.42196 15.8129 -1.05303 -1.73351 -0.215334 -0.325682 -1.56992 1.3508 -0.281745 2.96076 3.66368 -1.81378 0.694163 -0.419365 0.324696 
7.53974 -1.53016 2.92865 1.45539 -3.80661 -7.83917 -9.5478 3.47849 9.09206 -2.66498 0.825779 5.24194 17.7835 -1.08265 -2.92827 -0.119811 -1.63348 -0.813891 2.83354 -2.45818 3.71573 3.69876 -0.683591 0.295302 -3.04431 0.858381 
9.20111 -5.264 1.42397 1.953 -5.09127 -5.41131 -13.3734 11.5895 9.1373 -2.7887 2.86055 -2.02957 19.3061 -0.5585 -3.2998 -1.13538 -2.04761 -0.0126434 2.73553 -2.37873 4.19456 1.24509 0.843267 -0.45286 -5.2783 1.12815 
7.3123 -8.95026 -0.0377541 -0.225073 -4.62831 -0.215925 -10.5627 14.5435 9.08367 -1.56025 -2.40075 -7.06549 20.0523 -0.284347 -2.38002 -1.87306 -1.16114 0.391189 2.78434 2.22857 1.75682 -0.199302 0.827988 -1.76095 -5.57534 0.666332 
7.25634 -10.1116 -3.12261 -2.11151 -3.55101 0.864445 -4.80017 15.7202 6.3781 0.910685 -4.10467 -13.8158 20.3193 -0.488418 -1.79688 -1.91363 -0.661283 0.879482 2.38496 3.74043 -1.58983 0.182783 0.284153 -1.42485 -3.88691 0.380972 
7.0904 -11.0065 -4.16337 -2.31807 -2.62079 2.94466 -2.6916 10.1972 9.47514 -0.37473 -4.49637 -16.7417 20.6086 -0.136276 -1.47612 -1.87947 0.371 0.490616 1.87244 2.81304 -2.66125 -0.00599885 -0.557422 0.131143 -2.15706 0.269898 
6.86997 -13.2203 -6.0814 -0.306914 -1.69762 4.93319 1.39314 5.81345 9.85548 -1.96069 -3.21586 -16.626 20.9328 -0.362836 -0.997929 -1.25298 1.27463 0.185137 0.931417 1.97308 -2.12736 0.290554 -0.690293 0.188516 0.144966 0.235884 
6.8241 -14.7765 -7.95573 0.727629 -3.10193 7.11193 0.405801 6.19066 7.31499 -2.91167 -2.18944 -16.4457 21.095 -0.0563416 -0.818336 -0.156979 0.568564 -0.507719 0.0112823 0.958516 0.0223293 -0.789975 0.0226538 -0.442361 1.05132 0.102902 
5.5753 -13.2162 -7.49134 2.7388 -2.38476 3.4379 3.51655 7.08669 8.91095 -1.27231 -4.31556 -13.239 21.2555 0.232421 -0.140427 1.01245 -0.855358 -0.659918 -1.00355 0.0129097 1.28047 -0.416625 -0.101621 -1.01406 1.42089 -0.0794083 
7.45602 -15.1002 -4.2433 -0.998108 -4.81581 3.74872 1.03928 9.67224 5.99754 -0.605655 -6.15833 -13.1786 20.9618 0.242532 0.357378 1.61219 -1.84301 -0.536809 -1.27902 -0.231242 1.61517 -0.442207 -0.487759 -1.08097 1.72845 -0.192872 
7.71612 -13.7606 -2.87536 -3.72084 -4.14027 1.59702 1.14095 10.475 8.43108 -3.62181 -6.30169 -11.1551 20.6024 0.0551431 0.710799 1.29978 -1.95287 -1.0615 -0.358332 -1.11031 1.51353 -0.966723 -1.2007 0.130722 1.30996 -0.234057 
6.96636 -12.7174 -2.20278 -5.25761 -4.90822 1.63725 0.437389 12.5723 5.34389 -4.17572 -6.60122 -8.84535 20.4572 -0.518858 1.16506 0.742992 -0.88133 -1.23093 0.261695 -1.18442 1.22505 -0.838155 -0.727523 0.714492 1.59497 -0.120475 
6.09585 -10.8536 -2.01269 -4.89582 -7.64605 2.70197 -1.73406 13.2043 4.40416 -5.49079 -3.4405 -8.85579 20.3375 -0.534725 0.866815 0.385339 -0.265732 -1.20288 0.478662 -1.04141 0.694929 -0.763938 -0.10093 0.743341 1.11519 -0.0351181 
5.67186 -10.7284 -0.95967 -4.81726 -9.2176 4.50472 -3.44534 14.4328 3.82022 -3.30877 -4.01647 -6.35337 20.4918 -0.102932 0.118846 0.349576 -0.0576288 -0.847768 0.683051 -0.733088 0.321132 -0.0435322 -0.0387956 0.139 0.893879 0.00632019 
5.68974 -10.421 -1.57022 -5.26967 -7.99996 2.55659 -2.12475 13.0194 5.37323 -4.55993 -3.87737 -6.82514 20.4094 0.34916 -0.60655 0.202582 -0.106725 0.212049 0.525921 -0.169998 0.329692 -0.198704 0.286061 -1.37146 1.39511 -0.00430965 
6.65475 -12.3395 -0.676135 -5.35883 -8.9701 5.12519 -3.03271 14.2704 4.64169 -4.83513 -5.68779 -5.39128 20.4528 0.360255 -0.582461 -0.362604 0.407117 0.290096 0.58159 0.107407 0.0957462 -0.620853 0.200387 -1.86419 1.23651 -0.0603926 
7.35021 -13.0808 -1.14155 -5.15867 -6.70955 5.02134 -2.79036 14.9339 2.9999 -3.29731 -9.46214 -2.36128 20.3355 0.293782 -0.679895 -0.208771 0.951572 0.0775229 1.54397 -0.581223 0.414665 -0.781412 0.616916 -1.77632 1.25322 -0.0443962 
6.6429 -12.3108 -2.98703 -2.83718 -8.41232 6.18029 -2.5755 13.9543 1.90262 -2.93815 -10.545 -2.40277 20.2269 -0.0292317 -0.174086 -0.576312 1.09327 0.234943 1.34436 -0.698002 -0.768517 0.388327 0.106901 -0.782161 0.145609 -0.0516344 
7.16458 -13.8348 -1.45863 -1.77263 -7.89123 9.74891 -5.25947 15.2508 2.83571 -2.42384 -10.3303 -2.05329 20.3004 -0.0661955 -0.0268936 -0.494874 0.750779 -0.00376244 2.08682 -1.85971 -1.41999 1.295 -0.296848 0.444216 -1.22367 -0.0165316 
6.60141 -12.8329 -3.39916 -1.58548 -7.20454 9.48323 -5.28817 10.2694 6.66543 -4.73736 -9.16449 -4.81724 20.2122 0.267172 0.382431 -0.949015 0.429496 0.553723 2.44114 -2.80168 -1.62203 1.73322 0.00863433 1.22736 -1.81214 -0.0556225 
7.03998 -12.9542 -3.40985 -2.03062 -7.33225 13.804 -10.7326 9.67643 7.09348 -3.88195 -7.93132 -7.2724 20.2602 0.516135 0.93403 -1.46268 -0.427465 1.12658 2.52265 -2.68271 -2.98607 1.3362 0.700507 2.34555 -2.01834 -0.107258 
8.04106 -10.8389 -6.75649 -0.560704 -5.9232 16.3585 -13.8473 8.63133 8.43983 -2.16593 -5.60771 -8.85389 19.9689 1.0075 1.5779 -1.22468 -1.50897 1.41466 2.44576 -1.57118 -3.8053 0.133631 1.17038 3.50693 -0.105248 -0.254848 
9.02542 -10.1616 -7.09334 -4.42235 -2.899 18.9245 -14.3935 1.13951 8.6295 -0.207023 -0.380992 -10.1267 19.8858 0.915416 2.66 -0.362316 -1.41182 2.18581 -0.311619 1.49938 -4.84098 -1.61072 0.326384 4.34573 2.36212 -0.686063 
10.6462 -6.3397 -7.68081 -7.93444 -2.34788 19.1517 -11.3136 -4.48861 6.56558 -0.722921 4.59501 -3.91634 19.1251 0.0216968 2.58032 2.12398 0.629024 3.02586 -2.30218 3.51052 -5.5818 -3.52379 0.172807 1.92355 3.64955 -1.03368 
10.3145 -1.90386 -4.75927 -5.40286 1.80914 10.8492 -4.50252 -7.9685 -0.0229702 -2.97152 8.69599 2.06942 17.2517 -0.662497 1.91937 3.12409 2.78384 2.82584 -2.79442 3.55659 -4.57003 -3.95391 -0.589604 -0.522389 3.35553 -1.03313 
7.50501 -2.06623 2.69638 3.07467 6.85203 8.88522 -1.2402 -14.7236 -4.8529 0.0803616 -0.528461 3.29581 16.1175 -0.986054 0.739275 2.87133 3.00084 2.33334 -1.87434 2.3274 -3.21178 -2.6095 -0.785575 -2.03141 1.29603 -0.660123 
7.28352 -2.70153 3.33851 3.9923 6.63022 10.0857 -1.64724 -16.5931 -5.43081 -3.55669 -0.431204 3.0449 16.2239 -0.361176 -0.406134 0.488549 0.110822 -0.33058 0.0436688 0.279943 0.70784 0.752538 -1.16823 -1.68831 -0.61918 0.025283 
7.23139 -2.24449 2.62693 2.37217 6.9083 10.1618 -1.10427 -16.2352 -3.77801 -4.35821 -0.99844 2.07608 16.3384 0.970735 -0.592819 -2.52367 -3.80869 -2.59765 2.08219 -1.74844 4.20925 2.47954 -1.73848 1.22309 -0.615614 0.630431 
8.64542 -3.8454 -2.28181 -4.4975 0.128109 10.4293 -3.17078 -3.67351 3.20228 -6.5934 0.489419 -0.41662 17.2677 1.15275 -0.924011 -3.29467 -4.65373 -2.91277 3.65843 -2.38121 4.36556 2.76575 -0.84428 1.84012 -0.087059 0.865552 
11.6777 -4.45838 -7.11181 -11.7239 -2.88514 19.1244 -9.22063 -0.13719 3.22828 -7.09368 5.12668 1.9485 18.7478 0.755311 -1.6276 -3.04737 -3.07651 -2.01503 5.0468 -3.20881 2.86337 1.74043 0.208949 1.73793 -0.458724 0.929455 
10.8241 -6.21464 -8.26547 -12.2283 -3.0369 23.8965 -9.49512 -2.81435 4.89478 -6.41035 5.70686 2.67339 19.347 -0.0766089 -1.74407 -1.54376 -0.24824 -0.0952622 4.02386 -2.49766 0.0507481 0.789593 1.15901 0.279807 -1.37826 0.663344 
9.91861 -9.19785 -9.61807 -9.14496 -1.58433 28.6622 -13.9862 -2.34795 4.07791 -3.40499 5.08248 -1.76254 19.946 -0.682606 -1.78827 -0.408179 1.881 0.888007 0.931206 -1.30077 0.0104227 0.738988 1.75412 -1.67244 -2.60802 0.311848 
9.14194 -10.196 -8.74748 -7.02815 -0.998608 25.7797 -13.2763 -2.31439 6.72542 -2.6427 1.91055 -5.4524 19.9853 -0.580275 -1.30173 0.154959 2.22347 1.22508 -2.09964 -0.00336342 1.30901 0.0249721 1.86991 -2.54662 -2.75342 0.0813198 
9.10579 -11.409 -8.9117 -4.91896 0.535747 22.8389 -13.8339 -0.335058 6.00789 -0.206885 -1.33735 -7.02872 19.9879 -0.748775 -0.552785 0.540466 2.06789 1.2905 -4.53255 1.43843 2.61088 -1.13414 2.22366 -3.44196 -1.34171 -0.0847271 
8.32914 -11.6177 -7.84386 -3.22398 2.02847 16.31 -9.58808 2.72425 4.05465 1.34014 -3.81632 -8.46064 19.7327 -1.21063 0.986171 0.822 2.06689 2.12216 -5.25866 1.23768 4.07968 -2.82138 2.33507 -4.5018 1.04251 -0.285138 
6.58113 -11.2509 -7.36754 -0.707597 3.35465 10.7342 -8.63813 8.18711 -0.25742 5.72187 -9.26389 -6.96698 19.6487 -1.11098 2.41785 1.1216 2.02078 2.51194 -4.99948 1.84893 3.38481 -2.09761 1.15206 -5.06958 2.75688 -0.544302 
4.3511 -5.34423 -5.40956 1.20064 8.20272 5.53868 -9.6858 13.8229 -4.24881 6.06827 -16.6352 -0.270744 18.7292 -1.37355 4.43904 1.4321 2.61949 3.3874 -4.71754 3.16562 0.515421 -0.187799 0.00581521 -3.62141 3.9929 -0.971079 
5.53989 -2.45653 -4.52088 2.97262 10.0083 3.22715 -4.54037 11.0397 -0.328451 3.18935 -20.2758 2.66075 17.7681 -3.21116 5.87025 1.2225 2.88875 3.04132 -3.72312 5.88196 -2.34123 0.690722 -2.38792 0.363739 3.26333 -0.721076 
1.982 6.1803 -2.10669 8.03338 15.6387 -3.52415 4.19116 3.87508 3.15117 2.63548 -16.4174 6.68998 15.8176 -5.62825 4.41134 0.211477 1.29599 0.763886 -3.33154 5.80427 -2.69142 2.38196 -0.630569 4.21141 1.9603 -0.0577343 
-8.29013 12.338 -2.90649 10.3198 14.8433 -3.34996 13.8332 1.45486 -0.503799 -4.50135 -7.55408 5.8693 17.4991 -7.06919 2.44995 -0.477831 -0.961379 -0.619958 -3.24763 4.08601 -0.552844 1.37245 -0.254866 4.15041 1.03023 0.68371 
-16.8751 9.3152 -5.15936 4.007 9.60468 -7.83047 10.1488 5.15821 7.74869 6.76078 -1.93901 7.92647 18.575 -6.32715 -0.109572 -0.703258 -2.43339 -1.96314 -2.63591 1.55889 1.28818 -0.0890792 0.185119 3.596 1.51032 1.06516 
-20.3775 8.22575 -5.38369 0.178912 9.92552 -10.8578 12.9109 7.63387 4.23505 -0.147628 -6.76296 7.19367 19.8079 -3.65204 -1.54996 -0.12652 -2.14282 -0.893332 -1.24765 0.391754 0.322996 -1.04918 0.318934 2.52401 1.10087 0.643639 
-23.6101 7.68858 -4.38438 0.936868 8.28185 -12.9498 12.4468 7.22648 0.336348 1.38421 1.16702 13.5794 19.989 -1.34619 -1.32288 0.643498 -0.895718 -0.260424 0.808682 1.32681 -0.865062 -2.37697 -0.41287 0.764203 0.270183 0.29644 
-23.1829 5.40155 -3.92658 1.14071 11.038 -7.02855 14.6429 2.0357 -2.04351 -0.218401 3.51293 8.54717 20.0103 -0.0091568 -1.10195 0.753739 -0.905132 -2.20569 0.642649 -0.0719497 -2.44925 -1.56347 0.180829 -0.241956 0.32163 0.0116661 
-22.2034 4.11288 -2.67042 -0.952487 7.74631 -5.7017 15.9168 3.63198 -0.996895 4.73182 -3.25594 8.60063 19.956 0.444765 -0.237251 0.654247 -0.827263 -2.59026 0.170515 -1.4127 -3.7178 -2.60018 -0.537047 -1.92192 -1.40017 0.0201118 
-21.1266 4.50384 -2.47198 -3.40207 -0.835137 -11.2686 10.8161 -2.81514 -2.91569 -0.917288 -5.76126 11.2912 19.8828 0.281138 0.51608 0.345245 -0.400098 -1.88819 -0.900029 -1.29027 -1.63778 -1.04467 0.90243 -0.372322 -1.59243 -0.0377043 
-22.4144 6.95118 -1.84045 -0.928055 1.26715 -9.97717 7.2967 -8.9371 -12.2285 -0.951578 -3.80551 5.20653 20.1534 0.45561 1.26023 0.779524 0.457916 0.970504 0.643388 0.185153 -0.361506 -0.835407 0.0732068 0.207832 -2.62337 -0.105155 
-21.6717 6.56279 -2.61534 -0.871991 4.83664 -9.39096 12.5016 0.131356 -1.6511 7.13545 1.92611 2.28209 19.7232 2.53173 2.34882 2.47475 1.83687 1.95575 1.14824 0.0427707 1.06762 -0.54974 -0.606165 0.35695 -1.94292 -0.393128 
-19.6528 9.38455 1.29888 0.072051 9.76294 -3.4236 15.9998 0.351204 -5.80623 1.07148 -6.06046 -0.0116496 19.51 4.55638 1.65464 4.25924 1.43835 -0.97595 -0.277056 -1.35001 -0.182733 0.997532 -1.22754 -0.618436 0.848138 -0.57961 
-9.84874 15.0312 8.33209 5.2822 4.69571 -8.80422 6.67843 -2.12122 -8.87551 -4.95965 -2.84903 4.18571 18.2388 5.00631 -0.130052 5.11856 1.29941 -3.65824 0.506717 -3.96315 -3.00845 -0.168354 -2.77803 0.118596 1.72633 -0.333318 
-5.54397 10.9901 13.982 3.18662 -3.54213 -11.6558 3.45824 -8.72448 -3.6286 -1.04171 -4.51012 8.49541 17.9975 3.99429 -2.12234 4.09733 0.276394 -4.71696 1.15828 -4.34825 -2.53851 0.864267 -2.36014 2.45956 1.42593 0.0188934 
-3.69456 5.10974 16.6359 4.06777 -6.80202 -2.74127 -1.04334 -10.373 -3.58168 -5.69813 1.74392 6.66023 18.8128 1.69078 -3.22547 2.94253 -0.908618 -2.9626 2.98345 -2.75276 -1.18621 0.297939 -1.93901 3.0882 -0.37437 0.42237 
-2.75843 3.7336 17.6336 2.06124 -8.073 -0.663658 -1.88056 -8.21542 -4.13181 -10.36 3.94087 5.88075 19.3175 0.687841 -1.84357 1.79026 -0.822975 -1.60498 2.90337 -2.08498 0.858474 -0.666972 -2.65331 3.31233 -2.02531 0.435873 
-2.78763 2.53217 21.2189 1.30181 -7.85184 0.61693 -4.41599 -8.30682 -7.13421 -9.99557 8.3665 3.62119 19.6906 0.452799 -0.545769 0.842943 -0.730344 -1.20982 1.15802 -1.33616 1.09289 -0.053846 -1.54167 1.97743 -1.81366 0.216765 
-2.55823 3.0611 20.6418 0.454729 -11.0421 1.18192 -5.28032 -5.46522 -5.18719 -12.1595 8.74026 -0.111628 19.738 0.529843 -0.298334 0.132291 -0.232577 -1.13013 0.716713 -0.921974 0.558103 0.579139 -0.766304 1.24404 -2.03396 0.0239941 
-1.53066 2.71714 19.3465 1.2193 -11.3666 2.12602 -6.02427 -6.28369 -3.32322 -12.5067 9.23139 0.588096 19.6864 0.750375 0.0423857 -0.786261 -0.0376532 -0.972552 0.590963 -0.123988 0.443373 0.785381 -0.254485 0.271781 -1.73554 -0.14333 
-0.7377 2.14945 19.2313 0.939603 -11.9663 2.16536 -5.68628 -6.43646 -3.14161 -12.9359 9.72861 -2.77248 19.4396 0.869763 0.242374 -0.89803 0.144307 -0.652958 0.758872 0.0514638 0.173364 0.284843 0.496133 0.0394346 -1.22992 -0.244386 
0.0539827 3.19992 17.9929 0.871103 -12.2525 3.08002 -4.83294 -5.60433 -4.2301 -10.8798 9.23123 -3.72608 19.1232 0.967443 0.569898 -0.457895 -0.0509157 -0.657716 0.130431 0.362743 0.390965 -0.954442 1.24225 -0.106842 -0.772343 -0.374082 
0.998263 4.03158 16.8285 1.35036 -13.8639 4.49927 -5.61866 -4.93808 -3.30954 -10.4923 8.93752 -4.10414 18.7976 0.804147 0.678918 -0.0438484 0.637871 -0.882214 0.160291 -0.162846 0.31714 -1.71538 1.27415 0.0579221 0.434226 -0.371565 
2.43857 4.62557 18.2584 0.759344 -13.7063 1.61122 -4.24437 -5.07806 -8.01147 -7.51727 9.09273 -2.60779 18.137 0.542627 0.738214 0.10244 0.915714 -0.404507 -0.473429 0.492047 -0.140176 -2.32326 0.721558 0.405579 0.755517 -0.37439 
2.09074 4.83121 18.8793 4.18484 -15.6504 3.70122 -6.7948 -5.11389 -9.82781 -8.24642 10.0875 -1.16049 18.0748 0.170153 0.608157 0.259919 1.15512 0.0124384 -0.751103 1.11728 -0.459931 -1.78539 -0.593213 0.759358 0.661838 -0.290264 
2.22088 6.49118 17.4797 4.03243 -13.3818 1.11191 -1.78464 -6.2173 -12.5873 -8.39495 10.6841 -1.42031 17.6126 -0.0759438 0.305581 0.0696836 0.884836 0.260895 -0.616077 1.34767 -0.194644 -0.863716 -0.693526 0.40014 -0.0710307 -0.192924 
1.95787 6.13956 18.5174 5.48941 -13.964 0.993418 -1.26211 -6.66811 -9.94862 -13.0195 11.9386 -1.38868 17.6085 0.0363348 0.193333 -0.020488 0.122692 0.71476 -1.36878 1.25435 0.80434 -0.180867 -0.0499733 -0.766489 -0.217839 -0.26421 
2.12529 5.4993 18.7878 4.53124 -13.2451 -0.115264 -0.27238 -5.27417 -12.2696 -8.59834 10.1679 -2.84885 17.4055 -0.0617388 -0.107321 0.301511 -0.041046 0.902351 -1.42418 -0.54466 1.797 0.218007 0.705639 -1.30618 -0.280647 -0.210045 
2.32021 6.29382 18.1228 4.5489 -12.145 -2.52907 -1.2792 -1.56376 -10.891 -8.3946 6.51316 -1.53542 16.8574 -0.0683777 0.137549 -0.146903 -0.397192 1.58227 -1.33763 -0.925032 1.23152 -0.332319 1.64418 -0.879852 0.0467952 -0.292181 
1.73102 5.87744 19.1845 4.29746 -9.77955 -4.24775 -4.49939 0.215541 -11.026 -7.17923 6.86597 -2.75018 16.938 -0.232921 0.255079 -0.492484 -0.225315 1.53176 -0.773151 -1.09275 -0.174408 -0.0420459 1.53235 -0.192051 0.290677 -0.269879 
1.81312 6.63824 17.5845 3.62034 -7.78541 -3.62849 -3.77376 -3.25538 -12.232 -5.50817 9.19029 -1.20404 16.3814 -0.544527 -0.343153 -0.620056 -0.734184 1.20349 0.143789 -1.06367 -0.630419 -0.893816 1.83761 0.59515 -0.355109 -0.066053 
1.21423 6.60249 16.5945 3.86894 -7.76608 -3.43131 -4.48884 -5.3004 -11.8093 -2.37982 7.86905 -1.56115 16.2941 -0.9462 -0.832025 -0.285067 -1.18705 0.701848 0.560688 -0.689278 -0.132988 -1.49598 1.34575 1.28103 -0.544217 0.202036 
-0.144029 4.21553 16.3175 1.09224 -7.13429 -2.21835 -6.60282 -1.95788 -14.9684 -1.60626 8.98737 -3.90548 16.849 -0.725576 0.077119 -0.114025 -1.00503 0.419995 -0.128839 0.333529 1.07502 -0.836373 0.348228 -0.0876744 -0.323767 0.0507942 
-2.02141 2.92867 18.3927 -0.373754 -6.59587 -2.14938 -6.53125 -1.09815 -17.1377 -2.40142 13.3726 -4.12055 17.7143 -0.777369 0.940271 -0.116526 -0.783039 -0.386695 -1.87508 0.446777 0.229594 -0.572167 -1.03371 0.515944 0.354091 -0.148949 
-0.19694 8.86074 16.1153 0.716527 -6.27054 -4.91365 -1.08491 0.0185949 -13.7497 -3.75623 6.00015 -1.54318 15.9252 -0.738305 1.48964 -2.23333 1.14588 1.75613 -1.63419 0.740041 -1.393 2.17797 -0.613125 -0.632167 2.64071 -0.871568 
-2.64616 8.98124 16.113 0.141601 -10.1314 -11.4591 -5.01391 -5.14067 -15.2795 -6.47339 11.9424 -0.971844 16.0113 -0.54649 1.02446 -3.53901 2.71202 3.00691 -0.523641 1.04434 -1.65579 3.04885 -0.215057 -3.19623 1.31671 -1.13056 
-3.52318 8.63744 6.29077 6.56399 3.41417 -5.73446 -3.66129 -6.90161 -5.00767 -2.6359 6.54164 7.72372 13.3427 -0.0994738 -0.65428 -2.67601 3.07643 1.61232 -0.888842 0.682416 -0.770119 2.0443 0.436104 -3.05411 0.238706 -0.712746 
-3.09074 8.16262 5.60995 10.2626 3.59633 -4.35718 -0.0213451 -5.91702 -6.2645 -4.03686 -2.87933 -2.17047 13.3528 0.260498 -0.523503 -2.98656 1.58556 2.49834 -0.012153 0.872032 -0.92821 0.847677 0.382135 -2.70211 -0.028885 -0.616524 
-0.472018 5.99865 7.98673 11.0382 -5.07281 -12.9088 -0.169111 -3.44382 -8.03571 -2.79397 -1.85957 0.249665 13.6907 0.606972 0.0470023 -1.45284 -0.857543 -0.210422 -2.16874 -0.279357 -1.02678 -0.803085 -0.339334 0.195539 0.0676338 -0.133669 
-2.86925 7.68312 0.332182 5.83233 6.60375 -7.93267 -2.39983 -11.5106 -9.52713 -4.48368 2.63246 2.62076 12.7546 -0.672722 -0.312344 -2.44553 -2.52731 0.226889 -1.31953 -0.398356 -0.640836 1.15368 0.508115 2.36516 3.42959 -0.208795 
-0.599066 9.1122 1.66545 4.49143 0.858342 -14.7904 -3.86883 -9.2387 -7.39178 -4.10916 4.76344 5.66628 12.9734 -1.93129 -0.735234 -3.15761 -2.67011 2.04905 1.62846 0.194557 1.48074 1.80542 0.711854 1.42026 3.21215 -0.177974 
-6.39083 5.04413 -3.45706 0.89946 1.76519 -10.014 -0.163265 -6.22376 -0.818083 -0.838696 5.63499 12.2692 12.6675 -2.05955 -1.29498 -2.48831 -2.04142 1.21567 1.60409 2.19835 3.7596 1.93889 2.17447 -1.1744 1.14251 0.0440954 
-8.36769 3.64198 -5.90667 0.154042 7.59171 -3.72583 -0.31461 1.31647 -3.36315 -1.05719 3.74045 11.4862 12.8445 -2.23993 -1.568 -2.93077 -1.68987 1.02254 1.98793 3.8307 3.89377 3.36098 4.11154 -0.39358 0.139184 -0.0138871 
-9.28267 3.94335 -8.3233 -2.20607 9.31543 -5.44452 6.81482 2.00981 -1.84701 4.86269 -2.72803 5.42337 13.0396 -0.15294 -1.03588 -1.62886 -1.56282 -0.873565 -0.396492 2.97102 1.82508 3.50993 4.01136 -0.86774 -2.16766 0.0224525 
-10.3528 1.82261 -10.5553 -2.40516 2.1959 -7.13553 11.7956 6.11336 9.92759 13.5978 6.97705 9.7851 12.7179 0.97186 -1.07596 -1.01649 -1.72843 -2.61252 -1.57142 1.76164 -0.298803 3.7997 3.48598 -0.535216 -2.63524 -0.0167854 
-6.16299 0.774411 -9.27704 -5.63504 0.0952663 -10.2916 8.63673 0.503203 10.0862 11.8906 -0.322008 2.28143 12.843 1.49835 -1.30619 -0.161673 -1.03814 -2.26967 -0.100906 0.124922 0.194648 2.09246 1.44705 -0.79683 -2.82163 0.0162434 
-5.06823 -0.153345 -10.5123 -6.7736 -0.860798 -9.15936 7.58266 0.575761 9.66876 12.8588 -0.13864 -0.119027 12.8588 1.3311 -0.837772 -0.16425 -0.186146 -0.20788 0.745494 -0.460423 0.0324039 0.0624875 -0.0654278 -1.71724 -3.66474 0.0391676 
-4.43322 -1.5996 -9.15317 -5.21255 -0.504585 -4.93714 9.54592 5.75185 8.74472 12.4675 -3.15434 -3.73273 13.0504 0.599512 -0.340081 -0.0745718 0.930392 0.659552 1.33486 -1.28764 0.75014 0.513889 -0.0429642 0.179353 -1.55971 -0.0771066 
-4.56216 -1.17925 -11.4385 -3.54713 1.45643 -6.0853 9.03893 3.65106 10.9108 12.9823 -0.192976 -5.5315 12.8101 0.337558 -0.279704 -0.224005 1.38302 0.856257 1.85274 -0.725207 0.662414 0.501503 -1.14804 -0.171663 0.290247 -0.204908 
-3.41846 -0.413043 -9.1868 -2.59632 2.23442 -5.15436 1.47041 2.71625 12.0347 11.614 0.601923 -2.8109 12.4818 0.0534992 -0.128725 -0.358137 0.989535 1.52372 1.62463 0.203485 -0.374275 0.471429 -0.93893 0.34834 0.544447 -0.227461 
-3.88782 -2.14514 -11.6155 -1.16661 2.05099 0.212934 7.99438 5.40563 10.5313 7.54526 -2.87509 0.871292 12.1186 -0.135596 -0.251391 -0.382659 0.459493 2.07693 1.35027 0.417458 -1.97918 -0.673995 -0.450302 -0.672675 1.87906 -0.135698 
-4.50289 -1.76028 -10.8554 -1.45514 6.81671 0.0368928 11.0856 3.00319 11.2916 10.4913 -0.0715816 -4.21189 12.2588 -0.493439 -0.548612 -0.649669 0.638355 2.31676 1.23686 1.0537 -2.1147 -0.902465 0.603978 -0.296068 0.322292 0.000145149 
-4.69792 -1.76259 -12.5175 -1.82026 9.54993 -1.92958 6.31862 -6.38832 7.91232 11.2921 -3.2196 4.56431 12.2431 -0.027519 0.00124283 0.096839 0.261307 0.964505 -0.476792 -1.13823 -3.12604 -1.20139 1.33768 0.587087 -0.419065 0.0688364 
-5.4806 -3.34738 -11.9841 0.922277 10.0687 2.10121 7.57679 -1.96025 8.83183 12.7605 -0.70616 -3.04594 12.4203 0.278423 0.309501 -0.082544 0.0385234 -0.246881 -0.320079 -1.81761 -2.29806 -0.822174 1.02349 0.594109 1.11804 0.0425226 
-3.53656 -1.34538 -10.5669 -1.04878 5.2475 -3.20319 4.05767 -7.74285 5.75424 13.0991 0.377639 -1.80701 12.382 0.0919944 0.329376 1.05088 0.347809 -0.260938 0.707802 0.685831 0.143654 -0.895929 -0.581528 0.719505 0.438627 -0.0427502 
-3.69146 -0.42138 -12.2434 -1.64826 7.73352 -0.926702 3.12802 -7.80983 8.25976 14.7053 1.10035 4.56396 12.402 0.31555 0.251835 2.8906 -0.608377 -1.82215 -1.61744 0.535947 2.76026 -2.61834 -2.86782 -0.891675 2.44504 0.270475 
-5.13253 -1.57871 -7.13345 1.20405 9.41285 3.12338 11.9721 -2.74526 3.71871 7.41208 -0.525322 2.95249 12.0385 -0.251359 0.0143128 2.87 0.0212485 -0.94432 -1.7038 -0.0567038 3.73781 -2.43789 -2.11795 -0.823227 2.52995 0.257164 
-3.10487 -1.97154 0.752175 -3.24603 -1.1247 -9.14929 6.29928 9.34227 -3.24211 1.26487 -4.71306 6.79949 13.9444 -0.274451 0.0925258 2.34763 0.166149 -1.00149 -2.41026 -1.16626 2.54754 -2.22911 -0.913412 -0.417075 1.70946 0.184736 
-5.08665 -0.498736 -2.71464 -0.143657 4.95501 -7.61088 2.18852 2.37016 -0.684299 9.22951 -0.831795 9.725 12.8966 -0.189003 0.363274 0.537081 0.0406948 -0.283596 -1.99301 -2.3678 0.325875 -0.62482 1.15995 0.326832 1.64705 0.0668411 
