-7.65348 -1.35448 -7.29771 4.12907 5.98298 -7.7419 5.20161 1.08631 4.81397 3.53255 -11.1385 1.2737 11.7183 0.102285 0.605515 -0.166572 -0.554007 -0.154658 0.692541 1.92499 0.107296 -0.427952 0.837025 0.282471 2.28909 0.0124881 
-6.94119 0.188734 -7.99177 2.864 4.90687 -9.54409 13.5989 2.67292 2.79055 2.34219 -9.26105 8.71479 11.7232 3.43323e-05 0.75954 -0.0602074 -0.923822 0.680243 1.04483 1.16585 0.166224 0.577233 1.26423 1.18295 1.96191 0.00804033 
-7.49819 0.901493 -7.78355 1.99157 5.74775 -3.3781 10.6279 0.829486 3.68592 8.31286 -10.6648 8.9986 11.7783 0.104903 0.484052 -0.082213 -1.07846 1.15474 0.625394 -1.07047 -1.23353 0.717763 0.146018 1.30973 1.02986 -0.0135653 
-7.73094 1.31524 -7.35583 0.578707 9.50182 -4.69965 8.3177 2.04584 8.26415 7.46353 -5.46054 7.22079 11.7285 0.123423 0.278439 0.37071 -0.271477 0.630864 1.15321 -1.82885 -1.47206 0.212093 -1.56137 0.991969 0.115895 -0.0251509 
-6.73408 0.50253 -8.02675 -0.120605 9.45919 -7.03715 2.48987 -4.76779 5.66598 1.70198 -6.49007 7.17001 11.6478 0.0686711 0.0355279 0.254497 0.461976 -0.0544598 0.121805 0.520899 -0.158302 -0.767437 -2.3548 0.730646 -0.122342 -0.00943174 
-6.70613 1.78041 -6.01662 2.5627 6.20547 -1.94851 8.52366 -1.88875 2.86098 -2.1592 -6.38859 10.2086 11.6627 -0.228509 -0.554581 0.129862 1.67444 0.632869 1.73452 2.35575 0.682413 -0.698222 -0.488525 -0.616663 -0.562943 0.0109179 
-7.66725 0.846547 -7.18067 3.30946 7.12363 -4.14464 13.1294 2.00527 2.55032 1.35023 -6.54759 6.89301 11.7641 -0.604547 -0.382599 0.0517614 1.20554 1.65378 1.80081 0.945279 0.786551 -0.912803 0.956398 -0.449249 -0.726927 0.00587101 
-8.40691 -1.62967 -7.12956 7.23587 13.8339 2.52671 14.7767 2.07138 6.33087 5.19678 -8.5151 4.54458 11.725 -0.161675 0.0521937 0.385019 -0.287672 1.39265 1.4508 -1.73274 0.30157 -0.472453 0.118874 0.414651 -1.13157 0.0669382 
-8.90643 0.294574 -7.21147 3.57052 13.9138 -0.270696 4.08976 -2.8151 -0.632981 2.80598 -7.67306 6.36737 11.646 0.350433 2.02323 3.59439 -1.12188 -0.78432 2.28181 -3.42379 0.654227 -3.47538 -2.22495 1.4819 -1.35523 0.599452 
-6.89491 2.31736 -4.07613 0.993808 9.77364 3.36851 4.37981 2.02929 2.09037 -2.2927 -3.7526 4.81351 12.0564 0.768471 2.82489 7.76096 -1.52553 -4.84349 -0.348014 -5.17078 1.87778 -3.93344 -4.35714 2.0111 -2.3666 1.67129 
-6.67108 8.98915 9.26455 0.821065 5.23218 6.84349 1.20889 5.29745 -12.7063 -6.02976 -1.51936 -0.017592 14.5956 0.759179 2.49852 8.80266 -0.858077 -5.50607 -0.514533 -3.60305 2.12456 -4.28413 -4.01136 1.36624 -2.39371 2.18256 
-5.68223 8.14748 23.4372 0.982925 -6.04266 -2.77045 -9.6368 7.40399 -7.29968 -12.1711 -1.53647 -4.09596 18.6066 0.537586 2.31511 5.49098 0.0337805 -3.9049 -0.457119 -3.44133 0.17651 -4.22749 -2.77287 0.647923 -1.54241 1.76325 
-5.71688 9.87214 23.0452 -0.714423 -5.70834 0.226122 -6.91718 5.12035 -17.3586 -12.3116 -1.94994 -1.14646 19.2837 0.864383 1.20653 0.69666 0.903737 -1.4353 -0.530931 -2.34355 -0.75476 -1.5485 -0.0973271 0.254004 -0.677511 0.665166 
-4.68408 13.4514 16.4885 1.93045 -4.28062 4.3916 -8.76379 3.00039 -16.7209 -13.0161 -0.297692 -2.33409 18.5286 0.882204 0.688999 -1.75792 1.1168 0.889403 0.333172 0.290762 -1.59088 -1.43469 2.72409 -0.677815 -0.265263 -0.254771 
-2.84824 12.3698 16.2222 4.86599 -2.82533 0.607803 -10.9454 3.72545 -15.7382 -6.09388 -0.86873 -4.28608 17.9604 0.667254 -0.101059 -1.07161 0.890949 1.30006 -0.724492 0.206965 -2.30449 1.29756 2.7411 -1.08619 0.21667 -0.267903 
-2.70553 10.3436 18.0591 3.77671 -3.03715 -1.29543 -6.1689 0.147042 -15.2833 -1.65948 -5.46615 -3.85246 17.9944 0.354421 -0.903821 0.185467 0.233008 0.751702 -0.713391 0.261983 -2.32714 1.3947 2.04346 -0.988214 1.11015 0.0329821 
-3.36988 10.9207 16.9018 2.81719 0.17023 -0.55282 -7.1798 -4.97544 -11.5896 -4.28444 -4.79665 0.696081 18.2113 0.367066 -0.986418 -0.183342 -0.107216 -0.0562001 0.257989 0.148127 -2.30248 1.18487 -0.420597 -0.00105052 1.69507 0.188922 
-2.65115 9.65684 17.076 4.11989 -2.01989 1.40496 -9.33666 -4.28489 -11.8217 -3.70354 -3.2748 0.725558 18.5681 0.873946 -1.51248 -0.515681 0.833934 -1.44663 0.600818 -0.605094 -1.17948 0.748818 -1.67796 0.997501 1.05567 0.280961 
-1.04009 7.78113 15.7971 4.15831 -3.61496 0.547553 -8.62086 -5.57098 -11.5447 -7.17483 -1.96966 1.90025 18.6182 1.01303 -2.54479 -0.169713 0.797109 -2.48913 -0.473662 0.321813 0.0520383 -0.67692 -1.05861 0.53221 -0.0885781 0.492098 
0.499306 4.35105 16.0331 7.27582 -8.37771 1.15847 -8.47384 -5.45259 -11.5617 -8.60409 -1.89214 0.823816 19.1957 0.912191 -3.44257 -0.121652 -0.19153 -3.07773 -2.21508 1.45702 1.00376 -0.865262 -0.705702 0.553373 -0.921354 0.755894 
0.120026 0.849675 16.5747 5.22478 -9.09651 -2.79789 -6.00214 -4.1314 -15.1042 -7.12724 -2.82693 0.204062 20.358 0.943834 -3.76071 -0.86262 -0.392308 -3.09491 -3.28612 2.06911 1.87257 0.0371273 -0.475923 1.47034 -1.3774 0.822079 
1.32974 -4.0903 16.0789 2.62901 -14.6678 -7.99773 -3.36092 0.0141382 -14.3682 -7.25585 -0.0792975 -3.03312 21.4777 1.13497 -3.31618 -2.35299 -0.339794 -1.88439 -3.8072 1.78336 3.0836 1.35842 -0.820004 2.00651 -0.778036 0.552102 
3.26386 -6.80175 11.461 4.52018 -15.9445 -11.3049 -0.831764 1.05852 -9.95578 -10.2286 4.4756 -3.0583 21.5876 1.47311 -2.05512 -3.93586 0.50389 -0.206549 -2.59624 0.296818 3.19126 3.80677 -0.370623 1.6518 -0.109683 0.0803373 
4.60223 -8.40413 6.82495 5.92915 -14.3757 -13.624 -2.14222 7.37044 -7.34385 -11.1534 4.48912 -1.43518 21.3414 1.36913 -0.840914 -4.72147 -0.15699 2.29351 -1.10577 -1.55688 1.28958 5.01985 1.11875 0.398429 -0.88425 -0.229438 
5.84934 -7.26899 1.52239 6.09416 -10.2753 -12.9659 -5.12741 8.14673 0.417403 -7.03156 3.14788 -1.14332 20.8278 1.25746 -0.0611426 -4.35648 -1.33796 3.42575 0.993035 -2.51534 -0.758587 5.58874 3.23444 0.308031 -1.9532 -0.188488 
6.88267 -8.06125 -2.55908 1.05707 -6.03483 -12.6961 -8.99748 2.91791 5.54441 -3.26059 2.57671 -8.41186 20.7104 1.0221 0.399748 -3.73945 -2.65587 3.96258 2.60991 -2.12327 -3.29484 4.97737 4.70874 1.09875 -2.45227 0.00502567 
8.41096 -7.2789 -5.62935 0.266409 -2.98615 -6.80373 -9.98085 -0.508148 11.5438 1.99718 6.97196 -9.33596 20.9607 0.891069 0.424909 -3.17452 -2.80335 2.7878 3.33745 -0.872556 -3.47289 2.42213 3.81914 1.70395 -1.95167 0.148937 
8.43194 -6.40043 -8.29643 -4.43631 1.79265 -3.65554 -10.3319 -4.77632 11.9798 7.87586 8.07081 -9.60021 21.3001 0.766592 0.543599 -2.35546 -2.29167 1.15947 3.80423 0.303999 -2.29349 0.0343968 2.41896 1.73334 -0.231531 0.156824 
9.53005 -5.97485 -11.4815 -5.17591 -0.250037 -0.798947 -8.82299 -5.37058 9.31035 6.49593 8.92057 -10.3075 21.2776 0.522879 0.390933 -1.44548 -1.88708 -0.111507 3.32606 0.810888 -1.40456 -1.5482 1.11546 1.08555 0.365976 0.093898 
10.1561 -5.99528 -11.4103 -7.68012 -1.60553 3.3227 -8.05642 -6.11834 6.83312 6.58482 10.2691 -9.08374 21.336 0.470419 0.312501 -0.847785 -1.0956 -0.728186 2.2379 0.744354 -1.11361 -1.61097 -0.0277907 0.744195 0.61523 0.0293367 
10.1633 -5.52682 -11.2998 -7.5471 -1.8446 6.33744 -7.06414 -6.85996 6.37613 8.21999 11.3005 -7.76432 21.4122 0.294593 0.27396 -0.0591413 -0.577122 -0.00205002 0.841278 0.402073 -1.37695 -0.57833 0.217409 0.628679 0.648751 0.0102293 
10.4674 -5.06195 -12.6262 -8.72873 -1.051 3.96578 -7.48953 -9.5997 5.3921 6.87488 10.6018 -7.79566 21.3795 0.0817342 0.398253 0.201357 0.518666 0.389466 -0.545106 -0.20432 -0.891719 0.219337 0.259784 0.550662 -0.168616 -0.0421551 
10.8474 -5.07172 -11.1693 -7.53722 -0.537554 3.0859 -7.09607 -10.5147 7.13921 7.43795 11.8976 -7.7078 21.307 -0.0713674 0.214174 0.622886 1.04187 0.219562 -1.7559 -1.12224 -0.0648046 0.370861 -0.151817 0.0425697 -0.826634 -0.126769 
10.2227 -4.23156 -10.4688 -5.09173 -0.311724 2.22294 -9.06205 -8.74959 7.54827 8.27477 12.7239 -9.95507 21.1778 -0.257716 0.156584 1.28531 2.01592 -0.0829369 -2.04983 -1.69317 1.49081 0.735424 -0.314187 -0.462266 -0.974734 -0.175537 
9.92879 -4.87114 -9.26413 -4.15622 -1.11642 -1.57063 -11.8891 -7.60903 7.15235 6.76097 10.4523 -10.8178 20.8792 -0.39867 -0.1024 1.39786 2.98455 -0.21934 -3.06117 -1.49566 1.9896 0.948667 -1.4232 -1.53593 -0.661551 -0.196329 
9.63812 -4.37932 -7.15225 -0.339633 -1.17625 -3.95508 -13.5589 -3.59844 9.06264 5.64243 9.01311 -11.1143 20.7157 -0.604043 -0.275111 1.80939 3.32626 -0.648539 -4.29504 0.141184 2.19305 0.121941 -3.334 -2.03693 0.356631 -0.231686 
9.14631 -5.50984 -5.83822 5.00949 -1.20199 -9.13096 -12.326 -3.14224 11.1254 1.6381 6.07338 -10.4359 20.5564 -0.77327 -0.29545 2.644 3.56235 -1.54207 -3.62661 1.96285 2.47323 -1.89075 -3.91518 -1.70398 1.37263 -0.202661 
7.59375 -5.28776 -3.13477 6.95673 -3.51164 -15.4721 -8.13768 -0.0177226 6.17147 -5.8338 4.72873 -8.36285 20.1807 -1.14946 -0.209902 3.83732 2.6511 -2.91931 -1.76821 3.31595 1.03146 -4.06337 -3.81622 -0.669497 1.84256 -0.0756212 
7.08463 -5.89417 1.94714 10.0074 -7.6591 -13.9452 -4.78539 2.96676 -0.85579 -7.07684 4.07465 -5.33037 20.1334 -1.59885 0.527299 4.92716 1.17252 -3.24648 1.01934 2.91828 -0.258642 -4.78827 -2.88198 0.0972898 1.42906 0.0287079 
4.92167 -5.23667 8.14165 10.4169 -12.5442 -10.389 -0.749391 -1.49565 -5.26362 -9.08121 6.66499 -4.45433 20.5492 -1.71003 1.37357 4.94619 0.52159 -2.57356 3.91887 0.746152 -1.26627 -3.47398 -1.40622 -0.0861189 0.515899 0.0102621 
2.48808 -2.89889 13.1594 9.14199 -12.9181 -6.57581 -1.42871 -3.69649 -7.09843 -11.1481 5.5917 -5.24491 20.5158 -1.44451 2.24822 3.52468 -0.286086 -0.343063 4.17756 -0.789773 -1.7635 -1.19892 -1.18961 -1.13468 0.59852 -0.229308 
1.34187 0.0824299 15.9901 9.99737 -13.7499 0.437557 -6.08527 -3.01744 -8.07713 -10.8293 3.53961 -5.82609 20.0408 -0.967773 2.82609 1.68563 -0.626625 1.48946 3.63344 -1.61213 -0.590934 0.0368068 -0.998846 -2.61543 1.46976 -0.432968 
1.65196 2.68736 15.6464 8.78671 -8.77156 1.52935 -6.06632 -5.08985 -5.44362 -12.1508 -0.0360661 -1.65189 19.241 -0.645664 2.49788 0.484875 -0.770506 1.82862 2.52175 -1.17401 0.659702 -0.243723 -0.602331 -2.35725 1.56731 -0.385583 
0.500874 6.10066 15.3263 7.46143 -7.17022 3.7256 -6.49123 -3.75364 -5.90699 -13.5741 -3.59829 1.09794 19.0217 -0.476514 1.66415 0.0485916 -0.576644 1.00787 1.29944 -0.53918 1.30139 -0.528901 -0.508052 -0.874787 0.664949 -0.175741 
-0.319738 6.58142 15.9156 6.55743 -7.06484 4.38894 -7.09576 -0.0298753 -9.40211 -12.7873 -2.62562 -0.870352 19.0974 -0.341915 0.559526 0.180137 -0.192764 -0.766348 1.0258 -0.22744 1.56426 -1.37562 0.48272 0.42702 -0.426554 0.0466818 
-0.0548525 6.45616 16.0984 8.22879 -9.56394 5.50498 -8.26644 0.959542 -8.74239 -13.0513 0.460454 -2.89212 19.2339 0.244349 -0.708502 0.428767 -0.0481542 -1.94953 0.501327 0.137077 0.991825 -1.70176 1.72463 1.69547 -0.834007 0.132735 
0.220247 5.30724 16.161 7.43921 -11.4064 5.76865 -6.31592 0.374839 -10.904 -9.99863 0.069664 -1.78963 19.3683 0.664698 -1.31699 0.546336 0.0665162 -2.52144 -0.542492 0.57891 0.3457 -1.27273 2.20144 1.9582 0.036784 0.175058 
1.45263 3.19523 17.3475 6.77977 -14.7471 5.54239 -6.19577 1.00313 -13.6648 -6.34528 3.53141 -2.61245 19.55 0.800446 -1.60739 -0.178191 0.137621 -1.91424 -2.46489 0.317917 1.23341 -0.965435 1.77543 2.10285 1.02436 0.195083 
2.25001 1.62691 18.0228 7.61452 -17.0805 1.65778 -5.23655 1.67683 -13.3046 -5.13313 5.62991 -0.826264 19.8147 1.09375 -1.80282 -1.35039 0.0123854 -0.599685 -3.87956 -0.476251 2.82047 0.993796 0.663508 1.98768 1.46426 0.168045 
2.9325 0.25938 14.2766 8.82924 -16.2981 -4.76404 -7.21654 6.47559 -12.3693 -6.60689 8.19459 1.74801 19.9861 1.21528 -1.7424 -2.77792 -0.491873 1.52681 -3.44046 -1.27211 2.68202 3.50922 0.559068 0.257812 1.00628 0.0282459 
4.94907 -2.23895 10.9445 6.4764 -13.6293 -8.47593 -8.18679 11.741 -6.58281 -6.55028 7.67648 3.35141 19.9904 1.34007 -1.37263 -3.78117 -1.87272 3.19282 -1.08228 -1.89443 1.03 5.13909 1.74257 -0.508931 -0.957751 -0.059383 
6.17949 -3.58384 6.99699 4.88947 -8.83863 -6.59306 -11.0812 9.38117 0.520435 -2.84136 3.79719 0.330115 19.6033 1.26792 -0.944406 -3.90161 -2.71847 2.8856 2.37455 -1.97662 -0.908719 5.11807 3.63917 -0.380295 -3.46166 -0.0399427 
7.32688 -3.31461 2.75668 0.220797 -4.84612 -2.83911 -12.7764 5.37404 5.94603 1.69698 5.28396 -4.90607 19.7092 0.793235 -0.479172 -2.82841 -3.38098 2.51178 4.1311 -0.521759 -2.59572 2.95652 4.1492 0.220972 -3.92282 -0.0335373 
8.08318 -3.92482 -1.13755 -1.63532 -6.26174 4.2903 -14.8048 5.11546 6.95665 7.46531 7.48938 -11.4316 19.9271 0.477053 -0.359422 -1.3617 -4.42621 2.45286 3.86811 1.94007 -3.31834 0.697611 2.68482 0.980989 -2.67083 0.00166435 
7.9634 -4.46432 0.869749 -7.16611 -2.3589 6.73788 -8.93376 0.895234 4.98166 9.04238 6.93525 -10.3818 19.6609 0.54068 -0.135332 -0.526165 -4.27099 1.88745 3.43733 2.99491 -2.88204 -0.6278 0.733126 0.514777 -0.611252 -0.0797247 
8.2465 -4.80609 1.13196 -13.5481 2.18205 7.95902 -3.30215 -4.97112 4.49068 6.91005 7.87649 -10.2862 19.6358 0.7045 0.707436 -0.826566 -3.45819 1.34549 2.37084 3.01772 -1.87719 -0.644458 -0.339048 -0.583653 1.26504 -0.210626 
9.94862 -3.55063 -1.0089 -15.1778 0.369254 12.5132 -3.55318 -3.99287 4.04001 5.64023 7.66428 -8.53503 19.4562 0.782374 1.53715 -2.33504 -1.65205 0.574425 1.7546 1.90586 -0.495055 -0.456058 -0.495973 -0.833339 1.67923 -0.287103 
10.6131 -0.844481 -4.33106 -14.9204 -0.898384 13.2568 -2.40652 -1.82644 4.20518 7.47114 4.20659 -6.02977 18.9763 0.0575443 1.24232 -2.49755 -0.36337 -0.18661 1.51086 0.948929 0.151541 -0.364788 1.01105 -1.1311 1.56614 -0.310793 
10.692 1.24062 -8.07392 -14.7402 2.05344 12.862 0.14771 -3.15238 2.84412 6.28197 4.6035 -4.11387 18.5551 -0.866232 0.492763 -1.25283 -0.364859 0.200299 1.52926 0.409694 -0.277097 -0.161651 0.971965 -0.38738 0.728827 -0.241999 
8.16254 -0.990114 -7.82326 -15.5838 0.406908 15.3389 -0.407952 -4.63366 3.26469 11.6444 3.75137 -4.66603 18.5324 -1.37196 0.426469 0.141343 -2.42086 -0.324866 1.76372 -0.269838 -0.722519 0.777889 0.328943 0.847872 -0.3348 -0.195517 
6.84273 -1.014 -5.52694 -16.6704 0.718105 19.1185 -2.504 -3.97475 3.70201 8.41342 5.955 -5.57277 18.4681 -2.16624 0.542869 0.310747 -1.18786 0.417662 0.32098 1.72301 0.623263 1.6898 0.91812 0.378502 0.601011 -0.682682 
5.67792 2.41517 -4.89783 -26.0596 -1.85505 18.9472 -2.42986 -5.02785 7.66568 8.05013 7.7702 -6.97432 18.0422 -1.48211 1.20052 -0.21681 -0.26543 1.31829 -0.224902 2.20477 0.471787 0.555491 -0.598094 -0.71152 0.710537 -0.796132 
1.10311 2.25232 -7.98289 -15.4415 5.27273 12.6628 9.77373 0.161024 9.09264 12.6697 4.4866 0.0453277 15.3868 -1.07385 0.469564 -1.77065 1.12812 1.06743 -1.99799 3.60935 -0.368511 0.218112 0.74566 -1.26727 2.1432 -0.909659 
3.6218 3.37931 -7.67933 -17.5253 4.72104 17.4423 4.47705 -4.34262 3.34682 6.5258 0.927975 -3.92239 16.0924 -1.84967 -0.349205 -1.85507 4.54219 2.1145 -3.60817 2.90138 0.666034 -0.105776 0.910801 -1.59538 2.70358 -1.11738 
2.50152 0.851753 -12.9895 -15.2969 2.76721 9.88096 12.0893 -6.15992 6.95199 12.9039 3.03976 3.61725 14.8948 -2.61572 -0.935652 -0.578442 4.21073 1.03159 -4.58727 0.902662 1.21432 -0.0741483 -1.30105 -2.02474 3.02297 -1.0425 
-4.26966 1.36943 -11.6699 -3.421 9.97019 2.29724 10.9192 1.46279 8.20712 12.487 0.516695 4.75761 12.7013 -3.08957 -0.820468 0.479154 5.16346 0.991287 -4.74249 1.58241 2.99409 0.641858 -2.40614 -3.26516 2.79032 -1.16385 
-8.02977 -1.421 -8.87983 -1.44006 7.80609 -2.70106 11.0659 3.32993 6.29175 3.18386 -5.43148 10.8202 11.8698 -2.39456 -0.694679 1.19605 4.20496 0.633215 -2.4749 0.814935 3.23435 0.206175 -3.56631 -2.96147 1.12594 -0.768848 
-6.56042 0.413341 -7.33837 1.36349 7.15803 0.0208255 12.9008 5.88292 6.88623 -0.644868 -11.1622 6.42772 11.7856 -0.730656 -0.374678 0.820659 1.28346 -0.466924 -1.60477 0.0830608 0.85882 -0.567766 -2.16251 -1.22416 2.02867 -0.283955 
-8.3259 -2.14359 -9.17498 3.33563 7.33936 -1.35535 15.1732 7.80174 8.64331 1.6383 -5.92813 8.41187 11.5084 0.0912436 0.0857052 0.631747 0.733838 0.257145 -0.669453 -1.36488 -1.06321 -1.6623 -0.529518 0.530688 0.511895 -0.0958466 
-7.77488 -0.142662 -7.41901 0.608461 7.86893 -6.39947 9.28091 3.52099 4.19251 2.44729 -5.35579 16.1051 11.4623 -0.0890579 -0.124429 0.31278 0.165759 0.329438 -0.43706 -1.19413 -2.41215 -1.80012 -0.761213 0.782263 0.131484 0.000189209 
-6.96632 -0.714469 -5.68078 2.60664 8.73636 -2.83818 6.05149 -0.805157 -0.672884 -1.00981 -5.68125 8.54094 11.5523 0.0953041 0.491694 0.427686 -0.27613 0.101641 1.19067 -0.920946 -2.06566 -2.67631 -2.02947 -0.860983 -1.62752 0.0751222 
-7.68551 -0.923366 -7.52158 2.55678 8.10673 -1.42306 11.491 -1.87437 2.54371 -3.12688 -7.37434 7.02061 11.7646 0.18069 0.482958 0.355103 -0.0151314 -0.458263 1.94888 -0.143324 -0.505953 -1.50958 -0.771235 -0.22336 -2.65619 0.0399697 
-7.89407 0.705225 -6.98527 0.980824 7.72867 2.10979 9.46345 0.171105 -3.91382 -5.72198 -9.22376 4.81651 11.7329 -0.0703374 0.210005 -0.0635275 -0.440607 -1.0414 0.240854 0.523863 0.520268 0.0277202 -0.134487 0.16333 -0.046706 0.0213469 
-6.40755 1.56228 -4.99125 1.34571 6.08146 0.870955 6.85831 0.503093 -1.73493 0.9472 -4.70133 4.68638 11.5718 0.115467 -0.173821 -0.052388 -0.337536 -0.231591 0.187878 0.40058 0.362071 0.952295 0.691399 0.766498 0.853447 0.0013587 
-7.95698 -0.907269 -7.26358 1.00914 4.54198 -2.78092 10.9871 0.607451 1.60504 -3.71929 -6.20111 9.47452 11.7554 0.123858 -0.601326 -0.689784 -0.660148 -0.161516 -0.569188 0.549627 0.167113 2.09522 1.98721 0.418282 1.24222 0.0104351 
-7.07671 -0.986224 -7.64436 0.854943 8.54211 1.96168 12.732 -0.282191 4.54576 -0.671226 -5.05318 8.95884 11.7601 1.26935 -0.033294 -1.67098 -2.26324 0.830329 0.839511 -0.78629 -0.430463 -0.314707 0.290584 0.510309 0.0859732 0.21063 
-6.9402 -1.02715 -9.10763 -2.07453 5.69077 -1.28152 9.27472 1.39931 3.42193 5.0233 -6.95643 8.89138 11.6909 1.86662 0.651227 -0.919756 -2.15807 1.22604 1.46185 -1.54583 -0.0102801 -1.9266 0.362132 2.25459 -0.25758 0.239367 
-0.569207 1.45575 -12.4241 -8.42866 9.65871 4.31881 3.78307 -2.04515 -4.21691 -1.97118 -1.77212 5.40782 12.6572 0.563113 0.908513 0.741448 0.163729 0.580451 -0.574871 0.486513 2.19876 -0.630413 0.380451 0.637241 -1.09016 0.0748877 
-1.87765 1.12788 -9.47248 -5.13941 10.1139 3.34978 7.73248 1.43753 -3.64664 -1.25865 3.43132 9.96213 12.5037 -1.05445 0.329994 1.36864 1.56085 0.370693 -1.25818 1.99862 1.67965 1.10544 0.70749 0.475131 -0.590276 -0.0704409 
-6.79242 2.47883 -3.7547 3.20603 9.2328 -3.22832 15.9357 10.6925 4.92798 4.37201 -7.06085 2.97268 11.7282 -1.88379 -0.296435 1.41334 3.23572 0.376099 -1.7112 2.21252 0.824476 1.9451 2.25033 -1.26197 -0.604805 -0.26319 
-9.10083 0.111284 -6.59916 -0.0876226 7.75719 -3.79884 13.1915 3.42871 4.37671 5.38916 -1.93641 7.15757 11.8032 -0.917599 -0.514107 0.0262381 1.4241 -0.0382325 0.064053 1.26477 0.0321669 1.28385 1.08318 -2.74341 -1.3681 -0.211537 
-6.37658 0.481875 -6.7941 5.22404 12.7176 -0.662859 12.1161 1.08164 1.4969 5.95657 -5.39809 3.78608 11.6915 0.31093 -0.329427 -0.405455 0.510117 0.110922 0.459226 -2.16722 -2.75503 -0.593731 -0.3221 -0.561421 0.616655 -0.0722878 
-6.67357 -0.444178 -7.82159 0.972099 8.18036 2.38732 15.9661 6.4038 4.48817 3.36497 -11.1171 2.71496 11.4643 0.45675 -0.194949 0.232163 0.613124 -0.924337 -0.146929 -2.84438 -1.26785 0.478784 -0.590958 -1.69497 -0.399361 -0.012729 
-6.4514 1.10942 -5.17076 5.22675 9.57583 -4.02527 3.7123 -4.5702 1.9036 3.77361 -5.27761 8.27726 11.5362 -0.0583303 -0.169945 -0.168151 -0.840104 -0.96212 0.138007 -1.04334 -0.0311162 1.22147 -0.11526 -0.981785 0.228228 0.0202651 
-6.77966 -1.17724 -6.25002 2.97664 4.70637 -2.85228 3.17153 -0.0846167 6.56728 3.52586 -10.4715 2.91517 11.8172 -0.202954 -0.150902 -0.272011 -0.108279 0.479967 -0.248561 0.33819 0.664594 0.872444 0.359995 0.0534606 1.59434 0.0727479 
-6.61518 -0.00132036 -8.42064 0.0212464 9.64396 2.64697 13.2967 4.17027 6.56469 5.29983 -10.6298 4.82711 11.6164 -0.437609 -0.496036 -0.241959 -0.630765 -0.187592 0.0190199 2.59485 2.51018 0.612532 1.26385 0.216038 1.95918 0.0405648 
-7.60645 -0.643319 -7.5567 3.03345 10.5461 -2.19161 12.8649 5.35654 6.51984 4.40183 -8.1737 12.4117 11.788 -0.450366 -0.255737 0.373905 0.015902 -0.190272 -0.972393 1.58799 1.17793 -0.472933 1.6613 1.55339 2.93173 0.00100946 
-8.22606 -1.63772 -5.72721 2.04452 5.71799 -4.2605 11.8399 5.26011 4.98997 9.65485 -5.34632 13.3249 11.7536 -0.384136 -0.42672 0.721637 0.305761 -1.26801 -1.58838 -0.393867 0.208324 -0.46793 1.39631 1.33943 1.79088 0.0240219 
