-5.45867 1.10796 -1.81541 1.77167 8.30574 11.8754 4.82808 8.00606 -1.08358 5.77422 -3.18855 5.70047 11.3215 0.151569 0.207751 0.129639 -0.139375 -0.961762 -1.12711 -1.14399 -0.98379 1.19927 0.0625114 -0.725533 -2.10837 0.0340639 
-5.15481 0.496003 -1.15519 1.75199 6.6017 11.7595 6.20708 9.49119 8.32932 5.16384 -5.64252 1.47605 11.4492 0.0388338 0.267188 -0.402989 -0.247072 -1.10768 -1.5479 -1.60812 -0.733135 0.780782 -0.305761 -0.109087 -1.3301 0.0415373 
-4.85275 2.4527 -1.49732 1.08463 4.34895 6.29776 -1.58137 2.34454 0.206319 6.39197 -5.58924 -2.72916 11.428 0.149137 -0.150174 -0.585373 -0.311976 -0.477221 -0.310093 -1.15021 -0.494436 0.392773 0.00839622 -0.229922 0.192264 0.0035471 
-5.56746 1.77154 -3.9894 0.879823 4.74576 6.92471 -0.00779009 7.17114 2.17537 3.93654 -2.53365 3.26479 11.476 0.0659234 -0.364933 -1.12494 -0.712395 0.024904 0.978413 -0.146475 -0.0153787 -1.14531 -0.17999 1.34779 1.34247 -0.0441959 
-4.50666 -0.28067 -3.32517 0.64787 6.84761 12.7423 2.18448 6.6939 3.95725 6.42985 -5.8926 5.76742 11.3259 -0.123385 -0.405112 -0.794118 0.237379 0.806355 1.13555 1.62101 1.71086 0.0491992 0.0204235 1.71149 0.876719 -0.00565434 
-4.99824 0.0380235 -5.86596 -1.59161 5.47689 13.4293 3.59178 7.23961 0.7273 4.24495 1.24811 3.94011 11.2793 -0.169183 0.0918576 0.181372 0.650102 0.673447 0.366412 1.5164 0.0821881 -0.899683 -0.612374 -0.0158849 -1.78605 -0.00474472 
-5.75429 1.29389 -4.52963 3.50724 8.01516 8.72322 4.7239 10.8646 1.17635 6.33989 1.07734 1.31677 11.4981 0.815787 1.38178 1.0052 0.590195 0.156346 -2.01091 -1.52294 -1.27319 -2.32178 -0.951757 -0.870961 -2.16092 0.045988 
-5.78956 1.44354 -2.48031 2.70065 7.52921 10.7663 6.30452 5.49672 -0.932588 0.919655 -6.09804 -3.44012 11.3662 2.87697 1.34797 1.70958 0.852021 0.0560531 -2.43955 -4.44921 -3.11562 -0.567855 -0.00709767 -0.411554 -1.527 0.349042 
-0.0320644 5.92549 0.00798535 1.45272 6.60317 4.01927 -6.7866 1.19938 -6.8217 3.33371 -6.57433 -1.34706 11.5124 3.77872 0.598739 1.58699 0.0211407 -0.633533 -2.33431 -4.43097 -3.81275 -0.255562 -0.402061 1.93042 -1.47036 0.735181 
6.52547 4.46205 0.41315 3.69576 6.46315 3.5835 -12.899 -3.50588 1.88705 5.71255 3.01617 -2.36295 13.0174 3.60443 -0.0495921 0.777082 0.43225 -1.1258 -2.71809 -3.2933 -2.71392 1.26831 0.0481508 4.56845 -1.51085 1.05482 
6.98181 2.77834 1.95858 3.11539 5.38053 0.64306 -7.82917 -3.69782 -1.51128 1.93314 6.17232 -6.57362 14.3484 2.07619 -0.240585 0.36418 -0.783719 -0.723373 -1.47978 -1.32929 -0.744385 2.0574 -0.896741 3.74295 -1.45493 1.08929 
8.72567 2.76916 0.429801 4.03057 2.51151 -1.13601 -9.64068 -5.62426 2.75377 1.86069 10.3709 -8.38112 15.2223 0.804257 1.20044 0.23172 -1.69241 -1.28723 -0.785693 -0.350237 -0.285209 0.975004 -0.828916 1.52168 -1.00478 0.770528 
9.2488 5.56901 1.82056 -2.63328 4.96213 -1.01987 -15.0622 -1.46335 3.03192 0.775932 8.46307 -5.61262 15.8564 0.568802 1.3908 -0.14869 -1.198 -0.889884 0.144338 -1.35129 -0.333724 1.57516 -0.390378 0.676356 0.150451 0.51796 
9.41327 9.06889 1.64076 -1.89197 0.236172 0.486504 -11.0337 -6.04916 4.49047 2.14657 9.47922 -7.86735 16.116 0.561348 0.249073 -0.365666 0.443414 -0.679248 0.487505 -0.831145 0.480713 -0.107313 0.0192699 -0.0793228 0.451852 0.371926 
9.48202 6.58247 0.609651 0.0866733 2.06878 0.553491 -13.8891 -5.154 5.49615 -0.161689 9.99994 -6.07825 16.4913 0.684114 -1.48766 -0.495244 2.33009 -0.975597 -0.255605 0.376834 0.129741 -0.340969 -0.0403602 -0.0713094 0.194821 0.292817 
11.4158 3.5078 -0.793074 4.88766 0.561947 0.514831 -14.383 -1.37538 0.985087 2.42585 9.20585 -5.88905 16.7644 0.755776 -2.58492 -0.286582 2.09418 -0.297981 -0.869301 0.157339 0.992615 -0.847405 -0.184935 -0.708931 0.617419 0.265072 
11.6681 0.911278 0.561258 5.62733 -0.078743 -2.31206 -11.5034 -3.15154 3.07977 0.434489 8.24321 -5.62767 16.9963 0.276439 -2.17693 0.514441 0.899496 -0.00581646 -1.52427 0.795216 0.417392 -0.0986003 -0.58766 -0.93288 0.661599 0.238492 
12.0991 -1.02013 0.232049 5.80862 -0.179971 -2.42723 -11.4398 -2.08731 1.46164 0.923807 6.81293 -5.00555 17.1889 -0.107887 -2.32295 1.67878 -0.0551214 -0.922682 -0.0327432 0.0896873 0.166503 0.35453 -0.908812 -1.27046 0.698959 0.265093 
10.5226 -2.03823 2.66929 4.12367 2.41066 -5.59685 -11.3846 -2.71107 4.76487 -2.34897 6.532 -3.212 17.4716 -0.987914 -1.36283 1.09769 1.64543 -1.72899 1.13429 -0.163865 0.386037 -1.24818 0.89364 -1.53748 0.16211 0.178126 
11.4491 -6.63219 6.54681 5.36388 -5.29616 1.99351 -13.9939 -0.763099 1.91518 -0.726477 3.70917 -3.60208 17.8522 -1.56082 -0.407125 0.363589 3.12086 -1.12229 -0.0298528 1.96182 -1.31781 -1.08977 1.73516 -2.09569 -0.386117 0.0732863 
7.05352 -3.09686 2.89232 14.0769 -6.16558 1.14904 -11.0457 -1.88346 -3.3879 5.72783 2.10771 -5.51885 17.5552 -0.903727 -0.475105 -0.506268 2.28323 -1.20912 -0.497704 2.05947 -1.58153 -0.409896 2.11859 -2.55991 -0.621254 0.171829 
6.02954 -2.52644 1.93848 16.4363 -1.50328 -5.94944 -1.8002 -9.09019 0.0891736 5.56119 -1.45339 -5.78271 17.5135 0.0549631 -1.38427 -0.218852 -0.301875 -0.490605 -1.27033 0.941796 -0.265386 1.04831 1.08252 -2.65299 0.524723 0.36453 
8.71373 -6.46663 2.44212 10.0036 -5.53139 -4.1139 -7.18412 -6.45518 3.62839 5.10015 -3.68629 -5.22796 18.5001 0.801421 -2.4195 0.526056 -3.21192 -0.775409 -1.28904 -0.0130271 1.36826 2.57449 -0.455651 -1.8351 1.34077 0.585485 
10.8938 -11.8687 5.67765 5.89112 -8.06628 -1.72667 -11.2157 0.195834 3.64859 4.99996 -6.65876 -1.12391 19.2025 0.0226855 -1.7369 -0.213914 -3.95978 -1.05854 -1.73338 -0.205897 2.62662 2.16572 -1.39547 -0.415391 0.540946 0.583 
8.62847 -10.5233 3.65302 3.28987 -6.76113 -7.40756 -6.40306 0.314817 7.70486 3.73019 -4.46511 -1.14439 19.6382 -1.23118 0.212086 -1.48538 -2.38549 0.1253 -2.61759 2.25184 2.20407 2.17931 -1.82128 1.13739 -0.404549 0.384165 
6.18559 -9.18262 0.263461 -0.00574875 -6.18111 -12.9695 -3.22021 0.657909 8.87956 -0.731198 -3.14093 -5.11976 19.8595 -1.68415 1.47254 -2.41688 -1.30004 0.582779 -2.27663 3.46321 1.57445 1.94819 -1.8325 2.00337 -1.2414 0.26387 
4.91196 -6.74923 -2.27769 1.02463 -5.84748 -11.5804 0.0773363 4.33412 11.9094 -1.14069 0.241744 -5.25278 20.0924 -1.15698 0.818795 -1.78857 -0.747404 0.0151144 -0.484939 2.5529 1.62871 0.696572 -1.31708 1.00008 -0.547789 0.196995 
4.33134 -6.39298 -3.44139 0.523555 -5.60921 -11.0234 2.86013 6.05844 11.2872 -1.72712 1.00464 -5.27674 20.2947 -0.651695 0.353542 -0.735616 -0.0940717 -0.251298 1.14785 1.96765 1.50399 0.431704 -0.712334 0.947023 0.5581 0.168683 
3.77072 -7.82411 -3.4374 -0.711799 -6.9715 -10.8053 3.32127 5.75808 9.98389 -2.35727 -1.53747 -3.80484 20.4055 -0.693701 -0.414665 -0.256715 -0.443797 -0.799649 0.825201 0.857615 0.268368 -0.635067 -1.14252 0.427829 0.300189 0.149014 
3.49774 -6.87747 -2.83477 0.392107 -6.87559 -7.61784 4.99609 7.46588 12.0009 -3.68458 2.48379 -3.05323 20.5463 -0.552627 -0.429492 -0.0399287 -0.310009 -0.358581 0.644463 0.244351 0.0528234 -0.629628 -0.72587 0.843385 0.138551 0.110392 
1.86026 -8.58031 -3.86458 -1.12863 -9.21254 -9.15718 3.29743 4.97223 8.37729 -5.87455 1.64131 -4.86359 20.7117 -0.537106 -0.51092 -0.365574 -0.736036 -0.233173 -0.353361 -0.224799 -0.645968 -1.22854 -0.964554 0.662511 -0.760899 0.0732519 
2.52344 -8.16234 -3.42745 -0.818074 -6.2816 -8.62513 4.0938 6.71548 8.94239 -3.59783 3.63218 -4.05461 20.6936 0.017427 -0.575535 0.0396383 -0.518635 0.263593 -0.839376 0.177133 -0.320306 -1.26114 0.0840085 -0.141787 -0.652619 0.0335415 
1.57234 -9.73627 -4.96893 -3.78689 -8.43436 -12.0685 2.64842 2.90345 5.37044 -7.22341 1.20089 -7.10865 20.6981 0.342566 -0.580157 -0.0847827 -0.300702 -0.403983 -0.489052 -0.181488 0.017559 -1.52775 0.307406 -0.757958 -0.822291 -0.0144096 
3.72883 -9.17716 -2.0844 -0.87194 -5.94672 -10.3591 6.20626 6.89875 7.1986 -2.59011 1.99507 -5.1938 20.7208 0.376673 -0.60199 -0.140701 -0.0524041 -1.13105 -0.00926552 -0.155432 0.0376862 -1.601 0.303397 -1.3894 -0.457425 -0.0304611 
2.97039 -10.9737 -4.96002 -2.60521 -11.3999 -10.7355 1.33376 4.9684 1.61043 -4.84138 -1.32993 -8.40545 20.626 0.27581 -0.127371 -0.0774285 0.312831 -0.38326 0.78409 0.261114 0.617135 -0.522305 0.567158 -1.03498 0.469968 -0.0187334 
3.70778 -10.5536 -4.13541 -1.67093 -10.4541 -9.33797 3.97398 5.87144 2.81738 -3.27186 -2.0494 -5.69333 20.5773 -0.332054 0.0210002 -0.573901 -0.207426 -0.119951 0.349589 0.370275 -0.0751727 -0.253018 -0.273945 -1.13191 0.501014 0.0383944 
2.96192 -9.68491 -4.33057 -1.82324 -8.09699 -8.65859 5.07013 6.50278 4.94953 -4.04675 -1.95179 -4.50904 20.6762 -0.0452058 0.199882 -0.171566 0.0601765 1.12896 0.563553 1.37853 0.0838884 0.728619 0.17394 -0.91168 1.14622 0.0693363 
2.0728 -9.71655 -5.26863 -2.30006 -8.19792 -9.64957 6.18945 5.75569 4.26396 -4.35715 -3.35354 -4.63693 20.8877 0.247881 -0.235275 -0.339228 -0.333029 1.68458 0.262028 1.42718 -0.772514 0.881415 0.171768 -1.58842 1.09703 0.0577604 
3.56185 -10.3928 -5.25124 -1.98977 -6.88317 -7.76191 7.11866 5.44571 4.53024 -3.42904 -5.23626 -3.20253 20.8175 0.467059 -0.542274 -0.71693 -0.403422 1.6673 0.306758 1.00042 -1.45168 0.37316 0.237974 -2.59365 1.02975 0.00286045 
4.64722 -11.376 -5.37121 -3.25281 -2.63809 -8.47617 10.0856 2.5374 7.4341 -2.72187 -8.34925 -0.861444 20.7955 0.353114 -0.577526 -1.12314 -0.287804 1.88992 0.543144 0.526088 -2.02046 0.687155 -0.486027 -2.5438 0.538262 -0.0110077 
4.01 -11.5665 -7.86393 -3.36397 -2.5404 -7.7115 8.12414 0.853505 5.23026 -3.67452 -12.4222 -1.24805 20.7366 -0.024456 -0.588624 -1.644 -0.246244 1.68594 0.404851 -0.31771 -1.88878 0.126151 -0.906486 -2.1509 -0.78507 0.0609381 
3.61429 -12.0173 -9.57797 -3.05198 -0.919723 -6.95905 8.31715 -2.0505 7.34973 -6.66454 -12.4796 -2.92285 20.8731 0.278813 -0.123709 -1.4816 0.340955 1.97255 1.43106 -0.372955 -0.594634 0.239882 -0.333174 -0.389114 -1.25426 0.0920801 
3.95603 -13.0153 -11.3678 -3.32141 0.687367 -6.49621 6.41434 -1.70426 5.20318 -5.99013 -13.9256 -6.09717 21.0834 0.533118 -0.357703 -0.974198 -0.241885 2.12445 1.18628 0.225651 -1.14143 0.417603 -0.0425234 0.859872 -1.37406 0.106186 
6.06827 -11.2702 -11.0272 -1.56932 5.61079 -1.92851 9.07572 0.843113 8.64705 -3.22994 -9.54312 -4.70817 21.0825 0.703796 -0.282115 -0.206497 -0.523752 2.1474 1.42909 0.43283 -1.48957 0.123283 1.35164 1.45982 -0.508983 0.0745785 
5.44861 -13.7286 -12.0103 -5.31473 4.81659 -4.29539 8.8731 -6.30045 6.66961 -5.60444 -9.59108 -7.22568 21.1628 0.613693 0.167564 0.395166 -0.456767 1.94381 1.88739 0.615193 -2.32174 0.646448 1.74555 2.62092 0.0498206 0.0247864 
6.38699 -13.0712 -10.2892 -4.67407 7.75267 -0.91402 9.25192 -7.20024 7.23293 -0.0991693 -7.34772 -4.90351 21.2063 0.228404 0.49974 0.287731 -0.967715 1.11567 1.46892 -0.454119 -2.63809 0.0454504 1.6413 2.37627 -0.283501 -0.0690157 
6.86514 -11.2769 -9.76102 -4.05287 9.33549 2.43349 9.40221 -9.29128 9.14248 1.17222 -1.91869 -5.7504 21.1454 0.671757 0.948052 0.474583 -1.2042 0.981544 1.3728 -1.02598 -1.36636 0.034651 1.37213 2.62461 0.270536 -0.227462 
6.50202 -9.99733 -10.7132 -7.03883 8.9297 2.05163 6.54057 -10.8519 7.63786 1.58826 -1.49797 -6.86332 20.7461 0.768664 0.749535 0.0209465 -2.40197 -0.489004 0.12747 -2.16226 -1.58881 -1.42221 -1.02362 2.5898 -0.0345024 -0.412433 
8.74987 -10.5253 -9.42539 -10.1534 9.1358 1.08579 5.09886 -11.3064 6.6404 0.4125 0.60709 -4.8931 20.2556 0.680746 1.47131 -0.0760826 -1.41943 -1.26583 -0.611343 -2.32468 -1.50422 -3.95973 -2.23088 2.31368 -0.037667 -0.731609 
9.28794 -9.69936 -10.3523 -13.6337 5.4075 0.39718 0.592276 -14.1367 1.37292 -4.83741 4.33838 -5.50468 19.589 0.378577 2.11178 0.529371 1.31307 -1.08351 -0.254432 -1.9838 -1.45198 -5.54635 -2.09158 1.60686 -0.379794 -0.942867 
8.87591 -4.06938 -10.3219 -7.85258 4.76744 0.204003 0.752937 -15.17 -7.52372 -6.76933 6.73153 -6.61805 18.0659 -0.202994 2.44401 0.472686 2.05212 -0.798738 0.203527 -1.4501 -1.2991 -5.01614 -1.81259 1.36958 -0.0956455 -0.786738 
8.33189 -2.66637 -7.6181 -1.62384 5.69635 1.22037 -1.20546 -16.1801 -13.0118 -5.27874 3.4741 -7.89981 17.1266 -0.0848421 1.68057 0.713175 0.994525 -0.135052 0.893401 0.0640452 -0.535651 -1.30133 -0.582593 1.8376 1.25269 -0.29034 
8.21293 -1.82175 -8.42906 -5.89767 4.99768 1.69183 -1.25275 -16.7803 -11.2479 -8.4298 7.88711 -4.17376 17.5531 0.0860949 -0.203422 0.416129 -2.20047 -0.232987 1.19662 0.547809 -0.185595 2.30536 -0.269955 1.5166 1.95966 0.363372 
9.19522 -2.42034 -7.73285 -9.63849 4.61713 4.12027 1.91534 -16.0098 -3.27162 -6.92014 12.9486 -0.46339 18.3937 -0.0835096 -1.2982 -0.449956 -3.91285 -0.721191 1.10827 0.695685 -0.149762 3.35855 -0.427165 0.597651 1.03762 0.69372 
8.87472 -5.20951 -8.18386 -14.8476 4.14213 4.73715 1.93158 -16.1831 -0.867024 -7.29841 9.57731 -0.537952 19.2492 -0.195132 -1.67278 -0.476066 -2.03329 0.282408 0.991134 0.531126 1.32254 2.93092 1.30535 -1.30831 -0.639197 0.621847 
7.58345 -7.4635 -9.99049 -16.7131 2.51817 5.23906 0.680799 -17.2275 -1.40952 -7.98026 5.61726 -4.52959 19.7472 -0.378428 -1.26325 -0.61821 0.23057 1.33689 0.240713 0.0919032 2.25919 2.45535 1.90525 -2.2989 -2.02969 0.384444 
8.04316 -7.66408 -9.68057 -12.5268 7.45919 6.0881 2.02015 -9.55876 2.47562 -1.37297 5.01124 -5.33664 19.9857 -0.330619 -0.567161 -0.431099 1.79872 1.89269 -0.290577 0.42093 2.43224 2.67622 1.9047 -1.93374 -1.80835 0.176959 
7.71886 -7.5093 -10.0755 -9.64603 9.64303 4.64835 2.33057 -8.02606 7.3338 -0.356602 3.7371 -8.21249 19.9477 -0.39045 -0.0784269 -0.257105 2.35176 1.43004 -0.817995 0.777826 1.83869 2.57801 1.41221 -1.70342 -1.1971 0.0871023 
7.15392 -8.02241 -10.2968 -9.38754 10.0431 3.57962 3.21134 -8.62256 8.14243 -1.58675 0.848671 -7.73824 20.0338 -0.645632 -0.440601 -0.456342 1.5331 -0.678347 -1.41474 -0.605616 0.0742363 0.951427 -0.542643 -2.592 -1.4632 0.0508337 
6.07581 -7.67647 -10.9679 -6.52396 8.3764 2.40333 3.97434 -8.50212 8.64712 -0.812303 -0.818566 -9.31429 20.1586 -0.461967 0.0356609 -0.119473 2.0656 -1.91369 -1.54586 -0.607005 0.135242 0.235929 -0.665966 -3.21275 -0.413909 -0.0927797 
5.63652 -9.7835 -11.5161 -6.42233 4.70077 0.136922 -1.82981 -8.94955 6.57609 -3.85834 -5.67092 -12.1017 20.1344 -0.257009 1.38331 -0.143261 2.34584 -2.52172 -2.26388 -0.606069 0.0919905 -0.646449 -0.682405 -4.2919 0.12386 -0.412059 
6.16772 -6.45045 -10.0633 -0.800647 2.74578 -1.35959 1.81613 -7.18635 9.29661 -2.55063 -9.06686 -8.10029 19.4335 -1.37075 3.91705 1.31323 2.40971 -1.33769 -1.67717 -1.31845 2.42138 -2.72244 -0.048877 -3.44274 2.26887 -0.554107 
5.82292 -1.71888 -11.4654 -0.519978 0.249854 -5.85831 1.2601 -8.82049 4.58543 -4.12961 -16.4867 -7.72594 18.336 -3.82781 6.27769 2.60594 2.63627 0.613587 0.185634 0.203839 3.9407 -2.98499 1.03023 -1.22691 3.58431 -0.161076 
-0.871135 7.87649 -4.42706 2.57343 3.91342 -2.98489 -4.16289 3.54024 -3.96976 -0.921055 -12.6244 -0.157825 18.2873 -5.55276 5.79256 1.88677 1.93963 1.67701 2.69786 1.15339 4.22156 -1.76173 1.66969 1.55101 3.02612 0.313469 
-9.98311 14.4415 -1.3045 5.07198 7.18489 1.87774 2.17889 5.39066 -1.71569 0.478022 -10.0267 1.8486 19.9021 -6.29141 3.34836 0.829624 1.75437 1.74531 3.75728 1.33103 3.82911 1.05379 2.36721 3.7202 3.37577 0.637839 
-13.6931 14.4321 -5.7099 6.10153 7.6633 8.26168 7.12368 6.81587 3.63851 3.494 -4.54181 2.24304 20.2178 -4.66107 0.224555 -1.52302 0.660926 0.822181 1.87927 1.96147 0.382377 2.35837 2.00055 3.44451 2.51742 0.557519 
-19.2232 11.7451 -6.67589 6.48783 7.10145 7.3048 2.27198 8.68723 6.05027 5.49891 -1.92698 7.95247 20.5599 -2.7307 -0.690718 -1.16857 -0.333958 0.746309 -0.105452 0.928793 -0.126809 0.559646 1.58485 3.00985 1.7431 0.323098 
-19.5564 10.3474 -9.35645 5.17014 8.06604 3.69791 5.59792 3.80385 3.9391 6.57126 0.548274 9.37734 20.746 -2.09591 -0.669041 -0.0395747 -1.94898 1.66773 -1.57954 0.0509842 -0.361154 -1.07043 -0.177946 1.39409 1.6326 0.384042 
-20.7049 13.0302 -5.3241 3.86788 10.7151 3.63236 7.58573 6.26263 0.932247 6.86364 2.47748 6.99695 21.2535 -0.956972 0.128656 0.746229 -1.43759 1.51101 -0.733841 1.25623 -0.735561 -1.28625 0.630159 -0.201053 -0.212264 0.365858 
-23.4317 10.4444 -6.58367 -2.33341 14.1952 2.20022 4.72172 6.2224 0.845355 1.92191 0.226414 10.8838 21.7912 -0.188443 0.925958 1.89402 -0.7206 1.59751 -0.314018 0.961007 -0.274188 -1.57609 -0.0868892 -1.02465 -0.582159 0.300475 
-22.0704 12.3399 -4.33114 3.05165 11.592 4.38445 8.99121 3.80014 1.1659 10.9744 -2.77132 6.13792 21.8666 0.154698 0.837977 1.5581 -0.0749507 1.07666 -0.0370678 0.229833 -0.711477 -1.83029 0.24492 -1.43326 0.133841 0.157821 
-19.8159 15.3224 -0.382809 1.97526 15.6151 1.75178 9.70022 3.66415 -4.05816 4.08145 -1.95056 6.89606 21.9418 0.0609661 0.860412 1.87074 1.23181 0.570118 1.17524 -0.257622 -0.927999 -1.47148 1.39566 -0.975529 -0.114741 0.0207998 
-21.7393 14.7811 -0.634044 1.33879 15.3884 3.67124 6.24565 3.98438 -5.76743 7.00847 -3.60034 9.66003 21.9673 0.890382 0.593946 1.92731 0.0775149 -0.752825 -0.692577 -2.7152 -0.846472 -1.07019 -1.89555 -1.44689 -0.978009 -0.227581 
-23.2924 13.5258 0.921502 4.68209 15.1475 8.43303 4.80639 1.49029 -3.04538 10.8832 -4.23671 8.54905 21.8448 2.89567 -0.974001 1.98066 0.674 -4.28526 -3.04716 -3.3972 -1.08325 -1.62361 -2.60123 -2.33247 -1.56693 -0.597487 
-15.8802 16.2079 4.65328 2.08581 8.06163 -2.41907 -2.1379 0.654716 -4.69142 -1.90422 -8.86269 0.421376 20.7772 5.05483 -2.31568 2.31872 0.293954 -6.01631 -4.66582 -2.00325 -1.76178 -2.93428 -3.68281 -1.14679 -0.893071 -0.85249 
-8.26713 9.73898 6.87685 4.97176 -2.14781 -10.4389 -3.09399 -0.0872831 -12.7142 -4.46837 -10.9817 3.68075 19.5495 5.71377 -3.40909 2.47115 -0.664142 -6.14371 -4.16271 -2.00648 -1.43721 -3.19559 -2.42626 0.532 0.0139333 -0.821464 
-3.97786 5.09613 7.9819 2.66373 -6.04547 -10.2219 0.179598 -4.03573 -15.6044 -3.72979 -5.96179 7.62883 18.8526 3.88154 -3.93327 2.1259 -1.07582 -3.97747 -1.44678 -0.576982 -1.65003 -1.64901 0.00282512 2.38047 0.944595 -0.484906 
-0.674752 2.03629 11.613 1.07242 -8.51744 -8.4791 -6.38474 -3.35055 -13.5668 -0.335363 -3.02716 5.01499 18.6998 2.11846 -2.44778 1.68895 -1.51692 -1.79493 0.0907635 -0.64312 -1.14999 -0.140673 0.269834 2.6275 0.0853375 -0.16736 
-0.268712 0.392924 12.9147 -1.34361 -8.6409 -10.6328 -3.37743 -5.96379 -12.5102 -3.9566 -0.937636 4.47723 18.7775 0.944122 -1.10424 1.13767 -0.472681 -1.34456 0.309807 -1.30659 -0.224059 -0.386441 -0.121016 1.36744 -0.282563 0.001227 
0.47059 -0.148306 12.8552 -0.609188 -9.82474 -9.77958 -4.53108 -4.8732 -14.9647 -3.0058 -0.356306 5.68324 18.7502 0.173539 -0.0504349 0.642702 0.390234 -0.773266 0.386187 0.0505145 0.512672 -1.14395 -0.581787 1.12833 0.673806 0.1121 
0.170075 0.667235 13.0491 1.14113 -12.1146 -8.02262 -7.2802 -4.3947 -16.8377 -2.99965 -0.460038 5.88189 18.8335 -0.318623 0.589693 0.369148 0.917341 -0.744653 0.729953 -0.185729 0.719262 -0.755251 -0.424232 0.700942 0.551482 0.148055 
-0.0264492 1.64696 14.7593 1.78122 -10.6469 -7.85327 -4.18079 -1.57173 -17.1228 -3.72277 2.37568 7.68169 19.2323 -0.262105 0.582325 0.778316 0.587744 -0.434635 1.45406 0.0287154 0.336236 0.773172 -0.919512 0.960063 0.0319838 0.0900051 
-1.61331 2.44376 13.8084 2.04789 -11.9531 -7.94623 -4.48122 -4.01822 -15.2074 -5.71928 1.20108 6.23542 19.2767 -0.0659129 0.45277 0.738395 0.158446 0.543296 1.55595 0.100035 -0.0322676 1.66481 -0.913662 0.687075 -0.195249 -0.00491886 
0.0517569 1.87506 16.3671 1.87615 -12.0787 -2.54748 -5.78699 -3.38026 -11.914 -6.24355 3.61345 5.66639 18.9787 -0.0210741 0.486236 0.353061 -0.127217 0.823861 0.947472 0.0727921 -0.373479 1.58501 -0.667099 -0.0915604 -0.38577 -0.0532667 
-0.198592 2.81704 15.9372 1.88589 -8.68225 -2.89576 -5.97692 -3.65178 -11.1181 -6.30757 2.35645 5.9133 18.9357 0.100993 0.355587 0.0284038 -0.28177 0.600366 0.699821 0.0954326 0.0309803 0.898872 -0.206941 -0.499418 -0.626231 -0.00332756 
-0.839177 3.8915 15.4602 1.22613 -8.16303 -5.64114 -3.06898 -3.62235 -11.2425 -6.76412 1.34019 5.9139 19.1364 -0.096981 0.396729 -0.587961 -0.594707 0.353844 -0.0334279 0.218352 -0.0232656 0.0986675 0.121045 -1.0584 -1.13986 0.0597 
-0.662875 3.21347 14.4039 0.96405 -10.9091 -2.90029 -5.36306 -3.74227 -11.0488 -6.4937 -0.159382 2.98051 19.1812 -0.00313511 0.0991245 -0.278906 -0.576301 -0.296295 -0.0827036 0.231113 0.159449 0.0137337 0.252988 -0.515398 -1.63639 0.0662788 
-0.201007 3.66049 14.1939 -0.636459 -9.19605 -2.71235 -5.00215 -3.45134 -11.4553 -5.54526 -0.420648 1.43349 19.1544 0.317025 -0.218363 0.2634 -0.201932 -0.285758 0.47433 -0.159162 0.530525 0.104544 0.720272 0.0923126 -1.32039 -0.0221758 
-0.533353 3.42817 15.1758 -0.0643182 -9.64721 -4.77367 -3.85477 -2.94003 -10.943 -5.65206 0.659882 -0.0284452 19.2581 0.389649 -0.0174973 0.414745 0.0210769 0.100085 0.364092 0.0219725 0.628772 0.229212 0.786659 0.614798 -0.538276 -0.127574 
0.681188 2.69233 16.3912 0.73065 -10.2227 -2.3328 -4.61894 -1.37084 -10.7727 -3.58358 1.39212 0.816421 18.9871 0.43121 0.206791 0.248349 0.30738 -0.436624 0.901574 0.00192685 0.936376 0.190893 1.03741 0.960138 -0.27429 -0.219238 
0.844271 3.61006 15.379 0.38588 -9.8953 -1.26961 -5.44481 -1.63866 -10.2441 -3.54124 2.00822 0.597661 18.627 0.511026 0.959532 -0.340219 -0.057673 -0.12014 1.10531 0.337719 1.31467 0.435322 0.706393 0.706842 0.0607152 -0.388063 
1.26623 4.6035 15.3341 0.67534 -11.2551 0.0434847 -4.1975 0.57985 -10.8503 -1.41363 3.70587 -0.251013 18.3738 0.136119 1.93824 -0.694542 -0.330788 0.191224 0.783356 0.573184 0.834706 0.403067 0.567492 0.649573 0.181417 -0.446495 
1.72926 7.27024 14.0033 -0.325028 -9.73173 -0.43524 -2.37689 2.65799 -8.72754 -3.20507 3.03722 0.808847 17.6245 0.204231 2.53749 -0.656444 -0.461988 1.04542 0.436977 0.0380247 -0.0735559 0.818067 0.701102 0.607057 0.355717 -0.527732 
0.919288 10.5535 13.6064 -0.567835 -9.34841 1.16679 -3.28698 0.654365 -9.51558 -0.914205 4.12549 1.61791 17.2559 0.322928 2.12971 -0.162456 -0.0957435 1.05774 -0.121076 -0.313927 -0.4351 1.04442 -0.312838 0.34324 0.798995 -0.545694 
2.0389 13.3225 12.9606 -1.30247 -5.62157 0.353625 -5.70995 -2.0437 -6.82107 -0.285446 4.8337 1.44178 16.5473 0.436915 0.526299 0.435728 1.33332 -0.499885 0.06463 -0.0645194 -0.787437 0.813451 -0.483823 0.220635 1.19129 -0.406611 
2.72605 12.2259 15.0431 0.685345 -8.02149 -0.956326 -4.1006 0.755195 -6.58142 -4.43763 4.52383 3.4275 16.1839 0.618897 -0.89454 0.804412 2.46628 -1.40656 -0.456385 0.762185 -0.654873 1.24181 -0.0762171 0.138707 0.330227 -0.383558 
3.01045 9.06552 15.4635 5.71497 -12.8946 0.949471 -2.29267 -1.32962 -6.12736 -3.86247 3.94122 5.86049 16.1274 0.103623 -1.13674 0.74965 2.31491 -1.30343 -1.27283 0.544883 0.0873922 1.08986 0.0598908 -0.24454 0.292887 -0.296258 
3.528 8.20926 16.377 8.25487 -12.7447 -1.41305 -1.18469 -2.97704 -3.6534 0.493223 5.26527 1.05969 15.548 -0.268266 -1.33995 -0.5735 1.94342 -0.396151 -0.859625 0.456594 -0.901208 0.685684 0.453814 -0.204665 0.53952 -0.112803 
2.15604 9.64715 16.0419 6.48733 -9.77713 -5.78218 -4.44349 0.259379 -2.83578 -2.45142 3.24028 4.09012 15.3839 -0.976985 -0.555865 -0.497621 0.626993 0.676414 -0.907685 0.770192 -0.315807 -0.719645 0.409638 0.714324 1.36977 -0.120093 
1.81193 5.23532 11.8864 10.0163 -11.561 -1.88863 -0.742225 -4.54534 -4.79879 -2.87408 3.85097 7.01028 15.9916 -0.405229 -0.0331429 -0.0214019 -1.29445 0.0152 1.47989 0.481605 -0.399516 -1.23129 0.534174 0.668898 0.779843 -0.229125 
-1.01644 7.77317 15.2207 7.96923 -10.1044 -3.35117 1.33705 -2.1245 -9.15289 -0.130631 8.21999 9.73403 15.3051 -0.278947 0.00382968 -0.523905 -1.51204 0.152225 0.766882 -1.41344 -1.36122 -0.751468 1.22283 0.719943 -0.375838 -0.474666 
3.0881 8.98053 16.6806 1.04169 -12.5051 4.77089 -1.66693 -3.78268 -6.65129 2.0037 6.1199 2.13695 14.4418 -1.10362 0.23442 -2.91529 -2.92318 2.23194 -0.181577 -3.25206 0.406639 1.09588 0.343426 0.935856 0.871406 -0.720438 
0.123218 7.79369 11.0253 3.41442 -8.54397 -5.27753 -11.0483 -6.92804 -5.66687 1.22385 5.70553 4.64759 13.7855 -1.9317 -1.25037 -5.7753 -2.08954 3.90326 1.10928 -1.64925 1.82849 2.63757 -0.508001 0.171939 0.640247 -0.545256 
-4.27601 6.39716 -0.592318 -2.3222 -1.18151 -1.83333 -10.8099 -0.110376 -1.06241 -1.8342 9.78748 13.9105 13.1492 -2.82359 -2.03827 -5.78037 -1.40964 4.21623 1.55398 1.2636 2.33855 2.07456 -1.39391 -0.740014 0.313876 -0.345791 
-6.9929 2.81303 -5.01934 -0.796535 3.75014 5.49735 -2.33774 5.18182 1.24052 -0.751688 7.2459 7.04848 13.2251 -1.59005 -2.08458 -3.27613 -1.60902 2.49121 3.08232 4.00377 3.29174 2.20365 -0.303664 -1.47134 -1.06501 -0.241944 
-7.47181 1.27951 -4.19893 -3.90101 2.42905 7.15336 0.295785 1.85514 0.26781 -3.97808 1.64965 2.50589 12.9931 -0.690116 -1.97664 -0.922156 -0.426158 0.561152 1.52295 4.12296 3.46275 2.71649 1.30729 -2.53289 -3.22252 -0.187512 
-6.22915 -0.0703874 -3.55205 -3.84129 2.10683 5.64071 3.41773 8.54787 4.68626 0.777476 2.41777 5.02487 12.6539 0.325795 -0.699216 -0.182241 -0.463278 -0.618523 0.985243 1.91678 1.13964 1.62371 2.98515 -1.84437 -1.55017 -0.24914 
-8.10846 -2.04435 -5.93674 -2.93061 2.44591 5.70973 6.92721 15.5203 10.7972 3.93765 -0.462883 -1.19028 12.4973 0.366777 -0.0329349 -0.148097 0.143384 0.668611 1.59971 1.21827 1.28431 1.31167 3.00214 -0.876002 -0.426178 -0.218605 
-5.0456 0.978872 -5.06164 -3.59812 0.649099 11.1454 3.93046 4.04741 4.09437 10.2162 -0.919672 1.14569 12.2273 0.189821 -0.0497271 -0.335186 0.471412 1.00498 1.74424 0.355854 -0.733235 -0.784631 1.33735 -0.662887 0.666935 -0.206653 
-6.2297 0.590201 -4.18462 -3.30567 6.50096 12.3996 6.13077 10.5269 7.1221 6.31324 -1.06164 2.31459 12.1133 0.225079 -0.0132133 0.0503724 0.446387 1.34943 0.0579584 0.127241 -0.611901 -2.17584 -0.246767 -0.162858 0.627596 -0.160426 
-6.21942 -1.6363 -6.10404 -1.2967 5.10421 11.017 5.59522 7.37841 2.60064 6.27642 -0.597288 6.60711 11.8126 0.459857 -0.664238 -0.0248198 0.24933 0.268201 -3.07656 -1.10174 0.103374 -1.20123 -1.63425 -1.07745 -0.321461 -0.0532779 
-6.39616 -0.80283 -5.16368 -1.84938 6.9655 6.06373 6.73104 10.7953 0.664849 4.6737 -1.43836 -0.783007 11.9025 1.40902 -0.220892 0.29936 0.471429 -1.32458 -4.19832 -2.7448 -0.755311 -0.922477 -0.641163 -1.31221 -0.844767 0.0053627 
-2.66309 -1.6458 -4.69621 -3.07962 1.75783 -1.0695 -1.87835 4.43007 1.31686 2.86473 -6.11854 1.08719 12.0663 0.60205 0.321359 0.390466 0.211737 0.144888 -0.623994 -0.613679 0.182202 0.753043 0.112845 0.501032 -0.206416 -0.0133763 
-0.962782 -0.509506 -3.39174 -0.0570669 1.55125 -2.54881 -3.85646 8.22454 3.15161 4.81327 -4.86209 0.850712 12.0133 -0.404803 0.203927 -0.0182103 0.796988 0.54023 2.61024 1.00848 -0.166818 0.334865 0.0838099 1.04507 1.33934 -0.110969 
-5.92586 -0.176163 -5.03768 -1.13418 8.53578 12.2033 7.82057 9.57481 5.12247 6.77086 3.61974 4.75817 11.6903 -0.961465 0.878199 -0.193427 1.11194 0.809683 3.42284 2.93958 0.191331 -0.907 -0.578842 1.96752 1.22411 -0.148081 
-6.78878 -0.518017 -5.084 1.16284 6.27768 12.4786 6.92395 7.38888 0.436366 3.13969 -1.08216 4.07818 11.5357 -0.876163 0.500909 -0.305973 0.137934 0.956032 2.11632 1.93735 0.303569 -0.899225 -1.4041 1.187 0.115608 -0.119048 
-4.55741 2.74945 -4.81722 1.87015 3.44304 8.531 7.42932 5.80456 -1.86052 0.807313 1.82911 5.59401 11.5647 0.00786781 0.26469 0.364814 0.0766331 -0.424369 -2.21476 -2.4439 -0.853404 0.184027 -1.09781 -1.31042 -0.470853 -0.0302241 
-6.02782 0.532233 -5.03183 -0.869559 8.87779 9.86893 6.02591 11.6275 2.14698 0.774548 1.96821 1.01084 11.4809 -0.0554579 -0.647604 0.544384 -0.450667 -0.527782 -1.81415 -1.34259 -0.144403 0.998949 0.346656 -1.02748 -0.94031 0.00429411 
-6.267 0.62216 -3.23969 0.265187 5.11388 2.43429 -3.94992 3.18848 5.1873 2.46437 -4.45755 3.93758 11.5666 0.0356447 -0.890616 1.19923 0.398618 0.102247 0.322735 -0.0539711 -0.0466397 0.902852 1.63034 -1.54385 -0.370587 -0.00314417 
-6.21128 -2.69239 -3.15084 -0.288015 2.80334 6.45616 5.90062 7.97491 1.9072 4.04444 -3.07621 0.204843 11.5562 0.275014 0.138771 1.42084 0.979891 -0.535296 0.425432 -0.320375 -0.419781 0.323544 2.2019 0.232712 1.68896 0.0293457 
-4.28746 -0.0913191 0.238414 3.57246 6.9915 11.8511 7.22211 7.39766 2.77363 7.32408 -3.36793 4.14407 11.5113 0.553175 0.685546 0.910367 0.627617 -0.194857 1.66912 1.27809 0.445173 -0.126838 2.22167 3.03541 2.39497 -0.00378351 
-5.64252 1.58283 0.333306 2.37626 5.2625 7.28771 -1.16198 7.42402 4.97154 9.35419 2.58696 9.35239 11.6552 0.570919 1.29715 0.27221 0.148279 0.0764927 0.629118 0.419758 0.162662 0.555399 1.411 3.06351 1.48967 -0.0224856 
-3.78551 1.91228 -0.42993 2.07114 2.91002 10.3641 5.97183 5.68979 3.02094 10.9179 7.88792 11.3386 11.4982 0.339445 0.697442 -0.517698 -0.590905 -0.356586 0.00458299 1.25914 0.670713 0.316281 0.390521 2.39892 -0.547284 -0.0326932 
-3.60766 2.79153 -1.45562 1.20404 5.22654 10.3452 8.62455 9.64216 4.56054 9.30252 6.61343 4.05589 11.4503 0.424756 0.329667 -0.460353 -0.321152 0.224461 0.609612 2.22258 0.838865 0.0717587 -0.171869 0.677845 -1.78757 -0.0457705 
