-9.33565 0.620686 -1.3998 0.00184512 4.59788 2.34452 3.77923 1.47482 5.246 4.52779 1.93038 2.71064 11.8703 0.247482 0.213608 -0.458081 0.113955 -0.068232 0.36679 1.98677 -0.242775 -1.78577 0.221437 -0.380685 1.14479 0.0585455 
-8.84936 1.44356 -2.65143 -0.266612 3.35477 1.52383 7.68843 -2.71292 5.46541 11.4069 2.67056 4.92777 11.9417 0.403228 -0.0151221 -0.736207 0.19576 1.0896 0.218249 1.84676 -0.474346 -2.63717 -1.68478 -0.578318 0.324981 -0.038113 
-8.34139 1.27729 -3.06439 0.705849 4.87827 4.58881 11.7585 2.35482 -3.79256 2.19542 -0.343133 7.32604 12.1273 0.0775276 -0.468993 -0.905288 -0.474174 0.60792 0.230281 0.883145 -0.303429 -0.750802 -0.67099 -0.358259 0.313639 -0.066804 
-7.81664 0.216774 -4.24854 0.628641 9.90568 2.31362 9.02342 -1.33691 -3.42059 -2.72995 0.175548 2.02785 11.5512 0.000969887 -0.260659 -0.21347 0.086856 -0.0283885 -0.689507 0.273411 0.345272 0.793178 -0.957061 -0.272952 0.159209 -0.0341198 
-9.46437 -1.11089 -5.12768 -2.81665 4.36203 3.10103 7.52746 -0.73033 5.93499 8.24125 1.38659 5.7288 11.7315 0.0311071 0.3374 0.751513 0.725789 -0.0591916 -1.42252 -0.329662 -1.63273 1.23696 0.140299 -1.04628 0.338531 -0.0139615 
-8.28302 1.33435 -2.68713 1.92892 3.47095 -1.17981 11.171 0.556015 4.56753 3.59866 0.440938 6.52244 11.969 0.494979 0.903696 1.92576 1.99901 0.755914 0.364365 0.564979 -0.353692 -0.269311 -0.292531 -2.39561 0.454157 0.0957554 
-7.95266 2.4055 -0.087532 3.68465 7.79967 -0.777054 9.03638 -6.7553 -1.60179 -0.267385 -5.70725 6.7714 11.8486 2.01501 2.47206 2.66583 2.41777 1.24347 -0.0882193 -0.344294 0.0689183 -1.14151 -0.7439 -2.09045 -1.01377 0.0410939 
-6.0976 2.97706 2.86019 7.37305 11.9664 6.07448 11.0939 -0.0928785 -0.998753 0.0617151 -8.25557 3.77733 11.9714 2.55447 3.02729 3.29914 0.790502 0.301508 -0.235141 -1.64925 -0.555156 -1.55145 1.01523 -0.0339488 -0.952525 0.0960153 
-0.482009 10.4281 5.4278 6.55011 6.33163 -0.967214 5.84456 -0.0612924 3.0106 6.29023 -4.71742 2.03252 11.9358 2.56557 2.26255 2.08578 0.370028 0.0421426 -0.476164 -1.46446 -0.102975 -1.06837 -0.188739 0.230144 -0.763298 0.192676 
0.754006 12.4595 11.0509 4.4487 5.71252 -2.26044 4.52065 -5.56677 -5.49589 5.39599 -0.223718 4.12926 12.4055 1.17697 -0.60697 -1.24609 -0.508402 1.25821 -3.23913 -3.45193 -0.192404 -1.27356 -1.67325 -1.91626 1.09503 1.01599 
1.44937 8.977 6.24599 6.99697 11.1373 1.00959 5.00068 -4.53323 -4.69508 -3.87821 -8.57245 2.77895 12.595 -0.0911162 -2.67062 -3.03683 -0.802725 2.0102 -1.63399 -2.63485 1.80463 -2.01081 -2.20724 -3.44423 0.500168 1.56379 
-1.17846 0.667742 -3.77937 4.60761 15.8546 -11.1096 -5.74387 1.18107 -3.51371 -3.22031 -15.9094 8.87925 16.7218 0.231506 -2.00502 -2.6033 0.490144 -0.00567609 -2.51163 -2.95076 2.11293 0.979057 -1.33539 -1.92234 -0.726224 1.53768 
0.0286417 2.97086 -2.3412 2.45703 11.3116 -4.71259 -2.19743 5.58793 -8.03453 -0.437818 -14.0958 2.15836 17.5966 1.31962 -0.321883 -0.0397012 1.1355 -3.09546 -0.56254 -3.45944 0.999058 0.425222 0.380048 2.54232 -0.875809 1.07958 
2.6219 5.43751 2.328 9.16939 5.59702 -11.9575 -6.6341 -0.0627092 1.06912 -3.00115 -7.07377 0.808435 17.5931 2.37413 0.94561 1.59683 1.81914 -4.41864 2.70688 -3.11571 -0.0687495 -0.203686 -0.245245 4.99933 -1.8355 0.256926 
6.14729 4.9827 2.9938 10.3936 0.788855 -1.37914 -11.8514 1.08395 -4.86038 -2.08756 -0.278634 2.43532 17.5572 2.40417 -0.00337927 0.204982 1.79765 -3.32039 2.39267 -3.40816 -1.21948 -0.375552 0.17698 4.48935 -1.07665 0.176266 
7.63286 4.38987 1.53729 9.73505 -0.977256 0.75811 -16.4955 3.08932 -6.11921 -3.62166 2.17873 -0.436707 18.0261 1.71967 -0.508345 -1.2543 0.203456 -1.9344 2.85071 -1.74923 -0.919398 -1.77275 1.3489 2.50093 -0.910572 0.244302 
9.54401 3.47778 -0.92094 11.1624 -2.00325 0.892968 -14.3076 -2.0855 -6.31813 0.757337 3.7247 -2.60232 18.2614 0.750518 -0.720803 -1.11413 -0.359036 -1.27272 0.934834 -0.345093 -1.694 -0.510458 1.16796 1.5691 -1.4941 0.268998 
9.52188 3.64824 -1.98614 9.80223 -2.67891 1.15997 -14.1522 -3.07498 -7.06573 2.32089 3.4292 -1.2256 18.4625 0.348586 -1.06009 -0.270237 -0.939337 -0.6728 0.5415 0.109186 -1.55544 -0.500436 1.27883 1.59275 -1.67311 0.211328 
8.95537 1.74949 -0.815145 8.56481 -4.72389 3.09411 -14.7485 -4.30389 -6.93941 0.780942 6.94165 -4.64073 18.684 0.160046 -1.28422 0.431247 -1.27317 -0.274686 0.268875 -0.364946 -0.856987 0.270259 0.461455 1.43996 -1.06522 0.199648 
9.67011 -0.046454 0.133207 6.33718 -2.98094 2.36504 -15.7291 -3.5787 -8.31075 2.76067 8.53401 -7.78304 18.8714 0.137862 -1.26978 0.484876 -1.08179 -0.336258 0.358871 -0.865014 -0.466764 0.72141 0.711944 1.08864 -0.797342 0.209786 
10.2701 -1.09598 0.175618 6.52915 -3.22567 1.63481 -15.3438 -6.11857 -4.34433 2.84472 8.3721 -4.64973 19.0552 0.246398 -0.814421 0.00376289 -1.00247 -0.375139 0.232667 -1.19213 -0.0978035 1.03525 1.38597 0.403073 0.138056 0.230231 
9.55381 -1.27792 -0.0571461 5.41113 -5.10931 3.68397 -18.1796 -4.50145 -4.75622 4.84872 8.15719 -5.20782 19.3258 0.178297 -0.395334 -0.642389 -0.98272 -0.758382 0.394843 -0.55197 -0.303992 1.42256 1.44786 0.355422 0.644989 0.274984 
10.2455 -1.70688 -0.701154 4.0155 -5.5354 3.59797 -19.4839 -4.33153 -3.54041 6.66675 9.14543 -5.23807 19.6079 0.342213 -0.566371 -1.16477 -1.49906 -0.574224 -0.230164 0.946802 -0.162394 1.92122 1.02456 0.449682 -0.1267 0.31712 
10.5739 -1.71767 -2.64035 2.6804 -5.61798 3.35767 -16.4189 -5.99218 -1.59992 8.08897 9.92446 -4.26392 19.97 0.426419 -0.647115 -1.64714 -1.26716 -0.705958 -0.220423 2.13618 0.559891 1.90253 1.00472 -0.279398 -0.427596 0.265155 
11.4711 -3.70796 -4.35661 0.399199 -5.84246 0.647139 -11.4902 -6.18518 3.68363 6.34738 9.73687 -5.75518 20.3187 0.0561573 -0.51682 -1.34478 -1.82283 0.137335 0.0171662 2.73948 0.72852 2.30389 -0.184136 -0.64466 -1.56979 0.128199 
11.0731 -3.51295 -6.4651 0.883479 -8.48557 4.05727 -11.4955 -0.775176 1.14441 10.032 6.46447 -7.08724 20.2962 -0.134856 -0.630802 -0.763748 -2.39549 1.20329 0.28289 2.28594 0.805048 2.72661 -1.51462 -0.635686 -2.97881 0.0744112 
10.2767 -3.39334 -5.51269 -4.20021 -3.41493 3.33401 -8.24818 -3.29743 6.60687 4.77457 7.65212 -11.6754 20.0858 -0.572279 -0.560677 -0.483043 -2.95957 2.1232 0.983755 1.96725 0.572863 2.02242 -1.42811 -1.48516 -2.88352 0.167811 
10.4968 -5.02899 -5.88105 -6.99736 -0.815282 3.42869 -6.6102 -3.41081 10.5715 1.30226 7.7884 -16.1979 20.4585 -0.706475 -0.497183 -1.02714 -2.77035 2.2309 1.35553 2.35382 0.143765 1.40576 -1.50029 -2.44415 -2.30705 0.298374 
8.89787 -5.75332 -7.06385 -10.4583 0.938416 5.88021 -4.09658 -2.00304 9.08216 3.5717 1.64912 -15.6175 21.0766 -0.781954 0.479653 -2.4042 -0.902046 1.01763 1.98769 1.94067 0.724959 0.337444 -0.922351 -3.13438 -0.881379 0.285399 
8.23013 -4.81887 -10.8252 -9.83926 0.492245 9.5618 -1.80223 -0.703544 6.93557 3.13195 -2.75475 -16.6515 21.2927 -0.858148 1.03725 -2.30579 0.0776413 0.907748 1.27943 1.47218 1.0161 -0.382907 -1.22453 -2.19238 -0.344818 0.136602 
7.50029 -1.10014 -15.0616 -7.28949 1.01947 10.2059 -0.948826 -1.02627 10.1121 -0.752031 -2.74819 -15.8555 21.0957 -0.420309 0.692732 -1.80909 1.16653 0.739642 -0.218532 1.26044 0.527186 -0.233886 -1.38283 -0.932269 -0.438144 0.0434176 
6.90489 -2.16935 -13.4111 -8.19353 3.68293 7.66297 -0.823189 1.18131 8.14204 -2.65851 -0.974825 -17.803 21.132 -0.355434 0.15565 -1.06691 1.27481 1.1596 -1.8036 1.49566 0.0183467 -0.139806 -0.423234 -1.00184 0.350623 0.0723028 
7.45894 -3.61443 -14.8163 -5.44848 3.04128 5.73696 1.7161 -0.30954 7.3095 -0.447201 -3.90219 -17.2324 21.3741 -0.46622 -0.799662 0.499628 0.336496 1.26136 -1.65843 1.94134 -0.830773 0.0504868 0.907996 -2.26153 1.35095 0.143762 
6.47363 -2.78348 -16.2824 -4.38572 5.27933 2.77825 4.34362 -0.970178 7.63783 0.863362 -7.18696 -14.2099 21.515 -0.646061 -0.530323 0.902512 -0.00854788 1.27256 -0.777729 1.6756 -0.685226 0.381028 1.56576 -2.92622 2.13156 0.145946 
5.38482 -4.79138 -11.1279 -7.51092 6.52807 4.35611 6.17449 -4.1044 10.6166 2.02702 -10.9498 -10.8973 21.623 -0.825106 -0.62594 1.59725 -0.504557 1.02635 -0.457142 0.632594 0.286227 0.224993 1.00782 -2.61942 1.77824 0.120441 
4.71165 -4.23248 -10.7428 -7.20505 8.30232 4.46475 5.3256 -0.347395 8.39362 3.93317 -12.0822 -10.3127 21.7372 -0.628148 -0.844663 1.32199 0.296182 -0.398937 -0.814342 -0.353735 1.56151 -0.0507757 -0.302587 -1.61571 1.14371 0.0789064 
4.2144 -6.01963 -9.59988 -6.5616 6.66153 2.608 4.38807 0.810205 8.05657 3.05699 -14.5517 -10.2898 21.8652 -0.00572612 -0.360137 0.212425 1.71589 -2.1306 -0.589972 -2.08731 3.93761 -0.155059 -2.73434 0.920782 0.140418 -0.0333752 
3.9181 -6.39268 -10.4364 -3.37947 3.21791 -0.419402 3.46815 4.38008 8.66397 -1.16456 -13.4646 -8.79506 21.7885 0.162123 0.184339 0.0722782 1.86116 -2.96356 -0.760649 -2.13429 4.36853 0.274185 -4.18466 2.3035 0.0327066 -0.159857 
5.75297 -5.51197 -10.2189 -0.844279 -1.58274 3.84833 -3.33335 13.2199 9.70614 -9.0958 -5.65466 -10.954 21.4305 0.168907 0.814638 0.309947 1.6545 -3.17686 -0.795509 -0.985964 3.58169 -0.104583 -3.87744 3.00944 0.757509 -0.276361 
4.75298 -3.56462 -10.0719 -0.757901 -2.39335 0.0413427 -1.48512 15.2904 8.93976 -10.9137 -5.01319 -9.81708 21.1553 0.0576835 0.583245 1.33394 0.906366 -3.25352 -1.20698 1.18974 0.969856 -0.607657 -2.1168 2.92051 1.44376 -0.257793 
4.6415 -3.36046 -8.2324 0.400098 -6.41712 -1.59992 1.93489 13.2635 7.39576 -11.4556 -3.7302 -5.99122 20.8 -0.0573363 -0.211636 2.52966 0.124932 -2.98615 -2.66556 3.20711 -2.20143 -0.75082 0.0756894 2.69205 1.98224 -0.142838 
4.76225 -4.55221 -4.75998 0.530176 -10.6325 -3.73018 6.78273 9.20756 6.78088 -10.5687 0.175748 -4.05768 20.8148 0.268391 -0.58149 3.34355 0.256797 -2.85966 -2.5544 2.32 -3.10382 -1.02944 1.49264 3.86201 1.20997 -0.0919701 
5.46165 -6.07636 -0.2266 -0.863655 -12.3939 -7.59369 8.56829 5.25418 7.03148 -8.88989 5.2111 -3.92251 20.8866 0.233565 -0.522829 4.02179 -0.107479 -2.06755 -1.47426 0.187849 -2.73395 -1.42154 2.01828 3.41414 0.762191 -0.087093 
5.68486 -5.11412 2.64294 1.15796 -13.7033 -9.73377 6.79816 3.77595 3.97472 -4.73341 9.82621 -4.8016 20.6521 0.0096128 0.128121 3.96367 -0.592302 -0.516259 -0.735526 -1.90456 -1.0518 -2.66082 1.58809 2.74463 1.00425 -0.147986 
5.34802 -5.69365 8.17507 -0.451188 -15.2195 -5.96942 2.86642 2.30957 1.69113 -4.28183 8.51526 -1.80831 20.4458 -0.336228 0.615475 3.65263 -0.563917 -0.164714 -0.124124 -2.1142 -1.27098 -3.22653 1.60079 0.990546 1.81404 -0.166914 
4.86713 -4.10296 10.8575 -2.63757 -11.801 -8.21994 0.110867 5.42086 -3.85307 -4.93221 12.2468 -0.093545 20.2952 -0.766048 1.03727 3.3788 -0.631714 -0.135984 0.233301 -2.06015 -1.94513 -2.7188 0.930761 0.698815 1.59743 -0.134611 
4.18938 -3.50457 13.9292 -1.78548 -14.1686 -8.97123 1.34092 -1.92316 -5.18727 -0.786547 8.95353 2.79364 20.2305 -1.10308 1.46792 2.4486 0.205089 -0.524485 0.196392 -1.77556 -2.26047 -1.49718 0.698596 0.213643 0.918703 -0.152015 
2.43394 -1.02232 16.6599 -1.33346 -14.9086 -7.06636 -2.73982 -3.83336 -6.18009 -1.82725 13.1012 0.884556 20.0868 -0.952767 1.43371 1.29218 0.913761 -0.828885 0.660884 -1.10979 -1.61505 -0.808953 0.430395 -0.709855 -0.42375 -0.234419 
1.0492 0.105608 17.5169 -0.0777967 -16.2881 -5.56425 -4.58605 -4.36566 -4.63125 -2.34134 9.15631 2.29615 19.79 -0.579894 1.69961 -0.208088 0.726765 0.135295 0.87124 -1.76232 1.50575 -1.47024 -0.0675703 -1.12982 -1.53991 -0.432722 
1.67339 1.26051 15.5246 1.0774 -14.8857 -6.61901 -2.4746 -1.43314 -8.17585 -2.00284 8.59614 -1.96355 19.3434 -0.363426 1.14508 -0.640608 -0.0660246 1.06942 1.23423 -1.39669 2.24732 -1.62028 -0.0857728 -1.9916 -0.557789 -0.467241 
1.67019 3.85209 13.4564 0.642917 -13.5036 -4.8387 -7.60328 4.40549 -11.5406 -1.0366 5.55692 -3.48186 18.4386 -0.797178 0.160881 1.02412 -0.564016 0.158951 2.82777 -1.98319 1.46149 -1.43088 -0.826536 -0.716999 0.379846 -0.161726 
0.306316 2.82982 15.487 -2.02394 -10.9538 -1.258 -8.21466 3.01766 -10.8268 -2.90848 4.94286 0.98462 18.4263 -0.962339 -0.0323223 1.8515 -1.18775 -0.13336 2.7471 -1.657 -0.577168 -0.493254 -1.54791 -0.552661 0.953703 -0.182826 
-2.25316 0.12536 22.6563 -1.34721 -17.4593 5.89409 -11.632 0.716404 -10.4601 -6.0212 7.39795 2.7213 19.4399 -0.821773 -0.08245 1.60915 -1.15303 -0.161965 0.589886 -0.429522 -2.03127 -1.0722 -1.14914 0.202359 0.906986 -0.438732 
-1.17664 2.96227 20.1822 -3.86631 -13.5746 1.75012 -8.74522 -2.47444 -11.1824 -7.25011 4.91232 -0.296614 17.9286 -0.797098 0.73006 -2.0895 0.317556 1.95459 -3.15024 2.46875 -1.60489 -1.3292 0.787665 -0.453635 1.39322 -1.39878 
-1.6972 3.37362 19.1546 -4.20105 -13.003 -3.39333 -9.48561 -3.0048 -16.7238 -4.6115 6.58398 1.69368 16.4938 -1.2876 0.429988 -5.50012 0.269332 4.15203 -3.30974 3.99407 -1.05883 1.49575 2.16766 -2.49514 1.51757 -2.01247 
-3.95715 4.85599 6.79037 0.990757 -3.40902 -12.3655 3.0559 -3.14621 -14.341 0.324998 3.08167 8.46454 12.9054 -1.54691 0.000512266 -5.93513 0.415268 4.83235 -1.22285 3.53902 -0.602326 2.97262 2.33683 -2.77732 1.78986 -1.67857 
-7.30089 1.32844 1.85157 -2.42908 -1.78194 -3.5968 2.43783 -4.24185 -1.40208 1.02953 -4.16241 5.9286 11.8891 -1.35633 -0.418877 -5.05887 -0.258884 4.10118 1.60417 4.1534 1.44848 4.61193 1.7638 -1.41344 1.16462 -1.05791 
-6.10936 3.98742 -0.841955 -2.67595 4.97659 -4.26241 2.98818 -4.86754 -3.98012 1.6135 -3.60109 6.53521 11.838 -1.06224 -1.08118 -2.51484 -1.44933 1.73893 2.60177 1.12065 1.66138 3.60766 0.579031 0.324417 0.580473 -0.250503 
-7.40275 1.71352 -2.32361 -3.66211 3.31013 0.575974 11.3153 5.09828 1.15539 3.56322 2.85818 8.48147 11.7379 -0.514579 -0.244575 -0.71677 0.192455 1.33857 0.751253 0.338677 1.47559 0.878964 0.332263 -0.299238 -0.0339686 -0.0393991 
-9.21743 -0.742454 -3.69621 -5.63938 2.7396 -1.44303 4.22042 0.490597 2.4186 1.95331 1.19346 10.0905 11.7285 -0.531122 -0.643802 0.901779 0.745971 0.689886 0.542344 -0.168596 0.594912 0.0520598 -0.227582 -0.371574 -1.16086 -0.0314228 
-8.31975 2.4705 -0.305148 0.0149059 6.02943 -1.25023 3.51509 0.457051 -0.206617 2.52095 -8.05587 3.98113 11.7469 -0.143855 -0.389037 0.914829 0.349291 0.106149 -0.62157 -1.33844 -1.6718 -1.99675 0.0853963 -0.702256 -1.51337 0.00436115 
-8.30647 0.389913 2.65771 -0.784603 7.06637 -0.637589 6.04528 0.427632 -3.03882 0.99673 -0.00193429 2.98107 11.6764 0.232696 -0.183656 0.57618 1.10542 0.879695 1.08735 -0.697142 -1.25798 -0.566579 0.592701 0.686108 -0.150581 0.0187351 
-8.5775 -0.797848 -0.92643 -4.34304 1.67749 -2.9346 3.71064 -3.22923 -6.09964 4.46849 -0.0554008 4.46932 11.7857 0.053025 -0.261037 -0.671656 0.242878 0.617949 1.12614 -0.801465 -0.969264 0.624352 -0.685642 0.915909 1.99956 0.00172319 
-7.92508 -0.0265608 -0.504674 2.0667 9.31404 4.83591 0.636929 -3.95614 2.53222 3.94304 0.623762 9.09346 11.8028 -0.0629232 0.245064 -1.11088 0.701782 0.306609 0.948527 0.348239 -0.520642 2.2798 -0.426419 -1.16624 1.73065 0.00219755 
-8.24532 1.37355 -2.08224 -0.196358 7.99534 1.64374 2.21194 -2.19738 0.129621 -2.38042 -3.78918 10.9227 11.6923 -0.114955 0.279918 -0.446297 0.617918 -0.0720132 0.66013 0.985 0.0236261 1.90116 -0.789781 -1.21521 1.12428 -0.0779363 
-8.78717 0.529531 -2.31877 0.650964 5.4405 1.81588 8.53583 -2.6915 5.24556 2.28909 -3.96625 8.40759 11.7341 -0.171007 0.0599983 0.246338 0.100322 -1.56336 -0.770094 1.41681 2.01859 0.897908 -0.68981 -0.312924 -0.481588 -0.0572805 
-8.72122 0.323694 -2.25087 -0.545581 3.2542 1.87607 4.6862 -3.74342 2.04951 1.34656 -3.83645 10.4337 11.4304 -0.0629665 0.218271 1.16846 0.454606 -0.832165 -0.723176 1.6781 2.04142 0.958524 -0.425552 0.847164 -0.367908 0.00512323 
-8.54216 0.798359 0.81133 2.74292 3.8678 0.869271 6.48387 6.90982 6.06182 -1.3695 -0.917219 6.93006 11.6473 0.146051 0.398525 0.768718 0.135928 0.543782 -0.19503 0.387176 0.749001 -1.18825 -0.147053 0.56449 -0.4652 0.0286002 
-8.68266 2.33049 2.195 1.03069 4.62086 -1.49884 11.6284 3.20906 4.51411 -2.67889 -1.07788 9.82198 11.7613 -0.0997058 0.156896 -0.0160547 -0.411558 1.0325 -0.134935 1.39262 0.0595943 -2.49091 0.565464 0.6491 -1.38894 0.0913923 
-8.0762 1.51876 -0.698118 0.542468 7.47608 2.52818 7.00058 -2.42274 -1.928 3.56655 -2.52309 6.38745 11.7117 -0.0909849 -0.280325 -1.13081 -1.27824 0.43454 -0.214937 0.083032 -1.18184 -1.04628 2.18827 0.573221 0.23846 0.0425979 
-9.45273 0.747978 -1.57642 -1.50314 6.61254 0.371938 11.391 1.22083 -6.41012 1.70585 0.211981 3.76029 11.8552 -0.0571996 -0.721542 -1.46209 -0.829252 -0.146741 -1.05751 -1.34744 -0.263742 -0.0619855 0.635045 -0.562505 -0.480321 -0.00884476 
-8.61205 0.187993 -2.95699 -2.38137 5.04466 -1.1408 7.01778 1.99472 6.29255 7.37946 1.30396 11.1532 11.8134 -0.300743 -0.827818 -0.685721 -0.406258 0.201561 -0.140383 0.30034 0.808991 1.92735 -0.781914 -0.801167 0.888133 -0.011235 
-8.70074 -0.611837 -3.98602 -1.65365 5.10286 -4.95191 4.88264 -0.318375 0.0939066 -1.41011 -5.80393 5.0375 11.6662 0.486697 -0.313191 0.881812 0.0998607 0.171348 1.10918 -0.680428 0.19409 0.677604 -1.50495 -1.35219 1.23867 0.0353698 
-9.95592 -1.94043 -2.92192 -1.41357 9.23872 4.48819 11.7564 2.39182 4.45675 1.21497 -3.52097 10.1895 11.75 1.14537 0.461557 3.24656 -0.152851 -0.541668 1.38675 -0.51397 1.2119 -0.998817 -3.39035 -1.74311 1.10102 0.356095 
-6.34731 0.246233 2.81511 -1.48774 5.37225 3.10336 5.61948 1.99273 -2.1042 -2.73666 -4.13648 10.4355 12.0638 0.605922 0.697452 2.30658 0.230698 -0.561606 0.961365 -0.20837 0.406749 -0.53249 -1.92647 -0.569426 2.2079 0.234572 
-4.06191 2.06674 9.87523 -3.22858 2.20163 1.76533 4.0795 6.89869 2.39752 -8.90903 -8.2453 13.9593 13.3951 -0.181291 0.687229 -0.0122744 0.465095 -0.582976 -0.975225 -0.957414 -0.994058 -0.814665 -1.43841 -0.82688 -0.547915 0.0196525 
-8.61813 0.871836 1.14828 0.407348 5.81338 1.21635 7.67926 -0.538068 -1.53893 -5.98049 -6.28889 14.1921 12.0165 -1.24244 0.0989536 -2.19551 0.609715 0.53637 -0.630533 0.249997 -1.48234 0.211327 0.131691 -0.321924 -1.81154 -0.190706 
-9.72696 1.18292 -2.14988 -0.0356395 6.10328 0.555575 5.93948 -1.31307 0.100793 -4.35515 -6.57917 5.57163 11.8719 -1.24389 -0.145658 -2.73484 0.59429 0.809319 -0.308028 0.198018 -1.71985 -0.295373 1.07331 0.304199 -2.53958 -0.319118 
