-6.6684 1.65738 -3.02884 1.11053 6.18558 -1.4406 7.2416 0.592741 6.10981 9.19666 -2.64515 3.67974 11.7977 0.0901578 -1.05712 -0.615348 0.0805927 -0.527579 -0.480511 -0.572922 0.632534 -2.5243 -1.3329 -0.504296 -1.52188 -0.0473804 
-5.73118 0.0108104 -3.44654 4.10648 6.8483 -3.23139 6.24096 -1.42858 -1.94128 4.70315 -5.82589 1.89225 11.5967 0.0540735 -0.640041 0.24364 1.11809 -0.436926 -0.593797 0.233295 2.63598 -0.457307 -1.90323 -0.319679 -0.266638 -0.0258004 
-6.68622 -2.80492 -5.89673 0.0155191 3.21632 -2.94776 4.87731 4.76607 -2.48614 4.7789 -3.57626 -3.03593 11.6613 0.274723 -0.15594 0.466309 1.00701 -0.174293 -0.295836 0.52906 1.90594 -0.180521 -1.20319 0.00471169 0.234601 0.00204773 
-6.38912 0.688322 -0.376695 7.24851 5.48557 -3.65601 9.59022 11.686 8.12125 1.88939 -3.77799 5.70438 11.7369 -0.0678138 -0.0834864 0.0552598 0.532187 0.0313233 0.295202 1.56552 0.732466 0.820066 0.314095 1.28548 0.987553 0.0624057 
-4.96581 0.538926 -2.23221 4.57456 5.99547 -2.70747 8.21227 3.56516 0.175937 4.58758 -3.64554 2.94668 11.7378 -0.101703 0.316999 0.18696 1.06428 1.53645 0.263804 0.744714 -2.13714 -0.766239 0.703408 -0.0234506 0.721819 0.0230376 
-6.93045 -2.07854 -5.0025 4.4879 5.61534 -1.87552 12.4011 2.83421 0.828007 6.36928 0.636161 3.83871 11.8704 -0.270199 -0.324667 -0.586771 -0.552779 0.259809 0.0459743 -1.96214 -3.95375 -1.94977 0.704751 0.404768 -1.27842 -0.0141358 
-6.92407 0.163511 -2.64903 6.71724 10.8337 -2.51898 7.19545 -1.49375 -2.67071 6.05599 -5.90058 1.506 11.7097 -0.481869 -0.0966964 0.177325 -0.477867 -0.0594988 -1.10972 -2.13846 -1.49407 0.623678 0.449621 0.368854 -0.998953 0.020567 
-6.76099 -0.747305 -3.10214 3.41327 4.36551 -3.52038 0.287939 -5.55336 -0.20425 4.67894 -0.626628 0.0326359 11.6802 1.09833 0.975039 0.521319 -1.00576 -0.0841442 -1.00593 -1.28738 -1.42461 -1.19446 -1.44958 -1.47713 -1.08387 0.0848958 
-7.45989 -0.610176 -2.29577 2.72253 6.32289 -7.43367 3.57655 0.288592 3.81046 7.68086 -1.16988 -0.145054 11.9357 3.02947 0.870852 -0.451192 -4.45919 -1.21804 3.61579 -1.55644 -0.977275 -0.47724 -3.42253 1.50927 0.113748 0.811401 
-1.17088 3.1835 -2.57254 1.45645 7.45002 -4.44781 7.77362 -5.18 -8.38487 -1.69104 -9.11486 -0.755099 12.1819 4.03102 0.927128 -0.664082 -5.48115 -0.311341 6.30315 -1.64096 0.102062 -0.29425 -4.0328 1.80383 0.792776 1.29817 
5.4282 2.55237 -5.16979 -14.6003 3.20126 16.0237 -4.3296 -6.56681 -0.966599 -7.87169 5.88986 2.46861 15.5159 3.67802 0.452104 -0.580857 -5.72996 -1.1709 6.73842 -3.28336 -0.155397 0.427479 -4.23495 2.53534 0.982808 1.58011 
6.95008 2.30706 -4.98554 -15.3311 4.36962 16.2667 -3.96378 -1.61535 0.713028 -7.70879 4.86265 2.68969 16.381 1.61155 -0.241181 0.18355 -4.42818 -1.30557 4.50293 -2.98091 0.990642 2.51795 -2.67467 2.79227 0.420783 1.54558 
6.86973 2.08856 -3.99355 -17.5335 2.0086 15.9012 -6.97157 -2.27072 1.3989 -10.485 4.51806 3.04659 17.7367 0.60741 0.270889 0.32047 -1.38171 -0.978192 0.565483 -0.233471 1.12651 1.23271 -2.16516 -0.306323 -0.503532 0.907843 
6.16612 2.2095 -2.24291 -19.2178 1.51849 18.1281 -5.80995 -2.37484 3.02211 -13.7577 5.53237 1.05982 18.7994 0.892467 1.39585 -1.00286 -1.08635 -1.06426 0.363548 0.429309 0.328959 1.11455 -2.44468 0.246636 -0.544455 0.668431 
8.85723 3.9556 -4.93876 -19.5655 -0.264132 17.9204 -4.57387 -0.554492 4.04239 -15.673 4.02339 0.765881 18.8459 1.55004 2.37241 -1.51995 -0.802625 -1.05117 0.210592 0.788381 1.14944 0.837366 -1.9082 0.327566 -0.438379 0.297327 
10.4187 8.35281 -9.52724 -19.7468 0.184677 17.0748 -3.01608 -0.828671 4.96405 -17.3382 6.34317 1.10777 19.1686 1.86118 2.29273 -1.2976 0.428822 -1.76951 -1.43148 0.68571 1.39756 -0.771917 0.101061 -0.328569 -0.213517 -0.00444775 
12.4936 10.879 -7.95113 -21.2821 -2.58033 17.4807 -4.42659 2.70338 4.61477 -18.2358 5.75049 0.830728 19.0388 1.32091 1.07522 0.201525 1.7544 -2.01481 -2.73117 1.11352 -0.205404 -1.23945 1.13238 -0.808879 0.262069 -0.152829 
13.6538 10.2115 -7.22471 -16.2154 -6.17098 11.1905 -2.45504 2.98405 -1.12366 -11.971 3.02598 -0.0401866 18.6807 0.520769 -0.606166 1.67206 3.68251 -2.03989 -2.65952 1.00271 -1.52946 -1.61933 2.33687 -2.35317 0.431572 -0.435865 
13.8442 8.40239 -5.0824 -12.5592 -7.16036 7.2067 0.713199 -3.48788 0.889016 -12.6947 1.63759 2.6502 18.3257 -0.736845 -2.41636 1.56117 6.59493 -0.450593 -1.26391 0.959448 -1.93155 -1.32904 2.08114 -3.6093 -0.334163 -0.642571 
12.3472 6.56028 -2.60131 -5.69576 -7.72477 8.91426 -0.572437 -5.38034 -1.2697 -8.42438 -3.36624 2.35589 17.3458 -1.75051 -2.41818 2.2194 5.70935 0.426822 1.59374 1.11083 -1.49756 -0.723324 0.307529 -3.09023 -1.03035 -0.629075 
9.46272 0.62275 -2.45697 6.43273 -4.0564 12.2993 -0.570656 -2.77218 -1.95741 -9.6034 -9.0999 -2.03813 16.4934 -2.0013 -1.90883 2.28064 3.26787 0.800098 3.2219 0.593619 0.248713 -1.72116 0.461313 -2.12361 -1.69165 -0.393561 
7.09204 2.01037 2.55959 2.83539 -5.58885 16.6129 3.74106 -4.86158 -3.31707 -11.979 -7.05644 -2.84778 16.4515 -1.34829 -1.33859 2.11004 0.0418353 0.69714 2.99705 -0.317829 1.25247 -1.88439 0.325774 -0.135339 -1.39485 -0.0410297 
6.46528 1.13318 3.74033 -0.485432 -4.22783 19.4669 1.52455 -2.50369 -6.69312 -8.6108 -7.13536 -3.20619 16.805 -0.460136 -0.878372 1.81485 -2.36208 0.449446 1.01187 -1.33529 0.759157 -1.02986 0.62893 1.39056 -0.386685 0.178064 
7.10449 -0.387885 4.85024 -2.0275 -4.15336 20.3157 -3.20918 0.747746 -8.3238 -7.29181 -5.0252 -4.03434 16.9848 0.402135 -0.986064 -0.121352 -2.00864 0.808007 -1.12743 -2.12179 0.0419415 0.27781 1.90056 1.1639 0.885807 0.235891 
7.15581 -2.56998 5.47198 -2.94624 -2.52692 15.5072 -3.77196 -1.78105 -4.60335 -8.80236 -3.16272 -3.37828 17.1171 0.894967 0.000779629 -1.36842 -2.64616 -0.0786919 -2.59338 -1.44407 -0.851891 1.46846 1.36226 1.64484 1.83255 0.389093 
8.75744 -1.06837 1.08701 -5.9774 -2.39927 12.9556 -4.21965 -5.01319 -2.9729 -2.38044 -3.22324 1.6673 17.475 1.04965 0.247978 -1.99333 -3.34992 -0.684847 -1.96693 -0.87054 -0.769115 1.21907 0.364024 1.33967 2.33931 0.602893 
10.1136 1.47732 -1.22014 -11.7413 -5.49833 10.1801 -5.19058 -3.88268 -2.02625 -4.25517 0.187869 3.10572 18.5054 0.866916 0.180197 -1.84046 -3.78236 -0.473615 -0.430817 -0.893203 -0.191536 0.425711 -0.960582 1.24699 2.26656 0.733829 
10.8738 -1.17165 -1.77033 -14.3796 -6.09189 13.1447 -6.85257 -2.04701 -3.51698 -7.74529 -0.00213432 4.42024 19.3051 0.0867131 -0.495679 -0.920958 -2.37529 0.344087 0.842858 -1.44519 -0.617298 0.62799 -1.10089 1.09765 1.2047 0.689424 
10.4322 -1.61736 -2.30167 -17.657 -3.04869 13.2586 -6.92152 -4.22182 -2.20276 -10.9229 1.46169 6.57804 19.8711 -0.801187 -0.6009 -0.638847 0.0113619 1.60998 1.45113 -2.07244 -1.92308 0.864984 1.47848 1.01969 -0.00793648 0.424101 
9.03172 -1.99943 -2.97702 -14.896 -1.90366 15.6306 -10.5801 -7.93011 0.255304 -4.55104 1.62811 5.95466 20.2392 -1.03465 0.00882163 -0.23329 2.66471 1.86475 -0.573932 -1.84534 -2.29971 1.291 4.39531 -0.311126 -1.81631 0.00359516 
7.02875 -1.11329 -3.81103 -11.4263 0.457437 16.1928 -13.689 -10.5565 0.412527 1.5401 4.4712 2.29883 20.1589 -1.31776 0.369958 0.670281 4.83229 2.06582 -3.70016 0.000622749 -0.00654011 0.584386 5.54169 -3.44382 -2.70896 -0.420285 
7.4023 -1.37958 -2.1821 -4.1714 1.47881 8.80792 -12.6955 -10.3782 1.63039 7.99977 -3.06252 -2.52173 19.1792 -2.86686 2.74503 1.28792 4.87873 2.63432 -6.62864 2.89401 2.99084 0.398389 2.03654 -5.58521 -2.53041 -0.424225 
4.65811 -0.0774932 0.652273 1.14221 5.58916 -1.83088 -5.8607 -3.03047 0.0316285 10.5102 -13.4121 -2.72857 18.2997 -5.19517 4.72027 2.41426 4.21806 4.17758 -6.69037 3.06036 5.22899 -0.954787 -1.87164 -4.04154 -0.0585018 0.111847 
-4.11726 11.2078 1.23096 3.21341 8.7021 -8.50078 -0.0242319 3.26107 2.4377 1.14659 -17.3563 -4.18369 19.0477 -7.03386 4.53209 1.86747 1.23983 3.52172 -3.33796 3.42438 6.15398 -2.00458 -4.45775 -0.23976 1.89811 0.688996 
-13.1873 16.1944 6.55372 5.97161 17.7337 -8.60474 -4.72284 8.76879 -4.76507 -4.39149 -8.58961 2.8373 20.7839 -6.88639 1.67113 0.399899 -1.34941 0.145825 -0.453609 1.92646 3.98289 -0.929927 -3.7123 3.50021 1.68444 0.883759 
-18.8443 13.1449 4.20455 -0.386946 13.0152 -4.49494 3.85742 14.4921 -5.99418 -6.83811 -6.67258 4.18589 21.3821 -4.51922 -1.90758 0.190045 -1.2904 -0.881074 1.92595 1.90497 1.93292 -0.672521 -0.867351 4.18823 0.923898 0.564879 
-22.4103 7.30962 1.16497 -3.80468 4.16176 -6.10184 1.83076 11.2685 -0.402068 -4.05893 -1.25294 1.50883 21.5513 -2.5142 -2.6623 -0.809159 -1.30898 -2.31429 1.33457 1.73276 -0.208588 1.17366 1.75873 3.25021 0.558725 0.170876 
-22.1018 6.1123 4.87555 1.64955 11.0827 -0.122496 6.2238 11.6758 -3.10641 -3.35644 -0.0834837 1.10004 21.4883 -1.13944 -1.60922 -0.0904955 0.858572 -1.03119 0.902455 -0.376002 -2.2907 1.21078 2.94757 2.09513 0.427649 0.0667833 
-24.1295 6.39917 2.17242 -1.59155 7.12848 -4.1181 2.75776 9.13397 -0.340651 2.66134 4.36688 7.17385 21.5851 -0.145261 -0.935607 0.353464 0.696915 -0.475254 1.90482 0.632989 -0.479852 0.94563 1.21077 0.452836 0.591488 -0.0306744 
-23.6819 5.55408 3.24835 2.79935 6.37583 -0.974543 1.51391 4.10583 0.0290343 4.53963 0.993144 3.49162 21.6991 1.73218 0.370705 1.04112 0.490944 -2.06455 0.535993 -1.6812 -1.68202 -0.221755 -1.47921 -1.50494 -0.483677 -0.0891565 
-22.3466 2.9107 3.7459 -0.895002 4.13891 3.84828 7.35065 12.6542 2.75836 -1.9531 0.472924 3.27048 21.2925 4.18713 -0.152509 1.89189 2.16002 -2.85699 -1.42142 -2.61676 -2.39502 -1.94397 -2.83263 -3.05685 -1.41903 -0.225525 
-14.3324 9.71005 9.2944 3.756 2.25472 -1.42572 -4.47864 1.50558 -5.76469 -8.44527 -5.66121 0.633334 21.1889 5.26383 -1.60905 2.2456 2.31215 -3.19938 -3.51343 -2.94036 -2.72641 -2.10147 -2.69802 -2.68841 -0.803716 -0.253996 
-7.86864 3.55864 8.60886 8.73024 -5.09593 -10.9996 -7.32977 -1.54099 -7.16363 -5.00935 -7.59021 1.50786 20.7126 4.93948 -2.60918 1.44 3.24387 -2.58154 -4.38146 -2.37622 -3.76548 -2.04794 -1.03745 -2.2075 -1.07222 -0.253563 
-4.6017 -2.81515 12.0449 9.54746 -5.00362 -11.1177 -5.8477 -2.4286 -5.51733 -7.42235 -8.41733 0.35435 20.7191 3.43803 -2.90367 -1.13365 3.1362 -0.389843 -2.82228 0.313549 0.306934 -0.281277 0.389733 -0.326286 -0.587085 -0.550609 
-2.51453 -3.87259 9.57068 12.4286 -5.13964 -13.213 -3.84595 -4.2061 -7.60502 -7.6518 -9.18652 -1.95114 20.2596 3.27489 -2.02387 -2.11066 2.01582 0.425788 -0.713371 0.0853289 1.85399 1.61547 1.3303 0.0378155 -0.756774 -0.576492 
0.180712 -1.09271 3.14523 17.5878 0.327362 -14.4304 -4.65281 4.37281 -6.95037 -5.17538 -6.49448 -0.572589 18.6623 3.24093 -1.72249 -2.49734 -0.489356 -0.481912 0.319802 -2.2452 1.88018 2.51859 2.42775 0.446257 -1.55281 -0.247423 
6.11459 -7.42193 2.50539 14.7892 -5.63249 -12.9101 -7.50057 4.32824 1.63023 0.51866 -8.36256 -1.81254 18.8586 3.54825 -2.74021 -1.23089 -3.57041 -0.879385 2.15814 -3.55324 0.537357 3.97056 2.66948 1.64009 -2.24283 0.218353 
7.2884 -9.65295 3.09082 5.92041 -7.16676 -9.67016 -15.2464 2.70511 2.45799 0.631173 -6.59803 -7.47899 20.1825 2.58719 -2.62639 -0.649211 -5.40474 -1.15656 3.35323 -2.91602 -2.13608 3.20882 3.11026 2.56627 -2.0456 0.676614 
11.6729 -13.2935 3.44343 0.410249 -5.7895 -4.80246 -16.3154 -0.68547 7.54362 2.79235 -0.934309 -9.71207 20.5913 0.917843 -0.288042 -1.99889 -4.91614 0.783703 2.914 0.122696 -3.12777 1.13673 3.48293 3.54593 -1.01879 0.62921 
10.3375 -11.2889 -0.56985 -2.24646 -5.37691 -1.71809 -14.8255 -3.80075 6.13702 9.23909 2.62275 -6.85083 21.179 0.397128 1.34486 -2.95423 -3.07804 1.23249 2.59102 3.734 -2.08435 0.347752 3.63856 3.18571 0.552647 0.308629 
9.17924 -8.04419 -5.65872 -5.70812 -2.60889 -2.31616 -7.09753 -8.05767 5.47438 13.6293 4.75671 -7.22057 21.5063 -0.312932 2.55091 -3.37888 -1.6618 0.343267 2.46775 4.26029 -1.59688 -0.0091485 1.14074 2.50388 -0.300342 0.0872074 
10.5209 -5.55332 -7.12926 -6.4106 -2.59459 2.0418 -1.18535 -4.03052 5.23137 13.4055 6.48503 -5.96151 21.2681 -0.0977805 2.11682 -2.52607 -0.469378 -0.299663 2.28365 3.42407 -1.38643 0.637357 -1.5056 1.91682 -1.73087 -0.103712 
10.0165 -3.40672 -10.1712 -5.81669 -5.46433 5.65632 -1.83399 -8.55498 7.9507 6.41284 9.65395 -11.6584 20.9828 -0.139268 1.26571 -1.39366 0.391277 -0.662334 2.12032 1.2269 -1.14686 0.704919 -2.48557 1.7548 -2.62849 -0.127786 
9.42999 -3.0235 -10.9439 -4.53907 -5.44751 5.7139 -0.336918 -10.4842 8.08565 5.31932 9.75821 -13.2863 20.9222 -0.13609 0.40456 -1.16627 1.29422 -0.0416554 0.815337 -0.109216 -1.64127 0.898399 -1.60039 0.914587 -2.55784 -0.0113228 
9.02833 -2.98054 -10.7197 -4.6875 -4.49411 6.44941 -1.38726 -10.5651 7.57184 5.24456 11.8941 -16.7006 21.0404 0.176019 0.0175469 -0.908739 2.08569 0.705344 -0.660671 -0.0130853 -0.919793 1.09253 0.397791 -0.611626 -1.47528 -0.0105852 
10.3345 -3.74361 -12.6864 -0.504087 -3.28798 5.72194 -1.95479 -11.2318 9.91279 5.98767 9.93788 -16.2296 21.1827 0.335851 0.207035 -0.539436 1.9788 0.811713 -1.59784 -0.349 0.435814 0.818529 1.08218 -1.25712 -1.17771 -0.135037 
10.4444 -2.95893 -13.8437 2.59425 -3.01737 2.34895 -1.09048 -12.7802 12.4998 8.06762 6.50598 -17.5632 20.7996 0.000938439 0.263162 0.425231 1.54198 0.979684 -2.94769 -1.03891 2.70614 0.318394 0.333512 -1.42763 0.153218 -0.256021 
10.4012 -1.99913 -12.0791 1.71408 -2.12731 -0.225066 -2.23031 -7.19763 9.71432 9.31872 6.16667 -18.7435 20.3674 -0.667498 -0.113711 2.408 0.586004 0.541888 -3.85362 -1.04894 4.36153 -0.147267 -0.834419 -1.25933 1.6617 -0.275121 
8.99966 -2.53697 -8.89717 1.91332 -0.17602 -5.31556 -6.44405 0.948501 9.26305 5.2466 6.64156 -14.6776 20.1679 -0.739117 -0.809555 3.82748 0.500754 -0.696596 -3.30835 -1.4962 5.16822 -0.374164 -2.47356 -0.478024 3.59009 -0.200782 
7.71936 -4.52314 -3.11968 2.7664 -1.99921 -9.71393 -4.52272 3.71153 10.7948 3.22609 3.57344 -9.36389 20.123 -0.859516 -0.877035 4.54273 0.962238 -2.27258 -2.75669 -0.539828 3.79241 -0.342409 -3.34809 0.453106 4.22284 -0.137702 
8.08972 -5.7447 0.81401 4.57186 -6.5644 -9.44839 -7.42526 7.60635 10.0887 -1.25385 5.41248 -4.30255 19.9179 -0.696723 -0.44416 4.59632 1.28966 -3.34362 -1.7186 0.728565 1.81561 -1.28435 -2.79862 1.21846 3.37204 -0.144144 
6.55862 -4.78044 5.77895 5.196 -10.296 -11.9421 -4.43885 8.43549 7.58944 -4.17153 9.04674 -2.81686 19.8039 -0.754486 0.199231 4.33013 0.902205 -3.01441 -0.845624 1.21954 0.00620538 -2.71783 -2.00278 1.96887 2.05595 -0.184305 
6.09642 -4.62912 9.63509 7.14684 -12.7457 -12.7945 -2.84316 7.66457 4.44399 -5.04768 9.99721 -1.0909 19.6067 -0.841732 0.605372 3.98582 0.50075 -2.00201 -0.557556 1.64713 -1.37676 -3.96112 -0.518209 1.02507 1.11407 -0.230606 
4.94358 -4.08478 14.1205 5.98993 -13.9806 -12.269 -0.716077 3.71345 0.0280387 -4.89089 11.1254 -0.689945 19.3571 -0.159639 -0.0588953 2.67311 0.544718 -0.892184 0.698177 0.484959 -1.71252 -4.20103 0.9814 -0.487873 1.29484 -0.314899 
4.68858 -3.06567 16.5723 6.67865 -14.7321 -12.0727 -1.05099 3.08357 -5.93619 -3.48522 9.49848 0.204361 18.9883 -0.415864 0.291141 1.25117 0.195178 -0.0498888 1.38413 -0.375926 -1.25329 -3.40341 1.36895 -0.632387 0.903516 -0.38771 
6.46435 -5.85664 15.6759 8.15368 -13.7637 -8.81209 -2.91014 2.16339 -8.22561 -0.0457573 6.85674 3.00971 18.5386 -0.490569 0.891977 0.565804 -0.753238 1.02999 1.33223 -1.19915 -0.00304005 -1.45623 1.27215 -0.879591 0.291898 -0.486432 
3.25672 -2.28748 15.1132 7.04086 -13.1036 -7.60226 -3.62576 2.17316 -8.44626 -0.625511 8.96961 1.57685 18.0774 -1.19505 1.37315 0.259187 -2.36958 1.11796 0.00913076 -1.68844 -0.730485 -1.07542 1.36793 -0.627164 -0.246829 -0.737941 
3.20666 -0.0139847 17.679 2.04264 -9.64492 -7.8431 -5.42442 4.15345 -5.99806 0.0400286 6.99189 0.0832973 17.3804 -1.62837 1.68403 -0.28327 -1.22865 1.65297 0.436089 1.20063 -1.42994 -0.0319726 0.88599 -1.114 -1.08062 -1.077 
0.342166 0.878747 16.8667 -2.11374 -11.2018 -12.5116 -8.23603 -1.56389 -12.4271 3.31155 6.29508 0.433425 15.8777 -0.766102 0.333456 0.0712368 -0.194873 0.481999 0.494282 2.17743 -1.95049 -0.891902 0.68554 -0.952565 0.0958114 -0.782645 
-0.220222 0.980389 13.3828 6.58773 -6.44981 -4.177 5.39816 -3.11777 -6.39507 2.41566 2.62402 -1.82168 14.2534 -1.20825 -0.128643 -3.41652 0.642626 1.63015 -0.532233 1.98997 -1.67401 0.128043 0.848199 -0.420348 2.66235 -0.946406 
1.13966 -1.11739 17.6175 3.79395 -12.2912 -6.9639 1.85012 -3.94366 -12.7073 1.61437 6.39072 3.0084 15.7276 -1.33222 -0.20213 -5.32499 0.23308 3.96078 0.480739 2.44876 0.18721 1.55 1.3739 -1.74119 2.59168 -0.965258 
-3.23335 0.340869 0.221045 2.30192 -0.949477 -13.2781 -0.517633 -3.02672 -5.21775 5.12961 4.84233 12.1076 12.7234 -1.67583 0.0254493 -5.47084 -0.855077 4.37282 0.101212 0.992862 1.72555 2.12953 1.24922 -2.90764 1.4374 -0.929841 
-4.81239 0.187857 -3.17735 1.19456 5.85198 -5.55732 6.96566 -0.673365 -5.26572 8.82409 -3.52004 6.42718 11.8164 -1.65039 0.1731 -4.54237 0.524359 4.66167 1.65158 2.1418 1.93801 4.47516 1.58611 -2.83061 -0.764238 -0.914028 
-5.62333 0.455014 -3.57395 3.61204 6.34272 -4.37423 7.8047 3.87481 0.531814 5.0569 -6.9588 3.6559 11.5598 -0.980913 -0.351329 -0.665189 1.10458 1.35108 2.00606 1.57211 0.480323 1.296 0.561739 -1.11098 -1.17145 -0.179627 
-5.91731 -0.308957 -3.19685 5.76068 7.37112 -3.15794 8.39797 2.29565 6.79376 9.58126 -1.86176 3.41304 11.7393 -0.647773 -0.23409 0.427155 1.14293 -0.101892 0.337796 -0.244505 0.0514291 0.743167 -0.603272 1.03996 -0.194275 0.0272621 
-7.58545 -1.16737 -3.09515 5.54175 5.04633 -4.44748 6.62678 -2.10961 -4.76749 7.55972 -1.54173 7.75741 11.8638 -0.645277 -0.390611 -0.10909 -0.414447 -0.965969 0.118951 -0.101918 -0.620163 -0.368591 -0.109707 1.49558 0.176197 0.0485888 
-7.0702 -0.171402 -1.28098 5.94436 5.99071 -3.83171 6.3321 2.57599 1.09977 4.55632 -1.02876 3.40505 11.8007 -0.309139 -0.0704789 -0.607453 -1.66619 -1.53985 -0.453427 0.230367 1.27319 -0.129275 -0.726473 0.313286 -0.802463 0.0158535 
-8.27327 -1.56682 -5.07734 1.44796 2.20308 -3.44259 8.32805 0.633825 1.53585 7.02084 0.102606 4.54088 11.772 0.255127 -0.0375969 -0.466667 -1.43296 -0.573015 0.300791 1.25959 1.79416 1.62314 -1.13295 -0.757191 -1.94682 0.00107336 
-7.11909 -0.461626 -5.24303 -0.523379 1.09348 -5.92752 8.69917 7.28989 2.99571 6.21834 -1.1175 1.00899 11.8645 0.316561 -0.431432 1.75583 -0.91695 -1.31278 0.247878 -0.266879 0.327584 -0.245494 -1.66456 -0.510017 -0.416755 0.297694 
-6.28537 -1.21024 -3.44746 1.61081 4.62987 -1.89562 11.7412 4.50422 2.40024 1.06397 -5.28332 -0.778633 11.8373 0.226775 0.179272 2.07657 0.920121 0.184 0.275689 -0.757413 -0.501774 -1.92293 -1.79957 -0.265439 0.932991 0.182207 
-6.48135 -2.50685 6.68324 1.27818 -1.7866 -3.3658 3.29113 2.27872 -0.559896 -0.788058 -0.885885 3.98103 13.2566 0.471802 0.544234 1.29914 1.9139 1.20515 0.246064 -1.26956 -2.5327 -3.15799 -0.0628105 0.0226252 2.00383 0.0306064 
-7.45827 0.352151 -0.657643 5.14779 4.56312 -3.345 7.24501 0.630542 -6.30101 1.52617 -1.34039 7.71982 11.987 0.0173944 0.519055 -0.293836 1.29144 0.966385 -0.632109 -1.14242 -0.970647 -1.43479 1.74543 0.972272 1.46425 -0.131715 
-4.17363 1.47835 -0.142219 7.27762 7.15262 -3.97251 4.59948 -3.43677 -8.4436 5.67318 -2.97583 6.77889 11.9427 -0.116943 0.153358 -1.73969 0.459595 1.77733 0.633328 1.61453 1.39315 1.16472 1.03444 -0.497814 0.260991 -0.234151 
-7.35226 -0.607568 -1.50391 5.0683 4.99219 -4.75281 5.37495 2.50873 -0.831851 6.56052 0.623016 5.14369 11.8357 -0.0720387 -0.423911 -0.345768 -0.302093 0.57379 1.16048 1.0016 1.12005 2.83595 -0.202295 -0.484185 -0.504615 -0.0467196 
-7.11907 -1.2602 -1.59208 3.6159 6.88551 0.504743 12.2988 8.30535 2.52912 1.86697 -4.35666 6.57405 12.1615 -0.518329 -0.697783 -0.992773 -1.13246 -0.603772 -0.203676 -0.345428 -1.00009 1.766 -0.921271 0.472436 0.401543 -0.0896378 
-6.34574 -0.398132 -1.66155 5.46818 7.56562 0.21879 8.40332 0.359725 2.39238 2.4178 -3.0709 5.29916 11.644 -0.110795 -0.330523 -0.584208 -0.140584 0.169995 0.423755 -0.573556 -1.68768 -0.913178 -0.373009 -0.374603 -0.187636 -0.0955152 
-7.26853 -2.11528 -5.02726 1.41538 2.84704 -7.47669 1.35816 -7.3627 -1.22572 3.13819 1.23331 8.70887 11.5903 -0.150132 -0.141883 -0.224949 1.12462 0.393185 -0.235042 -0.703356 -1.82176 -1.11171 1.15403 0.652493 -0.43033 -0.0737866 
-7.8315 -1.83264 -2.70737 5.46564 7.86139 1.35668 7.97751 1.90434 -3.52032 4.05986 -4.04498 3.1381 11.6437 -0.126662 0.128009 0.172518 0.814273 -0.317757 -0.306196 1.10739 1.50956 0.177419 0.651431 0.534652 -0.673054 0.0439307 
-7.12685 -1.25236 -2.19392 9.24027 8.70355 -1.23941 8.99496 -1.57577 -0.0730807 6.81606 -0.607159 5.50293 11.7927 0.123656 0.403909 0.800559 0.769809 0.357572 0.202133 2.15124 2.75547 1.21428 0.431744 -0.638251 -1.37683 0.0984829 
-7.0499 -0.189549 -2.21563 5.6271 3.04858 -4.43083 10.1219 5.01404 2.70315 3.83602 0.522589 3.53686 11.7625 0.00479813 -0.0799557 -0.0660581 -0.453994 -0.520468 -1.19457 0.605322 0.0544194 1.13158 0.153326 -0.247748 -0.0365527 0.113792 
-7.04106 -0.917287 -1.27033 5.1837 7.0413 -3.57227 11.0422 4.85977 1.73394 5.40883 -4.24173 1.62535 12.0233 -0.224762 -0.45056 -0.389488 -0.843577 -0.218515 -0.343953 0.182971 -0.49865 0.114525 -0.0877802 -0.970758 0.0139666 0.0944143 
-7.85041 -2.39996 -3.49945 5.22396 6.09018 -3.44973 9.98049 -1.04133 1.23408 5.53011 -3.46644 4.89413 12.0973 -0.241037 -0.590349 -0.479675 -0.0766035 0.513206 0.208475 -0.134444 -1.80119 -0.343801 0.350948 -0.720276 0.598333 0.0743671 
