-4.72776 1.59882 -8.07684 7.24224 6.44377 1.87315 1.37775 5.9115 7.70009 -1.8281 1.74771 -0.617316 11.3285 -0.110396 0.00174515 0.0236158 1.08686 -0.647216 1.01348 1.08116 -0.267937 1.3 0.783566 0.842469 0.174426 0.02082 
-5.212 1.60173 -7.93234 8.76507 7.12863 3.88937 3.13645 4.39358 12.3306 4.09959 7.06563 1.26737 11.4446 0.168324 -0.0329191 -0.00275502 1.04497 0.0398392 0.438351 1.21053 -0.261457 -0.121257 -0.330188 -1.57736 -0.114885 -0.0366206 
-5.03761 1.6061 -8.031 11.9151 2.86526 5.93244 5.90422 5.33078 11.8848 -0.874114 3.30109 -0.68753 11.3745 0.184181 0.204376 -0.179098 0.398052 0.744397 0.134458 0.233894 -0.741886 -1.18182 -0.456741 -1.70493 -0.0687986 -0.0221569 
-3.73121 1.43059 -8.11353 10.1307 8.43222 2.03526 5.16714 4.89457 5.00144 -3.95604 -6.91579 -1.15664 11.1224 0.173833 -0.0964042 -0.647072 -1.02728 0.527097 -0.673675 -0.14434 0.0263168 -2.16899 0.239473 -1.09301 -1.07562 -0.0392097 
-4.54725 2.70627 -8.88173 8.5497 9.51396 3.47249 1.53187 1.95157 5.45556 -0.0839942 0.213777 0.250694 11.3788 -0.429834 -0.158957 -0.155877 -1.99333 0.379446 -0.922102 -0.150651 1.13139 -0.164073 1.90369 1.55261 0.425746 0.0313858 
-4.58802 0.569619 -10.7423 5.31137 6.43976 1.75097 4.60093 6.21476 4.70029 4.90189 3.14425 -4.57984 11.2464 -0.675031 -0.607267 -0.0802535 -1.43695 -0.5204 -0.604216 0.294599 0.440516 1.18371 2.02842 2.84972 -0.12705 0.0721639 
-6.75838 1.2418 -7.49599 4.35811 5.75872 1.46407 5.43407 10.3276 11.215 4.21535 6.0341 3.1528 11.4694 -0.234848 -0.842698 -0.105815 -0.641564 -0.580978 -0.363055 1.15139 0.993773 0.663998 0.178816 0.350907 0.324716 0.0104081 
-6.0008 -0.873505 -9.20767 5.04173 7.70784 0.018384 4.68904 2.90913 8.04025 4.0364 4.42265 -3.24294 11.4379 -0.212517 -0.0133743 0.994057 -0.154249 0.202207 0.183545 -0.0483299 0.279801 -0.144295 -0.38492 -0.209212 1.38178 0.102704 
-5.0151 -0.785656 -10.1781 5.4767 5.97503 2.52351 7.24476 8.57325 7.10557 1.24283 1.32911 1.20583 11.3351 1.24616 1.99584 3.01286 0.72556 0.644825 0.0627082 -1.98354 -1.59786 -3.13717 -1.13502 -2.00034 -0.725519 0.269051 
-6.52225 1.51647 -4.43097 3.98083 7.34264 2.13897 3.45393 8.49096 6.03355 4.46355 4.45069 3.30257 11.8271 2.41599 2.6739 6.922 -0.991998 -1.93518 0.323292 -3.14487 -1.19673 -4.90639 -2.75908 -1.99418 -0.165241 1.02943 
-0.26684 10.026 5.17999 8.51636 9.16545 0.71732 -3.86608 -0.452575 -3.46745 -1.67331 -3.98164 -3.74755 12.6201 2.70137 2.19402 8.03976 -1.46756 -2.79264 -0.151846 -4.85512 -1.15858 -5.07632 -1.73704 -1.47246 -0.528531 1.4759 
3.70501 7.09017 17.7233 -1.43809 -3.56327 2.53794 -5.47987 1.43838 -11.2052 -8.30092 -2.89286 -1.59246 15.9426 2.09193 1.14769 6.41148 -1.76594 -2.89537 -0.0544487 -3.66114 -0.586163 -4.19145 -1.43588 -1.61682 0.695813 1.54305 
3.37812 7.39758 18.9435 0.848367 -2.5352 1.5648 -12.5639 6.30667 -9.65665 -1.06012 -2.36141 1.01068 16.6569 0.283753 -0.523125 3.67901 -1.65635 -1.68397 0.051854 -1.49867 0.630619 -1.90813 -0.223755 0.339566 2.07513 1.20358 
2.11493 8.56915 20.7447 -1.01488 -1.28388 1.44299 -10.5029 2.18052 -11.8291 -3.02244 -4.44355 4.40252 17.5239 -0.620126 -0.272151 1.44286 -0.000702095 0.73629 -0.00645609 -0.393371 0.267793 -0.553965 -0.13646 0.182865 1.22659 0.599523 
1.94697 6.67087 22.0644 0.0230227 -0.394083 1.52406 -8.84795 2.32945 -12.6962 -5.43133 -1.50846 3.63059 17.8473 -0.570743 -0.25903 0.612537 -1.04748 1.00502 0.0850521 0.563995 -0.794193 -0.199498 -1.37548 -0.430755 -0.123065 0.507122 
1.31996 6.09277 23.3772 -1.02893 -0.952374 2.52603 -9.30472 4.76595 -12.4553 -6.79761 -2.40501 3.23054 18.345 -0.345424 0.291354 -0.0662626 -0.86572 1.31702 -0.767396 0.42792 -0.144931 0.64834 -0.979034 -0.27959 -0.818826 0.287581 
0.921892 7.34062 20.69 -4.38201 2.32414 1.44854 -10.343 1.04299 -10.3411 -6.04991 -5.53445 0.981346 18.782 -0.286083 1.24459 -1.46488 0.0639481 1.13681 -1.90077 0.675718 -1.52808 1.28675 -0.322137 -0.597252 -0.835075 0.0262117 
0.900347 9.69104 21.1006 -3.14097 3.9421 -2.35623 -7.61572 2.0991 -9.76494 -7.60832 -3.8285 1.63301 18.4945 -0.103298 0.348853 -1.31682 0.801365 -0.0427766 -2.53082 0.475115 -2.08419 1.00107 -0.59017 -0.143698 -0.311521 0.0217909 
0.726357 11.0947 15.8783 1.39878 2.84272 -5.53865 -6.31386 -3.97753 -7.60754 -6.63666 -3.78297 0.253983 17.9036 -0.126796 -1.5042 -0.261552 1.32891 -2.56655 -2.67896 -0.534013 -0.804794 -0.103433 -0.423725 -0.847841 -0.221472 0.308816 
0.901237 5.95999 19.1989 0.0875006 -1.42555 -6.63448 -8.94373 -3.14476 -8.81669 -9.45509 -3.99924 2.03662 18.8931 0.192616 -3.69528 -0.396301 0.729863 -4.5809 -2.79784 -2.10572 0.119325 -1.93555 -0.161669 -2.11655 -1.38204 0.600704 
0.287467 1.68513 20.333 0.648314 -7.82476 -9.80715 -12.3491 -0.359054 -11.3324 -7.24515 -9.68829 -0.327818 20.1268 0.669643 -4.80724 -0.489113 -0.04514 -4.22996 -2.90199 -1.55433 1.5861 -1.93078 -0.208198 -1.9721 -1.1598 0.802859 
2.08287 -4.08058 16.8917 0.883577 -13.6286 -14.2112 -15.1267 0.886489 -17.5803 -8.11242 -11.4586 -4.98628 20.3864 0.955744 -3.67601 -2.34598 0.273949 -1.43822 -2.34339 0.177482 1.93679 0.83511 1.26661 -1.03049 -0.821303 0.591827 
3.48375 -7.9212 14.5863 0.775044 -12.2055 -16.2603 -10.994 1.93736 -12.8796 -8.34899 -9.91378 -2.03355 21.1712 1.01313 -2.22316 -4.16723 -0.0861019 1.49588 -0.831517 0.75383 0.848613 4.14299 2.53168 0.408929 -0.651677 0.330072 
4.08182 -7.61689 10.3424 1.39388 -6.42625 -15.1249 -8.73387 5.39099 -3.8675 -2.57012 -9.03895 -1.21703 21.33 0.737612 -0.130146 -5.37563 -0.500248 3.489 1.21619 1.29592 -1.38669 6.12211 4.61814 2.26113 -0.906726 0.127775 
4.35365 -7.6625 2.77151 -0.0373468 -3.94654 -13.5079 -11.7764 1.63176 2.5262 2.6421 -8.85346 -5.47083 21.3053 0.673206 1.44495 -5.63177 -1.18829 2.98746 2.50397 1.74552 -3.90022 4.15202 5.34687 3.96232 -0.693945 -0.0676704 
5.33598 -4.86066 -4.07908 -1.21147 -0.31313 -9.5064 -8.25593 -5.89416 5.32734 9.48276 -0.683089 -7.80127 20.9583 0.602555 1.83636 -5.27121 -1.84995 0.734706 2.54115 2.99891 -5.8574 0.413976 3.35351 4.66187 0.198823 -0.0664265 
6.2227 -2.07455 -6.36179 -3.86371 -0.324788 -6.54967 -2.50535 -11.9212 3.28306 12.3589 5.7199 -2.21116 21.0188 0.639 1.94132 -4.40511 -1.91371 -0.917473 3.57849 3.76717 -6.14213 -1.72228 1.67687 4.62596 1.11616 0.0212238 
6.16007 -1.22909 -11.447 -5.94269 -4.56359 -5.89825 1.62517 -17.1195 -2.17605 9.33903 6.98372 -1.85275 21.1412 0.591801 1.18791 -3.17736 -1.27308 -1.78783 3.74752 2.64578 -4.22881 -2.18409 0.124815 3.10707 1.22117 0.101038 
7.13661 0.228304 -15.5701 -7.24027 -6.40867 2.5805 2.11895 -23.4662 -2.3335 11.0983 10.4429 -2.86429 21.32 0.355114 0.308817 -1.96241 -0.0296078 -0.231485 2.66588 0.646081 -1.68456 -0.899734 0.314359 1.81562 -0.0485208 0.0866018 
7.83803 -0.0725303 -15.3617 -5.88858 -6.21034 4.6661 2.66081 -21.2657 -2.78481 10.7371 12.4907 -1.36884 21.3128 -0.380899 -0.837282 -0.459901 0.483765 1.09784 0.148344 -2.29398 0.0954109 0.155406 -0.118497 0.196316 -1.5283 0.0171885 
7.15929 -1.10875 -14.2165 -4.03881 -0.658841 1.49757 0.207236 -18.2709 -0.911228 13.2317 12.0445 -2.69571 21.3659 -1.15195 -1.29046 1.33747 1.21586 0.715524 -3.15743 -3.09769 3.00086 0.522609 -2.14551 -1.78532 -2.31022 -0.152161 
4.24423 -4.74697 -14.4233 -5.1246 -1.94931 -4.61506 -8.88887 -19.2401 -2.11015 7.67986 7.16452 -9.57853 21.2041 -1.57398 -1.14687 2.902 1.80788 -0.272934 -4.59406 -1.93497 4.29473 0.417135 -4.2688 -2.88901 -1.73445 -0.193306 
3.17375 -3.88675 -9.35196 -1.54295 -4.96157 -8.56606 -7.59465 -9.47469 -0.0577884 1.89936 4.17941 -10.3105 20.6136 -1.54156 -0.79245 4.79365 2.28249 -1.69743 -3.68443 0.945524 5.24653 -1.04945 -5.56312 -2.70184 0.185826 -0.0549866 
1.9609 -4.41789 -3.28401 1.90289 -5.42365 -13.2724 -3.11309 -4.19018 -1.12586 -4.9407 1.9782 -6.23368 20.7225 -1.44211 -0.575314 5.96738 1.49751 -2.18461 -2.20348 2.78103 3.79396 -3.17312 -4.7463 -2.81951 0.853709 0.173478 
0.593176 -5.23554 4.18207 3.85988 -7.40881 -12.5959 2.04697 0.436779 -6.65064 -8.27364 1.12845 -3.43901 21.3318 -1.24559 0.0166503 5.97857 0.416845 -0.946859 0.757515 2.32081 1.20904 -3.38482 -2.16727 -2.66958 0.670009 0.255915 
-1.67604 -6.94915 8.64656 -0.338486 -11.6487 -13.6175 0.195484 -5.22607 -14.6793 -10.9651 -5.40757 -8.74574 21.7124 -1.16628 0.945677 5.09772 -0.37818 -0.399571 2.79108 0.262743 -0.421637 -2.34493 -0.952681 -2.64159 -0.0541451 0.155921 
-1.23572 -2.53787 14.5756 1.66196 -6.58332 -4.60592 2.35512 -2.91154 -10.2052 -5.92477 -5.47561 -5.70445 21.3982 -0.985836 2.06009 3.19761 -0.6512 0.683084 3.08901 -1.6704 -1.0228 -0.571541 -0.822717 -2.65589 0.0811064 -0.112753 
-2.95607 -1.03834 17.0078 1.11095 -7.83424 -3.312 -1.95345 -4.6242 -11.0733 -10.8785 -7.92772 -5.37169 21.4689 -0.794087 2.69011 1.93059 -0.173938 1.71076 2.6584 -2.09161 -0.244339 0.785932 -1.30081 -1.33739 1.29603 -0.201051 
-3.69599 2.10948 15.9895 -0.120835 -5.90062 -2.30365 -5.23055 -4.97815 -11.3114 -12.4305 -10.8909 -4.7205 20.8898 -0.778339 2.1219 1.16006 -0.213236 0.797419 0.855335 -1.85654 -0.800858 0.140055 -2.33069 -0.0579743 1.05898 -0.183575 
-4.41634 4.17775 17.5926 -0.316779 -3.43628 -1.47664 -6.46974 -5.41446 -10.1966 -14.2163 -9.38687 -2.75758 20.9613 -0.249188 1.75996 0.821819 -0.353046 1.52466 0.0846293 -0.607764 -1.15897 0.682739 -1.78352 1.04583 1.50678 -0.238355 
-4.39728 5.46359 20.0835 1.30964 -4.79521 -1.24692 -4.66944 -6.5207 -9.94325 -15.9093 -5.03591 -1.71662 20.7341 0.200594 0.703114 0.87427 -0.287458 1.11494 -0.0384128 -0.43971 -0.492029 0.550903 -0.64391 1.15661 1.64205 -0.160644 
-3.85137 6.0844 19.0699 -1.36952 -0.763628 -3.41722 -5.27282 -9.64775 -8.34362 -18.0567 -5.62608 0.660272 20.355 0.325858 0.00664531 0.652239 -0.243979 0.63637 -0.426888 -0.0207612 0.31106 0.55558 0.753141 0.343218 1.82455 -0.105501 
-2.9755 4.67172 19.6222 -1.03175 -1.66225 -1.52542 -8.02755 -5.32165 -9.48333 -13.7299 -6.98828 1.78081 20.3897 0.472416 -0.601929 0.479555 0.043982 0.175325 -0.404588 -0.24662 1.48257 0.367156 2.41696 -0.433715 1.76021 -0.0468277 
-3.49794 4.60691 21.0844 -0.365978 -1.82091 -3.47182 -4.89449 -4.45869 -7.64862 -11.5403 -6.69459 4.61644 20.606 0.81848 -1.53791 1.01111 1.17647 -1.18727 -0.456077 0.0137127 1.88178 -0.275627 3.7999 0.182879 1.16204 0.044116 
-2.21191 3.19269 21.474 1.02778 -3.38994 -3.24256 -6.0917 -1.70239 -8.45497 -7.08276 -6.67023 5.10634 20.3745 1.33589 -2.27298 0.577325 1.52142 -1.09489 -1.81017 0.175849 0.289502 -0.777406 3.32716 1.53969 1.19433 0.137405 
-0.140759 -0.865638 23.1995 3.48308 -5.83614 -4.83904 -6.17218 -2.04851 -10.2359 -2.38078 -4.87071 4.80772 20.5832 1.93467 -3.42732 -1.22224 0.460328 -0.916811 -3.74876 -0.426367 0.645086 -0.373221 1.9096 1.82862 0.662775 0.299659 
2.02536 -3.95692 21.4513 4.65083 -5.12909 -9.89269 -6.50946 -5.07923 -12.0767 -1.67384 -0.201763 7.65683 21.0882 1.90055 -3.69419 -2.93621 -0.11056 0.1286 -4.26005 -0.336968 1.74293 1.47522 1.94022 1.21554 -0.573512 0.341359 
4.05675 -8.95487 14.9846 0.124141 -5.53539 -18.8906 -6.81744 0.455165 -7.70386 -4.69679 -0.785706 6.65507 21.7474 1.62303 -2.76006 -4.80249 -1.43879 1.39281 -2.62835 -0.91138 1.99192 3.72532 3.32165 0.951048 -1.9907 0.16354 
5.19209 -11.2336 10.9004 2.15445 -2.89732 -17.517 -7.45392 5.76042 -2.3449 3.77637 -2.63504 1.3151 21.4991 1.25891 -1.16311 -5.84141 -2.38282 1.89915 2.05042 -1.37403 1.71079 3.07355 5.76009 0.870792 -3.76421 -0.12455 
6.39103 -11.0276 4.46254 -2.46266 0.0120144 -14.1686 -10.2569 2.49125 3.52476 11.5024 1.10117 -1.97494 21.1954 1.0798 0.452264 -5.58495 -2.84334 1.9159 5.78593 -0.26556 -0.575552 1.39448 5.44537 2.94401 -3.32546 -0.344036 
7.1528 -8.73612 -2.49472 -5.96987 1.59297 -2.00157 -11.6599 2.45668 -2.32325 19.027 3.20876 -6.84923 20.7414 1.42779 1.48628 -5.12589 -4.01389 0.309204 7.04934 1.38432 -1.93747 0.216138 0.683764 4.19131 -1.24847 -0.374244 
8.47539 -7.9423 -6.24255 -10.0304 1.79895 2.28135 -6.04224 -0.770724 -0.742286 14.9047 11.0125 -5.89006 20.4061 1.644 2.04136 -3.12424 -3.86786 -1.22375 6.85559 3.22981 -1.98967 0.192468 -3.24148 2.21983 0.516302 -0.37709 
11.2888 -5.34486 -9.37651 -14.1311 -2.24477 9.5047 -2.63964 -2.29592 0.869312 5.49401 13.3659 -2.96966 20.0226 1.19482 1.54602 -1.16291 -3.20094 -2.37868 4.31255 3.94245 -1.86736 1.31216 -4.88892 -0.384045 1.46967 -0.278047 
12.543 -2.51642 -7.71777 -17.7213 -4.18789 14.3562 1.38204 -5.08082 2.89081 2.06149 7.12177 -1.33321 19.6694 -0.028887 1.43218 -0.223951 -1.81256 -2.77648 2.44447 3.1189 -0.981446 0.622235 -3.18624 -3.27996 1.14297 -0.205274 
11.0931 -3.71898 -7.57166 -18.1291 -7.307 13.5237 4.34018 -4.72505 2.42099 1.00405 3.23388 -1.77928 19.7196 -0.746056 1.12887 0.0881038 -0.770295 -1.98866 0.335553 3.14178 -0.348718 0.126545 -0.455822 -3.96073 1.14442 -0.261494 
8.42884 -1.59433 -8.26473 -17.0942 -9.55231 12.4942 6.06237 -4.46339 1.59305 1.21854 -0.321357 -0.770413 19.5313 -0.526973 0.578949 -0.403832 -0.728698 -1.76305 -0.7145 2.952 0.152671 -0.0543468 1.06367 -2.59657 1.81592 -0.413326 
9.61565 -0.161578 -8.66251 -18.2962 -9.50584 12.1135 10.7291 -4.34822 2.15092 3.63637 -2.71621 2.47105 18.7842 0.228327 1.13322 -0.277675 0.775888 0.15094 -1.48292 1.82167 -0.126555 -0.205579 1.01369 -1.96187 2.60374 -0.805476 
10.6469 -1.40038 -9.1915 -21.2813 -11.9037 11.4888 12.9476 -4.50588 2.75412 6.06369 -2.88605 5.62122 18.0705 0.330013 0.349377 -0.494165 0.186904 0.354851 -1.77258 1.27838 -0.682794 -0.29934 0.893917 -1.2878 2.87186 -0.682165 
11.1257 1.85015 -8.49664 -12.1561 -5.37659 6.61182 10.0059 -5.33658 0.812565 3.64993 -5.29311 8.0436 16.4226 -1.20139 0.119887 -2.92081 1.67804 0.94183 -1.71839 0.0680905 2.25613 0.679192 0.0961558 1.86055 1.81469 -0.870148 
9.32389 -0.85331 -10.8185 -19.2297 -9.84268 6.38209 12.8158 -7.38318 0.765521 5.68135 -5.47192 10.8026 17.3012 -2.52521 -0.410992 -2.49561 2.59226 1.59744 -0.430193 -1.00659 2.68681 0.666183 -1.55837 1.89977 0.452372 -1.17551 
4.27017 0.164321 -22.4531 -10.9318 -5.82722 6.07486 11.1354 8.37106 6.54118 4.30832 7.87945 8.95381 14.818 -2.66229 -1.66602 -1.6065 0.739951 0.573882 1.17713 -0.651116 1.47615 0.541531 -2.45646 0.972492 0.0347441 -0.850741 
1.44856 -2.61243 -14.6913 -8.93217 -3.69122 9.60635 7.34988 2.07437 3.22073 -2.05733 0.02652 7.42797 12.9952 -2.26743 -0.0620878 0.0593492 3.15891 2.82596 1.32113 -0.283755 1.32141 0.630466 -1.53762 0.679262 -0.706895 -1.10721 
1.75189 -5.60038 -14.5927 -13.6051 -5.58291 10.8853 9.48333 -2.68461 2.29262 -4.76304 -3.17987 9.90465 14.3219 -2.27084 0.888096 1.93071 4.37774 4.00208 -0.276361 -0.42609 -0.613424 0.148461 -0.139258 -1.51236 -1.73071 -0.756769 
-0.75412 1.7186 -14.4519 -2.09849 4.16498 10.5825 12.2231 4.75168 6.04213 2.52894 3.45406 6.79274 12.0133 -2.56475 2.00494 0.37241 5.88084 3.17701 -1.70043 -1.19774 3.07247 0.874533 1.34861 0.53336 -2.31978 -0.37354 
-5.98268 2.43929 -12.9192 7.54011 10.2551 4.20498 6.56836 3.96529 5.87278 1.31889 -1.3961 0.617882 11.5251 -2.21621 1.26519 0.863108 5.7109 1.77898 -1.36279 -1.8696 3.94104 1.92718 1.40071 0.682439 -2.28841 -0.476811 
-7.50792 3.39245 -13.666 9.89941 4.27485 4.44435 2.81866 14.1118 5.80331 1.64477 1.80143 0.472476 12.5258 -0.874252 -0.659144 0.985719 1.32424 -0.566715 -1.10544 -1.74317 0.695456 1.80944 -0.278411 -0.0122701 -1.20109 -0.148819 
-5.95225 -0.111364 -10.6701 8.95042 3.25707 7.14046 4.83753 12.3405 12.048 2.68261 1.05863 1.62271 11.6816 0.226624 -0.798791 1.08599 -0.227026 1.02214 -0.0678066 0.472119 -0.422228 1.0609 -0.122045 0.900828 -0.166286 -0.197854 
-5.14059 -0.301792 -10.6479 3.81757 4.8304 3.58754 4.37267 4.04133 12.0018 0.455025 2.16534 0.284864 11.191 0.685718 -0.441177 1.23785 -0.381097 1.57068 -1.00277 0.852218 -2.49305 0.267897 0.261581 0.162702 0.240369 -0.267568 
-6.03322 0.292451 -8.99834 9.4459 15.088 4.29435 8.15194 6.88938 8.07804 1.30354 2.92609 -0.119743 11.2033 0.587119 0.42548 0.371232 -0.33988 -0.00112553 -0.843947 0.765137 -0.708719 -0.562446 0.890017 0.417875 -0.176496 -0.0543489 
-4.03884 0.98466 -8.31268 7.74618 6.21278 0.85354 5.42254 4.37213 9.12775 3.64222 1.68121 2.54555 11.4271 0.0360672 0.349424 0.276907 0.460478 -0.202977 0.802526 -0.0208667 -0.574409 -0.338062 2.1686 0.514751 0.491461 0.0590665 
-3.56753 1.37281 -9.98157 5.28672 2.56026 4.28773 8.13828 8.63154 10.6727 5.5391 3.39008 -0.390107 11.2917 -0.315676 -0.143678 0.977959 0.06716 -0.52527 0.745672 -0.619693 -1.50693 -1.14596 0.258232 -0.286378 0.48221 0.0339977 
-6.1931 0.905149 -8.77173 8.19955 10.0794 7.60349 4.27517 0.298202 9.0141 9.18023 4.5071 2.87735 11.4421 -0.496363 -0.432163 0.686415 -0.174091 1.04775 0.231683 -0.887792 -0.834576 -0.963929 -1.1873 0.347347 0.00768222 -0.0324811 
-6.53448 -0.386185 -3.87902 9.55501 10.5284 4.64774 5.62716 1.39167 2.40506 -0.174309 0.0812538 2.12541 11.3658 -0.369206 0.109235 0.299934 -0.65421 0.441129 -0.365909 0.223163 0.318232 0.142592 -2.66241 -0.425763 0.0708683 -0.0247259 
-5.03719 -0.296656 -7.93188 4.74158 7.46745 1.83195 2.23914 3.81918 8.44194 0.562411 5.07236 1.3262 11.2277 0.0167006 0.423144 -0.503907 -0.932114 -1.05304 -0.985236 1.2564 2.33117 1.50547 -1.76903 -0.48418 -1.24637 -0.0371452 
-5.99152 2.51989 -8.90182 3.74465 6.07187 5.34395 10.2721 8.46221 11.6718 -3.46406 0.978633 0.739809 11.2753 -0.268391 0.376103 -1.00374 -1.12694 -1.0588 -0.290091 0.931537 1.37825 1.72681 0.489394 0.141776 -1.78352 0.0335587 
-6.38107 1.56783 -8.77987 6.44416 7.04243 2.3292 8.23471 8.4188 11.9081 1.97997 1.63751 -2.6617 11.3016 -0.410929 0.121092 -0.11437 0.558786 -0.809866 -0.772021 0.702797 0.0780433 -1.41282 0.238343 -0.36802 -1.14294 0.0760535 
-7.20449 0.562088 -8.47371 3.06901 5.44689 2.94866 7.28706 5.98309 9.30604 1.56388 2.50756 -4.79824 11.4967 0.0892929 -0.244404 0.205329 0.963425 -0.666688 -1.85125 -1.37009 -1.48512 -1.93114 1.26032 0.306642 0.0435347 0.0430956 
-6.48535 1.28771 -8.71779 7.87333 3.73061 -0.830511 7.24565 5.44896 2.56069 -0.759844 2.4678 -1.61949 11.4973 0.102399 -0.330926 -0.104009 0.118807 0.222345 0.639886 -0.891073 -1.08118 -0.582406 0.335211 0.377122 1.18687 0.0220504 
-5.49292 1.43793 -7.90622 7.84719 4.39433 -2.33243 3.91618 2.52153 6.68978 4.20746 2.0967 0.436375 11.3929 -0.0632139 0.166946 0.0940371 0.224777 1.40188 2.1647 -1.05659 0.00355108 0.969445 0.340264 0.464521 1.55421 -0.00356235 
-6.72486 -0.524719 -9.58366 4.6491 8.68043 8.16917 5.46478 4.74367 10.3042 2.33424 3.72855 0.655362 11.4637 -0.350346 -0.438461 -0.178668 -0.428598 1.03577 2.00473 0.509342 0.896237 1.72719 0.911766 0.257445 1.33624 0.0161902 
-7.4008 2.30303 -7.57059 5.80501 9.98137 9.27231 2.89455 6.35349 10.2815 1.71816 4.19978 1.83537 11.4956 -0.0534622 -0.275318 -0.320283 -0.21123 0.674393 1.3814 0.557952 0.727695 0.0755446 0.472857 0.176813 1.03392 -0.00908632 
-7.28314 -1.33715 -9.77894 6.75143 6.11597 3.39079 10.3032 8.01417 9.40078 5.04363 2.70348 4.3622 11.5269 0.295008 -0.301435 0.324999 0.617656 -0.600012 -1.80215 0.786264 0.501948 -0.5718 1.54187 -0.734435 -0.827493 -0.0228014 
-5.48109 0.467556 -9.40999 5.73988 9.04853 6.96378 4.28675 4.52476 7.5192 5.21705 3.4933 3.75255 11.3159 0.345571 -0.661138 0.380325 0.494839 -0.763834 -2.09974 1.00077 0.378217 -0.34848 1.64025 -0.987419 -2.1355 -0.0199464 
-6.20968 -1.11415 -7.03896 7.76995 6.14679 0.312679 8.70001 8.16778 8.82634 8.29416 0.409618 -4.44069 11.4396 0.141833 -0.113572 0.785101 0.406711 -0.284011 -1.28073 0.120693 0.395023 0.0158253 0.957815 -0.76714 -2.5799 -0.00510368 
