-4.84175 -0.531935 -8.59004 3.17041 1.27518 -0.276505 6.49905 10.1161 12.2872 2.50003 0.437506 5.55488 11.2327 -0.169643 -0.68797 -0.274322 0.136441 0.892527 0.873039 0.145062 -0.261359 0.90375 1.07271 0.0520822 -0.847286 0.0243465 
-5.16199 -2.19581 -10.5984 0.208315 3.81185 2.03265 9.48009 11.2561 15.911 5.95039 2.14516 4.36647 11.2438 0.148774 -0.369194 0.095415 0.615238 0.401151 0.281141 0.308547 -0.204567 -0.294489 1.38364 0.394397 -1.20763 -0.00092783 
-5.52985 -3.13985 -8.95747 5.33367 4.46947 2.93411 5.73384 8.23928 14.994 6.13841 -0.155912 1.91265 11.3489 0.290701 -0.193946 -0.00187356 0.37205 0.0390554 1.28092 1.29886 -0.906044 -1.2033 0.878814 0.0273765 -1.20904 -0.0037344 
-3.75383 -1.07395 -7.92925 5.16498 1.68378 -0.47611 8.42439 10.0316 9.4613 7.59906 2.7062 1.33783 11.17 0.408937 0.655162 0.333844 0.778448 -0.411493 0.178776 0.522028 0.0146914 -0.272052 -0.582636 -0.351297 -0.891167 -0.0192855 
-4.09232 -2.06259 -9.93398 2.55233 2.53449 7.38248 13.5212 6.19808 9.49553 6.06977 0.293869 1.024 11.2509 -0.0831011 0.291674 -0.363478 -0.0159742 -0.158312 -0.0338352 0.674281 -0.0226407 0.339509 -0.333096 0.268287 0.680753 0.0252575 
-3.83606 0.541376 -8.44092 5.49122 2.72188 0.702347 8.19656 12.3501 17.3 3.07153 0.163789 0.35496 11.1963 -0.559065 -0.242991 -0.776165 -0.736208 0.22211 0.663515 -1.23772 -0.265165 0.475611 -0.682947 -0.123128 -0.136072 0.086606 
-5.90423 -2.48914 -10.519 5.09068 3.15886 2.17571 9.21916 6.96683 12.7722 6.7367 2.45673 5.80785 11.462 -0.513589 -0.186864 -0.166943 0.472384 1.30688 -0.367913 -2.52128 0.0206555 0.0152757 -1.31893 -1.4279 -1.4381 0.0987818 
-5.6432 -2.07563 -11.5176 0.214765 2.48214 5.44485 4.38682 8.32144 10.201 3.85086 1.00913 -1.73445 11.4975 -0.0551067 -0.022104 0.750326 0.111096 0.806746 0.253547 -2.01623 -1.93115 -1.86714 -0.807305 -2.17468 -1.7134 0.0999038 
-5.7567 -1.68841 -9.23038 7.55248 9.18875 3.17166 2.81964 8.31571 13.1214 -0.914554 -7.2683 -5.12179 11.5943 1.94668 1.91833 3.65865 0.272112 -0.0827262 -1.24712 -2.76789 -3.18965 -3.20491 -2.43569 -2.58862 -1.78408 0.214386 
-4.18536 0.0304904 -5.33361 4.8158 3.74066 1.47211 1.31517 2.01996 7.78969 2.86063 -5.84709 -2.74722 11.6297 3.32334 1.45665 7.52708 -0.983443 -2.20827 -1.76718 -2.70243 -3.05861 -5.18342 -1.56246 0.102402 1.31892 1.0339 
3.10026 6.04944 4.68223 4.15072 2.11597 -2.07353 -3.08445 -5.83068 -2.04672 -4.94664 -7.05828 -2.60615 12.4678 3.3442 0.719391 8.30313 -3.78514 -3.68056 -1.03743 -2.68469 -1.87765 -5.82823 0.104647 2.30513 2.09908 1.59563 
6.545 1.33872 19.1615 -3.00157 -5.0228 -0.768459 -6.17329 0.101562 -8.13198 -1.94539 1.41613 3.60232 16.2302 1.8921 -0.0965151 6.66038 -3.23357 -1.89601 -0.291578 -2.33056 0.66672 -4.02912 -0.186557 2.42982 2.30392 1.74293 
5.59913 1.25443 20.0377 -7.46453 -4.83231 -0.895201 -6.85956 -0.113354 -8.05891 2.01169 0.625737 2.19882 17.2722 -0.33575 -0.375292 3.40304 -1.84362 -0.0904716 0.533132 -0.832447 1.76772 -1.49574 -0.0307483 1.85257 2.69963 1.27947 
4.02571 1.94542 20.2906 -5.54445 -2.26524 -0.574948 -8.45008 2.4949 -9.34982 -1.55132 2.46003 6.36989 17.9422 -1.67539 1.42087 0.505911 0.913086 2.1258 1.28021 1.04532 0.418011 1.03762 -2.49294 0.681737 1.67384 0.357335 
2.68115 3.86963 21.1329 -3.79593 0.284832 0.495368 -6.10829 1.81126 -8.9165 -5.29741 1.68265 9.5082 18.0092 -1.34707 1.46005 -0.733292 3.45838 3.16258 2.14837 1.29555 0.623908 2.79944 -3.12376 1.30418 0.82196 -0.466528 
-0.37298 7.13547 21.1435 -0.270435 3.04761 4.93729 -1.32231 1.22931 -2.51506 -10.7555 4.29636 8.31684 17.6484 -0.428363 1.41241 -4.31501 5.12672 3.48079 2.17428 2.49914 -0.00258783 4.35819 -0.974244 -1.18625 -2.22726 -1.53826 
1.06314 5.95964 15.9448 7.19039 8.32416 7.09052 -3.9457 3.63898 2.52091 -9.00499 6.22845 5.33514 15.0864 -0.27957 -0.160565 -7.00883 4.26656 2.58125 1.75551 3.23991 -0.4591 4.43329 1.53523 -2.48804 -3.94989 -1.91418 
2.6929 7.96247 1.30962 14.596 11.119 6.9989 2.96432 1.5681 6.72241 -4.56875 -5.74411 -2.6799 11.7122 -0.898515 -1.7817 -7.84747 0.79243 0.231602 -1.19533 0.82101 -1.00021 3.65799 4.149 -1.34933 -3.22445 -1.5986 
-0.249635 2.6533 -3.99432 10.1037 9.15537 8.24211 7.94793 -0.653629 8.63123 -0.714648 -5.73734 -4.74286 11.4064 -1.71628 -2.23055 -6.07474 -1.48152 -1.41113 -1.25403 2.09805 0.718798 3.01926 3.74535 -0.289867 -1.97609 -0.775266 
-4.20917 -0.11984 -8.12431 2.23508 3.79002 -1.61518 -3.16408 -1.62542 12.7197 5.84428 3.53261 -2.76643 11.4954 -4.06013 -1.807 -2.12336 -3.93876 -1.1721 -2.4617 1.90787 1.2444 -0.620346 1.98947 0.758462 2.02403 1.35185 
-4.06723 -1.15197 -9.71198 5.96322 4.93302 5.12742 9.60876 8.82974 14.6186 4.51524 0.140759 -4.50207 11.3185 -4.56441 -0.0880537 -0.607325 -3.28534 -0.350184 -2.94162 1.81433 1.11158 -3.04755 0.0785097 -0.684262 2.97423 2.36021 
-15.6989 0.830099 -6.44833 -3.02763 7.36974 -3.75223 11.6733 3.04841 0.627008 2.76367 -4.89085 7.31987 18.5154 -3.44446 2.24834 -0.193434 -0.573848 3.44565 -0.351409 0.967811 1.07038 -3.71846 -0.965434 -0.294422 1.9786 2.33435 
-17.3268 1.73807 -7.86894 -3.69168 5.6146 -5.39747 9.60092 2.56738 -0.560157 1.21821 -4.94692 5.08513 19.6974 -2.13795 4.14109 0.689384 0.222829 4.70652 0.0533206 -1.76428 0.00681377 -1.24902 -0.316005 0.708116 1.67123 1.66638 
-14.8017 9.67686 -10.013 4.19329 20.6775 1.89022 1.6789 6.85767 1.71677 2.66563 4.60434 2.33297 18.9777 2.02092 4.58671 2.31324 2.65668 2.38052 0.607508 -3.74168 -1.38057 -0.42542 -1.63006 -0.230567 -1.30935 -0.0788162 
-15.2056 15.1301 -4.48272 3.4669 21.8118 2.5728 5.78452 6.95918 7.82859 2.98423 -1.06626 6.34753 19.4192 3.63035 1.81326 5.22197 1.85261 -2.16346 0.306265 -4.73661 -1.57787 -1.98927 -3.59136 -1.01444 -1.65121 -0.195563 
-6.65494 17.0676 3.42474 6.67649 11.1738 -4.69983 -5.12691 -6.05036 -5.69447 -6.26965 -7.98402 0.141898 18.2604 3.46716 -1.96439 6.16208 -0.399836 -7.96513 -0.563593 -4.8167 -0.481245 -4.231 -5.11437 -1.12079 -2.21016 0.238232 
-3.2484 7.10897 11.522 4.32979 -0.450867 -0.571118 -10.6792 1.13202 -6.80087 -12.271 -3.72493 -2.07537 19.0783 2.72565 -3.5184 4.34855 -0.837134 -8.20487 0.220985 -4.71266 0.794463 -4.96636 -4.24973 1.58909 -2.84593 0.42217 
-3.44448 3.86547 12.795 1.76267 -8.01686 0.644217 -14.1727 7.36502 -12.1235 -15.2786 0.329743 -4.5064 20.3394 0.761697 -3.12256 1.60457 -1.48457 -5.4991 1.07549 -1.80929 1.51664 -2.88187 -1.70957 2.60948 -2.04605 0.556227 
-3.18257 4.13922 12.5749 1.73814 -9.61725 1.0057 -13.2559 4.22381 -13.7887 -13.7599 2.72229 -5.55796 20.4906 0.152626 -0.802321 -0.353913 -0.866619 -2.73438 -0.0361867 0.0471561 -0.99194 -2.27121 -0.137307 1.48103 -1.84186 0.226487 
-2.87938 2.9397 10.9211 0.549458 -11.7385 -0.110798 -12.885 -0.0130749 -16.6099 -14.073 1.83975 -8.34703 20.3354 0.293126 -0.0976591 -0.45523 -0.216984 -0.904495 -0.144398 1.34868 -2.14515 -0.402559 0.819843 0.784419 -1.17625 -0.0620684 
-2.76783 3.56025 10.6894 0.603301 -12.2619 -0.374544 -11.0873 -0.138638 -15.9137 -13.5603 2.92525 -9.36434 20.2127 0.0816525 -0.340655 -0.618865 -0.338252 -1.12854 -0.791893 0.996276 -2.10466 -0.346438 0.0572223 -0.16163 -0.800692 -0.105424 
-2.18622 3.66666 11.4616 1.24517 -11.217 0.61235 -8.51361 -1.17952 -13.0738 -11.2792 4.15036 -8.48445 20.168 0.308559 -0.268503 -0.166763 0.645986 -0.975961 -0.331795 1.37364 -0.864725 0.655497 0.248085 0.623564 0.825127 -0.059318 
-3.12089 2.07246 9.21034 -0.300974 -15.5207 -3.31534 -10.4602 -5.71627 -17.289 -14.8707 0.758836 -9.49271 20.0472 0.84198 -0.775956 0.062911 1.60835 -1.28309 -0.475424 1.71149 0.0221112 1.90268 0.296767 1.40412 1.92406 0.0413536 
-1.16005 2.34108 10.8269 4.23152 -14.9889 -0.299377 -6.33039 -1.54788 -12.6448 -12.1774 6.04077 -4.15721 20.1215 1.27493 -1.78924 -0.336507 1.56513 -1.49851 -2.60551 1.24577 0.0216161 2.31976 0.151093 1.26436 1.64271 0.142818 
0.928985 0.343257 11.3213 7.15186 -16.7914 -2.2958 -3.62144 0.1561 -6.61479 -11.6274 9.00062 -1.90768 20.4427 2.09732 -2.29871 -0.780916 2.0023 0.234398 -3.89447 0.293156 0.798873 4.6611 1.94981 1.65967 1.88551 0.227075 
2.16347 -4.41493 8.72357 5.34442 -18.0742 -12.925 -5.70414 -4.00763 -6.81206 -12.1454 6.35127 -4.06341 20.6843 2.51259 -2.88359 -3.33496 0.0353318 1.68765 -3.98693 -1.65235 -0.62807 5.30697 3.06353 -0.455976 0.971791 0.250897 
5.70396 -6.0431 6.3574 9.15406 -12.8061 -16.4749 -9.30754 -0.492037 3.10016 -5.13766 8.90194 -0.112082 20.9012 2.6031 -2.15699 -5.20135 -2.1631 3.30625 -1.00972 -1.78236 -2.31446 3.79396 5.20369 -1.82244 -0.0235659 0.14876 
9.01542 -8.88369 -3.36596 3.40708 -8.54335 -13.1445 -11.7491 -4.36416 9.03257 -0.104609 3.81023 -0.19605 21.1468 2.27509 -0.194811 -5.23067 -3.9908 4.07444 3.50213 0.742986 -3.07308 0.254125 6.64197 -1.75108 0.266842 -0.0242174 
10.5185 -8.20729 -8.64067 -2.69495 -5.02559 -7.23464 -9.51076 -11.2379 4.43271 8.37066 1.15894 -3.95919 20.9552 1.1767 0.779368 -4.29326 -6.0978 2.14545 4.56983 2.65441 -3.78397 -5.05853 4.61016 -3.26745 -0.425321 -0.146106 
11.1317 -4.30689 -9.93076 -8.68506 -1.59224 -0.034441 -1.88759 -14.0001 -6.20772 14.3103 1.46737 -0.805647 20.5362 0.599707 1.60827 -1.64559 -5.25619 0.484707 4.25394 4.22678 -1.84107 -5.70361 2.14971 -2.54788 0.550387 -0.190408 
10.5293 -4.43466 -11.8265 -15.2889 -5.55441 -0.180787 -0.966242 -14.594 -14.5724 10.7057 -6.2639 -1.93389 20.4759 0.511103 1.23124 -0.249191 -3.57704 -1.17955 3.27158 4.09824 -0.122935 -3.18397 -0.810998 -1.70198 1.42079 -0.128349 
12.0085 -2.72867 -10.001 -16.5769 -5.8554 4.59829 5.11256 -11.8915 -9.98293 9.4764 -5.21774 1.54324 20.4344 0.417169 -0.00351195 0.110101 -1.72596 -1.6904 2.1414 2.19459 -0.107052 -0.395036 -2.34247 -0.59239 0.679738 -0.0402067 
12.6356 -2.84021 -9.85152 -16.6342 -8.79175 6.80689 7.48033 -12.9069 -9.59954 6.7326 -4.00839 1.97032 20.3644 0.638917 -0.454689 0.554875 0.494921 -0.291776 2.3407 0.801841 -0.685337 2.11113 -1.57017 2.05355 0.568456 -0.117997 
12.1644 -5.12167 -10.3677 -16.6422 -8.42557 7.1787 4.86208 -15.3789 -10.6693 4.58447 -2.62234 0.640936 20.3909 0.523722 -0.957273 0.786544 1.64884 0.762824 0.580186 -1.40974 -0.565939 2.32388 -0.299861 2.84167 -0.474952 -0.208971 
13.646 -5.51161 -8.86873 -12.7816 -5.72821 10.2325 3.1682 -16.277 -3.67351 5.3008 2.70616 1.35954 19.9077 0.302083 -1.15316 1.56521 2.05841 2.08967 -1.63157 -3.10474 0.432447 2.30531 1.53742 2.6565 -1.21448 -0.241343 
14.1219 -6.17934 -6.55966 -10.259 -3.57305 5.7864 0.219929 -13.0362 -1.32654 8.693 5.63335 -0.526135 19.6179 -0.133188 -0.910349 2.92058 2.36172 2.33336 -4.11552 -3.50107 2.20294 2.32189 2.80871 1.21733 -1.41345 -0.190651 
13.1672 -8.07717 -3.9295 -9.53374 -0.769678 -0.654824 -5.7223 -11.916 -2.74436 12.3654 5.14628 -3.51853 19.5442 -0.951886 -0.769248 4.14105 2.60389 1.13672 -5.76285 -3.07335 3.58814 0.855706 1.54704 0.0616559 -0.810029 -0.0454229 
11.7378 -8.39063 1.76553 -6.45753 0.761988 -7.95521 -8.19802 -6.54462 0.475582 15.0957 2.24423 -3.98728 19.6194 -1.61469 -0.362869 5.2708 3.08261 -0.677876 -5.60502 -1.39805 4.20717 -0.834902 -1.27051 -0.303536 0.789637 0.0633051 
10.0786 -8.2522 7.67391 -1.66291 -2.21211 -11.7109 -7.98958 -1.58203 -0.296041 9.83467 4.709 -0.960028 19.6798 -1.97746 0.325335 6.07001 2.81303 -2.30141 -3.01032 0.889273 3.54764 -2.44651 -2.97385 0.121674 1.57104 0.110185 
7.5928 -7.90617 13.9926 1.2186 -6.24122 -16.7107 -5.63669 2.83269 -6.72521 3.60582 4.33431 2.1428 19.8666 -2.26949 1.09246 5.44893 1.46817 -2.37922 0.0581012 1.81602 1.42723 -3.01643 -3.58929 -0.336323 1.09345 0.00911503 
5.35244 -6.69273 20.307 0.693359 -8.77513 -11.3287 -2.55659 1.13351 -11.3765 3.24109 4.70961 1.27163 19.9715 -2.12778 1.66415 4.17784 -0.200071 -0.683897 2.21242 1.41644 -0.0560987 -2.12646 -2.29908 -1.46498 0.0549988 -0.195123 
2.7535 -3.70805 22.6936 -0.294826 -7.8526 -7.85581 -1.83439 -0.766258 -9.06631 0.446029 0.562317 0.364157 19.5191 -1.38835 2.11444 2.40355 -0.467845 0.943831 3.50083 0.340626 -0.54858 0.251435 -1.20479 -1.33806 -0.740946 -0.641482 
1.85939 -2.03051 24.2126 -1.90656 -4.8259 -5.07622 -2.80855 -0.0630562 -9.75779 -0.0808504 -0.72991 0.204288 18.8779 -1.02833 3.12716 0.142257 0.444593 2.51256 2.39119 -1.00221 -0.0962205 2.8979 -0.927063 -0.689837 -0.215863 -1.14206 
2.39757 0.334905 24.0576 0.179328 -3.49668 -2.33274 -3.80758 0.688068 -6.2774 -0.757147 0.363752 -1.02826 17.206 -0.83921 2.97027 -0.716401 0.227668 2.87544 1.32067 -1.52577 0.166266 1.22316 -0.964102 -0.360653 -0.581733 -1.08913 
0.38873 6.92161 20.3363 2.67925 1.60971 -2.1343 -6.58102 -0.0747545 1.71853 -0.792638 1.35971 0.888525 15.4178 -0.988095 1.89187 -1.06937 0.534491 3.41839 0.455858 -1.68315 -1.36732 -1.3968 -1.4628 0.326899 -0.132868 -0.814283 
-0.707229 6.66725 21.0498 -1.44939 3.30677 -2.72343 -7.57699 0.0709217 -8.68866 -4.01859 -2.28575 -2.88663 15.8035 -0.941584 0.657731 -3.60331 0.763218 2.44964 0.826944 1.19637 -0.693126 -0.166957 -0.914543 -1.87461 -0.938313 -0.902339 
-1.52869 4.26265 20.3696 1.58026 8.86433 -2.60159 -9.33961 -6.59107 -15.5361 -5.76414 2.22934 0.469131 15.5077 -0.683791 -1.39259 -6.21894 -0.883063 0.661142 1.07114 2.47015 0.380857 0.881115 -1.41691 -3.05569 -1.35506 -0.921557 
-1.35163 4.95304 6.02438 4.54492 5.12421 2.03562 3.55358 0.480595 1.51514 -2.84411 -9.44412 -5.51013 12.6493 -0.791514 -1.66035 -5.99144 -1.23843 0.717473 1.65322 2.3016 0.773731 2.71379 -0.711283 -2.38832 -0.366338 -0.666537 
-2.70802 0.815754 -3.2457 -4.73322 4.0067 0.841892 0.204449 1.6247 1.0222 -8.46441 -10.3395 -4.57502 12.3871 0.746477 -0.384005 -5.03092 -0.843573 0.00874539 0.807307 1.10557 -0.333006 0.85946 -1.53319 -2.35306 -1.01784 -0.572106 
-4.07513 0.0889602 2.90025 -4.48479 9.32295 3.82091 -0.841011 -0.168308 -3.39887 -6.22486 -7.94292 -2.19624 14.0311 1.47442 0.220979 -2.49174 0.495035 0.320888 -0.495001 -0.708134 -2.87165 -2.73709 -1.41767 -0.103241 -0.522273 -0.173568 
3.56544 4.77467 -3.22287 1.87724 6.80869 0.542305 -1.61448 -7.93165 -8.78183 -11.7397 -10.2866 -6.27702 11.9563 1.23275 -0.0313451 -2.65829 1.74653 -0.415418 0.360147 0.981556 -1.00138 0.541799 1.30241 1.64844 0.249466 -0.31328 
2.88371 4.07848 -6.44574 3.71486 5.32766 -0.289586 0.922372 -9.09947 -7.26828 -8.2948 -9.9868 -7.27048 11.9969 0.587978 -0.686714 -3.51837 0.480644 -0.807909 1.13001 0.717716 0.178256 2.28131 2.39448 2.05374 1.54217 -0.423328 
-0.0236864 -1.33573 -11.8642 -0.100408 3.92725 4.69787 4.23054 1.08339 5.6659 -0.917388 -1.07541 -0.790565 11.8378 -0.996433 -1.53594 -1.98513 -0.987545 -1.38261 1.59181 1.87859 2.48953 2.40668 2.25952 3.20263 2.81096 -0.0080699 
0.659324 -0.289412 -10.371 -1.09274 6.72412 7.39317 -0.174941 -3.78455 0.783808 0.336372 -2.27978 2.7714 11.9737 -0.979066 -1.45468 -1.56289 -1.53611 -1.82823 1.35875 2.61421 2.40665 2.22849 2.49124 3.64238 2.59737 -0.032675 
-0.304524 -0.721076 -11.1859 -0.656682 -0.802599 4.65999 8.32711 1.85854 -0.774489 -4.75768 1.87305 2.75682 11.9275 -0.564215 -0.361797 -0.963389 -0.729666 -0.242088 -0.21106 1.99235 0.71158 0.938258 1.33837 0.690244 0.768645 -0.0116273 
-1.87119 -3.50223 -14.5993 -3.68754 -1.44856 6.52309 11.9451 2.54618 7.09439 6.08153 6.75086 3.94267 11.7887 -0.492928 -0.52138 -1.41579 -0.519676 -0.0256093 -0.603572 1.92437 1.25833 2.71997 2.15963 0.201585 0.314428 -0.0459794 
-1.5795 -1.53831 -14.5669 -2.45134 6.80315 4.07762 8.13227 1.47593 7.2019 2.9019 -2.13951 2.46702 11.8722 -0.354831 -0.727274 -1.30455 -0.383971 0.890909 0.148014 0.279792 1.44868 2.52809 2.57458 -0.887865 -0.637386 -0.0476731 
-1.16783 -2.48769 -15.7594 -2.79379 2.7932 4.6665 9.54434 2.69843 10.3955 7.30471 0.73442 4.48844 11.7715 -0.207311 -0.342011 -0.0904702 0.626723 -0.316115 -1.1145 -0.163274 1.3132 0.946885 -0.192129 -0.685228 -1.17549 -0.0656012 
-2.43036 -4.86471 -17.1286 -3.02341 1.53107 6.32835 10.9265 9.02582 10.2154 7.50363 0.441946 -0.70299 11.6977 -0.378441 -0.402658 0.458321 0.796651 -1.26945 -1.04321 -0.934919 0.547742 -1.01747 -0.459428 0.868385 -0.324886 -0.117757 
-2.48232 -3.54908 -13.7708 -0.267889 -0.393091 -0.174803 9.73167 5.33725 10.3221 2.82002 2.03399 -0.349773 11.5479 -0.568022 0.430807 1.2697 1.16779 -0.148635 -1.55436 -1.4342 -0.674985 -1.77374 -0.637084 0.092443 0.545182 -0.0827085 
-2.81446 -3.02091 -13.2696 0.268964 2.04903 1.2822 3.36401 2.89523 2.15124 2.84711 1.55263 3.2617 11.3952 -0.355156 1.26054 1.1408 1.10512 0.236215 -1.08434 -0.935093 -1.09989 -0.512878 0.150541 -0.599762 0.958304 -0.0545146 
-3.81589 -1.25556 -11.3404 1.39895 1.79104 -0.582208 6.15458 2.3888 5.55887 6.44755 0.641292 5.232 11.5092 -0.502404 1.08689 1.5025 0.833753 0.544576 0.20224 -0.548869 0.00440539 0.689737 0.991807 -0.176066 -0.102403 -0.0440406 
-3.53936 0.291208 -12.6398 1.66875 1.62008 1.11034 8.03956 5.00058 10.0326 6.44257 -1.86051 1.29764 11.4445 -0.178301 0.516352 1.40399 0.528276 -0.055803 0.365229 -0.81616 -0.231437 1.95067 0.0261342 -0.343144 -0.962333 -0.039778 
-4.63189 0.229304 -6.57322 3.20098 2.54427 0.922325 4.64955 4.3066 9.83005 5.98132 2.86024 0.120242 11.3031 -0.0834037 -0.0752489 0.675421 0.458126 1.02776 0.718908 -2.49911 -0.446868 0.60907 -0.900186 0.0654751 0.629061 -0.0329722 
-3.29797 -1.18158 -8.63331 2.00933 1.39341 2.35608 0.0357232 0.779142 9.76898 3.2109 -1.27256 1.00591 11.2994 -0.159633 -0.292347 0.292164 0.449872 1.17272 -0.0423339 -1.2682 -0.714174 -0.495174 -1.49032 -0.71668 1.2998 -0.00533781 
-4.3536 -0.895413 -9.96658 3.51929 7.04317 2.38947 -2.33904 2.26517 8.73604 3.56246 0.67469 8.52317 11.4169 -0.44542 -0.214421 -0.732718 -0.214053 -0.0368124 -1.14892 0.932751 -0.126949 -0.574019 -1.15191 -0.61732 1.27675 0.0565909 
-4.47667 -0.60817 -9.48232 3.75895 5.23424 0.165102 5.19286 2.45042 8.10376 0.200387 -4.35114 3.59515 11.3609 -0.785939 -0.0129944 -0.220373 -0.377023 -0.851061 -1.8282 2.24718 0.468518 -0.489629 -0.480321 0.580921 0.509318 0.0650039 
-6.26964 -1.12951 -9.81231 1.25591 0.439792 -3.72679 6.73474 2.83621 7.79257 1.72702 1.31293 5.20939 11.5552 -0.562505 -0.098952 -0.00214453 -0.702982 -1.80012 -1.61244 1.96894 0.152788 -0.219813 -0.214426 0.694054 -0.501332 0.0471036 
