-3.93557 -0.0261908 -8.18518 3.51693 6.99657 3.36548 5.23678 2.96415 10.1711 9.6144 2.85183 1.88951 11.565 0.191998 0.357578 0.428068 0.859641 -1.03747 0.344633 1.04835 -0.58138 -1.5206 -2.58956 -1.24786 -0.612103 0.0371891 
-3.52724 2.03965 -5.67987 8.33641 5.61804 6.34269 7.17007 -1.8328 0.27704 -0.660008 2.64755 0.703866 11.6022 0.237984 -0.139033 -0.165155 -0.0147345 -1.3979 -0.324259 1.06434 0.144081 -0.116677 -1.49873 -0.928063 0.00493515 0.0139701 
-3.17975 0.728778 -7.29749 5.40539 2.49848 3.60004 9.51191 2.45572 7.51515 1.8038 -3.28535 -0.578179 11.7323 0.578694 0.362498 -0.551834 -1.68421 -1.43947 -0.274124 1.34986 2.25023 0.330526 -0.72274 -1.39672 0.114346 -0.0336599 
-3.12357 -1.09884 -9.4548 2.49902 2.25612 1.6269 8.42092 3.93877 10.9157 6.02606 1.2801 3.14803 11.5512 0.484522 0.0235097 -0.743791 -1.33711 -0.775825 -0.854713 0.804102 2.38895 0.927021 0.732761 -0.340301 1.00942 -0.0189555 
-1.24394 3.35554 -9.05688 -1.98541 1.48018 4.35275 11.3607 11.3295 6.50441 2.65766 -3.44804 1.23916 11.4222 -0.0141628 -0.315299 -0.438098 0.31247 1.21229 0.530372 0.0797776 0.740376 -0.386953 0.921642 1.60777 0.948244 -0.00381298 
-2.07253 0.843813 -8.51913 5.34625 2.24806 1.69277 10.2662 5.67508 5.41751 2.57687 1.02739 4.84227 11.6625 -0.229803 -0.419121 -0.384663 0.409425 0.982738 0.559783 0.164353 0.189804 0.548219 0.140408 0.868558 -0.739025 0.0400393 
-3.77608 -1.81904 -9.95581 5.54412 8.56396 6.21896 8.98816 5.28944 8.32948 8.13661 4.87985 3.31592 11.6576 -0.407723 -0.79552 -0.570787 0.353415 0.226214 -0.253844 -1.21602 -1.00658 1.59951 0.0402513 0.856433 -0.937338 0.011988 
-3.00651 -0.607152 -10.9286 0.781382 3.62792 3.49271 10.4289 7.90782 12.7443 3.98863 1.45894 -1.58547 11.6337 -0.166064 -0.316443 -0.225691 -0.321443 0.2178 0.0872961 -1.2942 -0.782924 0.490467 -1.43457 -0.140325 -1.26784 -0.0181964 
-2.81557 0.103429 -10.7061 2.0641 1.92132 2.18356 5.19922 5.18022 10.8386 2.15304 0.618349 -0.233661 11.4966 1.45269 0.998128 3.74436 -0.321488 -2.04171 -1.02461 -3.40465 -2.44032 -2.10879 -2.74268 -1.89588 -0.185329 0.295566 
-3.38311 -1.69964 -9.27246 5.47905 6.65839 4.14695 5.68968 1.81508 6.6153 -1.60418 2.45652 0.277843 11.652 2.18893 -0.443875 7.92381 -1.24267 -3.14969 -0.227925 -5.89148 -1.42231 -6.54097 -1.81379 -2.52327 0.84674 1.48764 
3.67569 3.71784 7.93791 1.58785 -3.15984 0.768804 -5.66547 -3.86581 0.850035 -2.78041 -5.09836 1.45762 13.1263 2.49883 -0.867869 8.79189 -2.41552 -4.16747 -0.208105 -5.38444 0.379175 -6.68668 -0.740177 -2.36889 1.21408 2.05842 
4.69251 -4.63373 19.3684 -5.19385 -9.57997 3.06046 -13.5961 5.3193 -14.9663 -2.61362 -8.29903 1.80259 18.257 2.09502 -0.271005 7.33858 -2.9136 -3.87472 -0.222605 -3.55449 0.745821 -4.94299 -0.0729043 -2.08712 1.83203 1.85025 
5.64076 -2.76887 18.933 -4.67705 -10.7969 1.68628 -12.0801 5.32398 -11.804 -1.04313 -5.8483 5.07438 18.4862 -0.0813256 0.976559 2.59596 -0.652481 -0.902537 0.339327 0.034657 0.360815 -1.72688 -1.00763 -0.338448 2.22621 0.967371 
6.10947 0.188696 21.9229 -5.95648 -8.89671 2.57519 -8.87547 0.949286 -11.7726 -2.83734 -7.60411 7.62963 18.2233 -0.975461 3.39921 -0.618504 1.54671 2.59717 1.5612 1.76155 -1.99182 1.89386 -1.98963 0.288632 2.27539 -0.314235 
2.56058 6.18942 19.6404 -1.29324 -8.01416 2.70808 -7.85252 0.123268 -9.38118 -7.70667 -7.13806 9.67515 17.98 -0.53602 2.46325 -3.0061 1.70863 4.4369 2.74943 2.96457 -1.29729 1.51039 -1.72567 1.88032 0.516501 -0.965799 
1.35529 7.88318 15.9221 0.847786 2.01454 10.3556 -6.90215 -2.03946 -6.70839 -9.22998 -6.21099 10.8791 16.939 0.265761 1.07116 -4.66843 2.3008 4.91538 3.02026 3.56639 0.43463 1.54383 -0.230423 2.74778 -1.55715 -1.37161 
5.33775 5.70013 6.90283 0.463941 5.932 11.5432 1.75614 0.331924 -6.78418 -6.47518 2.85672 6.03212 14.2993 1.14213 -0.610616 -4.64176 2.70368 3.71138 1.87175 4.91836 -0.0264798 0.0586293 0.623191 1.80996 -3.09 -1.42674 
6.04969 5.78913 4.94959 4.66891 8.7071 13.2589 4.15213 3.01811 -5.35197 -4.6052 1.1374 1.6654 13.2056 -0.675028 -0.72423 -3.33015 1.71243 2.04565 -0.971385 4.31355 0.877736 0.263284 1.1052 1.00187 -3.79283 -0.72648 
5.92402 4.18336 1.91794 10.3146 7.19649 10.6152 11.2121 -2.53792 -9.76625 -6.90311 -1.76248 -1.16797 12.713 -4.32727 -0.884598 -3.41258 -0.474619 1.97766 -1.95207 0.39119 -0.845897 2.17538 1.58401 -1.44113 -2.88857 0.787466 
-2.31298 5.02041 1.76381 4.4846 11.6105 5.96268 9.93764 3.78414 -3.90093 -3.49 1.10796 -4.48494 14.0998 -5.60895 -1.32309 -4.29037 -3.55247 0.903831 -2.74306 -1.89393 -0.928331 3.12264 1.86405 -0.929348 -0.97669 1.63579 
-12.1173 1.6615 -8.56717 -1.817 14.3686 5.43099 0.819346 -4.28058 3.3672 0.887248 -4.33419 -5.33558 17.7896 -4.84874 0.682402 -3.18509 -3.79427 0.642787 -2.28422 -2.8843 0.342181 3.55109 3.18547 0.736993 1.70438 1.71084 
-12.9744 0.434608 -11.2597 -7.02766 9.64021 2.13568 -0.12113 -0.752217 3.69452 0.81988 -2.22348 -1.13425 18.8462 -1.87948 3.0486 -0.771279 -1.72516 0.834695 0.347192 -0.267793 1.88313 2.39635 1.54108 1.55445 2.44858 1.14187 
-12.989 9.88828 -7.49577 -2.90065 11.3956 1.10757 1.82 1.44117 4.19147 6.86928 3.58821 5.67859 18.8939 0.895676 4.32947 2.4703 1.45485 1.8217 0.919707 1.39799 3.70145 1.59048 1.2883 3.90448 1.81395 0.352282 
-11.2745 16.15 -2.62829 -3.59938 17.2705 9.86035 8.09834 10.3389 7.66868 1.22441 4.91903 2.2509 19.2569 1.88447 3.76891 3.9831 3.15011 1.89054 -0.930259 -1.00199 1.2006 -0.348436 -0.776137 1.36453 -0.296151 0.185539 
-8.48884 15.4512 -0.531392 3.7431 19.6619 6.16719 3.69958 8.6811 9.3325 7.12648 11.6169 2.04159 19.3456 2.62837 -0.101331 4.20602 1.87102 -1.81223 -1.82165 -3.06477 -1.65942 -2.69126 -4.26274 -1.16015 -1.91731 0.147557 
-5.80211 16.4977 5.17362 5.401 14.9598 -5.04542 -6.07085 1.63081 -0.618176 -3.1894 0.584778 -0.796508 19.548 2.12799 -2.71694 4.12744 0.682682 -6.25781 -2.65165 -5.49261 -3.34233 -5.51046 -4.81601 -2.5334 -2.19343 0.278157 
-2.58334 9.20775 9.63339 1.95426 3.4898 -0.547787 -6.41924 -2.50189 -5.12137 -12.2375 -0.0454266 -2.38426 19.4862 1.29657 -3.52455 3.50952 -1.12022 -7.71001 -1.19986 -4.61107 -3.00323 -5.90239 -5.12549 -3.35424 -1.83145 0.485304 
-3.58732 5.68699 12.9265 0.70845 -5.93247 -0.0404053 -14.3053 -0.781215 -12.6567 -13.1736 -1.91677 -6.50332 20.5775 0.620071 -3.44955 2.08754 -0.896729 -6.32826 0.286607 -2.3283 -1.50464 -3.44837 -2.10877 -1.04983 -0.580742 0.604006 
-3.11338 3.23378 13.1398 0.488283 -8.44203 -2.33461 -15.2385 -5.12905 -14.1602 -13.5089 -3.90349 -4.26224 21.2575 0.137378 -1.96205 0.700838 0.133783 -3.68029 -1.27758 -1.02233 -1.34673 -1.9781 -0.365295 -0.576715 0.0769103 0.570307 
-2.43674 2.23699 13.8581 1.65034 -10.7156 -2.71898 -13.3027 -4.57883 -13.3406 -13.0976 -2.73535 -2.76123 21.6824 0.406313 -1.13837 -0.133362 0.688826 -1.71787 -1.38692 1.4723 -1.39193 -0.300129 0.287452 0.355768 0.792475 0.306277 
-2.47174 1.1225 12.6718 2.15223 -12.5201 -5.59642 -12.0322 -7.33673 -14.6699 -14.102 -2.51971 -3.87076 21.7852 0.754252 -0.838652 -0.650198 0.875553 -1.10608 -0.718071 2.83549 -0.455419 0.334068 1.41317 1.14661 0.511941 0.137568 
-1.87658 1.0508 12.4937 3.3206 -12.4828 -5.3441 -8.54696 -6.63703 -13.9025 -11.4398 -0.829814 -2.73669 21.845 0.980663 -1.40676 -1.81706 0.0603261 -1.50252 -1.49972 2.85004 -0.819931 0.157799 1.5573 1.00246 -0.470148 0.0187939 
0.377796 -0.366379 10.571 4.03092 -13.0888 -4.6124 -3.43895 -6.37704 -12.2089 -7.27191 0.876819 -1.71481 21.864 1.39608 -2.04118 -2.61533 0.0144319 -1.10049 -2.29411 2.54731 0.538552 1.90425 1.36112 1.05588 -0.844472 -0.0745016 
1.04181 -4.05235 5.82324 1.01263 -17.9438 -10.7096 -3.34913 -9.15832 -13.7821 -8.72614 0.578707 -6.18994 21.737 1.60029 -2.58791 -3.85373 0.258685 -0.23896 -3.37837 0.800194 1.74556 3.9182 1.02577 -0.363694 -1.46485 -0.136507 
3.04947 -6.53181 2.93036 3.37838 -15.292 -14.3842 -1.89454 -3.38332 -5.20884 -8.65326 2.05541 -6.36649 21.4667 1.43597 -2.00782 -4.99614 -0.189815 1.313 -2.73282 -1.5925 1.22116 5.02537 2.67078 -1.61046 -2.51227 -0.187627 
4.78906 -8.80603 -2.95465 4.9403 -12.576 -17.35 -5.31819 0.593916 2.1885 -5.62029 -3.23758 -7.73512 21.3611 1.53327 -0.0195265 -4.81065 -1.02633 2.83736 1.04675 -1.29534 0.232466 4.33405 5.95062 -0.428941 -1.42839 -0.183005 
5.68402 -8.02865 -10.0208 1.11801 -9.20772 -14.9563 -10.4169 -5.14734 4.93263 4.52909 -5.26736 -13.5035 21.1138 1.49512 1.89476 -4.23214 -2.90097 2.65524 3.2839 -0.222534 -2.21802 0.760011 7.55928 1.11963 0.308038 -0.0642687 
7.39088 -3.40156 -11.7545 -2.98881 -6.79918 -5.18983 -5.56461 -7.11398 2.81741 14.4358 2.09539 -9.76336 20.9984 1.43806 1.99051 -2.49422 -3.01101 2.09541 3.71669 1.44406 -1.8497 -0.735259 5.80061 2.97244 2.89878 0.0884451 
9.22416 0.239729 -13.8304 -7.16192 -4.90421 -4.04484 -2.884 -10.6195 -1.72324 19.1151 4.98707 -3.81218 21.3267 1.15179 0.399543 -0.72165 -2.04651 1.16282 2.34568 1.77829 0.475604 -0.4376 -0.0107036 3.36787 4.20536 0.222902 
10.2093 -2.98767 -13.5209 -5.97479 -4.2507 -4.22231 -1.86434 -5.91852 1.84014 16.0897 6.4974 1.91308 21.6969 0.757506 -1.08524 -0.153172 -1.16003 1.09754 0.32346 0.62434 1.03014 -0.354961 -3.45954 1.5275 3.16042 0.20738 
10.0337 -6.23788 -12.7458 -7.62155 -4.66785 -3.71163 -3.37564 -3.36706 3.23327 3.64859 9.37098 1.68503 21.8791 0.322536 -1.84941 -0.202916 -1.68272 1.16847 -0.170568 -0.270984 -0.988709 -2.04501 -3.08798 -0.266459 0.728456 0.0653025 
10.7736 -5.58895 -13.0627 -8.55913 -1.42963 -3.73914 -2.19709 -5.58952 -1.43565 4.87135 7.54096 3.29016 21.7591 0.182607 -1.16307 0.35157 -1.94282 1.44535 -0.0868468 -0.2307 -3.54386 -2.09539 -0.540941 -1.23012 -1.03335 -0.126764 
10.5547 -7.70668 -15.0742 -14.2833 -0.472404 -5.13927 -4.07254 -15.7275 -10.3104 9.28441 3.133 -0.858443 21.6221 -0.17914 -1.08482 1.19503 -1.34551 0.875805 -1.52083 -0.522819 -3.81895 -1.03357 1.23068 -2.99643 -2.37548 -0.239955 
10.8618 -8.06863 -10.5989 -12.358 0.878334 -3.94272 -2.66938 -17.4576 -1.86498 10.5671 3.4658 -1.98196 21.1916 -0.608099 -1.21882 2.73221 0.557616 -0.361278 -2.55993 -0.554776 -0.137632 0.793257 -0.195522 -2.98832 -1.74697 -0.24956 
9.09393 -10.4221 -8.00253 -12.4497 -1.44281 -11.214 -5.75359 -16.5278 -1.71993 6.9541 -3.5736 -7.55629 20.9631 -0.87476 -0.826726 4.49242 2.83953 -1.92284 -2.8063 0.157599 3.96757 0.990737 -2.74676 -1.88835 0.307766 -0.136337 
8.4635 -10.3253 -2.9374 -6.68787 -2.75082 -13.5014 -4.13045 -5.87756 -1.76461 5.0589 -4.04735 -2.09574 20.8408 -1.20845 -0.218589 5.49285 3.3405 -2.99861 -2.08636 0.857586 5.00535 -2.00759 -4.07351 -0.52196 1.56156 0.0866434 
7.38005 -10.712 3.55721 -2.9207 -8.27205 -14.3914 -2.55402 -1.67969 -5.40692 -1.69529 -2.55219 0.737279 21.1158 -1.26913 0.840766 6.42417 2.76539 -2.7411 0.37689 1.69521 2.7937 -2.47377 -3.48671 1.55216 1.76168 0.168509 
5.67653 -9.01666 11.0855 -0.419973 -10.7001 -12.7858 0.0187593 0.145135 -10.0594 -5.47573 0.3453 1.67907 21.5484 -1.42324 1.63232 6.06132 0.906765 -1.6122 2.17938 0.420108 -0.306944 -2.33519 -2.32186 1.03045 -0.0352586 0.0100975 
4.14175 -6.87263 17.1069 -1.75668 -11.1737 -9.68736 0.647843 -5.57059 -9.94137 -5.21212 1.9909 -0.635291 21.4518 -1.24986 2.3508 4.79972 -0.395366 0.633664 2.74274 -0.576819 -1.35799 -1.05502 -1.26152 -0.0418918 -1.02452 -0.33103 
2.96645 -4.08342 20.5944 -2.73606 -9.36102 -4.95656 -3.63084 -5.46683 -11.1733 -4.79197 -1.16665 -1.58575 20.7233 -0.957817 2.60664 3.00782 -0.799458 2.12249 3.15241 -2.06057 -0.536402 0.335195 -0.73969 -0.67633 -1.21724 -0.63249 
2.48578 -1.42459 22.8013 -3.73949 -5.77326 -4.59235 -3.61331 -5.66365 -10.1251 -8.34479 -2.00567 -2.75293 19.8732 -0.934903 2.38282 1.43005 -0.33799 3.22907 3.13938 -1.53099 1.09216 0.119807 -1.14774 -0.401854 -0.624218 -0.73378 
1.71543 1.29252 23.2774 -3.42586 -2.78784 0.428734 -8.15352 -2.49035 -8.29161 -7.60785 -1.03807 -3.3483 19.1753 -0.338753 2.09149 -0.251838 1.07095 2.85421 2.29867 0.175469 1.2503 0.644252 -1.31171 -0.367561 -0.398502 -1.02156 
0.0927448 2.35351 22.9156 -3.10173 1.6851 3.31689 -4.74578 -1.59803 -10.7832 -9.5429 -0.0826648 -2.8751 18.5569 -0.721889 1.5539 -0.433701 1.26172 2.6184 1.11398 -0.527118 0.907164 -0.173443 -0.384523 0.392004 0.480299 -0.826087 
2.46921 4.485 19.2781 2.29981 1.18085 2.58217 -2.18726 -1.24813 -7.62302 -10.7515 -3.96596 -3.51717 16.2736 -0.753985 0.521814 -1.57186 0.543303 1.71455 -0.342223 -0.585963 0.963041 -0.0103418 0.0957616 -0.0961929 -0.852512 -0.85263 
-1.50055 4.74867 22.6325 -0.293722 5.33439 -0.0991535 -9.23203 -1.74894 -11.3266 -8.69558 1.4183 -0.267002 17.1936 -0.150754 0.121238 -4.78701 0.422294 0.962397 0.404095 0.225548 1.07022 2.52378 2.48465 -0.266798 0.365994 -1.33113 
-1.25785 2.70401 15.5597 -2.11335 3.96027 0.425643 -8.84021 2.40032 -8.07162 -7.5527 -2.26951 -8.91492 15.5938 -0.273309 -0.773081 -6.58173 1.00081 -0.315048 0.858112 0.758221 1.34307 3.89656 2.48778 -0.449679 0.511179 -1.3965 
1.20251 3.85019 0.839773 1.21632 5.10737 6.41563 -0.291562 1.92885 2.06 1.28095 -2.26488 1.65374 12.2412 0.204593 -1.1783 -7.85602 1.49273 -1.12165 0.270591 3.78388 2.11839 4.82471 2.44667 0.152067 1.24994 -1.51838 
-0.248868 1.06883 -2.73422 6.54885 -0.280886 3.61534 -2.86639 3.62834 5.16648 -3.30084 -4.37277 -1.92164 11.7673 -0.767579 -1.28609 -3.87886 -0.376538 -1.14161 -0.339087 2.59018 1.13369 3.32331 0.628903 0.22448 1.60156 -0.598375 
-0.98208 -0.325253 -7.50069 2.83882 1.84671 -0.341049 6.70047 8.22901 6.17792 1.41183 3.23026 2.48609 11.5149 -1.58776 -1.21671 1.26407 -2.63929 -1.23901 -0.912648 0.127432 -0.312986 -0.835995 -2.81619 0.0193887 -0.374891 0.559084 
-4.00345 -1.63872 0.335585 -4.80729 -0.117435 2.10855 0.614679 4.9187 6.48599 -4.47362 -3.89468 -1.32331 12.9651 -0.60596 -0.420534 0.461981 -1.68395 -0.105778 -0.353123 0.724144 -0.895983 0.0205904 -0.00211124 -0.7701 -0.366417 0.232932 
-4.85902 -0.879575 5.62521 -6.30206 -1.16942 2.60579 -1.39494 -0.281258 -2.77973 -12.2136 -2.40698 -0.519884 14.4378 -0.181686 0.281905 -0.641281 0.315576 0.223775 -1.27677 0.151582 -0.813619 0.139013 2.52644 -0.338787 0.397031 -0.0654852 
-1.3402 -0.756674 -6.98726 2.69951 0.698289 0.376309 4.80203 3.40356 9.74826 3.50133 -5.40465 -2.25074 11.4706 0.272111 0.345152 -3.22118 1.42102 0.565466 -0.710972 1.0084 0.413605 1.16933 3.62311 1.4018 1.45312 -0.526518 
-3.22214 0.643249 -7.04567 0.663304 2.55773 -5.8588 5.3647 4.91849 5.24185 10.0565 2.29131 4.93496 11.9348 0.427222 -0.351731 -3.73015 0.923927 0.267883 -0.663639 0.193137 1.00581 2.3864 3.41156 1.56248 1.78636 -0.600137 
-3.46134 -0.67437 -9.43487 -1.18486 0.846324 2.78598 2.27688 4.38686 8.32186 2.50686 0.765194 3.21487 11.584 -0.121811 -0.388547 -1.23813 -1.01625 -0.403784 0.0160401 -0.716544 0.51377 0.466897 -0.000876546 2.06676 0.988551 -0.0510147 
-1.66234 -2.67938 -11.8018 0.259767 0.0959806 -1.91724 0.833326 4.25615 9.86547 5.34139 2.32047 5.6791 11.3804 0.11034 -0.733775 -1.0414 -0.260849 -0.423787 1.75085 -0.558496 -0.756881 1.03018 -0.363284 -0.0687302 -0.714103 -0.0992 
-2.72915 -1.03809 -10.7999 -2.17999 -0.089757 -1.51427 3.485 6.30358 9.77093 5.85452 4.91458 2.31994 11.4927 -0.249953 -0.271969 -0.0812007 0.404417 0.123976 1.70717 2.20706 -0.427538 -0.291989 1.2516 0.654189 -0.432347 -0.0141078 
-3.03653 -2.84376 -11.5702 -0.14338 0.906832 5.04556 1.96816 0.175725 9.6682 6.56629 -0.127038 1.81191 11.4844 -0.577708 -0.0237792 0.389407 1.56296 1.46176 1.87349 1.53561 -0.58405 -0.50689 0.979474 -0.679791 -1.37537 -2.985e-05 
-4.02401 -1.95202 -9.95666 1.03879 1.06078 7.84041 12.7447 4.28938 6.96055 8.15243 5.2599 2.98673 11.4614 0.0343517 0.38436 0.71523 1.73133 1.0576 0.303975 0.721424 0.803558 0.256924 0.0456322 -2.23286 0.301585 -0.0583085 
-3.90345 -2.34131 -10.2763 6.46519 6.82951 2.77284 3.88151 2.343 8.73621 9.08981 -1.25114 -1.53114 11.3959 0.458917 0.527279 0.625681 1.40607 0.402267 -1.48421 -0.209326 0.600977 0.00515275 -0.0900719 -1.34455 0.226097 -0.0794121 
-2.12393 0.632484 -7.87066 3.17238 2.23691 1.14196 6.13545 9.23773 11.5215 4.82092 -5.68766 5.49939 11.2454 0.683424 0.188528 0.118462 0.661002 0.121477 -0.917174 -2.09999 -1.35742 -0.2761 -0.646583 -0.763001 -0.0648899 -0.0774796 
-1.69198 -1.49962 -9.48479 5.8202 2.3301 0.973759 4.22618 0.706433 7.41346 7.78168 -1.37599 1.68607 11.1954 0.557981 0.324805 -0.0898458 -1.05704 0.210053 0.433058 -0.480174 -0.928886 -0.540751 -1.60251 1.31163 0.919263 -0.0254394 
-1.71262 -1.43023 -9.76012 4.6663 3.91787 4.15408 2.07248 -1.67945 6.24143 5.57358 1.50732 1.05368 11.1743 -0.104804 0.127886 -0.316785 -1.40696 0.429992 0.501556 0.292547 -0.834147 0.207242 -1.45071 1.07747 0.0837433 0.144152 
-1.3192 0.314066 -9.78083 0.433044 7.0393 3.43207 3.51212 3.15716 8.67252 0.700924 1.70952 5.28803 11.3042 -0.384079 0.0396765 0.0451448 -0.843932 0.440191 0.42971 2.10681 1.28269 0.227789 -1.55323 0.340816 0.371583 0.122727 
-2.83434 0.365069 -9.30656 -1.16883 2.03227 2.42059 7.95521 3.84163 11.9282 1.10774 -1.84308 4.11712 11.9117 -0.492407 -0.096537 -0.0314145 -0.114722 -0.23186 -0.030846 2.52109 2.00415 0.364074 0.0715223 0.563481 0.405305 0.073567 
-3.05151 -2.19889 -9.48585 4.5181 5.47386 3.98906 11.8188 4.35933 5.70901 2.24844 2.00328 2.01226 11.4403 -0.41374 -0.410273 0.405523 0.850223 -0.483808 0.402077 1.71154 1.10815 0.415236 1.97313 1.12277 -0.830767 0.0399154 
-3.3085 -0.656435 -10.0647 2.05016 3.54129 3.72136 10.5246 7.74022 9.54355 5.15743 4.17784 4.71809 11.4741 -0.144661 -0.302817 0.309874 1.25457 0.142769 0.653325 0.567981 0.821722 1.41483 2.90675 1.63122 -0.61086 -0.0222944 
-3.15082 -1.22655 -7.37415 3.07467 3.86575 4.79207 10.7852 6.74864 11.941 8.54172 4.31292 0.833712 11.7226 -0.111245 0.014865 0.259727 0.639083 -0.383848 0.415763 -0.0226377 0.380786 2.66976 2.78302 0.729021 -0.378631 0.0622605 
-3.50799 -1.63519 -8.81303 5.82573 3.55017 5.2857 11.312 6.75558 15.8864 12.4948 5.15821 1.6521 11.6591 -0.0756155 -0.236614 0.106442 1.03022 -0.0297806 0.362232 0.210159 -0.196233 1.6631 1.8628 0.280601 -0.53136 0.0306426 
