-4.7331 2.60187 -9.13724 6.75245 2.96907 2.1613 12.7687 1.00572 10.3157 -2.00503 -1.64485 3.02816 11.3294 -0.570637 -0.112792 -0.394475 -0.382054 0.828081 0.284882 -1.46328 0.749274 0.29371 1.34302 2.48148 0.636471 0.0763312 
-5.11461 2.55479 -9.82904 5.87236 3.19144 3.40705 9.25429 2.91567 12.8829 0.243003 2.25296 5.2157 11.4589 -0.470293 0.0616035 -0.456029 -0.730464 1.09302 -0.50002 -1.48937 1.17546 0.0427425 1.32319 1.36887 0.633625 0.0498201 
-7.39552 2.06145 -10.7637 5.28223 6.99829 2.96283 7.20953 3.79712 10.5007 3.58604 8.81363 5.11674 11.6463 -0.138019 -0.0550807 0.0623458 -0.463181 0.60005 -0.422946 -0.736341 -0.180748 -1.45412 0.382872 0.307592 0.0364398 -0.050576 
-5.75335 3.1801 -10.6041 3.83524 6.41955 -0.739567 8.10144 5.48734 10.4369 1.81537 -0.0297244 5.15199 11.42 0.00112743 0.491463 0.571454 0.623789 1.43719 0.367885 0.343016 -0.773745 -1.29071 -0.383127 -1.02771 -0.0305556 -0.0981109 
-5.10382 2.01381 -8.43796 5.4551 4.35527 2.11988 9.66342 -1.18385 4.26807 -0.876848 1.03445 3.24221 11.0959 0.216025 0.472224 0.62436 1.01598 0.554312 1.169 0.248897 -0.681769 0.219612 -0.4379 -1.08569 -0.185686 -0.0587197 
-6.25482 5.03592 -8.13465 8.90487 11.6989 5.66796 9.74243 1.53743 9.54562 0.558813 1.004 6.00019 11.2435 -0.335498 -0.111737 0.213568 0.613487 0.315628 1.79415 0.632076 -0.205222 1.2536 0.241147 0.0633543 -0.833982 0.0706362 
-6.06466 3.49466 -8.87667 7.82733 7.13016 5.60408 7.63352 2.36322 12.0444 2.02482 2.86833 3.76422 11.4409 0.0222078 0.248177 -0.218947 -0.60595 -0.420326 0.18145 0.624089 0.56936 1.77195 0.217587 0.686489 0.196985 0.131895 
-6.95042 1.88099 -9.31695 5.71657 6.61024 6.48909 12.2768 2.68769 12.8168 1.57027 -0.629893 0.721076 11.6007 0.292168 -0.182065 -0.620001 -0.804624 -0.984238 -0.308203 0.813082 -0.815343 0.708114 0.528495 0.45406 -0.578218 0.059499 
-4.64499 4.83217 -8.94154 4.01951 4.79798 2.61656 11.5167 1.08782 11.4923 -0.294638 5.28384 6.86669 11.5768 1.42711 1.81543 1.18969 1.4047 1.12327 -0.264976 0.209542 -1.27453 -0.214784 0.285046 0.288262 -1.26612 -0.0122662 
-5.50382 3.45685 -11.2022 6.78566 7.94382 5.6207 11.8662 -1.90158 13.3623 4.36102 2.06655 1.55786 11.4731 4.29134 1.19138 2.07925 1.35462 -0.179717 -1.26438 -4.15871 -3.236 -1.53944 0.436193 1.46023 -1.07677 0.67752 
0.347613 11.7839 -1.98559 14.3163 12.0797 4.71339 8.88649 -1.71478 10.6978 2.05467 2.96142 -2.98475 11.4434 5.03707 -0.223808 2.19374 0.369114 -0.946211 -1.78979 -5.88719 -3.07096 -2.30302 1.89333 1.27285 -0.606094 1.30037 
12.01 4.36201 -2.39868 7.34127 2.07079 -0.881202 -7.20169 -12.091 5.51679 2.57658 7.83246 0.262967 15.055 4.55798 -1.04849 1.67443 -1.50137 -2.10413 -2.38353 -5.5637 -1.989 -2.71028 0.941884 1.78405 1.40684 1.60581 
11.7835 3.26054 -2.3746 5.58727 3.00344 -3.08144 -8.38531 -9.17227 3.89993 10.0642 8.76515 4.48367 16.2877 2.28284 -2.66431 0.433905 -2.9856 -2.03766 -1.89473 -3.6371 0.232148 -2.0744 1.04696 0.509253 1.49449 1.45999 
11.5682 2.47607 -2.63555 3.6433 1.96132 -2.39956 -7.31635 -8.11784 3.20978 5.06565 8.08494 4.85787 17.08 0.121637 -2.05275 1.74362 -2.05685 -0.506776 -1.02598 -0.992478 3.26309 -1.0202 -0.0820069 -0.214578 -0.561702 0.801331 
11.9827 -0.594685 0.302365 1.23727 1.94615 -4.0011 -9.24166 -2.54061 1.47927 6.04492 5.38144 2.19026 17.7309 0.0460014 -2.21968 2.56602 -0.983948 -1.83034 -0.694139 -0.97815 1.96407 0.31257 -1.80569 -0.33997 -1.1453 0.584426 
12.5185 -3.9741 4.98096 -0.767994 0.0655499 -5.55129 -11.7359 0.908638 1.62614 4.1762 8.45143 -1.39884 18.34 -0.77863 -1.10152 1.42801 1.98286 -2.59428 -0.849477 0.396386 0.477791 0.61796 -1.14099 -1.14572 -0.421821 0.18116 
11.5383 -4.61279 6.64726 2.87318 -5.20038 -4.97627 -11.0663 -3.86518 6.2546 1.48054 6.88206 1.88552 18.5798 -1.96778 0.936386 -0.444841 3.44192 -2.16868 -0.0970247 2.04074 -0.696061 1.17579 -1.22356 -2.15718 0.317815 -0.246435 
7.89723 -1.02246 1.33203 12.7396 -7.43683 -6.15936 -4.42211 -5.0666 3.91191 1.6429 1.60603 2.90113 17.5613 -1.50006 0.987052 -0.93773 1.12821 -0.451189 -0.514534 1.62463 0.349557 1.14738 -0.801449 -1.73177 0.703654 -0.0521637 
4.45444 2.61142 -0.0973763 11.693 -5.14604 -4.18219 -2.69486 -3.0333 6.21533 1.19379 -1.98176 1.62935 16.8881 -0.0473257 -0.975116 -0.0107794 -2.71799 1.14883 -1.43793 -0.127558 2.95894 -0.560686 0.773135 -1.10387 0.496546 0.435756 
8.56017 -2.65095 3.66462 0.46315 -2.21756 -8.521 -7.79845 2.24048 7.38265 0.312332 4.22451 2.24752 18.9251 0.843804 -2.6012 1.28024 -5.14625 1.26383 -2.96088 -1.33113 3.40101 -1.18352 1.24952 -0.0261348 0.754665 0.852568 
10.9702 -8.67412 5.42707 -4.57853 -2.06587 -10.9851 -10.0159 7.27597 1.7158 6.01149 0.0534575 4.69506 20.0767 0.585424 -2.69054 1.31985 -3.63428 0.275985 -3.13276 -0.442136 3.33125 -2.04674 1.05787 0.362844 0.442322 0.838184 
8.85838 -8.38569 4.97099 -4.85583 -2.65778 -17.5623 -7.41724 6.78382 0.244056 5.48166 0.45775 5.1416 20.2298 -0.93483 -1.26902 0.407256 -1.08784 -1.3111 -2.05133 0.956718 1.94504 -2.56647 0.371527 -1.35283 -0.823759 0.373264 
7.23245 -7.97391 5.84867 -3.81889 -3.546 -15.3253 -5.09615 11.3513 -0.44908 3.89848 1.71584 2.39391 20.4266 -1.60708 -0.126872 0.00725269 -0.548777 -1.92769 -1.21311 1.25636 0.843033 -1.99225 -0.95545 -2.0305 -1.31747 0.162976 
5.75488 -9.34614 5.4901 -5.35588 -8.03298 -16.6075 -5.47474 9.92801 -4.36728 3.22647 -3.37083 -0.720706 20.6164 -1.22976 0.0128009 0.0331694 -0.777391 -1.85504 0.392003 1.13798 0.79667 -2.14864 -0.709133 -2.4328 -0.155258 0.154345 
4.48653 -8.82826 5.20378 -7.0724 -9.01671 -17.528 -4.70536 9.91903 -5.93978 2.36183 -8.18474 1.03887 20.6982 -1.01124 -0.183411 -0.821117 -1.06506 -1.90875 0.269562 0.530254 -0.262915 -3.01359 -0.963209 -2.0547 0.611697 0.148494 
4.08253 -7.89451 5.45928 -7.11603 -9.19761 -14.5009 -1.92274 11.4833 -7.75379 2.70432 -6.75595 5.04283 20.8657 -0.485451 0.0410597 -1.37371 -0.090731 -0.744982 0.990346 0.84596 0.447822 -2.45954 -0.493222 -0.18187 1.32674 0.122397 
3.01242 -9.61678 1.75849 -8.2641 -12.5075 -15.0308 -4.22088 9.25908 -13.8238 -0.656491 -6.86509 2.57063 21.0444 0.0882216 -0.194665 -1.88997 0.54826 -0.430684 1.5539 0.71684 0.54597 -1.44662 -0.21823 0.503525 0.438954 0.0567385 
4.06468 -8.74658 0.344183 -5.21368 -10.0125 -12.9044 -1.48718 12.4971 -12.723 2.26953 -4.94 5.1471 21.0553 0.542898 -0.528444 -2.19231 0.420764 -0.363862 1.77788 0.208736 0.545359 0.162074 0.105517 -1.16143 -1.30486 -0.0552555 
4.93656 -9.37555 -1.68854 -5.28227 -10.7627 -10.5568 -1.33894 12.142 -10.6883 1.48808 -6.57509 3.1815 20.8871 0.820604 -0.601714 -2.15623 0.261014 0.436345 2.68702 0.287274 0.570834 1.72224 0.741782 -2.30739 -2.08338 -0.111896 
5.83495 -10.6573 -3.77875 -6.50312 -11.8893 -7.84857 -2.32003 12.7686 -8.51118 2.15962 -12.7081 -1.78691 20.6681 0.569858 -1.0723 -2.57097 -0.333781 0.875953 3.0164 -0.401108 -0.651373 1.12421 0.240875 -3.14431 -2.84524 -0.10534 
6.2303 -11.67 -6.9612 -6.31431 -9.38734 -4.12363 -2.36809 11.9775 -7.31849 3.10737 -14.518 -4.37929 20.6786 0.221819 -0.818945 -2.62203 -0.037348 1.89002 3.372 -0.538196 -1.54399 0.482974 0.548295 -2.28907 -1.93853 -0.0819391 
6.2671 -12.9609 -9.87433 -6.36656 -6.32041 -1.03898 -2.97815 9.32249 -8.78685 2.66425 -16.6901 -5.29869 20.6329 0.0548917 -0.171424 -2.45982 0.0658975 2.50433 3.53146 -0.549961 -2.87339 0.389073 0.702153 -0.357464 -0.929883 -0.0611395 
5.82958 -12.3185 -11.7509 -5.53729 -4.09701 2.8984 -3.70086 6.1451 -8.13556 3.97724 -16.0294 -4.75525 20.495 0.413793 0.460834 -1.90875 -0.3629 2.36053 3.47138 -0.834857 -3.39359 0.746713 1.0449 0.716585 -0.302092 -0.0999559 
6.30977 -11.1902 -13.683 -6.56215 -2.01283 6.2977 -4.40345 1.31789 -6.15728 5.23545 -13.7397 -6.24835 20.4542 0.997252 1.09388 -1.43777 -0.811781 1.85812 2.89134 -0.999299 -2.96237 1.20862 0.834908 2.1747 0.330539 -0.171789 
8.27793 -10.2511 -14.6006 -8.03102 0.261529 9.56493 -5.82972 -0.988164 -4.89971 7.0463 -12.4103 -5.41492 20.2682 1.49341 1.54577 -1.28616 -0.988624 0.571208 0.916673 -1.14766 -2.76156 0.254641 -0.654894 3.72316 0.394396 -0.345848 
10.0292 -8.52516 -15.6383 -9.17861 0.79091 10.0845 -6.91021 -1.92273 -4.36168 5.30426 -7.62615 -3.31616 19.8874 1.28599 2.21494 -0.745969 0.720676 0.192597 -1.74077 -0.116089 -1.52616 -0.917993 -1.99096 4.98792 0.562208 -0.711079 
11.4369 -5.92217 -17.204 -9.17218 -2.64284 5.58838 -8.18576 -6.04241 -7.76015 0.668362 -0.470412 -4.24937 19.0492 -0.0405318 2.4782 0.45484 3.58925 0.709603 -3.42588 1.6293 -2.81714 -4.20285 -2.70952 3.77168 -0.348109 -1.03989 
11.1602 -2.28 -16.1111 -2.38819 0.402339 -0.417865 -3.80587 -3.78579 -9.31703 -1.5304 5.22997 -4.02008 17.5083 -0.689707 2.09891 1.22633 4.48741 1.24373 -2.6032 2.30594 -2.62119 -4.39181 -2.44538 1.64606 -0.789612 -1.0054 
7.50975 -0.982702 -12.09 6.52003 4.00383 -2.3133 0.764589 -14.1423 -23.4363 -3.08397 0.0200846 -6.80351 16.2583 -0.424896 1.11026 0.734073 2.34314 1.01224 -1.08044 1.09836 -0.372694 -2.00321 -1.95534 0.19382 -0.331034 -0.539826 
8.54425 -0.500363 -12.0637 5.41236 3.68621 1.01929 0.144322 -10.9787 -18.4827 -5.04646 0.358892 -5.98715 16.2558 0.332674 0.0452351 0.102966 -2.26101 -0.724443 1.18593 -0.874355 0.744131 1.64227 -0.518609 -0.63201 0.438234 0.24995 
10.6205 -1.26067 -15.5574 -1.35676 0.7764 -0.532416 -4.66904 -4.30941 -13.1934 -7.35029 2.93423 -4.92101 16.9763 0.588784 -0.786369 -0.552942 -5.33336 -1.32521 1.6856 -1.75612 2.21242 5.05052 1.6199 -1.274 0.875813 0.873881 
11.2683 -1.91484 -13.8626 -9.75482 -1.60616 4.62135 -5.46084 -4.98159 -6.22715 -1.99029 0.612848 -2.77016 18.399 -0.717381 -1.48543 -0.130157 -4.40146 -0.114836 0.749 -0.760385 0.926797 4.02276 3.30359 -3.44752 0.490652 1.07005 
9.09167 -4.20731 -13.9553 -12.5632 0.023962 4.31365 -5.21344 -6.07878 -4.31148 3.48742 -6.47691 -4.03294 19.5561 -1.85503 -1.45158 0.920077 -1.74816 1.10911 -0.102798 0.598317 -0.0317538 2.60819 3.58105 -5.47805 0.328825 0.910945 
5.72174 -6.4542 -13.5155 -10.9917 3.48825 2.34126 -3.3854 -5.46008 -2.80984 6.05261 -12.1732 -3.97792 20.3162 -1.20819 -0.946906 0.475457 1.4043 0.679658 -1.72482 1.45753 0.276733 1.35877 1.07887 -5.61972 -0.00422201 0.416274 
4.11854 -6.24887 -11.1306 -9.47908 3.77474 0.0936394 -2.71517 -4.22893 -1.8611 6.5335 -18.063 -2.673 20.5724 0.20904 0.392687 0.567761 2.6522 -0.705165 -2.19242 1.54456 0.0216201 1.57368 -2.53261 -4.64024 0.915516 -0.167918 
7.71387 -5.62859 -12.8977 -4.27538 -0.0832596 -1.89274 0.577674 -4.52285 -0.658472 1.881 -21.6927 -3.47124 19.9722 0.374885 3.64425 2.11378 2.44912 -0.582144 -1.72336 2.05673 0.0604762 1.43634 -4.36916 -0.559985 1.09656 -0.80114 
9.1408 -2.65668 -11.4254 -2.66037 -1.71611 -4.53144 0.52782 -6.43929 2.48122 -7.0898 -24.9183 0.291299 18.8885 -2.18661 5.49601 3.8212 2.55787 1.51062 -0.597602 2.1679 2.24964 0.783546 -4.47237 3.38064 1.05588 -0.708708 
5.08503 9.97093 -2.79923 -2.15551 3.32295 -3.96299 5.27675 -4.05252 2.20071 -8.98152 -11.5454 0.0227232 17.1524 -5.11795 5.00538 4.23051 1.74299 2.98174 1.69813 1.41396 2.65646 -0.125012 -2.75741 5.97053 1.27109 -0.307221 
-5.50008 13.4314 2.92621 2.25034 9.62476 -1.85925 5.7748 6.7841 0.62704 -10.3971 -6.23349 0.859421 18.4388 -6.65972 2.56071 2.78416 1.51995 2.71744 2.35487 1.61128 2.50909 0.927148 2.0063 6.40606 0.900281 0.169 
-10.5554 11.3543 1.07907 1.9842 9.15499 5.26182 5.02398 2.14774 -0.356442 -10.2524 -1.18248 2.60015 18.661 -5.21493 -0.826817 -0.148812 0.528288 1.43538 3.0408 0.990175 -0.14304 1.35653 3.69732 3.37718 1.38409 0.353888 
-16.3376 9.45521 0.55628 2.86954 8.95509 2.63052 8.71061 3.00605 8.39554 3.57712 1.93047 3.50399 18.9792 -2.57554 -1.44993 -1.21116 -0.526179 -0.703513 1.75968 0.313063 -2.50666 1.68821 3.22834 1.4556 0.00943137 0.0115999 
-15.5709 7.82495 -2.35833 0.176332 10.8347 8.99613 8.75972 -2.8787 5.09912 2.51798 1.25849 5.62088 18.6517 -0.853468 -0.521361 -1.0223 -0.345937 -1.90389 0.282293 -0.566238 -0.955036 0.93616 2.05275 0.591454 -1.08968 0.0392292 
-15.87 7.94641 -1.41087 0.523376 5.26733 5.07201 5.47225 -3.23597 6.3403 -0.640583 -0.175989 -0.603786 18.5014 0.514784 0.155411 -1.10023 0.164618 -1.569 0.65521 -0.617664 -1.29829 0.112516 0.0802343 0.120608 -2.34271 0.0252739 
-15.0565 9.50188 -3.04885 1.4276 1.4794 5.45254 3.81197 0.493569 5.35198 2.12019 2.82802 -0.794357 19.096 0.885023 0.594628 0.650422 1.71337 -0.842126 -0.258051 -0.88592 -0.914179 -0.578377 -0.263365 -0.304466 -1.41344 0.0311132 
-14.0208 9.39379 -4.59962 3.06699 5.78773 7.67836 8.09616 -5.17155 8.83169 4.17718 1.74875 -5.00196 18.8834 2.97026 -0.299085 2.02827 1.90909 -1.77733 -1.59517 -1.52668 -1.32046 -2.45472 -1.59132 -0.266753 0.380954 0.02048 
-12.0704 10.0744 2.48816 7.47135 6.36387 6.4027 3.01817 -6.4818 0.961538 -1.20773 -1.22621 0.752748 18.6163 3.75507 -2.35972 4.41668 0.361974 -3.11733 -2.93491 -3.5989 -0.396745 -5.20673 -3.0274 -0.869752 0.633348 0.304007 
-2.5118 6.16473 5.96196 7.04697 -6.06155 -3.37893 -1.76426 -6.35057 -3.73809 -6.93324 0.517357 0.527431 18.8437 3.81494 -3.56585 5.79597 -1.86205 -4.5109 -3.19418 -4.62585 2.15011 -6.01615 -1.93699 0.219246 1.07344 0.582331 
-2.03567 -0.682202 13.7538 1.24748 -8.18259 -3.69338 -9.25229 -0.900644 -14.3968 -7.46159 -0.905045 -0.392312 20.6359 2.89243 -3.42553 4.84419 -3.30185 -3.48261 -1.61592 -2.78864 3.04488 -3.53648 0.136095 1.82312 0.257493 0.582738 
0.0365505 -3.05718 18.7474 -3.13131 -9.49352 -3.24451 -8.89786 2.78841 -13.5699 -2.38085 2.6844 0.937774 20.7852 1.14831 -1.90469 3.93069 -2.86766 -0.89963 0.605774 -1.19639 2.36564 -1.52285 0.572447 2.0612 0.259991 0.325825 
1.1176 -2.44233 20.3164 -3.94874 -9.3332 -1.74408 -7.35822 4.17309 -11.805 -2.80346 6.80587 1.83504 20.5592 0.953559 -0.144956 2.60612 -1.3913 -0.210103 0.583224 -0.178772 0.130733 0.68645 -0.236175 1.95265 -0.0792421 -0.0727327 
1.6531 -2.47868 22.3341 -4.6932 -9.9844 -1.32471 -8.69325 2.94079 -12.6482 -6.40007 6.96792 0.713709 20.5112 0.383873 0.569356 2.14907 -0.29945 0.247866 0.577983 -0.894648 -1.41184 0.625495 -1.14419 1.02492 -1.05362 -0.107111 
1.92385 -1.69623 24.991 -4.92809 -8.98766 -1.73716 -10.2485 -0.323166 -11.4254 -6.63285 6.71642 -0.67649 20.4093 -0.0201431 0.666565 1.98676 0.177011 0.565993 0.395146 -1.19195 -2.05416 0.585754 -0.683694 0.0661769 -1.80492 -0.0741766 
1.55279 -0.583446 27.1554 -4.13889 -8.42696 -0.358057 -11.926 -2.02265 -10.6322 -6.18707 7.85371 -3.07456 20.3247 -0.0880122 0.450698 1.48916 0.416753 0.525847 0.868375 -0.484764 -1.55432 0.505404 -0.192178 -0.445357 -1.88686 -0.0426384 
1.06704 -0.0571179 27.8395 -3.34085 -7.28195 -0.251677 -11.7016 -3.61599 -9.88422 -6.32842 6.69386 -5.29542 20.2816 -0.0964068 -0.148599 0.793618 0.290254 0.638276 1.0558 0.446856 -0.359688 -0.0810743 -0.189983 -0.661085 -2.03724 0.0383232 
1.64144 -1.04474 28.3557 -3.40306 -8.20802 2.27443 -10.3905 -3.18443 -10.8918 -7.51317 4.75242 -6.41111 20.3618 -0.0625808 -0.568046 0.195655 -0.200749 0.78741 1.17881 1.04708 0.204718 -0.276466 -0.0611983 -0.817775 -1.36472 0.0882107 
1.39749 -2.20858 28.359 -3.84474 -5.90575 2.22561 -8.78192 -1.54072 -11.701 -6.91972 4.96165 -9.19443 20.5823 -0.196433 -0.372288 0.175058 -0.742386 0.880319 0.585882 0.984238 0.689068 -0.401274 0.278758 -0.120396 -0.654222 0.0989281 
1.07466 -2.34795 27.874 -4.89068 -5.17801 4.29734 -8.15043 -2.0367 -11.1062 -6.19742 4.63094 -7.94863 20.6154 -0.422001 0.250457 0.179013 -0.634304 0.874972 0.0763001 0.219822 0.676046 -0.0967117 0.981687 0.439313 -0.099758 0.00453548 
0.368265 -1.26696 28.9556 -6.30896 -4.39537 1.66628 -7.90045 -0.744513 -11.7834 -5.59251 6.15262 -7.79777 20.6494 -0.186971 0.799182 -0.48329 -0.327486 0.772303 0.032829 0.257798 0.0904561 0.0909943 1.16044 0.124585 1.13295 -0.237774 
0.0460501 -0.263272 28.9524 -5.34247 -4.58835 2.93559 -9.73213 -0.202301 -11.3341 -3.26834 6.3535 -7.60823 20.3509 -0.105563 1.39264 -0.429619 0.303171 0.213635 -0.508511 0.484733 0.0623684 -0.43393 1.13676 -0.135991 1.37662 -0.42496 
0.976943 0.744996 25.4033 -5.25627 -2.33906 3.07063 -6.70208 -2.00564 -11.132 -2.58204 4.72329 -3.69987 19.5256 0.0474504 1.46679 -0.703532 0.329599 -0.131167 -0.533673 0.873428 -0.519041 -0.625772 0.575686 -0.948879 1.69524 -0.552536 
0.242508 3.60928 27.502 -3.90117 -5.13799 1.05261 -6.32595 -1.09429 -13.6015 -2.01884 4.66565 -3.1145 19.0525 -0.0330888 1.374 -0.577412 0.116261 -0.474706 -1.20691 1.14747 -0.802127 -0.997895 0.0540966 -1.02364 1.33063 -0.617537 
0.507288 4.13073 26.1632 -5.38162 -4.77638 -0.060595 -5.23639 -2.89372 -13.7786 -3.33883 2.25215 -1.56844 18.536 0.0506452 1.05849 -0.693855 0.430946 -1.29146 -1.43964 1.18447 -0.940304 0.573054 0.178536 -0.568528 0.772541 -0.698027 
0.115434 4.91386 25.6854 -4.69849 -5.74322 -1.53335 -4.72764 -3.76889 -15.0003 -2.61947 2.47089 -2.02082 17.7581 -0.451581 0.14341 -2.5826 1.74351 -0.0438788 0.599669 1.07557 -2.3724 1.88377 -0.440058 -1.4488 0.0117096 -0.93966 
1.29371 5.38518 22.8423 -2.70288 -8.49373 -2.83458 -1.57886 -5.36986 -7.56733 -1.38905 2.97803 -0.384009 16.6827 -0.266274 -0.32981 -2.61419 0.916466 -0.152156 0.706846 0.898587 -1.40616 1.73761 -0.136764 -0.813762 -0.232078 -0.7322 
-2.4086 3.69911 16.2494 3.477 -3.4987 5.43795 -2.77686 -11.7182 -7.28828 -5.19402 -2.94127 -3.64817 15.2808 -0.406563 -0.271012 -2.91987 1.08568 0.24468 0.242046 0.163834 -1.59397 1.28118 -0.82425 -0.598506 -0.58558 -0.701134 
0.437936 3.08906 17.8102 -4.88703 -6.65942 -0.0120139 -1.71885 -5.94985 -8.94655 -2.73537 0.88942 -1.91515 16.1136 -0.720967 0.0287368 -5.95443 1.03956 2.17331 -0.352024 0.872652 -0.00564365 1.10743 -0.599008 -0.228739 0.787183 -1.14417 
-1.4895 4.70686 13.6021 1.82198 -5.43698 -1.73441 -3.83848 -11.4488 -7.90482 -6.06755 0.522664 -4.18314 14.5369 -1.07207 0.106662 -7.16329 0.786081 1.83689 -1.11631 2.8604 2.56643 3.76786 0.657506 0.535929 1.58898 -1.25352 
-2.77068 5.02499 -5.60618 3.32244 3.34194 -1.00852 3.31521 -5.5328 -1.72191 -3.94733 0.10237 3.81939 11.3338 -2.03097 -0.641712 -7.54554 1.32721 2.31162 1.30518 3.30466 2.79578 5.45428 1.7491 0.967214 2.15539 -1.1844 
-6.16464 3.26446 -7.85882 3.30267 0.685081 0.354675 9.00811 0.905392 7.93867 -1.30051 0.131896 1.42944 11.4031 -1.40224 -0.832818 -4.8145 0.0562037 0.889841 1.68694 3.30037 3.89988 5.89963 2.29024 1.32255 1.00925 -0.527898 
-7.37932 0.601699 -9.18701 1.00867 1.83763 5.46934 8.38116 1.85196 10.4031 3.62663 5.92087 6.05548 11.7585 -0.815589 -0.497438 -1.01332 0.0917282 -0.294025 1.31225 1.99692 2.499 4.42687 1.8584 1.2062 -1.12451 0.0397917 
-6.19638 2.75441 -8.67994 3.25989 -0.235614 3.46137 10.1304 4.35825 15.5308 1.59665 4.22616 -0.254934 11.6851 0.0532063 0.0976387 -0.123395 0.472919 0.806686 0.383278 0.259889 0.850451 1.74604 0.328148 0.344024 -0.389266 -0.0391312 
-6.83276 2.79282 -10.2622 3.80247 2.33217 3.99937 12.7387 5.23574 16.6164 3.8961 4.08624 -0.960953 11.3918 0.166087 0.470621 0.359153 1.4582 0.99558 -1.30505 -0.260527 0.653054 0.605556 -0.627212 -1.56086 -1.46238 -0.120512 
-6.17189 2.65709 -7.9382 4.27037 4.47124 3.00605 8.12881 3.46575 13.5623 0.205492 2.76933 2.99133 11.3908 0.00711765 -0.309771 -0.252817 0.823955 0.971843 -0.382913 -0.270264 0.220385 -0.429555 0.611104 -0.715474 0.551264 -0.0684053 
-6.56113 3.00347 -7.76212 7.79445 4.4621 -0.828254 8.07933 5.56348 14.4152 1.18615 -1.15503 -2.87956 11.3031 0.0990932 -0.304342 -0.548732 0.721621 0.507078 0.0380327 -0.184654 -1.31147 -1.61679 0.524387 0.548053 0.826906 -0.00440054 
-6.29661 1.10023 -11.1941 5.38367 3.55863 3.96062 11.1088 5.2963 14.4836 6.00714 3.26943 3.46069 11.3874 -0.0434271 -0.450798 -1.42575 0.541744 0.3942 1.10071 0.720243 -0.445739 -0.0398024 1.04077 0.609342 -0.0342512 0.00669508 
-6.27493 2.04954 -11.3779 6.85393 5.32386 3.71225 10.3254 -2.23687 8.07171 3.61721 6.57646 2.9389 11.3715 0.0613935 -0.37846 -0.92967 0.0642184 0.676154 0.316505 -0.035077 0.316067 0.387547 -0.416055 0.0722472 0.625066 0.0578474 
-6.53213 0.880061 -13.2591 7.44935 6.01136 6.23934 10.607 5.13724 16.535 4.19383 1.9503 -0.0891576 11.3901 -0.915735 -0.205422 -0.0874374 -0.87419 0.501819 -0.0881074 -0.40735 0.728397 -0.226869 -1.62896 -0.313737 0.261715 0.378455 
-6.1364 1.22125 -11.378 7.08271 6.61651 -0.385088 8.15483 7.22335 15.3272 0.0125271 -0.134227 2.02069 11.591 -1.06183 0.298493 0.468937 -1.92128 1.0223 1.01645 -1.03411 -0.443793 -1.025 -1.59986 -0.187451 -0.133994 0.532451 
-10.9445 0.487266 -11.6312 0.898332 5.42141 5.56875 10.1573 4.20818 9.72153 -0.33531 5.05609 5.22836 13.1699 -0.401948 0.904682 1.33383 -2.73901 0.696553 0.92754 -2.73304 -1.68768 -1.72153 -0.776282 0.811136 0.301929 0.396905 
-9.37787 3.7384 -9.84716 0.523027 10.7303 9.12982 5.3797 -3.99131 6.35342 -2.11751 4.08631 -0.389832 13.1439 0.315753 0.325731 0.541027 -1.5834 0.743747 1.76818 -1.22939 -1.12746 0.348209 0.125068 0.646381 0.579658 -2.58446e-05 
-6.92113 4.1449 -7.3553 -2.96584 7.43722 6.11959 -1.67062 2.30619 12.4142 1.37744 3.89571 2.62575 12.5982 1.11031 0.0578752 0.132455 0.115625 -0.389832 -0.261147 0.434636 0.502829 1.04503 0.250386 -0.302441 -0.273153 -0.418533 
-6.56935 1.02109 -10.8108 1.0978 9.32734 8.1804 7.92183 2.53705 15.7219 -0.218509 3.67786 6.22029 11.8767 0.47862 -0.976138 -0.441181 0.665871 -0.945869 -1.69229 0.877173 1.04871 -0.0936792 1.25068 -0.549806 0.288761 -0.385654 
-6.79724 2.1353 -10.4871 1.18907 4.17374 4.73772 11.0594 3.45815 10.2625 -0.0328813 3.7481 0.557537 11.7108 -0.359497 -0.514165 -0.467583 1.49316 -0.417686 -1.3546 1.23018 -0.54833 -0.780192 0.868907 0.548438 0.217708 -0.172446 
-7.04672 -0.13749 -10.4872 1.77493 7.63272 1.35932 3.40055 0.676263 6.96092 4.84107 1.41109 2.08808 11.6593 -0.729131 0.0759549 0.301265 1.15082 -0.706648 -1.29109 -0.81086 -1.91512 -0.805708 1.16916 0.269411 -0.248966 0.0204441 
-8.47993 2.15336 -9.85505 4.16139 6.19609 2.75714 6.74092 0.494929 12.8938 3.19219 7.77129 5.78039 11.8447 -0.458938 0.55917 0.985251 1.96086 0.944498 -0.665289 -0.48559 -2.19031 -0.413101 -0.990165 -0.180239 0.623614 0.0238263 
-9.37366 1.39183 -9.62053 5.36574 4.78292 2.71524 6.02678 -5.55693 10.3777 4.01477 3.01333 2.36403 11.912 -0.121203 1.06211 1.28468 1.98826 0.950186 -0.327581 0.841303 -1.49779 -0.734996 -2.6586 -0.445611 0.0656336 -0.00524082 
-7.92846 4.16648 -5.99418 9.19796 10.3211 0.73332 7.31835 -4.37681 6.48855 -4.57056 2.04578 3.53763 11.7036 0.254813 0.68009 1.13481 1.39054 1.37883 -0.602955 0.244642 -0.856337 -1.66996 -2.41108 -1.24186 -0.331192 -0.0490543 
