-7.9523 -1.01634 -8.19278 0.794595 4.31872 -0.968848 3.4965 1.41968 4.02976 4.93808 1.37438 5.62544 12.0251 -0.440803 -0.208214 0.155372 0.329556 0.0451519 -0.188171 1.43649 1.81295 2.27028 1.85354 1.3042 -1.72838 -0.0139801 
-9.2691 0.176293 -4.47722 4.45275 8.22816 -1.50328 4.40963 6.8319 11.1182 9.07617 5.56593 -2.2653 12.2029 -0.645012 -0.49241 -0.523316 0.130835 -1.199 -0.116606 1.41943 1.4047 -0.057497 -0.152078 0.872636 -1.75359 -0.0163666 
-9.49792 -2.65373 -9.27369 0.613296 2.58975 -1.64248 10.2224 7.77832 11.8369 12.1367 5.79959 0.928886 11.8662 -0.30787 -0.228069 -0.621261 0.267469 -0.913193 0.0715029 1.40346 0.539457 -0.655864 0.168741 -0.280449 -0.800853 0.00767508 
-10.4046 -2.65969 -10.2689 1.53942 -0.811806 -1.21506 7.23073 5.26384 -0.161308 0.578377 3.52496 -0.794213 12.0226 0.218594 0.0965105 -0.476293 -0.0607926 -0.435954 1.38279 0.971861 -1.551 -1.63504 -0.731656 -1.24947 1.95122 -0.0416251 
-8.92393 -0.73869 -8.40324 3.58861 4.27273 -0.755447 9.10325 4.901 6.39022 10.0307 0.992623 0.88563 12.1536 0.287114 0.552929 0.826887 1.16026 1.20226 1.50959 0.155908 -1.21913 0.570739 -1.3974 -0.852551 1.65172 -0.0112384 
-8.46313 -0.298673 -7.29391 2.66113 5.2069 4.96716 9.8285 0.515582 5.66639 6.47091 1.72205 7.51245 11.8511 0.460161 0.299357 0.857547 1.18616 1.57872 0.2569 -0.253072 -1.77453 1.98219 -0.605536 -0.950834 0.669177 -0.0467855 
-9.03306 -1.06959 -6.62675 5.85376 5.59169 2.81433 9.70303 4.05678 11.7768 2.20344 2.43829 5.03415 11.8958 0.300166 -0.0862766 0.300612 0.300299 -0.590363 -0.692492 -0.84121 -0.170624 0.412612 -2.07126 -0.429746 -0.155553 -0.0783485 
-8.04918 -0.997459 -6.86941 6.33765 6.42231 -1.71545 5.66548 -3.18672 7.05638 1.46432 -1.95205 0.477409 11.9176 0.53004 -0.155816 -0.260686 -0.461305 -1.7627 -1.30296 -0.554446 1.30555 0.00316141 -1.47587 -1.78119 -1.20183 -0.0525387 
-7.63007 -0.82068 -7.11243 3.25184 0.713214 -0.8766 6.97871 5.89903 7.75829 2.17767 0.680937 3.62539 11.7286 3.17331 1.88181 0.394324 -2.24988 -2.73019 -1.12731 0.117262 0.360761 -1.96306 -1.03594 -1.93572 -0.0307617 0.107732 
-6.51443 -1.20221 -8.3545 1.65556 -1.16738 0.297844 8.41843 6.12221 7.69144 -0.895538 -6.30523 2.20769 11.672 5.62783 2.10955 0.599268 -3.66737 -3.78415 0.388277 1.00099 0.00541236 -1.06528 -0.492376 -1.18237 0.326511 0.900048 
6.06612 8.44185 -3.91259 -3.05459 -4.26441 -3.82888 8.91287 1.20613 1.64396 -1.79634 -5.06372 4.0152 12.5572 6.25351 1.73596 0.576907 -3.9032 -3.77755 1.21511 0.638388 -1.88322 -0.693865 -0.0727234 -0.411364 -0.929768 1.4808 
13.2418 4.91902 -5.47299 -8.84599 -10.0096 1.70207 9.70337 -0.813205 4.78715 0.98945 -4.99159 1.91506 16.0035 5.0493 1.07811 0.773775 -3.25623 -3.29672 2.16666 -0.633527 -1.12045 -0.497575 0.956778 1.14543 -1.52238 1.49952 
13.7593 4.79851 -5.66866 -11.0134 -13.7534 4.49683 9.52818 -0.0493629 5.7411 0.871564 -2.0327 -0.877137 16.9668 1.70733 0.0930723 -0.0554439 -0.900674 -2.02434 1.93195 -1.26348 -0.092325 0.329788 0.262114 1.24459 -1.26701 0.954139 
14.8855 6.01002 -3.60759 -10.6462 -12.9065 6.96831 4.94314 1.14769 3.15499 2.5544 -2.09357 -2.95804 16.9648 -0.0884737 1.10283 0.358705 2.09329 -0.283632 -0.252386 -1.66323 -0.275909 0.148801 -0.504842 1.1432 -0.612341 0.0176573 
13.781 8.36171 -5.1225 -6.65786 -12.9377 3.19774 4.9756 -0.235948 4.10898 -1.26825 -0.289782 0.116692 16.8473 -1.09594 0.34216 0.374625 4.61737 1.20802 -0.342045 -0.652063 -1.54198 0.761915 -0.301462 -0.624629 0.828303 -0.532754 
12.7887 8.65159 -3.95254 -0.557318 -11.8357 1.08969 3.6635 -2.09946 6.34721 -0.464856 -0.147049 -1.64357 16.1516 -2.3342 -0.359962 1.83634 6.48269 1.44372 0.0772154 0.362296 -2.87421 0.405628 -0.150764 -0.673396 1.05164 -0.706649 
9.32805 5.18853 -3.62306 7.02904 -8.24871 5.72591 6.90769 -6.1357 7.95457 0.873884 -6.12911 2.60714 14.7097 -2.43283 -0.588965 2.96651 5.76947 1.30471 1.14266 0.232014 -3.80772 -0.248997 0.745463 -0.790861 0.385617 -0.579781 
5.44092 5.7968 4.82438 14.9238 -8.03235 6.0903 5.78858 -10.2735 3.26034 0.729516 -2.54089 1.05492 14.5004 -2.1216 -0.254703 2.84518 3.65085 0.522519 0.908626 -0.236168 -2.91735 -0.228845 0.772596 -1.01809 0.56193 -0.219646 
5.29069 6.84428 5.32157 14.4489 -8.31578 6.41075 5.07313 -15.1875 4.40743 1.86188 -3.04717 0.695536 14.774 -1.12477 0.132114 1.77877 0.866502 -0.268379 -0.0336499 -1.38048 -1.75823 1.10479 0.263617 -0.380197 -0.505547 0.1507 
4.19933 6.5502 5.80105 13.987 -9.18953 5.2904 3.39994 -12.1603 6.97656 2.90413 -6.77849 2.12189 15.0212 0.219347 -0.712608 -2.13193 -3.45997 0.302569 -1.87108 -1.0598 1.12237 1.21756 -0.892622 -1.66237 -0.163999 0.412889 
4.32501 5.4724 4.78244 11.83 -9.01202 5.95762 1.1996 -13.9834 11.6204 1.10467 -5.91129 -0.454077 15.2028 1.44787 -0.905685 -3.16395 -6.25028 -0.708769 -1.25526 -1.04809 3.29667 1.1238 -2.21831 -0.743218 -0.425515 0.804207 
7.0205 2.9197 -5.56569 -1.06654 -6.17139 -3.03854 2.42633 -5.26367 5.74167 -3.35499 -9.42065 0.809734 16.3504 2.14858 -0.998497 -3.00193 -8.09605 -1.52713 1.20872 -0.839698 3.00658 -0.0392119 -3.26339 0.396194 -0.988958 1.05179 
11.1195 4.1311 -4.81479 -9.27572 -13.3687 4.29893 0.319482 -2.15252 10.6439 -6.10009 -5.44217 -0.775965 18.1304 1.66133 -0.98765 -1.61447 -7.04128 -1.74163 2.42548 -0.666641 2.60893 -1.43965 -2.8953 1.36154 -0.180759 0.959587 
11.545 2.22836 -4.40996 -15.9404 -14.6469 12.1633 -0.358493 -3.04287 7.26877 -9.81046 -5.03208 -2.66196 18.8163 0.33521 -1.07398 0.282895 -3.84544 -0.752513 3.10387 -0.562746 0.0932255 -2.13497 -1.33261 3.06582 0.228358 0.581972 
10.3694 0.87982 -3.86779 -15.9395 -13.4825 10.4841 -0.741193 -2.04915 3.65863 -10.1441 -1.29789 0.377976 18.7678 -1.11763 -1.62706 -0.173601 -1.7866 2.29681 0.112072 -0.638696 -1.2303 -4.25866 0.934053 3.14469 0.0862064 0.231781 
9.07157 -0.824541 -4.62471 -16.9619 -9.87708 9.38827 0.142931 -4.84923 -1.44056 -7.99602 3.83629 1.37456 18.9416 -1.74202 -1.7174 0.0144051 -0.00400982 3.57308 -2.16651 -2.51558 -0.950082 -2.95083 3.7239 2.17181 -1.8001 0.225267 
6.76804 -2.47777 -5.57542 -17.698 -4.26952 6.24682 -3.12471 -7.40082 -6.29476 -2.33704 5.8471 -2.36319 19.2267 -1.25257 -2.19269 0.670447 1.26103 3.70838 -2.59346 -3.6641 -0.516156 -1.4068 5.30904 0.15039 -3.7944 0.211011 
4.63558 -4.67985 -3.48412 -15.0812 -1.38794 3.44943 -11.7446 -5.11744 -2.5087 4.90552 2.25449 -10.2919 19.7132 -0.62408 -0.447885 1.93257 3.31829 2.79599 -2.58873 -2.26584 -0.201005 1.53417 3.26583 -2.91993 -4.15166 -0.176943 
6.32454 -8.15596 -1.08586 -10.5747 0.814887 0.486156 -13.1179 -4.49582 -2.84129 9.95034 0.244955 -12.7608 19.437 -1.46968 2.53916 2.41237 5.48364 2.51713 -1.06162 0.507823 1.12013 1.72464 -0.393021 -3.14691 -0.212295 -0.392249 
6.17291 -0.224872 2.79337 -3.93207 1.56065 -0.675035 -6.18965 -7.30675 4.50357 2.18943 -7.96231 -14.185 17.9517 -3.27908 3.0161 1.7151 5.85145 3.14893 1.63693 3.85618 2.86853 1.16888 -3.67779 -1.58166 3.31295 -0.257421 
-1.34901 7.99053 3.3477 4.1456 6.84184 3.00095 -3.36308 -0.705523 -1.17768 -2.94411 -4.77903 -1.47814 18.1462 -5.32799 2.41436 0.0219771 3.75686 2.31509 1.67492 4.29794 2.90903 1.00104 -2.91322 0.0695535 4.18524 -0.0300871 
-7.92303 2.32742 2.87458 6.81593 11.3432 10.3767 2.65885 7.33008 2.50391 -7.03619 -3.1418 0.631535 19.0715 -5.4725 -0.0192308 -1.02317 1.49985 1.09313 2.10225 3.89652 2.64349 -1.21813 -0.737081 0.851071 3.45633 0.244076 
-13.2675 2.63969 -1.01658 2.8356 7.49906 3.3349 3.94756 2.7309 3.16374 -0.00295067 -1.81754 0.757154 18.7267 -3.79871 -1.20814 -0.897296 -0.239375 -0.588479 0.56203 2.47519 0.798316 0.203844 1.83447 -0.194244 1.39919 0.143971 
-15.2304 2.3544 -0.140344 4.22219 6.69771 9.66923 9.63761 4.19251 -3.75779 -2.96655 -5.18771 1.97905 18.8819 -2.16414 -0.313842 -1.54557 -0.453563 -0.874506 -0.113481 1.84417 -0.249055 -0.661516 1.64152 -0.520298 0.962633 0.0339317 
-16.6889 1.93632 0.36868 4.24559 6.22222 6.16482 5.5235 4.85484 2.97238 4.19341 -4.72729 4.84406 18.9609 -0.927251 -0.829215 -0.740794 0.230442 0.521612 0.682363 0.288779 -0.198869 -1.01171 1.44716 0.299045 -0.440321 0.112928 
-17.033 1.10989 -5.54589 3.84312 7.60914 8.39431 11.0917 5.02283 -0.707992 -0.926762 -4.28841 3.40125 19.1241 -0.00802631 -0.632099 -0.625524 -0.484702 -0.543567 -1.32494 -1.43312 -0.448846 0.488389 2.62855 1.56759 0.800774 -0.0916487 
-17.0024 -0.884137 -2.01777 4.17735 9.6514 7.38417 4.66441 1.3214 -3.41971 6.21294 -0.771961 -2.15555 19.1702 0.753148 0.546501 -0.361825 -0.559934 -0.505213 -0.53698 -1.06876 -0.306989 -0.285131 2.20581 1.44106 0.191037 -0.240368 
-15.1138 0.604133 -2.07474 1.8328 2.26528 2.43486 2.90157 3.715 1.8802 9.16642 0.672577 9.48272 18.3189 2.94749 1.67771 1.69795 0.506713 -1.65144 -3.18684 -2.88458 -1.56017 -0.951237 -0.989056 -1.45853 -0.856951 -0.489029 
-13.8828 4.9217 -3.17602 2.45108 6.36808 6.45965 4.27479 3.97381 0.252628 10.1758 -0.00250778 2.75851 18.1616 4.72857 -0.0476535 3.39354 0.0547838 -3.40548 -4.33961 -5.50046 -0.443463 -2.61406 -4.95824 -3.07263 -2.60357 -0.0891609 
-3.85534 6.59554 3.52296 7.23982 0.993623 -7.07764 -3.13636 -4.10424 -7.30034 -7.85349 -11.9658 -3.34054 17.1833 4.53186 -1.89183 4.47326 -0.265863 -3.37353 -3.87921 -6.61217 0.261238 -3.83576 -5.49737 -1.95178 -3.84537 0.384139 
1.01124 -4.11811 12.1511 1.74776 -6.74017 -9.55763 -19.8189 3.0137 -11.8997 -10.0683 -9.81596 -8.76178 19.2922 3.41065 -3.25611 3.9199 -0.703174 -3.74718 -3.62953 -5.98315 1.52783 -2.69559 -4.43767 0.527801 -1.18699 0.559737 
0.0985298 -4.3351 12.628 0.855146 -8.04824 -8.95256 -18.1124 5.50125 -11.2224 -8.19835 -4.1796 -3.98397 19.6743 1.69431 -3.05499 1.91173 -0.647494 -1.01806 -1.24815 -2.2769 2.57407 -0.0581196 -1.33905 3.8955 0.520281 0.400924 
1.19355 -5.89355 11.871 2.12754 -7.84687 -10.7506 -18.1529 6.81021 -11.2643 -11.8401 -1.25659 -2.85472 19.7148 1.11015 -0.149531 -0.87866 1.84669 1.91261 -0.399337 2.36251 1.21971 1.41537 -0.660661 2.83986 1.1078 -0.795943 
4.52508 -7.79169 13.2217 3.81246 -3.54333 -12.7219 -15.3539 6.86787 -7.90866 -13.6628 3.23205 -3.69266 18.9766 1.11726 1.39118 -1.98953 3.68312 2.50637 1.42852 4.21223 -2.02222 2.73302 1.19034 -0.295032 0.00629559 -1.56433 
4.3487 -3.13747 7.46096 9.50258 0.570404 -9.66964 -9.38564 8.42892 -6.47976 -10.6394 0.677545 -3.36844 15.6614 0.836593 1.02191 -2.89131 2.23596 1.24007 2.63851 3.28194 -4.12322 4.33465 2.96522 -1.12327 0.0857469 -0.971608 
4.10726 1.24275 4.88534 15.5832 0.274988 -2.35042 -1.43492 -5.41923 0.0504375 -2.84703 -6.62183 -3.69564 13.8794 1.30401 -0.984714 -3.17268 -1.58734 -0.0870953 3.064 -0.425729 -3.48488 3.35673 3.19196 0.423672 -0.0552462 0.211835 
5.58542 -5.3012 1.58259 7.42197 -3.55568 -2.74373 -8.70268 -7.66232 6.42946 -2.4219 -1.94602 -2.4245 17.4053 2.27073 -3.3067 -2.20732 -5.48285 -0.32842 2.33492 -3.41084 -1.57535 1.49013 1.84189 4.04084 -0.780926 1.33127 
10.4268 -11.6334 0.297435 -3.08394 -1.91576 -0.864869 -17.824 -2.51092 2.42037 -1.81178 6.66219 -4.44086 19.1638 2.44473 -3.08213 -2.1552 -6.42073 0.0753664 1.41682 -2.7933 1.62925 -1.27519 -0.680732 6.64677 -1.12886 1.34591 
12.5426 -13.2329 -1.28171 -8.57808 0.0236764 1.26217 -18.2453 -0.902004 -0.214091 -1.94755 14.2397 -6.90045 19.6755 1.66735 -0.287045 -2.41925 -4.08635 0.187064 1.71816 1.46373 1.06021 -2.75557 -1.26864 5.4843 -0.812234 0.485631 
12.8523 -10.202 -4.4585 -8.5204 -1.13786 2.73075 -10.6301 -0.653158 -3.00375 -6.48786 18.5192 -7.10196 19.4738 0.527076 1.76522 -2.38015 -1.58656 -0.906577 1.33596 4.80493 -0.344393 -1.99132 -1.15255 3.13073 0.328923 0.0886894 
12.7094 -7.4521 -8.13571 -10.2916 -3.00931 4.04926 -4.98099 -3.29018 -4.63635 -6.42705 19.547 -5.15512 19.6785 0.157776 1.96571 -1.88701 -0.689899 -1.65766 0.625712 4.68896 -1.23607 -1.35259 -0.454096 0.61613 0.952164 -0.0241337 
12.9788 -5.6977 -8.1763 -10.16 -4.93216 4.42139 -0.431525 -3.0388 -5.3251 -5.33477 19.6622 -3.66891 19.6058 0.177213 1.19021 -0.815451 -0.910856 -0.804693 -0.494784 2.94602 -1.41128 -1.04242 1.05271 -1.01123 1.41934 -0.00837364 
13.2683 -5.65652 -8.85785 -11.2078 -6.36749 3.54541 0.100231 -5.88952 -5.81635 -4.79458 16.7488 -3.85616 19.4889 0.027638 0.455869 -0.0356551 -0.357568 0.792427 -1.5231 1.08955 -0.893044 -0.630552 1.70398 -0.936923 1.00237 -0.0425056 
13.4589 -5.14878 -8.17468 -12.6166 -3.48223 0.50875 1.55938 -6.40987 -7.62583 -2.04053 14.8621 -0.654745 19.5268 -0.272532 0.00792713 0.686008 0.0729498 1.90265 -2.14099 -0.670939 -0.395047 -0.09044 2.07829 -0.196115 0.344269 -0.0428257 
12.6075 -5.44721 -8.31479 -10.8511 0.227864 -1.60993 -0.528687 -6.06986 -6.63874 0.445731 17.2624 -1.65037 19.5054 -0.527712 -0.333055 1.45447 0.876825 2.51244 -2.07547 -2.61992 0.371684 0.740292 2.51679 0.124544 0.382955 -0.0406473 
11.9465 -5.76272 -5.01779 -9.97359 1.28341 -3.70587 -3.47176 -4.92387 -5.36611 2.43653 18.4248 -3.05046 19.3833 -0.818193 -0.488216 2.50082 1.62923 1.68308 -1.93186 -4.14689 1.42816 1.21383 2.73776 -1.77263 0.139589 -0.100301 
11.3859 -7.01483 -3.16393 -8.14514 3.8119 -4.72466 -10.4838 -4.77411 -3.24476 5.55085 15.5902 -0.743526 19.3573 -1.06453 -0.46646 3.79666 2.31419 -0.26807 -1.91829 -3.84719 2.48665 0.000980282 2.37765 -3.50669 0.974715 -0.109852 
9.97874 -6.80605 1.75397 -5.82342 3.14114 -7.59316 -14.1975 0.0830597 -3.25367 9.09572 6.83506 -0.410223 19.0993 -1.74201 -0.0393965 4.7641 3.03306 -2.06222 -1.99901 -1.39084 3.18444 -2.27344 0.176011 -3.43455 2.29433 -0.0103607 
8.2687 -7.25785 7.28262 -1.35527 -2.04135 -9.25775 -14.4018 3.85993 -7.69006 9.00437 5.52389 1.90308 19.0982 -2.1263 0.313655 6.39371 2.53999 -3.07342 -1.21024 1.15091 3.10946 -4.48197 -1.6159 -3.2597 2.4258 0.0657185 
4.79506 -5.83819 13.5794 1.79677 -6.10104 -11.4343 -8.46699 6.68131 -14.5107 1.58983 6.28523 7.09789 19.4611 -2.17865 1.40258 6.68498 1.19319 -2.46133 0.444513 2.41482 0.979295 -3.65597 -2.91799 -2.41313 2.49812 -0.0696144 
3.34626 -5.93048 22.8919 0.744738 -6.93409 -8.85529 -7.59452 7.47405 -20.0261 1.22431 -0.433402 7.63142 19.505 -1.88293 3.495 4.45497 -0.0500827 0.000586891 1.77359 2.48753 -1.94426 -0.429706 -2.64774 -2.85697 1.85562 -0.611303 
1.54672 -0.456849 27.3743 -0.907468 -6.71912 -5.57184 -5.52703 3.17247 -15.3655 -1.6042 -2.25196 9.2162 18.5478 -1.38926 3.33677 1.9118 -0.514951 2.67487 2.4791 0.870832 -1.55957 2.64606 -1.43721 -1.66598 -0.571804 -0.83344 
0.47823 7.52648 22.6601 -0.253567 -1.72938 -3.32107 -3.43409 -4.10696 -9.41119 -2.63734 -4.49236 10.122 16.4983 -1.48756 2.52195 -0.215057 -0.651556 3.0425 1.60725 -0.466977 -0.323278 2.00132 -1.61408 -0.0311305 -1.9441 -0.646546 
-0.717249 4.11717 23.2544 -0.278831 4.67097 -1.80598 -6.19304 4.67397 -6.58784 -3.66541 -0.0152105 2.99357 16.7973 -1.00685 0.929274 -1.43595 -0.461351 2.93293 0.436848 -1.18606 2.02627 0.784641 -1.41871 -0.862863 -3.757 -0.475466 
-2.95956 4.39225 23.8765 -2.82736 2.58335 -2.70199 -9.5964 5.10691 -14.4083 -5.8155 -1.70743 1.02224 17.1476 -1.47483 0.18416 -1.06773 -0.251071 2.56756 -0.0548259 0.273959 1.97238 -1.35958 -1.45013 -1.66371 -2.54269 -0.129158 
-1.76865 5.75664 19.5863 -1.92733 5.78916 -3.69713 -8.37617 8.69687 -8.9437 -7.10868 -7.95875 -5.01892 15.8459 -1.5563 0.97541 -1.92956 0.53931 2.1715 -1.04996 0.191427 -1.82461 -1.34758 -0.505809 -2.83296 -1.2046 -0.381641 
-6.37024 7.62754 19.1555 -0.684675 10.5493 -2.64962 -0.97273 3.74348 -15.0311 -8.16635 -8.83917 1.41485 16.3282 -0.484975 1.3156 -2.00429 2.12054 2.07322 0.281717 0.811939 -1.65606 0.411187 0.750476 -0.972712 -1.57394 -0.637825 
-6.79343 7.37657 15.9671 1.34638 11.5455 -7.08198 -9.54774 -3.76736 -13.0144 -5.01903 -10.6141 -3.22573 15.2987 -0.410428 0.0784639 -2.01667 1.29944 1.53985 1.26988 0.8267 -1.46938 1.21852 2.27268 -0.212699 -0.559053 -0.418359 
-2.87205 10.1603 15.6646 6.13848 10.0713 0.399024 -4.95091 3.05873 -10.3171 -3.10795 -5.24331 -7.74408 14.232 0.901752 -0.0499294 -2.61512 1.7954 0.965638 -0.00152538 0.335324 -0.967261 1.62857 2.4821 0.259298 -0.616244 -0.624624 
-5.56989 4.8826 11.2483 1.15828 13.7274 1.12793 -2.25358 1.69235 -5.20813 1.72551 -10.8202 -3.23472 14.8022 0.885397 -0.0446107 -2.84312 1.51447 0.577597 0.0799414 1.56376 -0.931898 0.416031 0.896616 0.991267 0.800857 -0.636048 
-2.47325 8.62488 8.43925 8.38637 14.2865 -6.7622 -2.94319 -3.82268 -10.7914 0.871894 -7.43965 -1.66188 13.4534 -0.530203 -1.49994 -5.09849 -0.072093 -0.446651 -0.130548 1.89537 -0.940997 2.07027 -0.0274069 0.786212 1.54903 -0.735705 
-2.56584 7.9212 5.36419 7.79479 12.3258 -3.10166 -2.7328 -4.98615 -10.697 -2.52587 -4.55961 -2.26254 12.5078 -0.938747 -1.9715 -5.62588 -1.19874 -2.38884 1.10788 3.43494 0.800362 2.85177 0.219381 2.87804 0.664666 -0.786001 
-7.02509 1.14124 -6.88572 2.45976 8.5388 1.86108 4.76556 1.69299 2.77869 -1.11929 -4.44253 -0.485038 11.7007 -1.28533 -2.6422 -4.95314 -2.23822 -3.28436 1.54418 4.72444 2.50783 4.67792 1.93238 2.73392 1.44526 -0.450226 
-7.98771 -1.23306 -9.21861 -1.87209 4.65706 2.35571 11.0667 2.93632 2.26565 3.81801 2.07147 -0.499812 11.7485 -0.77198 -2.09307 -2.95332 -1.25043 -2.50227 0.507689 3.09954 1.49573 4.57322 2.40036 1.87625 1.41495 -0.263621 
-6.18895 -0.00898767 -9.03505 2.02871 1.69911 -1.77 13.7792 4.75523 6.11686 7.36184 2.91443 4.68305 11.5819 0.217711 -0.629211 0.0742296 0.341618 -1.92134 -1.75793 -0.874963 -0.81446 1.65811 1.40323 0.320349 1.67659 -0.110482 
-6.84381 -1.96901 -8.32777 1.75817 3.23433 1.25232 8.25808 0.961397 10.5 5.23536 1.14314 2.22816 11.2491 -0.0833418 -0.131261 0.734188 0.361409 -0.558141 -0.681808 -1.83228 -0.973802 1.5008 -0.447673 -1.94448 1.04627 -0.0615772 
-6.50848 -1.63683 -6.95999 2.35272 -0.356509 -6.37686 1.79508 -1.39185 6.95205 5.1882 -2.37662 6.53392 11.398 -0.675098 -0.48684 0.457362 0.316993 0.766367 1.03667 -0.750142 -0.266177 0.189999 -0.437389 -1.09516 -0.997418 0.0170271 
-8.24465 -1.07544 -6.58519 -0.227049 2.89416 1.2501 7.89741 1.14085 9.35205 2.66646 -5.0054 3.80612 11.5326 -0.175334 -0.00456486 -0.369618 0.508483 0.212676 0.16502 0.426607 0.701288 -0.285566 -0.598566 -0.437126 0.00215548 0.0418934 
-8.86402 -2.88998 -7.61952 4.60629 5.70102 3.41447 10.2089 3.33462 7.64082 6.45935 0.512897 -1.09302 11.5253 -0.0063282 0.192585 -0.750001 0.908064 0.454289 0.580907 1.31559 1.59121 0.842917 -0.186017 0.213004 -0.526474 -0.054661 
-6.54271 -1.36527 -9.84609 3.1738 1.26894 -2.81824 6.18422 2.1046 8.72778 1.60696 -2.48725 6.0524 11.3949 0.540592 0.273055 -0.214605 1.26612 -0.582156 -1.09789 0.331289 0.41903 -0.366378 -0.355925 0.709808 0.739412 -0.0712107 
-7.39109 -0.528998 -9.07954 5.19262 2.72755 -1.43816 9.22963 6.08231 11.4788 4.78786 -2.57067 2.77841 11.1935 0.849004 0.548544 0.336731 0.222837 -0.581351 -0.920457 -0.827696 -0.0797915 -0.878883 -1.17582 -0.259192 1.37508 -0.0328623 
-6.27815 -0.890654 -6.92821 5.81041 1.47012 -1.81305 10.0435 1.86215 5.60119 1.72258 0.0854219 5.56746 11.3424 0.227488 -0.334001 0.596405 -0.407539 -0.561186 0.298175 -1.00287 -0.892468 -1.63872 -1.29288 -0.581388 -1.28891 -0.015719 
-4.75128 -0.384561 -7.39481 4.40217 2.69368 -1.69041 4.14075 3.05688 4.8097 0.522415 -2.0694 6.02483 11.3872 0.267664 -0.389792 0.226778 -0.764118 0.180685 0.456138 -1.86103 -1.3493 -0.582814 -0.561986 -0.231063 -1.92662 0.00890045 
-6.72518 -3.10749 -7.70643 1.53133 -1.52006 -1.20124 3.71434 -0.845028 3.86872 -2.72471 -5.64483 -2.01535 11.2195 -0.377988 -0.0781983 -0.249069 -0.457287 0.514329 -0.0232034 -1.60179 -1.47175 0.148372 1.52349 0.372228 -1.19621 0.00164957 
-5.82926 -1.36954 -7.55654 3.51157 5.12606 0.536624 3.08905 0.689399 9.43093 4.20158 -0.860861 -3.06329 11.2995 -0.561648 0.0724046 -0.0297547 0.65945 0.332788 -0.460797 0.591884 -1.5757 -1.16114 1.45232 1.33314 0.685585 0.0283195 
-7.6291 -0.789156 -8.09269 3.96927 2.82558 -3.04259 2.56038 -4.31285 4.03244 7.50043 1.34229 4.13048 11.3945 -0.0833771 0.366322 0.355345 1.26271 0.920862 -0.0114251 1.25824 0.333743 -0.181099 1.28534 1.04002 1.52703 0.0427594 
-7.10756 -1.1817 -7.35046 6.48045 2.1848 -3.07372 7.67715 -3.08769 -1.07785 2.67143 1.10272 6.37984 11.4413 -0.0221128 -0.0581145 0.510751 0.808887 0.0586953 0.360977 1.4396 1.10707 0.175856 -0.250242 -0.390016 0.469078 0.00935736 
-6.50292 -1.36979 -6.03275 6.36043 4.55488 0.546811 7.7115 2.71223 8.21762 4.46706 -1.42653 0.898228 11.3624 0.285701 -0.134936 0.543758 0.466229 0.582869 1.07993 1.03366 1.98501 1.76658 -0.427112 -0.80669 -1.19461 -0.01432 
